NUMERO_POLICE;ADRESSE;NOM;TELEPHONE_PAYEUR;CODE_AGENCE;NUMERO_DE_COMPTE;LIBELLE_REJET;DATE_NAISSANCE
76082135;(non communiquée);M.  ADEPO JACQUES KASSI;02911848;12276;07635000115;Compte inexistant;11/2/1975
76097533;01 BP 1274 ABIDJAN 01;M. SAWADOGO MAHAMADOU;03745446;14284;02435130250;Compte inexistant;7/28/1969
76109411;(non communiquée);M. YAO MATHURIN KOUADIO;02802142;01230;02849940250;Compte inexistant;5/11/1984
76101833;(non communiquée);M. OBLOU EMMANUEL EDMOND NEBOUT;07164776;01221;02600440250;Compte inexistant;6/28/1974
76087217;01 BP 1274 ABIDJAN 01;M. TANOUS RAINIER;08383230;01259;02243140250;Compte inexistant;9/13/1965
76101078;01 BP 8069 ABIDJAN 01;M. KOUAME KONAN CYRILLE  TANGUY;07040233;01257;05735000133;Compte inexistant;8/3/1988
76101764;(non communiquée);M. OI EHOUMAN HERMANN KOYE ;03289010;01288;02248010130;Compte inexistant;9/24/1987
76099144;(non communiquée);M. BASILE TAPE;05930663;01294;02459730250;Compte inexistant;9/16/1975
76087956;(non communiquée);M.  FOUNYATON YEO ;03695784;01283;04814240250;Compte inexistant;6/13/1981
76098036;01 BP 1274 ABIDJAN 01;M. SAWADOGO MAHAMADOU;03745446;14284;02435130250;Compte inexistant;7/28/1969
76103806;(non communiquée);M. KOFFI DONATIEN  TANOH;04434181;01294;02620280250;Compte inexistant;1/1/1987
76081088;(non communiquée);M.  SALIMATA OUATTARA;07829911;01218;01835003892;Compte inexistant;9/9/1953
76100570;(non communiquée);M. STEPHANE ANDY KOUADIO;03835333;01257;05735000946;Compte inexistant;12/24/1967
76097392;14 BP 993 ABIDJAN 14;M. ALIKO KOUASSI;09896364;01221;02416390250;Compte inexistant;1/1/1982
76109967;(non communiquée);MLE MARIAM BAMBA;03692108;01297;02883600250;Compte inexistant;1/1/1981
76111153;(non communiquée);M. NANOSSE FOFANA;08249639;01294;03033690250;Compte inexistant;12/24/1983
76106936;01 BP 1274 ABIDJAN 01;M. IRIE BI TRA JEANNOT STEPHANE;09441533;19245;02104080250;Compte inexistant;6/30/1977
76105927;01 BP 1274 ABIDJAN 01;MLE KOUADIO KPOLLO CLAUDIA;07146902;02232;02559490250;Compte inexistant;9/11/1985
76079487;NC;M. SEYDOU YEO LUC;07205532;01225;02535024124;Compte inexistant;2/25/1961
76104594;(non communiquée);M. KOUADIO CHAIBOU MOUTAR;07294476;01294;02673160250;Compte inexistant;12/25/1979
76085697;(non communiquée);M. KONATE SITAFA;07470634;08234;03435043541;Compte inexistant;1/1/1972
76076846;01 BP 1274 ABIDJAN 01;M. BAGRE LANDAOGO;07957015;20289;08935000882;Compte inexistant;1/1/1960
76110961;(non communiquée);M. BAN SERAPHIN SEHI;05629371;01225;03030290250;Compte inexistant;7/3/1978
76058839;BP 17 SINFRA;M. LAMBERT KOUAME KOFFI;05833699;10237;04435051597;Compte inexistant;9/5/1962
76038765;08 BP 580 ABIDJAN 08;M. KONAN JHON-PERSE KOUAKOU;07737066;01259;05935000206;Compte inexistant;12/28/1980
76072943;NON COMMUNIQUE;M. OUEDRAOGO MADI;06078291;09251;05766830250;Compte inexistant;11/26/1979
76110362;(non communiquée);M. LASME AIME CESAR GNAGNE;04944743;30268;02897800250;Compte inexistant;10/10/1977
76093402;01 BP 1274 ABIDJAN 01;MLE NIAHOUA OUAGO LYDIE;08557822;01259;02334960250;Compte inexistant;8/2/1980
76062533;BP 316 SINFRA;M. N'GUESSAN KONAN RENE;07611957;10237;03735008161;Compte inexistant;10/19/1960
76114190;(non communiquée);M.  KAN FERDINAND KOFFI;04566571;01297;03154450250;Compte inexistant;12/30/1991
76110784;(non communiquée);M. NAYET BALAGHI;09707025;01282;03006280250;Compte inexistant;1/1/1988
76083551;(non communiquée);M.  N'DRI RICHARD N'GOUANDI;01446877;05249;04935114262;Compte inexistant;12/24/1984
76112399;(non communiquée);M. MABEA GEORGES KIAN;06563184;07255;05535000398;Compte inexistant;1/1/1959
76081232;(non communiquée);M.  KARAMOKOBA MOHAMED CHERIF;08095698;04248;05648410250;Compte inexistant;12/28/1995
76094249;NC;M. BAKI KORBIE;03270038;01262;02350960250;Compte inexistant;1/1/1954
76109905;(non communiquée);M. FALIKOU AZIZ BAMBA;08115381;01230;02873740250;Compte inexistant;1/23/1998
76110968;(non communiquée);MLE MEKAPIEU PELAGIE TIEFFI;06783075;01230;03030190250;Compte inexistant;3/27/1977
76085731;(non communiquée);M.  ABOUBAKAR SIDIKI SOUMAHORO;09606087;04248;04835054057;Compte inexistant;9/9/1983
76103903;(non communiquée);M. BAKOUMIA FONGBE ;09689748;02232;02646330250;Compte inexistant;1/1/1982
76078103;09 BP 2408 ABIDJAN 09;M. CISSE IBRAHIMA;07073527;01269;06935000901;Compte inexistant;7/2/1975
76093867;01  BP 1274 ABIDJAN 01;M. NEKAN GONI JEAN YVES;09520761;22206;02204200250;Compte inexistant;10/4/1987
76106033;(non communiquée);M. CYRILLE HERBERT ALEBY;05791967;01221;02699320250;Compte inexistant;3/20/1981
76035794;BP 2617 DALOA;M. DJE KOUASSI JEAN CLAUDE;07090835;08234;03436020945;Compte inexistant;6/4/1962
76056372;08 BP 1605 ABIDJAN 08;M. ZALLO AMAGNIN OLIVIER EVARISTE;07939416;01218;01835002549;Compte inexistant;10/13/1969
76079496;NC;M. SEYDOU YEO LUC;07205532;01225;02535024124;Compte inexistant;2/25/1961
76111266;(non communiquée);M. BI BOLI ISIDORE YOUAN;07582600;28295;03039510250;Compte inexistant;12/29/1993
76114316;(non communiquée);MLE ABY KEITA;05885598;01297;03158740250;Compte inexistant;12/16/1981
76089153;08 BP 1683 ABIDJAN 08;Mle NEINTEH MEL N'DJESSA VANESSA;03079171;01218;01835002721;Compte inexistant;4/13/1983
76106091;(non communiquée);M. ABEL GUEI ;03818700;01230;03035093401;Compte inexistant;8/6/1958
76111336;(non communiquée);M. YEMBILA MATHIAS BERE;09330984;30268;03061390250;Compte inexistant;1/1/1961
76104846;01 BP 1274 ABIDJAN 01;M. KONE SEDAN;05380779;22206;02532730250;Compte inexistant;11/18/1979
76077120;01 BP 1274 ABJ 01;M. TOURE AMARA;07104571;01226;02635067701;Compte inexistant;10/12/1981
76087353;BP 226 CIDEX 01 ABIDJAN 06;MLE BEDIAKON KOSSUA TAMIA MARIE-ROSE;08201647;01217;02211890250;Compte inexistant;2/24/1990
76113414;(non communiquée);M. MOUSSA SANGARE;05276485;07255;05535000367;Compte inexistant;1/1/1982
76077949;LYCEE LAMARTINE  08 BP 1317 ABIDJAN 08  COTE D'IVOIRE;M. AHIPEAUD FRANCIS DIEUDONNE;06383678;01228;02835061518;Compte inexistant;3/18/1975
76080635;01 BP 1274 ABIDJAN 01;M. KOUADIO  ETIENNE;04627885;01221;02136001103;Compte inexistant;12/26/1966
76097376;01 BP 1274 ABIDJAN 01;M. LADJI  TOURE;05450870;01221;02413610250;Compte inexistant;4/22/1968
76109246;(non communiquée);M. ADAMA TRAORE;08742073;01283;02823560250;Compte inexistant;5/7/1965
76104156;(non communiquée);M. SIRIKI SORO;03209505;01224;02529950250;Compte inexistant;5/3/1987
76112585;(non communiquée);M. ASSANATOU KONATE;05793548;01297;03096110250;Compte inexistant;9/27/1989
76112868;(non communiquée);M. LOUET JEAN-CLAUDE ZAGOTE;08509013;01262;03011120250;Compte inexistant;12/24/1966
76083982;01 BP 1274 ABIDJAN 01;M. OUEDRAOGO  POGOYANGA SOMAILA;07242658;35247;04735000008;Compte inexistant;1/1/1970
76078948;01 BP 1274  ABIDJAN 01;M. AUBIN KONAN KOUADIO;05760244;01226;02635067674;Compte inexistant;3/1/1973
76108895;(non communiquée);MLE MAIMOUNA COULIBALY;06160560;01297;02823170250;Compte inexistant;5/2/1978
76078141;01 BP 1274 ABIDJAN 01;M. MENE KOFFI MARTIAL;05884418;14284;08435000151;Compte inexistant;7/12/1986
76064454;01 BP 1751 ABIDJAN 01;M. YEBOUE KOFFI ANSELME;07639173;01282;08235000221;Compte inexistant;9/11/1977
76100790;08 BP 2875 ABIDJAN 08;Mle KASSON ESTELLE NINA;06604375;01278;02471280250;Compte inexistant;5/11/1978
76107175;BP 54 KOTOBI;M. N'GORAN EHOUMAN;07575524;18242;04236006312;Compte inexistant;1/1/1963
76087177;(non communiquée);M.  BEH SORO;02573333;35247;04735000024;Compte inexistant;1/1/1979
76080340;BP 1034 ABOISSO;M. KEDJA AKA JEAN CLEMENT;09113434;12276;07635000167;Compte inexistant;4/17/1975
76088186;01 BP 1274 ABIDJAN 01;M. SORO TEPI;09301714;38293;02160670250;Compte inexistant;12/26/1987
76100174;(non communiquée);MLE BINTYA DIABATE;04059026;01217;02569050250;Compte inexistant;10/4/1988
76089685;01 BP 1274 ABIDJAN 01;M. SAWADOGO SALFO;09181830;20289;08935000410;Compte inexistant;1/1/1969
76102636;(non communiquée);M. HAMIDOU MALLE;05207334;01230;02624810250;Compte inexistant;6/11/1974
76085698;(non communiquée);M. KONATE SITAFA;07470634;08234;03435043541;Compte inexistant;1/1/1972
76092450;01 BP 1274 ABIDJAN 01;M. KONAN  KOUAME SYLVESTRE;08595774;01294;02277030250;Compte inexistant;2/19/1994
76098969;(non communiquée);M. SIE BERTRAND KAM;08448698;01350;02437700250;Compte inexistant;9/6/1975
76086444;01 BP 1274 ABIDJAN 01;M. FOFANA  YSSOUF VASSOUKOU;07365317;01269;02147400250;Compte inexistant;4/7/1989
76094227;(non communiquée);M.  KOUAME ISAAC BROU;06796079;01262;02351880250;Compte inexistant;10/5/1987
76112289;(non communiquée);M. PAUL RENE ADOU ;01960038;01221;03038210250;Compte inexistant;1/4/1984
76106925;BP 179 TOUBA;M. SOUMAHORO ADAMA;08236890;03246;02542800250;Compte inexistant;3/15/1972
76111808;(non communiquée);M. BANGHALY KONE;09179292;01297;03114450250;Compte inexistant;2/28/1993
76071520;01 BP 1274 ABIDJAN 01;M. BLA N'GUESSAN KOUASSI D.;07099182;01262;06235000442;Compte inexistant;8/4/1986
76099199;(non communiquée);M. EVARISTE KENNEDY  N'TAKPE;07398950;45275;02372010250;Compte inexistant;10/31/1965
76075398;NON COMMUNIQUE;M. ABSOUS MOLOKO MARC ANTOINE;08507178;01218;01835003337;Compte inexistant;4/14/1987
76108944;(non communiquée);M. ADAMA ILBOUDO;03762926;01297;02820230250;Compte inexistant;1/1/1959
76103102;(non communiquée);M.  KARAMOKOBA MOHAMED CHERIF;08095698;04248;05648410250;Compte inexistant;12/28/1995
76074395;NON COMMUNIQUE;M. CHERIF KARAMOKOBA MOHAMED;08095698;04248;05648410250;Compte inexistant;12/28/1995
76036955;09 BP 1151 ABIDJAN 09;Mle DEBEY ALLEGUY LINDA CAROLE;07702806;01259;05935000144;Compte inexistant;4/1/1978
76058784;01 BP 1274 ABIDJAN 01;Mle MATILDE CARINE KOUAMELAN;07367736;20289;08935000079;Compte inexistant;3/12/1982
76098753;(non communiquée);M. BLAHOUA N'DRI ANTOINE;07991448;01217;01735001682;Compte inexistant;12/13/1969
76109605;(non communiquée);M. GUY LANDRY KOUDOU;09329437;01282;02728180250;Compte inexistant;8/11/1978
76072222;BP 972 ANYAMA;M. NIAMKE NIAMKE JEAN JACQUES;09411180;01221;02135018098;Compte inexistant;11/13/1972
76108426;(non communiquée);M. ALI GUEBRE;08742317;14284;08435000145;Compte inexistant;3/8/1976
76101082;01 BP 8069 ABIDJAN 01;M. KOUAME KONAN CYRILLE  TANGUY;07040233;01257;05735000133;Compte inexistant;8/3/1988
76111144;(non communiquée);M. SIAKA SOUMAHORO;09911171;32340;03033930250;Compte inexistant;3/20/1979
76096424;08 BP 3240 ABIDJAN 08;MLE BAIDOUN ANDY;07213080;01265;02397760250;Compte inexistant;7/2/1977
76085456;(non communiquée);M.  BAMELA LAURENT BATIONO ;07347580;01225;02535025242;Compte inexistant;12/12/1964
76062532;BP 316 SINFRA;M. N'GUESSAN KONAN RENE;07611957;10237;03735008161;Compte inexistant;10/19/1960
76038766;08 BP 580 ABIDJAN 08;M. KONAN JHON-PERSE KOUAKOU;07737066;01259;05935000206;Compte inexistant;12/28/1980
76071308;BP 63 DUEKOUE;M. ZOROM MOUMOUNI;08357326;43296;09635000222;Compte inexistant;1/1/1973
76087783;(non communiquée);M.  MPIE SANGARE;01010101;31254;05435000577;Compte inexistant;1/1/1950
76103016;(non communiquée);M. KPAMISSA LEMUEL-ANGE YOKOI;01594966;01274;02632450250;Compte inexistant;6/16/1994
76107174;BP 54 KOTOBI;M. N'GORAN EHOUMAN;07575524;18242;04236006312;Compte inexistant;1/1/1963
76103099;01 BP 1274 ABIDJAN 01;M. KOFFI KONAN ARNAUD DUVAL;07563607;04248;02560370250;Compte inexistant;8/15/1990
76086215;(non communiquée);MLE CAMILLE TRIKA ELODIE LEPREGNON;09920691;01209;02025390250;Compte inexistant;9/9/1988
76110066;(non communiquée);MME RAWANDE ZAHER;06739180;01282;02885230250;Compte inexistant;10/3/1980
76060079;01 BP 1298 ABIDJAN 01;Mle KONAN AYA HUGUETTE MARCELLE;08456262;01283;08335000783;Compte inexistant;11/18/1988
76109678;01 BP 5033 ABIDJAN 01;M. KOFFI FULGENCE PACOME KONAN;05148406;01297;02836880250;Compte inexistant;12/26/1989
76103098;01 BP 1274 ABIDJAN 01;M. KOFFI KONAN ARNAUD DUVAL;07563607;04248;02560370250;Compte inexistant;8/15/1990
76077126;19 BP 934 ABIDJAN 19;Mle HADDAD ROSE LISETTE;07677792;01226;02635066555;Compte inexistant;5/31/1971
76064920;13 BP 129 ABIDJAN 13;M. DIALLO YAYA;07152500;01297;09735000007;Compte inexistant;1/1/1948
76110839;(non communiquée);MLE ANGAMAN ABLAN MAREI LAUR AMALAMAN;04948902;01222;02921500250;Compte inexistant;4/5/1980
76106950;01 BP 1274 ABIDJAN 01;M. YOBOUE KOUAKOU;09973282;20289;02517880250;Compte inexistant;1/1/1942
76061450;BP503DABOU;M. YOBOUET GNAGNE ROLAND;05187452;30268;06835000357;Compte inexistant;6/30/1985
76111003;(non communiquée);M. AROUNA TRAORE;06229820;01297;03027120250;Compte inexistant;1/18/1997
76112384;(non communiquée);M. BONNAKIN ARNAUD CEDRIC DOUOLE;02843118;14284;02587280250;Compte inexistant;12/27/1992
76095176;NC;M. SANGARE INZA;07855100;01220;03646450250;Compte inexistant;2/6/1974
76109600;(non communiquée);M. KOUAME JEROME KASSI;02686709;01230;02839850250;Compte inexistant;4/15/1979
76105781;01 BP 1274 ABIDJAN 01;M. KONAN N'DA FRANCIS;07149595;22206;02549050250;Compte inexistant;1/1/1978
76088062;(non communiquée);M.  SITAFA KONATE;07470634;08234;03435043541;Compte inexistant;1/1/1972
76105776;01 BP 1274 ABIDJAN 01;M. COULIBALY YOUSSOUF;05802871;22206;02547950250;Compte inexistant;3/25/1975
76110138;(non communiquée);M. MAMOUTOU TOURE;04114796;01297;02887570250;Compte inexistant;1/1/1974
76104569;(non communiquée);M. SOULEYMANE OUATTARA;07979203;01272;02671820250;Compte inexistant;9/3/1974
76100524;(non communiquée);M. KABLAN PASCAL KOFFI;05188781;01257;05735000132;Compte inexistant;12/16/1987
76110451;(non communiquée);MLE SOUMAN DIOMANDE  KEFFA;08390757;13277;02924120250;Compte inexistant;10/29/1988
76109833;(non communiquée);M. HUSSEIN YOUNES;09878749;01230;02879660250;Compte inexistant;5/20/1993
76099080;(non communiquée);M. AMADOU DIT SERIGNE DIAW;07471364;01288;08835000390;Compte inexistant;12/5/1956
76071712;01 BP 852 ABIDJAN  01;M. ATSAIN JEAN JACQUES;07749060;01226;02635067144;Compte inexistant;10/19/1958
76113163;(non communiquée);M. DJIBRIL DIANKOUMBA;07911621;01223;03045980250;Compte inexistant;1/1/1968
76110838;(non communiquée);MLE ANGAMAN ABLAN MAREI LAUR AMALAMAN;04948902;01222;02921500250;Compte inexistant;4/5/1980
76104043;(non communiquée);M. HOUD ABDOU-RAIM DIOMANDE ;03824583;01221;02663750250;Compte inexistant;6/4/1996
76103100;01 BP 1274 ABIDJAN 01;M. KOFFI KONAN ARNAUD DUVAL;07563607;04248;02560370250;Compte inexistant;8/15/1990
76108625;(non communiquée);M. BOROMA DIAKITE;07634239;01221;04540390250;Compte inexistant;10/10/1972
77017744;NC;M. SORO BEH;09573333;35247;04735000024;Compte inexistant;1/1/1979
76085859;01 BP 1274 ABIDJAN 01;M. TOURE  FASSERI;07832440;01223;02335081363;Compte inexistant;9/29/1986
76097178;01 BP 1274 ABIDJAN 01;M. DJAN  N'DRI ALBERT;07019509;01278;07835000030;Compte inexistant;5/2/1956
76082595;11 BP 451 ABIDJAN 11;Mle DIARRA KOUMBA;05003813;01235;03535193009;Compte inexistant;6/18/1966
76110210;(non communiquée);MLE DENEAUD TATIANA SABINE DOUE;07908289;01223;02907200250;Compte inexistant;11/30/1981
76109886;(non communiquée);M. COMLAN KOUMAN ANTOINE SEGLA;01620460;01230;02880730250;Compte inexistant;6/21/1994
76088701;(non communiquée);MLE DESIREE ESTHER TIESSIEI;02556119;01212;01235000692;Compte inexistant;12/22/1978
76106510;1445 SAN PEDRO 01;M. NOMEL AGNIMEL JEAN WILFRIED;09005323;19245;02566290250;Compte inexistant;7/30/1984
76112908;(non communiquée);M. SIA JEAN-SYLVESTRE KOFFI;07555956;01294;03066230250;Compte inexistant;10/29/1993
76100561;(non communiquée);M. STEPHANE ANDY KOUADIO;07200722;01257;05735000946;Compte inexistant;12/24/1967
76107173;BP 54 KOTOBI;M. N'GORAN EHOUMAN;07575524;18242;04236006312;Compte inexistant;1/1/1963
76032185;07 BP 750 ABIDJAN 07;M. KOUASSI KAN ADOLPHE;01746142;01226;02635066134;Compte inexistant;1/3/1972
76112385;(non communiquée);M. CAMARA ABOUBAKARY;05443521;01297;02971600250;Compte inexistant;3/5/1972
76106211;(non communiquée);M. ABDALHA SIDIBE;07576105;02232;02709050250;Compte inexistant;7/1/1982
76094479;01 BP 1274 ABJ 01;M. SILUE TENEPIENA MOUMOUNY;09334142;06233;02380390250;Compte inexistant;2/27/1981
76066190;01 BP 1274 ABIDJAN 01;M. BONGA HIPPOLYTE;07140396;20289;08935000440;Compte inexistant;12/16/1970
76099344;(non communiquée);M. KUHI JOACHIM SEREBO;04205833;01230;03035095296;Compte inexistant;1/1/1959
76107281;(non communiquée);M. LOUKMANE SANKARA;07425041;22206;05927980250;Compte inexistant;1/1/1989
76070274;01 BP 1274 ABIDJAN 01;M. KOFFI ABOUA ROMARIC SERGE;03968418;01294;09435000071;Compte inexistant;2/18/1986
76092763;01 BP 1274 ABIDJAN 01;M. BAYALA HERVE;08191957;32340;05837960250;Compte inexistant;11/3/1983
76083509;01BP1305 ABIDJAN 01;M. BROU YAO HYPOLITE;07612061;01267;06735000307;Compte inexistant;8/13/1982
78411593;***;MLE ANGE PRISCA SOUBLEU;08269716;01281;03384280250;Compte inexistant;4/6/1984
76092742;01 BP 1274 ABIDJAN 01;M. BAYALA HERVE;08191957;32340;05837960250;Compte inexistant;11/3/1983
76113085;***;M. NEKIN MARTIN N4GUESSAN;09221210;14284;03091070250;Compte inexistant;1/4/1978
76120307;***;M. KOFFI INNOCENT TRESOR KOUASSI;09010612;01262;03412800250;Compte inexistant;12/28/1993
73209148;***;M. AMELAMAN GILBERT ASSOUMOU ;09800605;14284;01335230037;Compte inexistant;2/17/1980
78412828;***;MLE N'GUESSAN AHOU ESTELLE KADJO;01794163;01231;03103040250;Compte inexistant;11/1/1981
31206510;01 BP 747 ABIDJAN 01;MME N'GUETTA NEE AKRE  ALLOUAN SONIA JEANNETTE;01114445;26264;06436000044;Compte inexistant;3/2/1983
16804745;01 BP 1651 ABIDJAN 01;M.  MALAN KADJO LEON GNAMIEN;01010101;01212;01235000814;Compte inexistant;6/13/1986
78402110;01 BP 453 ABIDJAN01;M. KONE TENAN;04818800;01279;07935000495;Compte inexistant;10/16/1990
78401979;01 BP 4858 ABIDJAN 01;M. KOUAKOU KOUAME MARIUS DESIRE;08793055;01262;06235000177;Compte inexistant;3/15/1974
73105994;01 BP 317 ABIDJAN 01;Mme KOUADIO EPSE ANY AKISSI IRENE;07821216;01231;03135072180;Compte inexistant;4/13/1964
76106014;***;M. COULIBALY ASSANE;02720847;01297;02466780250;Compte inexistant;9/10/1970
78412758;***;MLE AMOUAN THERESE KADIO;07283032;01231;03057460250;Compte inexistant;5/15/1975
73209119;***;MLE AMENAN LEA BEHIBRO ;08172772;01226;02078240280;Compte inexistant;4/1/1980
76096208;NULL;M. KACOU N'DRI ANICET;07447648;01259;02431730250;Compte inexistant;1/14/1991
72417686;BP 90 KANI;Mle KONAN AKISSI VICTORINE;06675545;11252;05235230050;Compte inexistant;3/2/1986
72411049;08 BP 855 ABIDJAN 08;M. SIBAILLY FRANCK ESPOIR RUSSEL;01314195;01223;02335079489;Compte inexistant;7/8/1975
78408049;***;M. AKA ADOLPHE AGAMAN;08579736;01272;02522360250;Compte inexistant;9/20/1976
76101734;***;M. AKA ADOLPHE AGAMAN;07366416;01272;02522360250;Compte inexistant;9/20/1976
76062076;BP 31 OUME;M. OUALE YOSSO EDOUARD;06043625;10237;03735007391;Compte inexistant;3/12/1973
72414539;BP V 98 ABIDJAN;Mme GUEHI ADEHIKA ESTELLE;02033597;01231;03135066648;Compte inexistant;5/25/1980
76096203;NULL;M. KACOU N'DRI ANICET;07447648;01259;02431730250;Compte inexistant;1/14/1991
76072827;01 BP 1840 ABIDJAN 01;M. WULFAN GAHOUSSOU KOFFI;07606168;01231;03135072953;Compte inexistant;4/17/1970
78412869;***;M. CLAUDE KOUASSI;08276177;01225;02535211082;Compte inexistant;2/28/1976
21810834;21 BP 4806 ABIDJAN 21;M. KODY  CONSTANT EMMANUEL;08694117;01265;02713670250;Compte inexistant;12/23/1991
78411902;***;M. KODJO PIERRE  AKA ;01052899;01278;03248750250;Compte inexistant;3/21/1976
21810826;01 BP 4806 ABIDJAN 01;M. ADEPO  FRANCK ERIC;07335113;01265;02676330250;Compte inexistant;9/30/1980
77019753;01 BP 1651 ABIDJAN 01;M.  MALAN KADJO LEON GNAMIEN;01010101;01212;01235000814;Compte inexistant;6/13/1986
24107267;BP 341 YAMOUSSOUKRO;M. YAO KOFFI;04843446;10237;03735007809;Compte inexistant;7/15/1973
76126142;***;M. KOUAKOU SERGE AIME AMEDEDZI;08851357;01281;20722702801;Compte inexistant;1/1/1983
77007369;01 BP 1274 ABIDJAN 01;M. BAH DIDIER ANICET;07584152;01259;05935000696;Compte inexistant;5/20/1986
31208655;01 BP 544 SAN PEDRO 01;M. KOFFI YAPO SAMUEL;07523133;07238;03835057347;Compte inexistant;4/30/1979
76068122;01 BP 1274 ABIDJAN 01;M. ZAGADOU KOUASSI EVARISTE;02409933;01226;02636066267;Compte inexistant;12/30/1981
76096670;BP 610 BOUAFLE;M. KOUAME YAO JULES;07421006;17290;09035230062;Compte inexistant;11/27/1990
76035527;08 BP 1532 ABIDJAN 08;Mme BONI EPSE GILBENAIR NICOLE;09616161;01230;03036094586;Compte inexistant;4/2/1964
73209163;***;M. ALLEBA FRANCK OLIVIER KRIKPEU;01839572;01223;03435041406;Compte inexistant;1/1/1977
76112886;***;M. JEAN LUC  OULAI ;09948479;01228;03007880250;Compte inexistant;6/16/1986
78409351;***;M. MOHAME FASSAHI;08090951;01282;02846780250;Compte inexistant;7/19/1989
78405136;01 BP 4082 ABIDJAN;M.  MOUSSA FOFANA;02818366;01235;03535195017;Compte inexistant;6/23/1976
76120815;***;M. KOUASSI ABOUTOU SEVERIN KRA;08393331;01225;02535024150;Compte inexistant;11/19/1965
76112679;***;M. N'DRI DAVID ROGER KOUADIO;05901725;01220;02879830250;Compte inexistant;3/10/1981
76058720;BP V 21 ABIDJAN;M. BINI KOUADIO SYLVAIN;05730507;01225;02535021594;Compte inexistant;5/1/1974
76072948;BP V 67 ABIDJAN;M. IRE BORIS FABIEN;03079665;01239;03935000520;Compte inexistant;9/9/1981
76116199;***;MLE BETOINMANE ELISABETH MEDA;01814261;14284;03220380250;Compte inexistant;12/28/1981
72417263;BP 1274 ABIDJAN 01;M. KONE YENIN OUMAR;09461729;02232;03235001297;Compte inexistant;8/8/1981
77022948;01 BP 1274 ABIDJAN 01;M. DIARRA  DJAKARIDIA;06216040;01213;02235026492;Compte inexistant;1/18/1984
73101584;01 BP 317 SAN PEDRO 01;Mle KAHOU DEHAN ANNA SANDRINE;08540756;01225;02535230024;Compte inexistant;8/13/1980
72401456;BP 411 M'BAHIAKRO;M. YOBOUE KOFFI GERMAIN;07760393;01231;03135066211;Compte inexistant;1/1/1973
21806285;01 BP 747 ABIDJAN 01;MME N'GUETTA NEE AKRE  ALLOUAN SONIA JEANNETTE;01114445;26264;06436000044;Compte inexistant;3/2/1983
78403686;01 BP 1274 ABIDJAN 01;M.  ALASSANE KABRE;07137285;01272;02076890250;Compte inexistant;1/1/1982
76103753;***;M. FELICIA JOHNSON ;05645690;01265;02017150250;Compte inexistant;1/1/1969
21802951;10 BP 499 ABIDJAN 10;Mle TOBOSSINON SENAN EMILIENNE;07947941;01227;02735028822;Compte inexistant;10/26/1988
78401778;01 BP 1274 ABIDJAN 01;MLE OUATTARA  FATOUMA;07612457;01281;08135000353;Compte inexistant;12/6/1981
21812848;09 BP 855 ABIDJAN 09;MLE SOGODOGO AMI;06120413;01280;08035000490;Compte inexistant;11/24/1990
76125650;***;M. CHIBEDA ARISTIDE YAO;07527117;01231;02634324070;Compte inexistant;8/30/1975
76096249;BP 90 KANI;MLE KONAN AKISSI VICTORINE;06675545;11252;05235230050;Compte inexistant;3/2/1986
78408911;***;M. JEAN TOKRO ;09609717;01283;02760640250;Compte inexistant;12/31/1965
73209249;***;M. MARPHRIDE GON;05179103;25286;09735230017;Compte inexistant;12/20/1987
76069058;06 BP 143 ABIDJAN 06;Mle TITO DADE MARIE LUCIE;07887513;01217;01736000346;Compte inexistant;9/12/1964
76126305;09 BP 470 ABIDJAN 09;M. SAMAKE MAMADOU;05822421;01302;02234460479;Compte inexistant;1/1/1963
76125888;***;MME EPIE COLETTE ALLOUE;04262068;01231;03105290250;Compte inexistant;3/5/1968
76087454;01  BP 1247 ABIDJAN 01;M. MANIGA  TIECOMA JEAN MARC;08181629;01217;01735001555;Compte inexistant;1/1/1979
73209079;BP 221 ABENGOUROU;M. TANOH AKA BARTHELEMY;06805847;04248;48352301060;Compte inexistant;2/11/1981
76101020;22 BP 582 ABIDJAN 22;M. KRA KOUASSI ABOUTOU SEVERIN;08393331;01225;02535024150;Compte inexistant;11/19/1965
76084042;15 BP 106 ABIDJAN 15;M. SAPIME ADOU;07203381;01278;07835000338;Compte inexistant;10/10/1967
78412877;***;M. YAO ASSAYE LUDOVIC KONAN;08898412;01231;06072140250;Compte inexistant;11/24/1989
31223378;BPV 90 ABIDJAN;M. N'GUESSAN BROU MARCELLIN;07262829;01350;33135067778;Compte inexistant;1/20/1978
76125928;***;MME AMOIN HORTENSE YAO;06175352;01231;02435089599;Compte inexistant;4/1/1961
76110270;***;MLE AHOU CLAUDE MANUELA  ELLO;09841949;01227;02910530250;Compte inexistant;6/5/1989
78412876;***;M. AHOU ROSE KOUADIO;05017091;01231;03075340250;Compte inexistant;7/2/1980
77013431;22 BP 1354 ABIDJAN 22;Mle YOU KESSREA CLAUDIA;02161980;01217;01735000736;Compte inexistant;1/9/1978
76099772;***;M. GHISLAIN AUXENCE SIMON AMANI;09594380;01217;02556410250;Compte inexistant;10/10/1987
73208356;***;M. NOGOMO MEITE;08793241;35247;03324340025;Compte inexistant;7/27/1967
73111715;BP 125 TOULEPLEU;M. KOUAME KOUADIO MEDARD;05850691;04248;04835230139;Compte inexistant;6/8/1982
80023576;BP 416 BONDOUKOU;M. KOUAME KOUAME FAUSTIN;07760811;01231;03135065957;Compte inexistant;12/19/1975
77015157;01 BP 1200 ABIDJAN 01;M. KIEBRE BOUKARY;08030556;01239;03935000862;Compte inexistant;1/1/1967
31222096;BP 298 DIVO;M. KOULIBALY ZIHE DAVID;08858333;01519;01250114001;Compte inexistant;10/21/1988
77020262;01 BP 3895 ABIDJAN 01;M. BADO BAZAIN;09441217;01201;00135000188;Compte inexistant;12/16/1975
77021409;***;MLE CLARICE BAYALA;07502653;01272;07235001052;Compte inexistant;4/16/1988
16810847;BP 395 SINFRA;M. BAKOULA ZAKPA LEON;05824100;01350;03135230460;Compte inexistant;1/1/1978
31221367;BP 395 SINFRA;M. BAKOULA ZAKPA LEON;05824100;01350;03135230460;Compte inexistant;1/1/1978
77021339;01 BP 469 SAN PEDRO;M. SANOGO MAMADOU;06152740;07238;03835056984;Compte inexistant;12/31/1974
77020936;01 BP 1274 ABIDJAN 01;M. TRAORE ADAMA;05051111;01239;02208750250;Compte inexistant;5/19/1967
77014532;BPV 316 ABIDJAN;M. KACOUTIE AFFALY DIEUDONNE;08455210;01281;08135000085;Compte inexistant;5/10/1982
77007884;01 BP 1274 ABIDJAN 01;M. SANOGO SIRIKI;07143434;01283;08335000196;Compte inexistant;6/2/1983
73202715;NC;M. OUEDRAOGO KARIM;04802672;38293;09335000472;Compte inexistant;5/6/1989
77014484;BP 762 BONOUA;M. SAVADOGO GASTON;08263430;26256;05635061903;Compte inexistant;2/6/1975
77021213;***;M.  BOHOUSSOU KOUASSI NICOLAS KOFFI;03636453;01280;02178700250;Compte inexistant;12/6/1976
77007813;03 BP 587 ABIDJAN 03;M. TOURE GNINNANKAN BORIS;05452735;01223;02335081205;Compte inexistant;6/8/1994
33304990;11 BP 2630 ABIDJAN 11;M. KOUAME N'GUESSAN GERMAIN;02937800;01228;02835061461;Compte inexistant;9/4/1973
77007805;01 BP 164 SAN PEDRO 01;M. YAMATI KELETIGUI MANIGA;09392840;07255;05535000273;Compte inexistant;6/28/1959
16807808;BP 123 BOCANDA;M. GOORE YAO ANDRE;07604223;18242;04235042836;Compte inexistant;11/26/1972
77021415;***;M.  KOUASSI ANZOUMANA ADAMA;06046082;01282;08235000482;Compte inexistant;1/1/1978
76082461;***;M.  SOUNGALO COULIBALY;09372800;20289;08935000965;Compte inexistant;1/1/1969
76089233;01 BP 1274 ABIDJAN 01;M. TOURE MOUSSA;07771491;22206;02186580250;Compte inexistant;3/13/1973
76058500;01 BP 1274 ABIDJAN 01;M. LOUKOU YAO THEODORE;08929088;20289;08935000257;Compte inexistant;4/1/1972
78410663;***;M. AKASSI EDITH KOFFI;08144956;23253;03177550250;Compte inexistant;9/16/1984
76113778;***;MLE MAKOURA ANNICK GNAN;09029789;22206;03042420250;Compte inexistant;2/5/1988
76073442;01 BP 1274 ABIDJAN 01;M. KOUAKOU N'GUESSAN BERTIN;08852544;20289;08935000439;Compte inexistant;6/15/1957
76117965;***;M. HAMADOU TARZONGDO;02604544;30268;03298560250;Compte inexistant;3/22/1982
73204002;NC;M. KORGO ADAMA DAMBRO;07152987;11252;02130950250;Compte inexistant;6/9/1987
78410456;***;M. IBRAHIMA SOUMAHORO;07500497;20289;03054140250;Compte inexistant;10/5/1976
76068400;NON COMMUNIQUE;M. SOULEYMANE TRAORE;06772130;20289;05670850250;Compte inexistant;12/18/1985
78412930;***;M. AMBROISE MONSSEDJE ;08318998;11252;02671080280;Compte inexistant;5/19/1986
76121234;***;M. SIAKA TOURE;06054907;20289;05956870250;Compte inexistant;1/1/1981
78410915;***;M. HAMADOU TARZONGDO;02604544;30268;03298560250;Compte inexistant;3/22/1982
78409833;***;M. ZOUMANAN SANGARE;01788395;23285;03042810250;Compte inexistant;2/14/1980
76118023;***;M. IDRISSA GOURO AMADOU;07674365;31254;03277550250;Compte inexistant;6/3/1986
78403697;***;M.  MOUSSA DIOMANDE;06613623;35247;02050250250;Compte inexistant;11/6/1982
33420572;01 BP 747 ABIDJAN 01;MME N'GUETTA NEE AKRE  ALLOUAN SONIA JEANNETTE;01114445;26264;06436000044;Compte inexistant;3/2/1983
76120753;***;M. LOU YOUAN JEAN MARC DJE;04702728;11252;03489770250;Compte inexistant;12/26/1979
76116050;***;M. DEKAHO PATRICE BOMISSO;08690747;17290;03096880250;Compte inexistant;9/20/1983
77024324;***;M. NGUESSAN JEAN MARC KOUADIO;02396192;15298;03343610250;Compte inexistant;9/5/1983
76085024;01 BP 1274 ABIDJAN 01;M. OUEDRAOGO ISSIAKA;07236253;13277;02117650250;Compte inexistant;11/20/1982
