NUMERO_QUITTANCES;DATE_DEBUT_QUITTANCE;DATE_FIN_QUITTANCE;NUMERO_POLICE;PERIODICITE_QUITTANCE;NUMERO_INTERMEDIAIRE;NOM_APPORTEUR;DATE_EFFET_POLICE;DATE_FIN_EFFET_POLICE;LIBELLE_PRODUIT;NUMERO_CLIENT;NOM;TELEPHONE_PAYEUR;CODE_BANQUE;CODE_AGENCE;NUMERO_DE_COMPTE;MOTIF_REFUS;LIBELLE_REJET;MONTANT_PRELEVE
77990133;9/1/2022;9/1/2023;16817925;ANNUELLE;314;NULL;9/1/2021;9/1/2036;NT - PREVOYANCE DECES FORFAIT;1070050;M. YAO BENDE CONSTANT;22507070829;A0042;01201;06571110250;04;Compte clos;10500
77805134;9/1/2022;10/1/2022;73208501;MENSUELLE;10157;STE BIAO ETUDES;10/1/2019;10/1/2024;NT-BIAO Rente Education;878303;M. KONE ISMAEL;0757728737;BIAET;30268;06028420250;04;Compte clos;5247
77605086;8/1/2022;9/1/2022;21813727;MENSUELLE;3160;Mme KOUADIO EPSE N'GUETTIA AMOIN ANDR;2/1/2019;2/1/2034;NT-NSIA RETRAITE;637153;M. KONE PENAHOURE CLAUDE BERNARD;NC;A0042;01272;07235000991;04;Compte clos;11000
77963699;9/1/2022;10/1/2022;21820745;MENSUELLE;2047;M. ALLA ESSOH SAMUEL;4/1/2020;4/1/2035;NT-NSIA RETRAITE;976724;M. TAKY KOBENAN ARNOLD  ;0505705672;CI032;01001;00126597000;04;Compte clos;38500
77982188;9/1/2022;10/1/2022;76105059;MENSUELLE;10140;STE BIAO EPARGNE PLUS;5/1/2018;5/1/2028;EPARGNE PLUS BIAO;816311;M. TOSSOU NICOLAS;0749141401;BIAEP;08234;02482840250;04;Compte clos;10000
77821620;9/1/2022;9/1/2023;16818065;ANNUELLE;2823;M. HIE ALLABA ANGE PATRICK;9/1/2021;9/1/2050;NT - PREVOYANCE DECES FORFAIT;516376;M. ASSAYE ACHI VALENTIN;0757863326;A0042;01231;03135230116;04;Compte clos;10500
77901506;9/1/2022;10/1/2022;76125144;MENSUELLE;10140;STE BIAO EPARGNE PLUS;11/1/2019;11/1/2024;EPARGNE PLUS BIAO;881888;M. DJIDO KADJO EDOUARD  ;0757722407;BIAEP;01265;03164500400;04;Compte clos;25000
77801481;9/1/2022;10/1/2022;73201431;MENSUELLE;10157;STE BIAO ETUDES;9/1/2016;9/1/2033;NT-BIAO Rente Education;584252;M. YORO SEHABLE LAURENT;NC;BIAET;01231;03135070055;04;Compte clos;2368
77625634;8/1/2022;9/1/2022;76143321;MENSUELLE;10140;STE BIAO EPARGNE PLUS;2/1/2021;2/1/2027;EPARGNE PLUS BIAO;1026626;M. TOURE ISMAEL BABA;0747302090;BIAEP;38293;06000470250;04;Compte clos;5000
78005255;9/1/2022;12/1/2022;31209213;TRIMESTRIELLE;3625;NULL;12/1/2017;12/1/2030;NT-NSIA Etudes;742825;M. KONAN KOUAME EPIPHANIE;0102015184;CI032;01015;00661264000;04;Compte clos;39366
77966893;9/1/2022;10/1/2022;76171799;MENSUELLE;10140;STE BIAO EPARGNE PLUS;7/1/2022;7/1/2027;EPARGNE PLUS BIAO;1146596;M. OROH JUDICAEL KROUBA;0709659720;BIAEP;01218;06963540250;04;Compte clos;5000
77765617;9/1/2022;9/1/2023;33322344;ANNUELLE;2204;M. N'DRI N'GUESSAN PIERRE;9/1/2012;9/1/2034;NSIA Assistance Funérailles;549225;M. BLE MEGUHE LAURENT;0748945452;A0042;01215;01535000103;04;Compte clos;35000
77957040;9/1/2022;10/1/2022;78405269;MENSUELLE;10135;STE BIAO NOVA PENSION;10/1/2017;10/1/2032;NT-BIAO NOVA Pension;779530;M. ETTIEN YAPO  ;0505972662;NOVA ;01231;03135230667;04;Compte clos;9927
77777257;9/1/2022;10/1/2022;76110463;MENSUELLE;10140;STE BIAO EPARGNE PLUS;10/1/2018;10/1/2023;EPARGNE PLUS BIAO;830396;MME DJE LOU DJENAN   ;0101222137;BIAEP;08234;03435040542;04;Compte clos;5000
77847263;9/1/2022;10/1/2022;21834929;MENSUELLE;4590;NULL;5/1/2022;5/1/2032;NT-NSIA RETRAITE;1125270;M. BI GOULIZAN SÉVERIN VANKOU;0747906696;CI092;07010;00784204000;04;Compte clos;11000
77798441;9/1/2022;10/1/2022;31232064;MENSUELLE;2809;M. KONAN EPSE GNANMIEN AFFOUE CHAR;4/1/2021;4/1/2038;NT-NSIA Etudes;1050999;MME DOTE GUEASSE EDWIGE LUXE;22559706268;CI032;01013;00609883000;04;Compte clos;4232
77790942;9/1/2022;9/1/2023;16807484;ANNUELLE;3837;NULL;9/1/2018;9/1/2048;NT - PREVOYANCE DECES FORFAIT;826762;M. EHOUE  KOUASSI LOUIS SILVERE;0505003376;CI032;01032;00715401000;04;Compte clos;10500
77854867;9/1/2022;12/1/2022;76128596;TRIMESTRIELLE;10140;STE BIAO EPARGNE PLUS;6/1/2020;6/1/2028;EPARGNE PLUS BIAO;963433;M. SOHI BLESSON FLORENT;0777194285;BIAEP;01209;06207099620;04;Compte clos;15000
77753644;9/1/2022;10/1/2022;76175517;MENSUELLE;10140;STE BIAO EPARGNE PLUS;9/1/2022;9/1/2027;EPARGNE PLUS BIAO;368560;M. KOFFI KOUASSI;0546471657;BIAEP;09251;05134362048;04;Compte clos;10000
78010503;9/1/2022;10/1/2022;21837528;MENSUELLE;3606;NULL;9/1/2022;9/1/2037;NT-NSIA RETRAITE;1185901;M. MAMADOU MONSOUR SECK;0575808737;A0042;01235;03062080250;04;Compte clos;36000
77868227;9/1/2022;10/1/2022;31236603;MENSUELLE;4037;NULL;2/1/2022;2/1/2038;NT-NSIA Etudes;1094925;M. ALLANGBA N’GUESSAN LUCIEN;22506462620;CI032;04001;00594035000;04;Compte clos;18409
77987265;9/1/2022;10/1/2022;21820381;MENSUELLE;3492;NULL;3/1/2020;3/1/2035;NT-NSIA RETRAITE;964063;MLE OUATTARA AMI MARIE FATIM  ;0142620816;A0042;01231;02588790270;04;Compte clos;51000
77959903;9/1/2022;10/1/2022;73208009;MENSUELLE;10157;STE BIAO ETUDES;8/1/2019;8/1/2024;NT-BIAO Rente Education;867395;M. ZIEHI OUAI CHARLES;0707178942;BIAET;01259;05987860250;04;Compte clos;8598
77928772;9/1/2022;10/1/2022;76164652;MENSUELLE;10140;STE BIAO EPARGNE PLUS;6/1/2022;6/1/2027;EPARGNE PLUS BIAO;1107638;M. YOBO MATHIAS KIEN;0779791727;BIAEP;01235;02217780250;04;Compte clos;5000
77984672;9/1/2022;9/1/2023;16811263;ANNUELLE;3751;NULL;9/1/2019;9/1/2036;NT - PREVOYANCE DECES FORFAIT;604845;M. KOUADIO PRAO DIT HAROUNA;0749118573;CI092;01006;08655990009;04;Compte clos;18500
77948250;9/1/2022;10/1/2022;76120480;MENSUELLE;10140;STE BIAO EPARGNE PLUS;7/1/2019;7/1/2029;EPARGNE PLUS BIAO;862137;M. KOUAO BILE FRANCK OLIVIER  ;0709154667;BIAEP;12276;02653660280;04;Compte clos;5000
77778521;9/1/2022;12/1/2022;76114644;TRIMESTRIELLE;10140;STE BIAO EPARGNE PLUS;6/1/2019;6/1/2024;EPARGNE PLUS BIAO;846737;M. MESSOU KOUAME FIDEL  ;0707159585;BIAEP;01209;03181190250;04;Compte clos;15000
77952035;9/1/2022;10/1/2022;73212409;MENSUELLE;10157;STE BIAO ETUDES;8/1/2021;8/1/2031;NT-BIAO Rente Education;1026532;M. OUATTARA ADAMA;0787375041;BIAET;05249;06393280250;04;Compte clos;2748
77881789;9/1/2022;10/1/2022;31231469;MENSUELLE;3472;M. KONE KPLEHONRON;3/1/2021;3/1/2033;NT-NSIA Etudes;1042440;MME TRAORÉ ROKHAYA;22545247418;CI032;06001;00551595000;04;Compte clos;9551
77829408;9/1/2022;10/1/2022;78414087;MENSUELLE;10135;STE BIAO NOVA PENSION;12/1/2020;12/1/2046;NT-BIAO NOVA Pension;1018476;M. N'DRI ABONOUAN JEAN-LUC;0708164623;NOVA ;03246;04635230556;04;Compte clos;3313
77928165;9/1/2022;10/1/2022;31225686;MENSUELLE;3256;Mle DARY AMAN BRIGITTE;3/1/2020;3/1/2034;NT-NSIA Etudes;964268;M. BOLY BI ZOZO OCTAVE BARTHELEMY  ;0103116772;A0042;06233;03335019549;04;Compte clos;14430
77778826;9/1/2022;9/1/2023;77018670;ANNUELLE;10165;STE BIAO ASSISTANCE FUN.;9/1/2017;9/1/2027;BIAO Assistance Funérailles;458483;M. ASSAWA AKPETCHE JEAN DOMINIQUE;0504569666;BASF ;01299;02102460250;04;Compte clos;2700
77885639;9/1/2022;10/1/2022;72410710;MENSUELLE;10135;STE BIAO NOVA PENSION;5/1/2009;5/1/2028;BIAO NOVA Pension;373928;M. OGOU MOBIO MODESTE;0505900998;NOVA ;01231;03135063642;04;Compte clos;9927
77924457;9/1/2022;9/1/2023;77007588;ANNUELLE;10165;STE BIAO ASSISTANCE FUN.;9/1/2015;9/1/2025;BIAO Assistance Funérailles;485199;M. N'GUESSAN KOMENAN LORAN;0140615117;BASF ;04248;04835230012;04;Compte clos;35000
77836146;9/1/2022;9/1/2023;77014172;ANNUELLE;10165;STE BIAO ASSISTANCE FUN.;9/1/2016;9/1/2025;BIAO Assistance Funérailles;742260;M. TANOH MIDA JOSEPH;0708559761;BASF ;15298;09835000073;04;Compte clos;6100
77593902;8/1/2022;9/1/2022;31213543;MENSUELLE;3571;NULL;9/1/2018;9/1/2032;NT-NSIA Etudes;636040;M. AKA BERENSON;0708624203;A0042;09251;05135061035;04;Compte clos;13784
77991460;9/1/2022;10/1/2022;71602978;MENSUELLE;10219;NULL;11/1/2021;11/1/2026;Banque Poulaire Eparge Bonus;1144307;M. GBONGUE  BAMBA CHALES;2250757306220;BP155;01202;01352136000;04;Compte clos;5000
77818555;9/1/2022;10/1/2022;24607914;MENSUELLE;4755;NULL;4/1/2022;4/1/2036;NT-NSIA PENSION Renfort;1112363;MLE KELLY LYDIE DOMINIQUE CHI ALATCHE;0574269975;A0042;01263;06790770250;04;Compte clos;11942
78002539;9/1/2022;10/1/2022;31235123;MENSUELLE;4322;NULL;10/1/2021;10/1/2034;NT-NSIA Etudes;1046316;MLE KIPRE DORINE CAROLLE;77496429;CI032;01018;00853944000;04;Compte clos;13912
77290597;9/1/2022;10/1/2022;76173576;MENSUELLE;10140;STE BIAO EPARGNE PLUS;9/1/2022;9/1/2027;EPARGNE PLUS BIAO;1161262;M. ZAMBLE MAURICE YRIE BI BOTI;0707073765;BIAEP;01226;02636065757;04;Compte clos;10000
77829096;9/1/2022;9/1/2023;16811292;ANNUELLE;4148;NULL;9/1/2019;9/1/2031;NT - PREVOYANCE DECES FORFAIT;873905;M. AMANI KOFFI DEMEDEROSE  ;0708999416;CI032;01026;00864352000;04;Compte clos;10500
77832684;9/1/2022;10/1/2022;73209588;MENSUELLE;10157;STE BIAO ETUDES;7/1/2020;7/1/2028;NT-BIAO Rente Education;985452;M. AKA ALLOU CHARLES ELOGNE JUNI  ;0779568704;BIAET;05249;06277530250;04;Compte clos;7606
78019596;9/1/2022;10/1/2022;21837874;MENSUELLE;4021;NULL;9/1/2022;9/1/2037;NT-NSIA RETRAITE;1187938;MLE YAWO AGATHE GBOKO;0758266831;CI032;01014;00631655000;04;Compte clos;16000
77563925;8/1/2022;9/1/2022;31225686;MENSUELLE;3256;Mle DARY AMAN BRIGITTE;3/1/2020;3/1/2034;NT-NSIA Etudes;964268;M. BOLY BI ZOZO OCTAVE BARTHELEMY  ;0103116772;A0042;06233;03335019549;04;Compte clos;14430
77856301;9/1/2022;10/1/2022;73212998;MENSUELLE;10157;STE BIAO ETUDES;6/1/2021;6/1/2026;NT-BIAO Rente Education;1062058;M. AHOLIA ASSI AMBROISE;0545876119;BIAET;13277;06591880250;04;Compte clos;5616
77775072;9/1/2022;10/1/2022;21827049;MENSUELLE;3836;NULL;5/1/2021;5/1/2036;NT-NSIA RETRAITE;1054082;MLE KOUAKOU ATCHELO MÉLAINE;48246237;CI032;01032;00717136000;04;Compte clos;21000
77956125;9/1/2022;10/1/2022;76110205;MENSUELLE;10140;STE BIAO EPARGNE PLUS;9/1/2018;9/1/2023;EPARGNE PLUS BIAO;828941;M. OYOUA STEPHANE DAVY;0708884825;BIAEP;01265;02893950250;04;Compte clos;25000
77801476;9/1/2022;9/1/2023;77013119;ANNUELLE;10165;STE BIAO ASSISTANCE FUN.;9/1/2016;9/1/2026;BIAO Assistance Funérailles;514626;M. GOHI BI FOUA ZEPHIRIN;NC;BASF ;31254;05435000264;04;Compte clos;35000
77794124;9/1/2022;10/1/2022;73215242;MENSUELLE;10157;STE BIAO ETUDES;6/1/2022;6/1/2042;NT-BIAO Rente Education;1139653;MME OVO MIREILLE YAPI;0779953324;BIAET;01299;03132720250;04;Compte clos;5639
77859451;9/1/2022;10/1/2022;76166250;MENSUELLE;10140;STE BIAO EPARGNE PLUS;5/1/2022;5/1/2027;EPARGNE PLUS BIAO;1124704;M. AICHA DIABY;0545131923;BIAEP;01272;06398620400;04;Compte clos;5000
77876274;9/1/2022;10/1/2022;31220911;MENSUELLE;3787;NULL;9/1/2019;9/1/2030;NT-NSIA Etudes;868454;M. KIMOU BAYE ARISTIDE ULRICH;0101609679;CI032;01001;00118033000;04;Compte clos;6029
77904547;9/1/2022;10/1/2022;76134605;MENSUELLE;10140;STE BIAO EPARGNE PLUS;7/1/2020;7/1/2025;EPARGNE PLUS BIAO;985545;MLE KOKOBO WAINDEPAINGBA ALICE   ;0708959457;BIAEP;01235;03535195348;04;Compte clos;5000
77956166;9/1/2022;9/1/2023;77019463;ANNUELLE;10165;STE BIAO ASSISTANCE FUN.;9/1/2017;9/1/2042;BIAO Assistance Funérailles;776738;M. SALIFOU MAHAMADOU;0505681078;BASF ;01279;02042280400;04;Compte clos;2700
77870282;9/1/2022;10/1/2022;31232454;MENSUELLE;3435;Mle BIAO VIRGINIE JOSMIMELLE;5/1/2021;5/1/2036;NT-NSIA Etudes;1052462;M. TEBAO DIE GUY MARCEL;22506464471;CI032;01024;00963464001;04;Compte clos;14654
77833179;9/1/2022;10/1/2022;73213107;MENSUELLE;10157;STE BIAO ETUDES;8/1/2021;8/1/2031;NT-BIAO Rente Education;1072195;M. ACHO SEKA ADIKO FRANCK EVRARD;0769699949;BIAET;13277;06630870250;04;Compte clos;2524
77867693;9/1/2022;10/1/2022;21823129;MENSUELLE;4149;NULL;10/1/2020;10/1/2035;NT-NSIA RETRAITE;1008307;M. GOUH EVARISTE ARSENE  ;0140466068;CI032;10001;00353497000;04;Compte clos;26000
77889118;9/1/2022;9/1/2023;16811087;ANNUELLE;3174;M. ADOU METCH RODOLPHE;9/1/2019;9/1/2034;NT - PREVOYANCE DECES FORFAIT;857644;M. DIOMANDE PHILIPPE;0103640678;CI032;07001;00306759000;04;Compte clos;10500
77901508;9/1/2022;10/1/2022;76125146;MENSUELLE;10140;STE BIAO EPARGNE PLUS;11/1/2019;11/1/2024;EPARGNE PLUS BIAO;881888;M. DJIDO KADJO EDOUARD  ;0757722407;BIAEP;01265;03164500400;04;Compte clos;25000
77991674;9/1/2022;9/1/2023;77019197;ANNUELLE;10165;STE BIAO ASSISTANCE FUN.;9/1/2017;9/1/2027;BIAO Assistance Funérailles;363424;M. GBE MAMADOU getheme;0707435434;BASF ;01222;02235025576;04;Compte clos;2700
77680616;8/1/2022;9/1/2022;21836795;MENSUELLE;3492;NULL;8/1/2022;8/1/2037;NT-NSIA RETRAITE;1176544;M. KOUASSI ELISE KOUAKOU;0709838449;A0042;01231;03133103003;04;Compte clos;56000
77824309;9/1/2022;9/1/2023;77014162;ANNUELLE;10165;STE BIAO ASSISTANCE FUN.;9/1/2016;9/1/2023;BIAO Assistance Funérailles;742255;MLE KONAN N'GORAN AMON CELESTINE;0749395752;BASF ;07238;03835058300;04;Compte clos;2700
77989381;9/1/2022;10/1/2022;78414213;MENSUELLE;10135;STE BIAO NOVA PENSION;1/1/2021;1/1/2027;NT-BIAO NOVA Pension;1020634;M. OYOUA STEPHANE DAVY;0708884825;NOVA ;01265;02893950250;04;Compte clos;17156
77899138;9/1/2022;10/1/2022;24601828;MENSUELLE;1786;Mle GBADJA MANSE SEPHORA;9/1/2017;9/1/2032;NT-NSIA PENSION Renfort;778903;M. OUMAROU  KANTE;0707267924;CI032;06001;00550390000;04;Compte clos;11415
77808468;9/1/2022;10/1/2022;76143200;MENSUELLE;10140;STE BIAO EPARGNE PLUS;2/1/2021;2/1/2027;EPARGNE PLUS BIAO;1026671;M. DJE KOUASSI ROGER PACOME;0707832550;BIAEP;01265;06535000132;04;Compte clos;5000
77767856;9/1/2022;9/1/2023;16818614;ANNUELLE;4026;NULL;9/1/2021;9/1/2031;NT - PREVOYANCE DECES FORFAIT;344671;M. ADOPO YAPI ALEXIS;NC;A0042;01230;03035096538;04;Compte clos;10500
77764524;9/1/2022;10/1/2022;73200957;MENSUELLE;10157;STE BIAO ETUDES;7/1/2016;7/1/2036;NT-BIAO Rente Education;735078;M. DADIE HERAKLES SARTRE;0777128293;BIAET;01230;03035230249;04;Compte clos;9733
77808472;9/1/2022;10/1/2022;73212427;MENSUELLE;10157;STE BIAO ETUDES;10/1/2021;10/1/2028;NT-BIAO Rente Education;1026697;M. KOFFI DJAMEN;0709752462;BIAET;05249;06391880250;04;Compte clos;4058
77825179;9/1/2022;9/1/2023;77013354;ANNUELLE;10165;STE BIAO ASSISTANCE FUN.;9/1/2016;9/1/2034;BIAO Assistance Funérailles;678161;Mle DEAZI OULOBO LYDIE;0709879561;BASF ;07238;03835057713;04;Compte clos;7800
77753646;9/1/2022;10/1/2022;76175519;MENSUELLE;10140;STE BIAO EPARGNE PLUS;9/1/2022;9/1/2027;EPARGNE PLUS BIAO;402603;M. KOUA KOUA PAUL;0101476120;BIAEP;26256;05634000164;04;Compte clos;10000
77859380;9/1/2022;10/1/2022;73214722;MENSUELLE;10157;STE BIAO ETUDES;6/1/2022;6/1/2037;NT-BIAO Rente Education;1116099;M. LANCINE  FOFANA ;0707945500;BIAET;19245;06217260250;04;Compte clos;4002
77773002;9/1/2022;9/1/2023;16816966;ANNUELLE;4131;NULL;9/1/2021;9/1/2036;NT - PREVOYANCE DECES FORFAIT;1055587;MLE COMOE DJEKREBOU LOUISE;22549027442;A0042;20289;03252560250;04;Compte clos;10500
77980623;9/1/2022;10/1/2022;21813727;MENSUELLE;3160;Mme KOUADIO EPSE N'GUETTIA AMOIN ANDR;2/1/2019;2/1/2034;NT-NSIA RETRAITE;637153;M. KONE PENAHOURE CLAUDE BERNARD;NC;A0042;01272;07235000991;04;Compte clos;11000
77821197;9/1/2022;10/1/2022;31227889;MENSUELLE;3875;NULL;8/1/2020;8/1/2035;NT-NSIA Etudes;976724;M. TAKY KOBENAN ARNOLD  ;0505705672;CI032;01001;00126597000;04;Compte clos;26355
77825869;9/1/2022;10/1/2022;73204519;MENSUELLE;10157;STE BIAO ETUDES;9/1/2017;9/1/2034;NT-BIAO Rente Education;776622;M. KONAN YAO FELIX;0707723729;BIAET;02232;03235000477;04;Compte clos;5388
77860550;9/1/2022;10/1/2022;73205051;MENSUELLE;10157;STE BIAO ETUDES;10/1/2017;10/1/2027;NT-BIAO Rente Education;784344;M. KABRE ALASSANE;00000001;BIAET;01272;02076890250;04;Compte clos;4428
77941255;9/1/2022;9/1/2023;16814312;ANNUELLE;1795;M. KORAHI OMER;9/1/2020;9/1/2035;NT - PREVOYANCE DECES FORFAIT;1002867;M. DAO IBRAHIM  ;0707341441;CI032;01028;00226235000;04;Compte clos;10500
77920921;9/1/2022;9/1/2023;77013396;ANNUELLE;10165;STE BIAO ASSISTANCE FUN.;9/1/2016;9/1/2026;BIAO Assistance Funérailles;740562;M. KOUAME N'GUESSAN CHRISTOPHE EMER;NON COMMUNIQUE;BASF ;38293;09335000334;04;Compte clos;2700
77986805;9/1/2022;10/1/2022;21830179;MENSUELLE;4322;NULL;11/1/2021;11/1/2036;NT-NSIA RETRAITE;1046316;MLE KIPRE DORINE CAROLLE;77496429;CI032;01018;00853944000;04;Compte clos;11000
77948491;9/1/2022;9/1/2023;16810924;ANNUELLE;3129;Mme TOH HONZIKA EMMA;9/1/2019;9/1/2034;NT - PREVOYANCE DECES FORFAIT;414332;M. SIOGNON KEMOSSIEOULOU LAURENT;0101575577;A0042;01231;03135071886;04;Compte clos;10500
77796949;9/1/2022;10/1/2022;76150756;MENSUELLE;10140;STE BIAO EPARGNE PLUS;6/1/2021;6/1/2026;EPARGNE PLUS BIAO;1057918;M. ALLOU JEAN-MARC VALERY;0152567585;BIAEP;01228;06533870250;04;Compte clos;5000
77863219;9/1/2022;10/1/2022;21617743;MENSUELLE;244;M. KOUAME KOFFI PASCAL;8/1/2013;8/1/2028;NSIA RETRAITE;617078;M. TUO GNALO JULIEN;0709018288;CI092;01001;08530700006;04;Compte clos;21000
77999494;9/1/2022;10/1/2022;73211148;MENSUELLE;10157;STE BIAO ETUDES;11/1/2020;11/1/2046;NT-BIAO Rente Education;1015222;M. GUIBE SERGE PACOME;0757105857;BIAET;05249;06392400250;04;Compte clos;1503
77844333;9/1/2022;10/1/2022;73210943;MENSUELLE;10157;STE BIAO ETUDES;1/1/2021;1/1/2031;NT-BIAO Rente Education;1015036;M. SIDIBE IBRAHIM  ;0709401710;BIAET;01222;02235230172;04;Compte clos;2801
77927785;9/1/2022;10/1/2022;21819873;MENSUELLE;292;M. BESSEKON ATSE INNOCENT;2/1/2020;2/1/2040;NT-NSIA RETRAITE;960412;M. BAHOUH BOMBRO PAUL HERBIN  ;0506822228;CI032;01004;00807225000;04;Compte clos;11000
77811086;9/1/2022;10/1/2022;73215089;MENSUELLE;10157;STE BIAO ETUDES;6/1/2022;6/1/2035;NT-BIAO Rente Education;1124520;M. KOKOU AKAKPO ;0585298100;BIAET;19245;06401290250;04;Compte clos;1997
77955785;9/1/2022;9/1/2023;77019143;ANNUELLE;10165;STE BIAO ASSISTANCE FUN.;9/1/2017;9/1/2027;BIAO Assistance Funérailles;775982;M. GNAMIEN ADEPO ABEL;0747925017;BASF ;25286;02134700400;04;Compte clos;18000
77753617;9/1/2022;10/1/2022;76175501;MENSUELLE;10140;STE BIAO EPARGNE PLUS;9/1/2022;9/1/2027;EPARGNE PLUS BIAO;530049;M. ABDOULAYE DIARRA;0707771111;BIAEP;01221;02134366753;04;Compte clos;10000
77863165;9/1/2022;10/1/2022;21610408;MENSUELLE;1850;Mme KOUAKOU AHOU Ebya Christiane;2/1/2011;2/1/2031;NSIA RETRAITE;463074;Mle KOFFI KOBAKAN ADJOUA FRANCE N;0707333876;A0042;04248;04835053507;04;Compte clos;16000
77783203;9/1/2022;10/1/2022;21833445;MENSUELLE;3472;M. KONE KPLEHONRON;3/1/2022;3/1/2029;NT-NSIA RETRAITE;380629;M. KPOHI BREVENT BADIROU;0709175889;A6500;01514;01200588000;04;Compte clos;11000
77999959;9/1/2022;10/1/2022;73212452;MENSUELLE;10157;STE BIAO ETUDES;2/1/2021;2/1/2031;NT-BIAO Rente Education;1026626;M. TOURE ISMAEL BABA;0747302090;BIAET;38293;06000470250;04;Compte clos;9961
77577512;8/1/2022;11/1/2022;21823241;TRIMESTRIELLE;3705;NULL;11/1/2020;11/1/2028;NT-NSIA RETRAITE;307961;M. GOGOUA KANON ARCHELIN;2722416815;A0042;05249;06167760250;04;Compte clos;91000
77950314;9/1/2022;10/1/2022;73209807;MENSUELLE;10157;STE BIAO ETUDES;12/1/2020;12/1/2030;NT-BIAO Rente Education;997161;M. OUDO YAVO CELESTIN  ;0102538694;BIAET;38293;06266010250;04;Compte clos;4280
77762655;9/1/2022;10/1/2022;76171798;MENSUELLE;10140;STE BIAO EPARGNE PLUS;7/1/2022;7/1/2027;EPARGNE PLUS BIAO;1146598;M. OROH JUDICAEL KROUBA;0709659720;BIAEP;01218;06963540250;04;Compte clos;5000
77753618;9/1/2022;10/1/2022;76175502;MENSUELLE;10140;STE BIAO EPARGNE PLUS;9/1/2022;9/1/2027;EPARGNE PLUS BIAO;743935;M. BAKYONON ARISTIDE;0506475259;BIAEP;01222;05803970250;04;Compte clos;10000
77780886;9/1/2022;9/1/2023;16811189;ANNUELLE;3348;M. N'GUESSAN YAO ATHANASE;9/1/2019;9/1/2029;NT - PREVOYANCE DECES FORFAIT;873827;M. SOUEMI PEUKA CHARLES DICKENS  ;0789627633;A0042;03246;02421540250;04;Compte clos;10500
77810135;9/1/2022;10/1/2022;21836795;MENSUELLE;3492;NULL;8/1/2022;8/1/2037;NT-NSIA RETRAITE;1176544;M. KOUASSI ELISE KOUAKOU;0709838449;A0042;01231;03133103003;04;Compte clos;51000
77930675;9/1/2022;9/1/2023;16817604;ANNUELLE;3669;NULL;9/1/2021;9/1/2057;NT - PREVOYANCE DECES FORFAIT;1068087;M. KOFFI YAO OSCAR;22545429519;A0042;01226;06608330250;04;Compte clos;18500
77739305;9/1/2022;12/1/2022;26010769;TRIMESTRIELLE;3727;NULL;9/1/2022;9/1/2037;NSIA Epargne Projet;1181537;MLE CESARINE YORO;0566729048;CI032;01029;00691392000;04;Compte clos;162000
77908058;9/1/2022;10/1/2022;71603561;MENSUELLE;10219;NULL;1/1/2022;1/1/2027;Banque Poulaire Eparge Bonus;1139434;MLE KPAN  DEPLEDO ROSINE;2250757116041;BP155;03201;01281350000;04;Compte clos;5000
77834112;9/1/2022;10/1/2022;21827527;MENSUELLE;4516;NULL;5/1/2021;5/1/2036;NT-NSIA RETRAITE;1057684;M. ALLANGBA N'GUESSAN LUCIEN;NC;CI032;04001;00594035000;04;Compte clos;41000
78011793;9/1/2022;10/1/2022;76175923;MENSUELLE;10140;STE BIAO EPARGNE PLUS;9/1/2022;9/1/2027;EPARGNE PLUS BIAO;1186463;M. TOMIN JUSTIN OULAI;0747054217;BIAEP;08234;03435230425;04;Compte clos;15000
77870737;9/1/2022;9/1/2023;16818088;ANNUELLE;4571;NULL;9/1/2021;9/1/2046;NT - PREVOYANCE DECES FORFAIT;1074329;M. WOGNIN RICHARD;22585515279;CI032;01005;00202762000;04;Compte clos;10500
77792989;9/1/2022;9/1/2023;16811205;ANNUELLE;3348;M. N'GUESSAN YAO ATHANASE;9/1/2019;9/1/2034;NT - PREVOYANCE DECES FORFAIT;873840;M. DIOMANDE MEANMO  ;0709550867;A0042;03246;03421890250;04;Compte clos;10500
77959294;9/1/2022;10/1/2022;73205806;MENSUELLE;10157;STE BIAO ETUDES;1/1/2018;1/1/2027;NT-BIAO Rente Education;737882;M. TOURE  YSSOUF;0708889607;BIAET;01259;05935230011;04;Compte clos;4691
77802705;9/1/2022;9/1/2023;16807505;ANNUELLE;3910;NULL;9/1/2018;9/1/2031;NT - PREVOYANCE DECES FORFAIT;825352;MLE ADOU AMON LUCIE  ;0707462689;A0042;01221;03155820250;04;Compte clos;10500
77859490;9/1/2022;10/1/2022;76166290;MENSUELLE;10140;STE BIAO EPARGNE PLUS;5/1/2022;5/1/2027;EPARGNE PLUS BIAO;1124753;MLE AICHA DIABY;0545131923;BIAEP;01272;06398620400;04;Compte clos;5000
77786969;9/1/2022;10/1/2022;26009608;MENSUELLE;3851;NULL;9/1/2021;9/1/2036;NSIA Epargne Projet;1081876;M. M'BRA AHOU GISÈLE;22578205950;CI032;02001;00456757000;04;Compte clos;17000
77896640;9/1/2022;9/1/2023;77019776;ANNUELLE;10165;STE BIAO ASSISTANCE FUN.;9/1/2017;9/1/2052;BIAO Assistance Funérailles;774083;M. N'GUESSAN MORONOU ROGER WILLIAMS;0747694583;BASF ;01269;06935230092;04;Compte clos;2700
77921450;9/1/2022;9/1/2023;77013066;ANNUELLE;10165;STE BIAO ASSISTANCE FUN.;9/1/2016;9/1/2026;BIAO Assistance Funérailles;739785;M. KOUEHIE BLEKA VALERY;0545178504;BASF ;01297;09735000208;04;Compte clos;2700
78004107;9/1/2022;10/1/2022;76106124;MENSUELLE;10140;STE BIAO EPARGNE PLUS;6/1/2018;6/1/2023;EPARGNE PLUS BIAO;818178;M. MOUSSO KOFFI LEONCE;0709555886;BIAEP;17290;02686100250;04;Compte clos;5000
77804510;9/1/2022;10/1/2022;76122992;MENSUELLE;10140;STE BIAO EPARGNE PLUS;10/1/2019;10/1/2024;EPARGNE PLUS BIAO;875571;M. TAHA EULOGE  ;0709969698;BIAEP;43296;03421700250;04;Compte clos;5000
77990263;9/1/2022;10/1/2022;26009641;MENSUELLE;4322;NULL;2/1/2022;2/1/2037;NSIA Epargne Projet;1046316;MLE KIPRE DORINE CAROLLE;77496429;CI032;01018;00853944000;04;Compte clos;6000
77880205;9/1/2022;10/1/2022;21825876;MENSUELLE;2437;M. AGUIBAHI MAISCENT-FERNAND;3/1/2021;3/1/2036;NT-NSIA RETRAITE;697807;Mle KOFFI AFFOUE YVETTE;0757361615;CI032;01004;00806885000;04;Compte clos;26558
77862064;9/1/2022;10/1/2022;73107743;MENSUELLE;10157;STE BIAO ETUDES;11/1/2013;11/1/2031;BIAO Rente Education;624365;M. TRABOUE BI GUESSAN CLEMENT;0707493632;BIAET;23253;05335058668;04;Compte clos;5475
77968487;9/1/2022;10/1/2022;78402711;MENSUELLE;10135;STE BIAO NOVA PENSION;1/1/2017;1/1/2032;NT-BIAO NOVA Pension;474173;M. DJE KOUASSI ROGER PACOME;0707832550;NOVA ;01265;06535000132;04;Compte clos;6525
78007149;9/1/2022;10/1/2022;76127709;MENSUELLE;10140;STE BIAO EPARGNE PLUS;4/1/2020;4/1/2026;EPARGNE PLUS BIAO;962875;M. BEUGRE BEKET PIERRE  ;0749290407;BIAEP;01279;07935000377;04;Compte clos;20000
77856925;9/1/2022;10/1/2022;76163007;MENSUELLE;10140;STE BIAO EPARGNE PLUS;2/1/2022;2/1/2027;EPARGNE PLUS BIAO;1102802;M. KONAN YAO FELIX;0707723729;BIAEP;02232;03235000477;04;Compte clos;5000
77900908;9/1/2022;9/1/2023;16810954;ANNUELLE;2800;M. KANGAH KOUADIO MARCEL;9/1/2019;9/1/2033;NT - PREVOYANCE DECES FORFAIT;714440;M. DRABO BASILE JUDICAEL;0787228035;CI032;01008;00505332001;04;Compte clos;10500
77859483;9/1/2022;10/1/2022;76166287;MENSUELLE;10140;STE BIAO EPARGNE PLUS;5/1/2022;5/1/2027;EPARGNE PLUS BIAO;1124750;MLE AICHA DIABY;0545131923;BIAEP;01272;06398620400;04;Compte clos;5000
77774005;9/1/2022;10/1/2022;76151029;MENSUELLE;10140;STE BIAO EPARGNE PLUS;6/1/2021;6/1/2026;EPARGNE PLUS BIAO;1058236;M. KOUASSI KOUAME RAOUL;0748390733;BIAEP;01297;09735000234;04;Compte clos;5000
77999961;9/1/2022;10/1/2022;78414567;MENSUELLE;10135;STE BIAO NOVA PENSION;2/1/2021;2/1/2038;NT-BIAO NOVA Pension;1026626;M. TOURE ISMAEL BABA;0747302090;NOVA ;38293;06000470250;04;Compte clos;8079
78019731;9/1/2022;10/1/2022;76176258;MENSUELLE;10140;STE BIAO EPARGNE PLUS;9/1/2022;9/1/2027;EPARGNE PLUS BIAO;1188017;M. TCHEZIBE ADAMA SILUE;0101595915;BIAEP;06233;03335018780;04;Compte clos;10000
77892325;9/1/2022;10/1/2022;73211617;MENSUELLE;10157;STE BIAO ETUDES;12/1/2020;12/1/2035;NT-BIAO Rente Education;1016646;M. TOURE OUMAR  ;0101013056;BIAET;08234;03435041677;04;Compte clos;1938
77804222;9/1/2022;10/1/2022;21815999;MENSUELLE;3854;NULL;6/1/2019;6/1/2027;NT-NSIA RETRAITE;813322;M. TOGOUE  OLIVIER;0777729759;CI032;01005;00201101000;04;Compte clos;11000
77659718;8/1/2022;8/1/2023;16822707;ANNUELLE;3492;NULL;8/1/2022;8/1/2037;NT - PREVOYANCE DECES FORFAIT;1174478;M. KOUASSI ELISE KOUAKOU;0709838449;A0042;01231;03133103003;04;Compte clos;10500
77999960;9/1/2022;10/1/2022;76143321;MENSUELLE;10140;STE BIAO EPARGNE PLUS;2/1/2021;2/1/2027;EPARGNE PLUS BIAO;1026626;M. TOURE ISMAEL BABA;0747302090;BIAEP;38293;06000470250;04;Compte clos;5000
77753630;9/1/2022;10/1/2022;76175509;MENSUELLE;10140;STE BIAO EPARGNE PLUS;9/1/2022;9/1/2027;EPARGNE PLUS BIAO;743935;M. BAKYONON ARISTIDE;0506475259;BIAEP;01222;05803970250;04;Compte clos;10000
77797444;9/1/2022;10/1/2022;73210041;MENSUELLE;10157;STE BIAO ETUDES;10/1/2020;10/1/2030;NT-BIAO Rente Education;1009213;M. ANGAMAN KADIO SIMON;0748206940;BIAET;01201;03460050280;04;Compte clos;5253
77783860;9/1/2022;10/1/2022;21828144;MENSUELLE;4478;NULL;6/1/2021;6/1/2036;NT-NSIA RETRAITE;1063284;M. KOFFI KABLAN BIENVENU;22509473982;CI032;01032;00715993000;04;Compte clos;11000
77892324;9/1/2022;10/1/2022;73211616;MENSUELLE;10157;STE BIAO ETUDES;12/1/2020;12/1/2035;NT-BIAO Rente Education;1016645;M. TOURE OUMAR  ;0101013056;BIAET;08234;03435041677;04;Compte clos;1938
77878723;9/1/2022;10/1/2022;76160894;MENSUELLE;10140;STE BIAO EPARGNE PLUS;10/1/2021;10/1/2026;EPARGNE PLUS BIAO;1084170;M. BOUKOUGOU GERARD;0748849493;BIAEP;07255;06693470250;04;Compte clos;5000
76779742;9/1/2022;10/1/2022;76169490;MENSUELLE;10140;STE BIAO EPARGNE PLUS;9/1/2022;9/1/2027;EPARGNE PLUS BIAO;1139920;M. PETER GBEDJE AMARI;0708040172;BIAEP;01228;02835060107;04;Compte clos;10000
77972512;9/1/2022;9/1/2023;16811452;ANNUELLE;3984;NULL;9/1/2019;9/1/2043;NT - PREVOYANCE DECES FORFAIT;877218;M. NAHOUNOU GUY STEPHANE;0777410680;CI032;01026;00864399000;04;Compte clos;18500
78015782;9/1/2022;10/1/2022;76175958;MENSUELLE;10140;STE BIAO EPARGNE PLUS;9/1/2022;9/1/2027;EPARGNE PLUS BIAO;1186772;M. GUEU FABIEN;0505805798;BIAEP;19245;04535068714;04;Compte clos;10000
77826824;9/1/2022;9/1/2023;16807449;ANNUELLE;3843;NULL;9/1/2018;9/1/2048;NT - PREVOYANCE DECES FORFAIT;819496;M. NEMLIN  NICODEME;0758184134;CI032;07001;00306048000;04;Compte clos;18500
77781355;9/1/2022;10/1/2022;31235868;MENSUELLE;3910;NULL;12/1/2021;12/1/2034;NT-NSIA Etudes;1089523;M. OUATTARA SAMBA SYLVAIN;22504696786;CI032;02001;00453901002;04;Compte clos;7404
77862882;9/1/2022;10/1/2022;73204005;MENSUELLE;10157;STE BIAO ETUDES;8/1/2017;8/1/2037;NT-BIAO Rente Education;534336;M. SORO NIRIWA;0708757165;BIAET;06233;03335019226;04;Compte clos;2376
77788700;9/1/2022;10/1/2022;73203071;MENSUELLE;10157;STE BIAO ETUDES;5/1/2017;5/1/2032;NT-BIAO Rente Education;144636;M. ORO KORE OLIVIER;2721759950;BIAET;04248;04835053991;04;Compte clos;5527
77850029;9/1/2022;10/1/2022;76038678;MENSUELLE;10140;STE BIAO EPARGNE PLUS;7/1/2013;7/1/2023;EPARGNE PLUS BIAO;607583;Mle EBIAN AFFIBA JEANNETTE;0749662712;BIAEP;01222;02235026196;04;Compte clos;10000
77735042;9/1/2022;10/1/2022;76175432;MENSUELLE;10140;STE BIAO EPARGNE PLUS;9/1/2022;9/1/2027;EPARGNE PLUS BIAO;1181118;M. ELVIS TRESOR YATTE;0103606413;BIAEP;01279;07935000326;04;Compte clos;10000
78020267;9/1/2022;10/1/2022;31241775;MENSUELLE;4021;NULL;9/1/2022;9/1/2034;NT-NSIA Etudes;1188857;MME YAWA AGATHE GBOKO;0758266831;CI032;01014;00631655000;04;Compte clos;20787
77912541;9/1/2022;9/1/2023;77007386;ANNUELLE;10165;STE BIAO ASSISTANCE FUN.;9/1/2015;9/1/2040;BIAO Assistance Funérailles;706079;M. AMON AKPOSSAN SIMON-PIERRE;0748157226;BASF ;01259;05935000451;04;Compte clos;2700
77813051;9/1/2022;9/1/2023;77013437;ANNUELLE;10165;STE BIAO ASSISTANCE FUN.;9/1/2016;9/1/2034;BIAO Assistance Funérailles;740553;MLE HOUESSINON VICTOIRE PATRICIA;0749241537;BASF ;12276;07635000116;04;Compte clos;18000
77769344;9/1/2022;10/1/2022;73206068;MENSUELLE;10157;STE BIAO ETUDES;2/1/2018;2/1/2023;NT-BIAO Rente Education;799728;M. DAOUDA ALi;0707765806;BIAET;01222;02235022589;04;Compte clos;5804
77780951;9/1/2022;10/1/2022;76133101;MENSUELLE;10140;STE BIAO EPARGNE PLUS;12/1/2020;12/1/2027;EPARGNE PLUS BIAO;981838;MME GOLI AFFOUHE ANNE MARIE  ;0708231750;BIAEP;01288;08835000226;04;Compte clos;10000
77864876;9/1/2022;10/1/2022;21830985;MENSUELLE;4322;NULL;2/1/2022;2/1/2037;NT-NSIA RETRAITE;1090227;MLE GUEDE DOGORE FRANCOISE YASMINE;22559509536;CI032;01028;00227028000;04;Compte clos;16000
78022536;9/1/2022;10/1/2022;31242138;MENSUELLE;3606;NULL;9/1/2022;9/1/2037;NT-NSIA Etudes;1190081;M. MAHAMADOU MANSOUR SECK;0575808737;A0042;01235;03062080250;04;Compte clos;18022
77307370;9/1/2022;10/1/2022;24608347;MENSUELLE;4513;NULL;9/1/2022;9/1/2038;NT-NSIA PENSION Renfort;1165757;M. DION ROBERT GLOU;22586355655;A0042;04248;04835230308;04;Compte clos;30288
77756807;9/1/2022;10/1/2022;76175664;MENSUELLE;10140;STE BIAO EPARGNE PLUS;9/1/2022;9/1/2027;EPARGNE PLUS BIAO;1184246;M. BASSIROU TOURE;0140466636;BIAEP;01223;02334314561;04;Compte clos;10000
77765353;9/1/2022;10/1/2022;73204058;MENSUELLE;10157;STE BIAO ETUDES;9/1/2017;9/1/2025;NT-BIAO Rente Education;775062;M. KOUASSI ADOUKO MARC;0555285425;BIAET;26256;05635062048;04;Compte clos;9991
77894559;9/1/2022;10/1/2022;21828764;MENSUELLE;3669;NULL;7/1/2021;7/1/2036;NT-NSIA RETRAITE;1070422;MLE KOUADIO LILIANE GERTRUDE;22559996654;CI032;01009;00258002000;04;Compte clos;13393
77912530;9/1/2022;9/1/2023;77007283;ANNUELLE;10165;STE BIAO ASSISTANCE FUN.;9/1/2015;9/1/2025;BIAO Assistance Funérailles;705991;M. KONAN N'GUESSAN JEAN MARIE;0747547494;BASF ;20289;08935000106;04;Compte clos;4400
77625632;8/1/2022;9/1/2022;78414567;MENSUELLE;10135;STE BIAO NOVA PENSION;2/1/2021;2/1/2038;NT-BIAO NOVA Pension;1026626;M. TOURE ISMAEL BABA;0747302090;NOVA ;38293;06000470250;04;Compte clos;8079
77857338;9/1/2022;10/1/2022;73209665;MENSUELLE;10157;STE BIAO ETUDES;8/1/2020;8/1/2035;NT-BIAO Rente Education;992847;M. GBOHO GNOMPOA GUEHAHASSENLA MAR  ;0778167188;BIAET;03246;06286700250;04;Compte clos;2247
77762450;9/1/2022;12/1/2022;31224444;TRIMESTRIELLE;3369;Mle GNAPI VAGBEU RAHAB EUGENIE;12/1/2019;12/1/2036;NT-NSIA Etudes;712898;M. JAMMAL ALI;0708013610;A0042;01350;03180620250;04;Compte clos;64894
77988335;9/1/2022;10/1/2022;73209721;MENSUELLE;10157;STE BIAO ETUDES;8/1/2020;8/1/2035;NT-BIAO Rente Education;994406;M. DIOMANDE NAMORY  ;0749145256;BIAET;03246;06311720250;04;Compte clos;2151
77829162;9/1/2022;10/1/2022;73208921;MENSUELLE;10157;STE BIAO ETUDES;11/1/2019;11/1/2039;NT-BIAO Rente Education;881459;M. DAGO DAGO SERGE LANDRY;0709128064;BIAET;23285;06085920250;04;Compte clos;5018
77829095;9/1/2022;9/1/2023;16811291;ANNUELLE;2898;M. TAPE IBO TREVOR ARMEL;9/1/2019;9/1/2034;NT - PREVOYANCE DECES FORFAIT;762463;MME YEBOI ABENAN ISABELLE  ;0101955410;A6500;01001;10929730009;04;Compte clos;10500
77951671;9/1/2022;9/1/2023;16817085;ANNUELLE;3803;NULL;9/1/2021;9/1/2036;NT - PREVOYANCE DECES FORFAIT;658845;M. ABO DIANE BIENVENUE;0505288933;A0042;10237;03735130281;04;Compte clos;10500
77876721;9/1/2022;10/1/2022;73208555;MENSUELLE;10157;STE BIAO ETUDES;12/1/2019;12/1/2024;NT-BIAO Rente Education;503338;Mle KOFFI TIA PAUL CHARIERE;0140404335;BIAET;01231;03135230643;04;Compte clos;5270
77805951;9/1/2022;10/1/2022;21821146;MENSUELLE;3252;M. DJETTO GUY FIRMIN;5/1/2020;5/1/2035;NT-NSIA RETRAITE;646917;Mme TOURE KPANTCHIN CECILE;0707319521;A0042;01231;03135067135;04;Compte clos;16773
77976114;9/1/2022;10/1/2022;73212524;MENSUELLE;10157;STE BIAO ETUDES;2/1/2021;2/1/2026;NT-BIAO Rente Education;1027309;M. SANHOUIN ATSE WILFRIED;0505237641;BIAET;01209;06477560250;04;Compte clos;8440
77969693;9/1/2022;10/1/2022;31213543;MENSUELLE;3571;NULL;9/1/2018;9/1/2032;NT-NSIA Etudes;636040;M. AKA BERENSON;0708624203;A0042;09251;05135061035;04;Compte clos;13784
77830004;9/1/2022;10/1/2022;76159229;MENSUELLE;10140;STE BIAO EPARGNE PLUS;9/1/2021;9/1/2026;EPARGNE PLUS BIAO;1079280;M. LEGRE KOUASSI OLIVIER SERGE;0707983400;BIAEP;01350;08002110250;04;Compte clos;10000
77441044;8/1/2022;9/1/2022;76122992;MENSUELLE;10140;STE BIAO EPARGNE PLUS;10/1/2019;10/1/2024;EPARGNE PLUS BIAO;875571;M. TAHA EULOGE  ;0709969698;BIAEP;43296;03421700250;04;Compte clos;5000
77792984;9/1/2022;9/1/2023;16811194;ANNUELLE;3510;NULL;9/1/2019;9/1/2034;NT - PREVOYANCE DECES FORFAIT;873832;M. N'GUESSAN KAN EDGARD AYMAR  ;0709593574;A0042;17290;03091240250;04;Compte clos;18500
77947733;9/1/2022;10/1/2022;76094749;MENSUELLE;10140;STE BIAO EPARGNE PLUS;2/1/2018;2/1/2023;EPARGNE PLUS BIAO;798633;M. TOURE ADAMA;0757929150;BIAEP;09251;05135230099;04;Compte clos;10000
77988256;9/1/2022;10/1/2022;73209636;MENSUELLE;10157;STE BIAO ETUDES;8/1/2020;8/1/2040;NT-BIAO Rente Education;989810;MLE FANTA BAMBA  ;0708820464;BIAET;03246;06305910250;04;Compte clos;2191
77839733;9/1/2022;10/1/2022;21623225;MENSUELLE;298;M. KRAGBE DOUGROU HYACINTE;1/1/2015;1/1/2030;NSIA RETRAITE;682201;Mle ANON ANEY PHILOMENE;0747182710;CI092;01008;03263580002;04;Compte clos;16000
76779783;9/1/2022;10/1/2022;76169504;MENSUELLE;10140;STE BIAO EPARGNE PLUS;9/1/2022;9/1/2027;EPARGNE PLUS BIAO;1139985;M. ISSOUMAILA BAKAYOKO;0566360058;BIAEP;01228;02835061751;04;Compte clos;10000
77836697;9/1/2022;10/1/2022;73203318;MENSUELLE;10157;STE BIAO ETUDES;7/1/2017;7/1/2037;NT-BIAO Rente Education;743897;M. KOMENAN PEPEKO SALOMON;0707607778;BIAET;23285;08535000159;04;Compte clos;1380
77952587;9/1/2022;10/1/2022;76165267;MENSUELLE;10140;STE BIAO EPARGNE PLUS;5/1/2022;5/1/2027;EPARGNE PLUS BIAO;1119011;M. MAMADOU YARA;0505792002;BIAEP;19245;06871200250;04;Compte clos;10000
77942540;9/1/2022;10/1/2022;73213045;MENSUELLE;10157;STE BIAO ETUDES;7/1/2021;7/1/2041;NT-BIAO Rente Education;1067513;M. N'CHO TAHI ERICK;0140184445;BIAET;01217;01735001970;04;Compte clos;4894
77921305;9/1/2022;9/1/2023;77019576;ANNUELLE;10165;STE BIAO ASSISTANCE FUN.;9/1/2017;9/1/2042;BIAO Assistance Funérailles;776922;MLE ADOU AMANDI SIE ESSANE ANNETTE;0707896728;BASF ;01279;02026820250;04;Compte clos;2700
77852461;9/1/2022;3/1/2023;21815549;SEMESTRIELLE;1786;Mle GBADJA MANSE SEPHORA;3/1/2016;3/1/2031;NT-NSIA RETRAITE;723993;M. SILUE  YEPE N'GBENA RAYMOND;0708173876;CI092;01001;03558600002;04;Compte clos;91000
77797376;9/1/2022;10/1/2022;76155039;MENSUELLE;10140;STE BIAO EPARGNE PLUS;8/1/2021;8/1/2026;EPARGNE PLUS BIAO;1071751;MLE ETASSOLI MEKENAWE;0564577040;BIAEP;09251;06447040400;04;Compte clos;5000
77859152;9/1/2022;10/1/2022;31235639;MENSUELLE;4169;NULL;10/1/2021;10/1/2039;NT-NSIA Etudes;1086835;M. YOBOUE KOFFI GONNI;22509233153;CI032;04001;00538857000;04;Compte clos;13248
77875933;9/1/2022;10/1/2022;78411043;MENSUELLE;10135;STE BIAO NOVA PENSION;5/1/2019;5/1/2044;NT-BIAO NOVA Pension;636040;M. AKA BERENSON;0708624203;NOVA ;09251;05135061035;04;Compte clos;10578
77887308;9/1/2022;9/1/2023;77020097;ANNUELLE;10165;STE BIAO ASSISTANCE FUN.;9/1/2017;9/1/2037;BIAO Assistance Funérailles;300654;M. DAFRA JEAN PHILIPPE;0707347640;BASF ;01229;02935014192;04;Compte clos;18000
77805579;9/1/2022;10/1/2022;31234753;MENSUELLE;4614;NULL;9/1/2021;9/1/2039;NT-NSIA Etudes;1078655;M. GNEBEHI ARISTIDE LANDRY;22588238684;CI032;01024;00966370000;04;Compte clos;16166
77914688;9/1/2022;10/1/2022;73209777;MENSUELLE;10157;STE BIAO ETUDES;9/1/2020;9/1/2030;NT-BIAO Rente Education;996682;M. ADAMA DOUMBIA  ;0709763209;BIAET;03246;06329100250;04;Compte clos;2984
77992644;9/1/2022;10/1/2022;76109963;MENSUELLE;10140;STE BIAO EPARGNE PLUS;9/1/2018;9/1/2023;EPARGNE PLUS BIAO;785034;M. DJAHOUDE KOUAKOU TANOH;0757130335;BIAEP;17290;02179690250;04;Compte clos;5000
77790974;9/1/2022;10/1/2022;78402071;MENSUELLE;10135;STE BIAO NOVA PENSION;12/1/2016;12/1/2046;NT-BIAO NOVA Pension;731593;MLE YAO N'GUESSAN LUCIE;0748620217;NOVA ;01235;03535230011;04;Compte clos;7102
78016760;9/1/2022;10/1/2022;76176066;MENSUELLE;10140;STE BIAO EPARGNE PLUS;9/1/2022;9/1/2027;EPARGNE PLUS BIAO;1187450;M. YANNICK  NIAMIEN;0788358781;BIAEP;01281;08135000439;04;Compte clos;10000
77900130;9/1/2022;9/1/2023;77006741;ANNUELLE;10165;STE BIAO ASSISTANCE FUN.;9/1/2015;9/1/2030;BIAO Assistance Funérailles;644529;M. OTTOU ARIA REMI;0707077534;BASF ;01266;06635000015;04;Compte clos;26500
78004159;9/1/2022;10/1/2022;73203382;MENSUELLE;10157;STE BIAO ETUDES;8/1/2017;8/1/2032;NT-BIAO Rente Education;770319;M. KOFFI KOUAME ALEXIS;00000000;BIAET;11252;05235044040;04;Compte clos;5924
77833201;9/1/2022;10/1/2022;73213106;MENSUELLE;10157;STE BIAO ETUDES;8/1/2021;8/1/2031;NT-BIAO Rente Education;1072195;M. ACHO SEKA ADIKO FRANCK EVRARD;0769699949;BIAET;13277;06630870250;04;Compte clos;2524
77958648;9/1/2022;10/1/2022;21625741;MENSUELLE;269;M. AHY KOUAKOU EDGARD;7/1/2015;7/1/2030;NSIA RETRAITE;639093;Mle FOFANA LILY CLARA;0708291967;A0042;09251;05135061036;04;Compte clos;16000
77955103;9/1/2022;10/1/2022;76171796;MENSUELLE;10140;STE BIAO EPARGNE PLUS;7/1/2022;7/1/2027;EPARGNE PLUS BIAO;1146596;M. OROH JUDICAEL KROUBA;0709659720;BIAEP;01218;06963540250;04;Compte clos;5000
77879771;9/1/2022;10/1/2022;73212297;MENSUELLE;10157;STE BIAO ETUDES;1/1/2021;1/1/2036;NT-BIAO Rente Education;1021364;MME KONAN AMOIN CLARISSE;0708243510;BIAET;38293;06000250250;04;Compte clos;10031
77811046;9/1/2022;10/1/2022;73215078;MENSUELLE;10157;STE BIAO ETUDES;5/1/2022;5/1/2036;NT-BIAO Rente Education;1124466;M. LEYEMON OULOUE PLACIDE VA SIOMON ;0708805832;BIAET;19245;06365190250;04;Compte clos;2656
77785627;9/1/2022;10/1/2022;73210722;MENSUELLE;10157;STE BIAO ETUDES;11/1/2020;11/1/2030;NT-BIAO Rente Education;1014863;M. KOUASSI ADOU APPOLINAIRE  ;0140556763;BIAET;01209;06269030250;04;Compte clos;2487
77802692;9/1/2022;9/1/2023;16807501;ANNUELLE;3836;NULL;9/1/2018;9/1/2050;NT - PREVOYANCE DECES FORFAIT;825590;MME N'GUESSAN  N'GUESSAN PATRICIA;0505210278;CI032;01020;00925361000;04;Compte clos;10500
77837713;9/1/2022;9/1/2023;77019013;ANNUELLE;10165;STE BIAO ASSISTANCE FUN.;9/1/2017;9/1/2033;BIAO Assistance Funérailles;775773;M. VEH ARCHINARD SERAPHIN;0708668105;BASF ;03246;04635230795;04;Compte clos;18000
77833755;9/1/2022;10/1/2022;76145334;MENSUELLE;10140;STE BIAO EPARGNE PLUS;3/1/2021;3/1/2026;EPARGNE PLUS BIAO;1044294;M. DJO JOEL DESIRE;0749699385;BIAEP;01201;06517300250;04;Compte clos;10000
77864060;9/1/2022;10/1/2022;76117206;MENSUELLE;10140;STE BIAO EPARGNE PLUS;6/1/2019;6/1/2024;EPARGNE PLUS BIAO;852684;M. KANTE MAMADOU YERO;0707193395;BIAEP;01299;03061840250;04;Compte clos;5000
77832087;9/1/2022;10/1/2022;73211659;MENSUELLE;10157;STE BIAO ETUDES;12/1/2020;12/1/2031;NT-BIAO Rente Education;1016734;M. OUATTARA KABIE MAMADOU  ;0709830647;BIAET;54303;06418070250;04;Compte clos;4648
77783678;9/1/2022;10/1/2022;31238237;MENSUELLE;3472;M. KONE KPLEHONRON;4/1/2022;4/1/2039;NT-NSIA Etudes;1109647;M. OUANALIHIBE MARIAME OUATTARA;22501218089;CI092;06001;00358323000;04;Compte clos;11677
77845370;9/1/2022;10/1/2022;76155037;MENSUELLE;10140;STE BIAO EPARGNE PLUS;8/1/2021;8/1/2026;EPARGNE PLUS BIAO;1071751;MLE ETASSOLI MEKENAWE;0564577040;BIAEP;09251;06447040400;04;Compte clos;5000
77911412;9/1/2022;10/1/2022;31217516;MENSUELLE;2257;M. OUATTARA KAFELEGUEMA;3/1/2019;3/1/2035;NT-NSIA Etudes;847015;M. KOUASSI  N'GORAN OLIVIER;0141829817;CI092;01012;09116750003;04;Compte clos;4862
77859439;9/1/2022;10/1/2022;76166248;MENSUELLE;10140;STE BIAO EPARGNE PLUS;5/1/2022;5/1/2027;EPARGNE PLUS BIAO;1124704;M. AICHA DIABY;0545131923;BIAEP;01272;06398620400;04;Compte clos;5000
77560393;8/1/2022;8/1/2023;16810490;ANNUELLE;3976;NULL;8/1/2019;8/1/2027;NT - PREVOYANCE DECES FORFAIT;349976;M. GAGNE DJIROBO LUCIEN;0708965985;A0042;07255;02672550250;04;Compte clos;18500
77038357;9/1/2022;10/1/2022;76171524;MENSUELLE;10140;STE BIAO EPARGNE PLUS;9/1/2022;9/1/2027;EPARGNE PLUS BIAO;1146219;M. ELISA RACHEL OSSOFI;0708543751;BIAEP;01227;02734465408;04;Compte clos;10000
78012555;9/1/2022;10/1/2022;26010888;MENSUELLE;4270;NULL;9/1/2022;9/1/2037;NSIA Epargne Projet;1186601;M. ADOUAKOUA ARMAND EKIAN;22507727769;A0042;01209;06622730250;04;Compte clos;17000
77963291;9/1/2022;10/1/2022;24605927;MENSUELLE;4124;NULL;10/1/2020;10/1/2040;NT-NSIA PENSION Renfort;849512;M. ANGAMAN KADIO SIMON  ;0748206940;A0042;01201;03460050280;04;Compte clos;10452
77977075;9/1/2022;10/1/2022;21823882;MENSUELLE;4197;NULL;2/1/2021;2/1/2036;NT-NSIA RETRAITE;1014118;M. KONAN KOFFI EZECHIEL  ;0102643945;CI092;04001;00064206000;04;Compte clos;101000
77987615;9/1/2022;10/1/2022;73213236;MENSUELLE;10157;STE BIAO ETUDES;10/1/2021;10/1/2026;NT-BIAO Rente Education;1083766;M. KONE SIRABANA;0505110958;BIAET;02232;06695400250;04;Compte clos;10193
78005308;9/1/2022;10/1/2022;73205540;MENSUELLE;10157;STE BIAO ETUDES;12/1/2017;12/1/2025;NT-BIAO Rente Education;606981;M. AMALAMAN AMALAMAN LOUIS;0707426481;BIAET;03246;04635082741;04;Compte clos;3391
77799214;9/1/2022;10/1/2022;73214995;MENSUELLE;10157;STE BIAO ETUDES;7/1/2022;7/1/2034;NT-BIAO Rente Education;1124154;M. BAZOUMANA SANOGO;0506561975;BIAET;19245;04535230353;04;Compte clos;2469
77608026;8/1/2022;9/1/2022;31025779;MENSUELLE;2893;M. YOBOUE KOUAME NESTOR;11/1/2014;11/1/2025;NSIA ETUDES;667690;M. EBA KOUAME KOMENAN JACQUES;0749793821;CI092;07001;03010430003;04;Compte clos;5528
77847435;9/1/2022;10/1/2022;21836011;MENSUELLE;4149;NULL;7/1/2022;7/1/2037;NT-NSIA RETRAITE;1147283;M. EVARISTE ARSENE GOUH;22540466068;CI032;10001;00353497000;04;Compte clos;26000
77996582;9/1/2022;10/1/2022;26007318;MENSUELLE;2070;Mle KANTE FATOU;11/1/2019;11/1/2034;NSIA Epargne Projet;879260;M. BAGO KOUKA ARTHUR - NASAIRE  ;0556296072;CI032;08001;00326243000;04;Compte clos;21000
77900906;9/1/2022;9/1/2023;16810953;ANNUELLE;3350;M. KALO KOUAKOU RAOUL BAUDOIN;9/1/2019;9/1/2033;NT - PREVOYANCE DECES FORFAIT;727051;M. KONAN N'DRI THEODORE;0708039482;A0042;17290;09035000110;04;Compte clos;10500
77988961;9/1/2022;10/1/2022;76139940;MENSUELLE;10140;STE BIAO EPARGNE PLUS;11/1/2020;11/1/2025;EPARGNE PLUS BIAO;1012634;M. BAHIKORO  ABDOUL AKRIM  ;0555778381;BIAEP;08234;06154300250;04;Compte clos;5615
77841857;9/1/2022;10/1/2022;76125132;MENSUELLE;10140;STE BIAO EPARGNE PLUS;11/1/2019;11/1/2024;EPARGNE PLUS BIAO;881873;M. BAMBA DAOUDA  ;0102005595;BIAEP;01217;06037220250;04;Compte clos;5000
77833404;9/1/2022;10/1/2022;73210784;MENSUELLE;10157;STE BIAO ETUDES;11/1/2020;11/1/2025;NT-BIAO Rente Education;1014921;M. ZAMBLE BI DJE  ;0504021962;BIAET;01228;02835061008;04;Compte clos;11306
77769510;9/1/2022;9/1/2023;77005854;ANNUELLE;10165;STE BIAO ASSISTANCE FUN.;9/1/2014;9/1/2024;BIAO Assistance Funérailles;669737;M. BINI KOUAKOU;0707843673;BASF ;01217;01735000574;04;Compte clos;9500
76495573;9/1/2022;10/1/2022;76164980;MENSUELLE;10140;STE BIAO EPARGNE PLUS;9/1/2022;9/1/2027;EPARGNE PLUS BIAO;1115608;MLE BEATRICE GUEI;0505221862;BIAEP;01228;02835057061;04;Compte clos;10000
77918691;9/1/2022;10/1/2022;76145821;MENSUELLE;10140;STE BIAO EPARGNE PLUS;4/1/2021;4/1/2026;EPARGNE PLUS BIAO;1044861;M. KOUADIO KOUASSI PACOME;0749595001;BIAEP;01201;06511290250;04;Compte clos;5000
77944815;9/1/2022;9/1/2023;77013992;ANNUELLE;10165;STE BIAO ASSISTANCE FUN.;9/1/2016;9/1/2042;BIAO Assistance Funérailles;741150;M. YEO CHIONTIOTANA EDMOND;0708103331;BASF ;01297;09735000228;04;Compte clos;2700
77911346;9/1/2022;10/1/2022;24601038;MENSUELLE;2767;Mle AGBO-PANZO G. ELVIRE;1/1/2017;1/1/2034;NT-NSIA PENSION Renfort;480402;Mle N'GUESSAN JOLIANE CLAIRE;0709271639;CI032;01028;00227490001;04;Compte clos;7017
77840574;9/1/2022;9/1/2023;77003373;ANNUELLE;10165;STE BIAO ASSISTANCE FUN.;9/1/2012;9/1/2035;BIAO Assistance Funérailles;546730;M. OUPOH FRANCK;NC;BASF ;01217;01735230021;04;Compte clos;18000
77879446;9/1/2022;10/1/2022;21823370;MENSUELLE;3521;NULL;10/1/2020;10/1/2035;NT-NSIA RETRAITE;1008384;M. KAMAGATE LADJI  ;0707125218;CI032;01029;00690949001;04;Compte clos;16000
77827762;9/1/2022;9/1/2023;33311521;ANNUELLE;2113;M. N'GUESSAN NYAMIEN A.;9/1/2011;9/1/2030;NSIA Assistance Funérailles;476846;M. KOFFI N'DRI RACHEL;0709712109;CI092;04001;00600980003;04;Compte clos;35000
77889434;9/1/2022;10/1/2022;73210410;MENSUELLE;10157;STE BIAO ETUDES;12/1/2020;12/1/2025;NT-BIAO Rente Education;1012299;M. AHOSSIVO ADAM'S SOULEYMANE ULRICH  ;0709020849;BIAET;01274;06398020250;04;Compte clos;5245
77933466;9/1/2022;9/1/2023;77019932;ANNUELLE;10165;STE BIAO ASSISTANCE FUN.;9/1/2017;9/1/2027;BIAO Assistance Funérailles;777934;M.  TANO ATTOUMBRE MARIE CLAUDINE   ;0789880005;BASF ;02232;03235230812;04;Compte clos;2700
77813373;9/1/2022;10/1/2022;73201416;MENSUELLE;10157;STE BIAO ETUDES;9/1/2016;9/1/2028;NT-BIAO Rente Education;584252;M. YORO SEHABLE LAURENT;NC;BIAET;01231;03135070055;04;Compte clos;3336
77770141;9/1/2022;9/1/2023;77018584;ANNUELLE;10165;STE BIAO ASSISTANCE FUN.;9/1/2017;9/1/2032;BIAO Assistance Funérailles;771643;M. ZOGOU YOBOUE BODOUIN;0504648903;BASF ;01294;02041420250;04;Compte clos;2700
77850213;9/1/2022;10/1/2022;73107211;MENSUELLE;10157;STE BIAO ETUDES;1/1/2013;1/1/2028;BIAO Rente Education;570767;M. KRA KOUAKOU DOMINIQUE;0102005104;BIAET;01229;02935013835;04;Compte clos;8856
78003496;9/1/2022;10/1/2022;71602980;MENSUELLE;10219;NULL;11/1/2021;11/1/2026;Banque Poulaire Eparge Bonus;1144307;M. GBONGUE  BAMBA CHALES;2250757306220;BP155;01202;01352136000;04;Compte clos;5000
77979325;9/1/2022;10/1/2022;71602240;MENSUELLE;10219;NULL;1/1/2022;1/1/2027;Banque Poulaire Eparge Bonus;1164629;M. YAPO ACHO PATRICE;2250102180915;BP155;01201;00200617380;04;Compte clos;10000
77793078;9/1/2022;10/1/2022;73208829;MENSUELLE;10157;STE BIAO ETUDES;11/1/2019;11/1/2030;NT-BIAO Rente Education;881123;M. DOUMBIA BAKARY  ;0708441857;BIAET;23285;06041950250;04;Compte clos;5812
77868051;9/1/2022;10/1/2022;24605288;MENSUELLE;2919;M. KOFFI ATTAHI MICHEL;4/1/2020;4/1/2033;NT-NSIA PENSION Renfort;976921;MME DJYA EPSE DAGROU BONEHO VIVIANE  ;0140235465;A6500;01001;01122581000;04;Compte clos;13654
77921451;9/1/2022;9/1/2023;77013071;ANNUELLE;10165;STE BIAO ASSISTANCE FUN.;9/1/2016;9/1/2026;BIAO Assistance Funérailles;724809;M. KONAN KOUAME MARCELIN  ;0555406137;BASF ;23285;08535000114;04;Compte clos;2700
77837300;9/1/2022;10/1/2022;78408945;MENSUELLE;10135;STE BIAO NOVA PENSION;7/1/2018;7/1/2033;NT-BIAO NOVA Pension;823663;M. KAMAGATE SEYDOU IBRAHIM;0708289716;NOVA ;19245;02780680280;04;Compte clos;6837
77913912;9/1/2022;10/1/2022;73211816;MENSUELLE;10157;STE BIAO ETUDES;12/1/2020;12/1/2033;NT-BIAO Rente Education;1017836;M. TOAN BI YORO ERIC;0707714497;BIAET;01222;02235230205;04;Compte clos;3938
77880645;9/1/2022;9/1/2023;16813949;ANNUELLE;3492;NULL;9/1/2020;9/1/2057;NT - PREVOYANCE DECES FORFAIT;992882;M. ADOU GUY CONSTANT EMMANUEL  ;0749480274;A0042;15298;06304710250;04;Compte clos;10500
77799759;9/1/2022;10/1/2022;76173141;MENSUELLE;10140;STE BIAO EPARGNE PLUS;7/1/2022;7/1/2027;EPARGNE PLUS BIAO;1160293;M. ALEXIS CONSTANTIN KOUADIO;0757451920;BIAEP;18242;02498070280;04;Compte clos;5000
77850212;9/1/2022;10/1/2022;73107212;MENSUELLE;10157;STE BIAO ETUDES;1/1/2013;1/1/2023;BIAO Rente Education;570767;M. KRA KOUAKOU DOMINIQUE;0102005104;BIAET;01229;02935013835;04;Compte clos;12884
78019736;9/1/2022;10/1/2022;76176263;MENSUELLE;10140;STE BIAO EPARGNE PLUS;9/1/2022;9/1/2027;EPARGNE PLUS BIAO;1188023;M. SETCHINHOUIN MICHEL YEO ;0505457836;BIAEP;06233;03335011869;04;Compte clos;10000
77973061;9/1/2022;12/1/2022;24607115;TRIMESTRIELLE;4285;NULL;9/1/2021;9/1/2036;NT-NSIA PENSION Renfort;995639;M. KOUADIO KOUASSI THIERRY HERMANN;0708312389;CI032;08001;00328838000;04;Compte clos;53673
77970736;9/1/2022;10/1/2022;21620316;MENSUELLE;2411;M. KRA KOUAME ARISTIDE;5/1/2014;5/1/2032;NSIA RETRAITE;649500;M. AGOH FELICIEN;0505817732;CI092;01008;03210170008;04;Compte clos;17695
77896526;9/1/2022;10/1/2022;21811270;MENSUELLE;3785;NULL;7/1/2018;7/1/2039;NT-NSIA RETRAITE;661612;M. DIBI WILFRIED;0707454480;CI032;01001;00122852000;04;Compte clos;22512
77906029;9/1/2022;10/1/2022;76147956;MENSUELLE;10140;STE BIAO EPARGNE PLUS;4/1/2021;4/1/2026;EPARGNE PLUS BIAO;1047983;M. SIMPORE NARCISSE;0142549347;BIAEP;26260;06517680250;04;Compte clos;10000
77776476;9/1/2022;9/1/2023;77019209;ANNUELLE;10165;STE BIAO ASSISTANCE FUN.;9/1/2017;9/1/2027;BIAO Assistance Funérailles;776125;MME KOUAKOU-APHELLY AMANDINE EUGENIE CANGAH;0707088337;BASF ;01265;06535000143;04;Compte clos;24800
77873160;9/1/2022;9/1/2023;16807806;ANNUELLE;2006;M. YEO BAKARY;9/1/2018;9/1/2028;NT - PREVOYANCE DECES FORFAIT;621855;M. BONI AGBO;0777596185;CI092;01001;05027360000;04;Compte clos;18500
77813376;9/1/2022;10/1/2022;73201417;MENSUELLE;10157;STE BIAO ETUDES;9/1/2016;9/1/2026;NT-BIAO Rente Education;584252;M. YORO SEHABLE LAURENT;NC;BIAET;01231;03135070055;04;Compte clos;2573
77832115;9/1/2022;10/1/2022;73211661;MENSUELLE;10157;STE BIAO ETUDES;12/1/2020;12/1/2031;NT-BIAO Rente Education;1016734;M. OUATTARA KABIE MAMADOU  ;0709830647;BIAET;54303;06418070250;04;Compte clos;5363
77924665;9/1/2022;10/1/2022;73207408;MENSUELLE;10157;STE BIAO ETUDES;6/1/2019;6/1/2029;NT-BIAO Rente Education;860778;MLE TRAORE  NAMINATA  ;0504708973;BIAET;02232;03422590250;04;Compte clos;2524
77753610;9/1/2022;10/1/2022;76175494;MENSUELLE;10140;STE BIAO EPARGNE PLUS;9/1/2022;9/1/2027;EPARGNE PLUS BIAO;530049;M. ABDOULAYE DIARRA;0707771111;BIAEP;01221;02134366753;04;Compte clos;10000
77966749;9/1/2022;10/1/2022;76166394;MENSUELLE;10140;STE BIAO EPARGNE PLUS;5/1/2022;5/1/2027;EPARGNE PLUS BIAO;1125816;M. KORONA SORO;0505853001;BIAEP;06233;03335019121;04;Compte clos;10000
77948518;9/1/2022;9/1/2023;16810981;ANNUELLE;312;NULL;9/1/2019;9/1/2053;NT - PREVOYANCE DECES FORFAIT;872219;M. LOHOURE KOKUA THIBAULT;0152694863;CI032;01005;00201866000;04;Compte clos;10500
77826631;9/1/2022;9/1/2023;77014401;ANNUELLE;10165;STE BIAO ASSISTANCE FUN.;9/1/2016;9/1/2023;BIAO Assistance Funérailles;659813;M. VREROU GUEHI JEANNOT;0505350306;BASF ;01235;03535194774;04;Compte clos;4400
77951393;9/1/2022;10/1/2022;31237327;MENSUELLE;4657;NULL;3/1/2022;3/1/2037;NT-NSIA Etudes;895808;M. COULIBALY AHMED TIEBA ISSA;0707133873;CI032;01001;00132413000;04;Compte clos;19900
77846134;9/1/2022;10/1/2022;76145817;MENSUELLE;10140;STE BIAO EPARGNE PLUS;4/1/2021;4/1/2026;EPARGNE PLUS BIAO;1044856;M. ASSOGBA ATEKOU JEAN;0343607515;BIAEP;28295;03232100250;04;Compte clos;5000
76779475;9/1/2022;10/1/2022;76169281;MENSUELLE;10140;STE BIAO EPARGNE PLUS;9/1/2022;9/1/2027;EPARGNE PLUS BIAO;1139644;M. KOUAME EUGENE YAO;0545515200;BIAEP;01218;01835002647;04;Compte clos;10000
77776487;9/1/2022;9/1/2023;77019236;ANNUELLE;10165;STE BIAO ASSISTANCE FUN.;9/1/2017;9/1/2027;BIAO Assistance Funérailles;654467;M. ANIBE AHOULOU BENJAMIN;0707369967;BASF ;01226;02635064853;04;Compte clos;18000
77826826;9/1/2022;9/1/2023;16807450;ANNUELLE;3867;NULL;9/1/2018;9/1/2048;NT - PREVOYANCE DECES FORFAIT;819496;M. NEMLIN  NICODEME;0758184134;CI032;07001;00306048000;04;Compte clos;18500
77825594;9/1/2022;9/1/2023;77019708;ANNUELLE;10165;STE BIAO ASSISTANCE FUN.;9/1/2017;9/1/2039;BIAO Assistance Funérailles;748190;M. IRIE BI TROH EMMANUEL;0102500358;BASF ;01230;03035095098;04;Compte clos;2700
77855130;9/1/2022;10/1/2022;76132596;MENSUELLE;10140;STE BIAO EPARGNE PLUS;5/1/2020;5/1/2026;EPARGNE PLUS BIAO;978785;M. KINDO MADI  ;0748344645;BIAEP;30268;06028290250;04;Compte clos;5000
77841946;9/1/2022;9/1/2023;16813688;ANNUELLE;2919;M. KOFFI ATTAHI MICHEL;9/1/2020;9/1/2055;NT - PREVOYANCE DECES FORFAIT;850222;M. KIPRE ARMEL MARTIAL  ;0779556091;A0042;26256;03203770250;04;Compte clos;10500
77780894;9/1/2022;9/1/2023;16811259;ANNUELLE;3849;NULL;9/1/2019;9/1/2039;NT - PREVOYANCE DECES FORFAIT;873883;M. GBEI VINCENT GEOFFROY;0778926822;CI032;01024;00964205000;04;Compte clos;10500
77909635;9/1/2022;9/1/2023;77019916;ANNUELLE;10165;STE BIAO ASSISTANCE FUN.;9/1/2017;9/1/2040;BIAO Assistance Funérailles;683399;M. N'GOM JEAN JACQUES M.;0707399514;BASF ;01215;01535000562;04;Compte clos;2700
77457787;8/1/2022;9/1/2022;21833935;MENSUELLE;4124;NULL;4/1/2022;4/1/2037;NT-NSIA RETRAITE;1115268;M. KONAN ROLLAND BOHOUSSOU;22547362859;A0042;01221;06696970250;04;Compte clos;21000
77890320;9/1/2022;10/1/2022;76158409;MENSUELLE;10140;STE BIAO EPARGNE PLUS;9/1/2021;9/1/2026;EPARGNE PLUS BIAO;1078147;M. DADIE RICHARD;0575121224;BIAEP;23285;08535000233;04;Compte clos;5000
77873595;9/1/2022;9/1/2023;77019958;ANNUELLE;10165;STE BIAO ASSISTANCE FUN.;9/1/2017;9/1/2027;BIAO Assistance Funérailles;716445;M. KAMIN NUNKAMUN ANTOINE;0759128590;BASF ;01230;03035095530;04;Compte clos;2700
77983092;9/1/2022;10/1/2022;31025779;MENSUELLE;2893;M. YOBOUE KOUAME NESTOR;11/1/2014;11/1/2025;NSIA ETUDES;667690;M. EBA KOUAME KOMENAN JACQUES;0749793821;CI092;07001;03010430003;04;Compte clos;5528
77844305;9/1/2022;10/1/2022;73210908;MENSUELLE;10157;STE BIAO ETUDES;12/1/2020;12/1/2040;NT-BIAO Rente Education;1012634;M. BAHIKORO  ABDOUL AKRIM  ;0555778381;BIAET;08234;06154300250;04;Compte clos;1933
77860821;9/1/2022;9/1/2023;77013952;ANNUELLE;10165;STE BIAO ASSISTANCE FUN.;9/1/2016;9/1/2026;BIAO Assistance Funérailles;611050;M. GOUESSE BASILE;0707571161;BASF ;06233;03335230061;04;Compte clos;18000
77897686;9/1/2022;10/1/2022;31208338;MENSUELLE;235;M. SORHO DRAMANE;10/1/2017;10/1/2029;NT-NSIA Etudes;778903;M. OUMAROU  KANTE;0707267924;CI032;06001;00550390000;04;Compte clos;12848
77891478;9/1/2022;10/1/2022;76164221;MENSUELLE;10140;STE BIAO EPARGNE PLUS;4/1/2022;4/1/2027;EPARGNE PLUS BIAO;1107638;M. YOBO MATHIAS KIEN;0779791727;BIAEP;01235;02217780250;04;Compte clos;5000
77410853;8/1/2022;9/1/2022;76151029;MENSUELLE;10140;STE BIAO EPARGNE PLUS;6/1/2021;6/1/2026;EPARGNE PLUS BIAO;1058236;M. KOUASSI KOUAME RAOUL;0748390733;BIAEP;01297;09735000234;04;Compte clos;5000
77799241;9/1/2022;10/1/2022;73215000;MENSUELLE;10157;STE BIAO ETUDES;5/1/2022;5/1/2032;NT-BIAO Rente Education;1124187;M. JEAN MARC DOUMBIA;0759598175;BIAET;07238;06914210250;04;Compte clos;2484
77327624;8/1/2022;9/1/2022;76174491;MENSUELLE;10140;STE BIAO EPARGNE PLUS;8/1/2022;8/1/2027;EPARGNE PLUS BIAO;1169969;M. KOUAMEGUILLAUME  KOUAME ;0798538658;BIAEP;17290;06698280250;04;Compte clos;10000
77866530;9/1/2022;10/1/2022;31224862;MENSUELLE;4112;NULL;1/1/2020;1/1/2035;NT-NSIA Etudes;908358;M. KOFFI KABLAN BIENVENU;0779815990;CI032;01032;00715993000;04;Compte clos;15372
76779518;9/1/2022;10/1/2022;76169323;MENSUELLE;10140;STE BIAO EPARGNE PLUS;9/1/2022;9/1/2027;EPARGNE PLUS BIAO;1139685;M. ZIE DJAKARIDJA COULIBALY;0707151527;BIAEP;01229;02935013777;04;Compte clos;10000
77968152;9/1/2022;10/1/2022;31213559;MENSUELLE;3785;NULL;7/1/2018;7/1/2036;NT-NSIA Etudes;661612;M. DIBI WILFRIED;0707454480;CI032;01001;00122852000;04;Compte clos;26285
77826207;9/1/2022;9/1/2023;33304455;ANNUELLE;1827;M. YOUSSOUF Yao;9/1/2010;9/1/2023;NSIA Assistance Funérailles;440296;M. KOFFI YAO;0505320371;A0042;18242;04235041681;04;Compte clos;18000
77796766;9/1/2022;10/1/2022;31232345;MENSUELLE;2919;M. KOFFI ATTAHI MICHEL;5/1/2021;5/1/2033;NT-NSIA Etudes;1052420;M. KOUAKOU ATCHELO MELAINE;48246237;CI032;01032;00717136000;04;Compte clos;15115
77841721;9/1/2022;10/1/2022;73209479;MENSUELLE;10157;STE BIAO ETUDES;5/1/2020;5/1/2035;NT-BIAO Rente Education;978027;MLE AFFIA GUY MARCEL ABOKAN  ;0707971882;BIAET;01201;05308190250;04;Compte clos;2668
77997581;9/1/2022;10/1/2022;76163263;MENSUELLE;10140;STE BIAO EPARGNE PLUS;2/1/2022;2/1/2027;EPARGNE PLUS BIAO;1103700;MME KPAN DIEMON DELPHINE CHARLE;0555417126;BIAEP;08234;06631520250;04;Compte clos;10000
77825938;9/1/2022;10/1/2022;76116854;MENSUELLE;10140;STE BIAO EPARGNE PLUS;4/1/2019;4/1/2024;EPARGNE PLUS BIAO;852058;MLE ADOU YEDAGNIME CHRISTIANE DOR  ;0757533856;BIAEP;01294;02656490250;04;Compte clos;5000
77801482;9/1/2022;10/1/2022;73201432;MENSUELLE;10157;STE BIAO ETUDES;9/1/2016;9/1/2024;NT-BIAO Rente Education;584252;M. YORO SEHABLE LAURENT;NC;BIAET;01231;03135070055;04;Compte clos;3232
77817361;9/1/2022;9/1/2023;16811280;ANNUELLE;4020;NULL;9/1/2019;9/1/2048;NT - PREVOYANCE DECES FORFAIT;873895;MLE OULAI BLEU VICTORINE  ;0504888540;CI092;01046;01169900004;04;Compte clos;10500
77290756;9/1/2022;10/1/2022;76173717;MENSUELLE;10140;STE BIAO EPARGNE PLUS;9/1/2022;9/1/2027;EPARGNE PLUS BIAO;1161396;M. DOGBA ANICET GNALI;2722444467;BIAEP;01226;02635062543;04;Compte clos;10000
77904599;9/1/2022;10/1/2022;76164869;MENSUELLE;10140;STE BIAO EPARGNE PLUS;4/1/2022;4/1/2027;EPARGNE PLUS BIAO;1114431;M.  MADOU JOSEPH GNOPOH;0749121217;BIAEP;01231;03135064332;04;Compte clos;30000
78016772;9/1/2022;10/1/2022;76176077;MENSUELLE;10140;STE BIAO EPARGNE PLUS;9/1/2022;9/1/2027;EPARGNE PLUS BIAO;1187469;MLE ALIMATA ALLAMA DIARRASSOUBA;0101849751;BIAEP;01230;02145310400;04;Compte clos;10000
77942544;9/1/2022;10/1/2022;78415182;MENSUELLE;10135;STE BIAO NOVA PENSION;7/1/2021;7/1/2045;NT-BIAO NOVA Pension;1067513;M. N'CHO TAHI ERICK;0140184445;NOVA ;01217;01735001970;04;Compte clos;4738
77781386;9/1/2022;10/1/2022;21830812;MENSUELLE;4322;NULL;2/1/2022;2/1/2037;NT-NSIA RETRAITE;1089542;M. ESSECOFY ELEUTHERE BRICE OLIVE;22548601523;CI032;01018;00853704000;04;Compte clos;16000
77789127;9/1/2022;12/1/2022;31212187;TRIMESTRIELLE;1795;M. KORAHI OMER;9/1/2016;9/1/2030;NT-NSIA Etudes;739461;M. GOSSE PIERRE MICHEL;0759936584;A0042;01265;06535000174;04;Compte clos;188472
77937751;9/1/2022;10/1/2022;73209239;MENSUELLE;10157;STE BIAO ETUDES;12/1/2019;12/1/2024;NT-BIAO Rente Education;658887;M. SERI OROH GUILLAUME;0707336068;BIAET;10237;03735230191;04;Compte clos;5304
76779247;8/1/2022;9/1/2022;76169148;MENSUELLE;10140;STE BIAO EPARGNE PLUS;8/1/2022;8/1/2027;EPARGNE PLUS BIAO;1139486;M. KOUASSI ISIDORE KONAN;0505748913;BIAEP;01262;02505290250;04;Compte clos;10000
77808490;9/1/2022;10/1/2022;73212461;MENSUELLE;10157;STE BIAO ETUDES;2/1/2021;2/1/2029;NT-BIAO Rente Education;1026896;M. N'ZI YANN - GABRIEL DIBY;0707070295;BIAET;01278;06440440250;04;Compte clos;5096
76776013;9/1/2022;10/1/2022;76168984;MENSUELLE;10140;STE BIAO EPARGNE PLUS;9/1/2022;9/1/2027;EPARGNE PLUS BIAO;1138650;M. GBOHOU FLORENT BY;0140492015;BIAEP;05249;04935111801;04;Compte clos;10000
77887412;9/1/2022;9/1/2023;77018389;ANNUELLE;10165;STE BIAO ASSISTANCE FUN.;9/1/2017;9/1/2027;BIAO Assistance Funéraill;721532;M. SORO TENEBEGUE;0544244993;BASF ;07238;03835230052;04;Compte clos;21400
77857883;9/1/2022;10/1/2022;73210602;MENSUELLE;10157;STE BIAO ETUDES;11/1/2020;11/1/2041;NT-BIAO Rente Education;1013052;M. OUATARA ADAMA  ;0787375041;BIAET;05249;06393280250;04;Compte clos;1311
77762658;9/1/2022;10/1/2022;76171801;MENSUELLE;10140;STE BIAO EPARGNE PLUS;7/1/2022;7/1/2027;EPARGNE PLUS BIAO;1146598;M. OROH JUDICAEL KROUBA;0709659720;BIAEP;01218;06963540250;04;Compte clos;5000
77840223;9/1/2022;9/1/2023;33311934;ANNUELLE;2370;M. OULAi DION BONKA JEAN HERVE;9/1/2011;9/1/2031;NSIA Assistance Funérailles;478675;Mle KPAN NOUSSEU GISELE;0749294686;A0042;03246;04635230107;04;Compte clos;18000
77952815;9/1/2022;10/1/2022;31232247;MENSUELLE;2809;M. KONAN EPSE GNANMIEN AFFOUE CHAR;5/1/2021;5/1/2033;NT-NSIA Etudes;1053411;MME DOTE GUEASSEEDWIGELUXE;22559706268;CI032;01013;00609883000;04;Compte clos;5456
77512211;8/1/2022;9/1/2022;78411043;MENSUELLE;10135;STE BIAO NOVA PENSION;5/1/2019;5/1/2044;NT-BIAO NOVA Pension;636040;M. AKA BERENSON;0708624203;NOVA ;09251;05135061035;04;Compte clos;10578
77825848;9/1/2022;9/1/2023;77019354;ANNUELLE;10165;STE BIAO ASSISTANCE FUN.;9/1/2017;9/1/2027;BIAO Assistance Funérailles;717208;M. YAO YORO SERGE;0709037767;BASF ;01280;08035000280;04;Compte clos;2700
77854540;9/1/2022;10/1/2022;76158478;MENSUELLE;10140;STE BIAO EPARGNE PLUS;9/1/2021;9/1/2026;EPARGNE PLUS BIAO;1078147;M. DADIE RICHARD;0575121224;BIAEP;23285;08535000233;04;Compte clos;10000
77762505;9/1/2022;10/1/2022;76163532;MENSUELLE;10140;STE BIAO EPARGNE PLUS;2/1/2022;2/1/2027;EPARGNE PLUS BIAO;534503;M. KONAN YAO FELIX;NC;BIAEP;02232;03235000477;04;Compte clos;5000
77994236;9/1/2022;10/1/2022;21814771;MENSUELLE;3212;M. KOUASSI KONAN HYACINTHE;4/1/2019;4/1/2034;NT-NSIA RETRAITE;393014;M. GOHO OULAI NARCISSE;0506718740;A0042;01230;03035094100;04;Compte clos;16000
77912969;9/1/2022;10/1/2022;73208079;MENSUELLE;10157;STE BIAO ETUDES;8/1/2019;8/1/2039;NT-BIAO Rente Education;869919;M. SORO NANGA SERIBA  ;0506758540;BIAET;01282;03941990250;04;Compte clos;2269
77960703;9/1/2022;10/1/2022;73210469;MENSUELLE;10157;STE BIAO ETUDES;11/1/2020;11/1/2033;NT-BIAO Rente Education;1012389;MLE ZADI SANANE JEANNETTE  ;0506377467;BIAET;07255;06397020250;04;Compte clos;1944
77394922;9/1/2022;9/1/2023;16822608;ANNUELLE;4513;NULL;9/1/2022;9/1/2037;NT - PREVOYANCE DECES FORFAIT;1173589;M. DION ROBERT GLOU;22586355655;A0042;04248;04835230308;04;Compte clos;10500
77803729;9/1/2022;10/1/2022;73200776;MENSUELLE;10157;STE BIAO ETUDES;6/1/2016;6/1/2026;NT-BIAO Rente Education;731593;MLE YAO N'GUESSAN LUCIE;0748620217;BIAET;01235;03535230011;04;Compte clos;7510
77063677;9/1/2022;10/1/2022;76173559;MENSUELLE;10140;STE BIAO EPARGNE PLUS;9/1/2022;9/1/2027;EPARGNE PLUS BIAO;1160956;M. GOGBE MAMADOU;0707392179;BIAEP;02232;03235208137;04;Compte clos;10000
77778050;9/1/2022;10/1/2022;73206266;MENSUELLE;10157;STE BIAO ETUDES;4/1/2018;4/1/2033;NT-BIAO Rente Education;711312;Mle GUEYE HEREDICE CHANCELLE;0757512413;BIAET;18242;04235042760;04;Compte clos;1873
77872391;9/1/2022;10/1/2022;26003680;MENSUELLE;304;M. YOUSSOUF YAO;8/1/2017;8/1/2032;NSIA Epargne Projet;697446;M. KOKO TANO N'GORAN NATIVITE;0708008924;CI032;04001;00539111000;04;Compte clos;6000
77794175;9/1/2022;10/1/2022;76161927;MENSUELLE;10140;STE BIAO EPARGNE PLUS;12/1/2021;12/1/2026;EPARGNE PLUS BIAO;1093497;M. AKLAMAVO EJLOSSE VIHO HOREB;0566400023;BIAEP;01209;06753660250;04;Compte clos;10000
77875982;9/1/2022;10/1/2022;73207411;MENSUELLE;10157;STE BIAO ETUDES;6/1/2019;6/1/2029;NT-BIAO Rente Education;860781;M. ASSANDE FRANCK ARMAND  ;0101104401;BIAET;02232;03423560250;04;Compte clos;2546
77964376;9/1/2022;10/1/2022;73214977;MENSUELLE;10157;STE BIAO ETUDES;7/1/2022;7/1/2037;NT-BIAO Rente Education;1124078;M. DIEUDONNE DIEUDONNE;0758612181;BIAET;19245;06541910250;04;Compte clos;2482
77874693;9/1/2022;10/1/2022;73204107;MENSUELLE;10157;STE BIAO ETUDES;9/1/2017;9/1/2037;NT-BIAO Rente Education;534336;M. SORO NIRIWA;0708757165;BIAET;06233;03335019226;04;Compte clos;2376
78008442;9/1/2022;9/1/2023;16817577;ANNUELLE;3669;NULL;9/1/2021;9/1/2042;NT - PREVOYANCE DECES FORFAIT;1065970;M. KPOKOU SERGE INNOCENT;22507734936;A0042;01226;06608200250;04;Compte clos;18500
77930676;9/1/2022;9/1/2023;16817907;ANNUELLE;4600;NULL;9/1/2021;9/1/2036;NT - PREVOYANCE DECES FORFAIT;1068680;M. N'ZIE NOWLY FRANCK;22548927002;A0042;04248;06511130250;04;Compte clos;10500
77896635;9/1/2022;9/1/2023;77019749;ANNUELLE;10165;STE BIAO ASSISTANCE FUN.;9/1/2017;9/1/2027;BIAO Assistance Funérailles;770668;M.  GNIEMIEN KOFFI MARIUS INNOCENT  ;0757137254;BASF ;02232;03235230798;04;Compte clos;4400
77775151;9/1/2022;10/1/2022;21827431;MENSUELLE;3851;NULL;6/1/2021;6/1/2036;NT-NSIA RETRAITE;1056205;M. DJABOUET N'GORAN DONATIEN;22507953625;CI032;04001;00594023000;04;Compte clos;21000
77899113;9/1/2022;9/1/2023;77014243;ANNUELLE;10165;STE BIAO ASSISTANCE FUN.;9/1/2016;9/1/2024;BIAO Assistance Funérailles;741931;M. DE HULSTER POL JACQUES;0777923996;BASF ;26260;06034000683;04;Compte clos;2700
77776769;9/1/2022;9/1/2023;77013181;ANNUELLE;10165;STE BIAO ASSISTANCE FUN.;9/1/2016;9/1/2034;BIAO Assistance Funérailles;694429;M. GONTO ARMAND;0506165832;BASF ;19245;04535230426;04;Compte clos;18000
77829405;9/1/2022;10/1/2022;73212043;MENSUELLE;10157;STE BIAO ETUDES;12/1/2020;12/1/2035;NT-BIAO Rente Education;1018476;M. N'DRI ABONOUAN JEAN-LUC;0708164623;BIAET;03246;04635230556;04;Compte clos;1718
77941554;9/1/2022;10/1/2022;31229633;MENSUELLE;3543;NULL;12/1/2020;12/1/2035;NT-NSIA Etudes;1016228;M. N'GORAN ACKIM JEAN-CYRILLE ANDERS  ;0757442845;CI032;01029;00690337000;04;Compte clos;14744
77779150;9/1/2022;10/1/2022;24200556;MENSUELLE;1996;M. GBOGOU EULOGE CLOTAIRE;11/1/2012;11/1/2029;NSIA PENSION Sécurité;527671;M. TAJEDDINE YOUSSEF;0707019711;CI032;01010;00475142000;04;Compte clos;36136
77829427;9/1/2022;10/1/2022;73212044;MENSUELLE;10157;STE BIAO ETUDES;12/1/2020;12/1/2033;NT-BIAO Rente Education;1018476;M. N'DRI ABONOUAN JEAN-LUC;0708164623;BIAET;03246;04635230556;04;Compte clos;1960
77966761;9/1/2022;10/1/2022;76166395;MENSUELLE;10140;STE BIAO EPARGNE PLUS;5/1/2022;5/1/2027;EPARGNE PLUS BIAO;1125816;M. KORONA SORO;0505853001;BIAEP;06233;03335019121;04;Compte clos;10000
77991671;9/1/2022;9/1/2023;77019191;ANNUELLE;10165;STE BIAO ASSISTANCE FUN.;9/1/2017;9/1/2052;BIAO Assistance Funérailles;586836;M. AKA STEPHANE EDDIE;NC;BASF ;08234;03435042733;04;Compte clos;2700
77980841;9/1/2022;9/1/2023;77013187;ANNUELLE;10165;STE BIAO ASSISTANCE FUN.;9/1/2016;9/1/2036;BIAO Assistance Funérailles;665724;M. DJIDJI N'GBOCHO STANISLAS JOSE;0505010474;BASF ;01263;06335230019;04;Compte clos;52000
77762796;9/1/2022;12/1/2022;78408182;TRIMESTRIELLE;10135;STE BIAO NOVA PENSION;6/1/2018;6/1/2048;NT-BIAO NOVA Pension;817306;MLE BAH KIMOUPOUONTODY MICHELINE;0707163121;NOVA ;01350;02682680250;04;Compte clos;15426
77935256;9/1/2022;10/1/2022;26000145;MENSUELLE;1405;M. KOFFI BEUGRE HERVE HERMANN;4/1/2016;4/1/2023;NSIA Epargne Projet;726541;M. ATSE YAPI BOYO ALAIN;0758946515;CI092;01004;02617700007;04;Compte clos;6000
77820953;9/1/2022;10/1/2022;21833935;MENSUELLE;4124;NULL;4/1/2022;4/1/2037;NT-NSIA RETRAITE;1115268;M. KONAN ROLLAND BOHOUSSOU;22547362859;A0042;01221;06696970250;04;Compte clos;21000
77781381;9/1/2022;10/1/2022;26009698;MENSUELLE;4322;NULL;3/1/2022;3/1/2037;NSIA Epargne Projet;1089535;M. ESSECOFY ELEUTHERE BRICE OLIVE;22548601523;CI032;01018;00853704000;04;Compte clos;6000
77924467;9/1/2022;9/1/2023;77007668;ANNUELLE;10165;STE BIAO ASSISTANCE FUN.;9/1/2015;9/1/2034;BIAO Assistance Funérailles;703094;M. KOUAKOU KOUAME JULIEN;0707437317;BASF ;01235;03535195004;04;Compte clos;69000
78006201;9/1/2022;10/1/2022;76140993;MENSUELLE;10140;STE BIAO EPARGNE PLUS;12/1/2020;12/1/2025;EPARGNE PLUS BIAO;1018025;M. GOHO OULAI NARCISSE;0545292992;BIAEP;01230;03035094100;04;Compte clos;7000
77855689;9/1/2022;10/1/2022;76160893;MENSUELLE;10140;STE BIAO EPARGNE PLUS;10/1/2021;10/1/2026;EPARGNE PLUS BIAO;1084169;M. BOUKOUGOU GERARD;0748849493;BIAEP;07255;06693470250;04;Compte clos;10000
77940282;9/1/2022;10/1/2022;73211309;MENSUELLE;10157;STE BIAO ETUDES;11/1/2020;11/1/2030;NT-BIAO Rente Education;1015369;MLE FOFANA MAIMOUNA  ;0787955702;BIAET;01274;06387680250;04;Compte clos;2481
77811801;9/1/2022;10/1/2022;76173137;MENSUELLE;10140;STE BIAO EPARGNE PLUS;7/1/2022;7/1/2027;EPARGNE PLUS BIAO;1160293;M. ALEXIS CONSTANTIN KOUADIO;0757451920;BIAEP;18242;02498070280;04;Compte clos;5000
77802585;9/1/2022;9/1/2023;77020090;ANNUELLE;10165;STE BIAO ASSISTANCE FUN.;9/1/2017;9/1/2027;BIAO Assistance Funérailles;779217;M. KOFFI BOHOUSSOU KOUASSI NICOLAS;0103636453;BASF ;01280;02178700250;04;Compte clos;2700
77957039;9/1/2022;10/1/2022;78405268;MENSUELLE;10135;STE BIAO NOVA PENSION;10/1/2017;10/1/2032;NT-BIAO NOVA Pension;779530;M. ETTIEN YAPO  ;0505972662;NOVA ;01231;03135230667;04;Compte clos;9927
77765258;9/1/2022;10/1/2022;73206846;MENSUELLE;10157;STE BIAO ETUDES;1/1/2019;1/1/2024;NT-BIAO Rente Education;841930;M. KOSSOUA BI SERI ARMAND  ;0140665778;BIAET;01257;05735000286;04;Compte clos;5295
77886864;9/1/2022;10/1/2022;31215719;MENSUELLE;297;M. KOUASSI KONAN ALAIN;12/1/2018;12/1/2036;NT-NSIA Etudes;836602;M. ZIBO  FIFADJI BIENVENU;0747444286;A6500;00001;01028011000;04;Compte clos;25496
77961944;9/1/2022;10/1/2022;76169148;MENSUELLE;10140;STE BIAO EPARGNE PLUS;8/1/2022;8/1/2027;EPARGNE PLUS BIAO;1139486;M. KOUASSI ISIDORE KONAN;0505748913;BIAEP;01262;02505290250;04;Compte clos;10000
77992209;9/1/2022;10/1/2022;76099913;MENSUELLE;10140;STE BIAO EPARGNE PLUS;4/1/2018;4/1/2023;EPARGNE PLUS BIAO;807109;MME KOUADIO ADJOUA PHILOMENE;0707771332;BIAEP;01223;02335080965;04;Compte clos;5000
77953916;9/1/2022;10/1/2022;76174491;MENSUELLE;10140;STE BIAO EPARGNE PLUS;8/1/2022;8/1/2027;EPARGNE PLUS BIAO;1169969;M. KOUAMEGUILLAUME  KOUAME ;0798538658;BIAEP;17290;06698280250;04;Compte clos;10000
77793268;9/1/2022;10/1/2022;73212029;MENSUELLE;10157;STE BIAO ETUDES;12/1/2020;12/1/2030;NT-BIAO Rente Education;1018020;M. GOHO OULAI NARCISSE;0545292992;BIAET;01230;03035094100;04;Compte clos;2670
77999509;9/1/2022;10/1/2022;73211173;MENSUELLE;10157;STE BIAO ETUDES;11/1/2020;11/1/2030;NT-BIAO Rente Education;1015246;M. SAVADOGO HALIDOU  ;0707612952;BIAET;07238;06390390250;04;Compte clos;2718
77776485;9/1/2022;9/1/2023;77019235;ANNUELLE;10165;STE BIAO ASSISTANCE FUN.;9/1/2017;9/1/2027;BIAO Assistance Funérailles;758130;M. MEMEL MELESS ESMEL MODESTE;0707401277;BASF ;01226;02635067740;04;Compte clos;4400
77832272;9/1/2022;10/1/2022;73212380;MENSUELLE;10157;STE BIAO ETUDES;1/1/2021;1/1/2026;NT-BIAO Rente Education;1025724;M. DOSSO KARAMOKO;0545035942;BIAET;01297;06462220250;04;Compte clos;5270
77948251;9/1/2022;10/1/2022;73207634;MENSUELLE;10157;STE BIAO ETUDES;7/1/2019;7/1/2034;NT-BIAO Rente Education;862135;M. KOUAO  BILEFRANCK OLIVIER  ;0709154667;BIAET;12276;02653660280;04;Compte clos;3331
77998226;9/1/2022;10/1/2022;24605879;MENSUELLE;3669;NULL;9/1/2020;9/1/2035;NT-NSIA PENSION Renfort;1006151;MLE KOUADIO LILIANE GERTRUDE  ;0759996654;CI032;01009;00258002000;04;Compte clos;11342
77892221;9/1/2022;10/1/2022;73211504;MENSUELLE;10157;STE BIAO ETUDES;11/1/2020;11/1/2030;NT-BIAO Rente Education;1015921;MLE SOUGBOLOU  KOMLIN BLANDINE  ;0758504228;BIAET;07255;06383980250;04;Compte clos;2848
77931203;9/1/2022;10/1/2022;76166572;MENSUELLE;10140;STE BIAO EPARGNE PLUS;6/1/2022;6/1/2027;EPARGNE PLUS BIAO;1127817;M. KOUADIO ARMAND BEHIBRO ;0758225323;BIAEP;43296;09635000258;04;Compte clos;5000
77877555;9/1/2022;9/1/2023;16818393;ANNUELLE;3669;NULL;9/1/2021;9/1/2067;NT - PREVOYANCE DECES FORFAIT;1068950;M. KONE MEYIRI HUGUES WILFRIED;22589685248;A0042;01226;06612420250;04;Compte clos;18500
77761966;9/1/2022;10/1/2022;80026232;MENSUELLE;0;NC;3/1/2022;2/1/2023;NT-NSIA Etudes;895808;M. COULIBALY AHMED TIEBA ISSA;0707133873;CI032;01001;00132413000;04;Compte clos;16350
77761695;9/1/2022;10/1/2022;80026496;MENSUELLE;0;NC;5/1/2022;5/1/2023;NSIA ETUDES;592965;Mme DANHO LOYO GISELE;0708717085;A6500;00001;01084811000;04;Compte clos;34335
77761821;9/1/2022;10/1/2022;80025590;MENSUELLE;0;NC;10/1/2021;10/1/2022;NT-NSIA Etudes;328722;M. ABOLE MARIUS;07806439/22446087;A6500;00001;00782100000;04;Compte clos;21459
11398620;9/1/2022;10/1/2022;64200103;MENSUELLE;3171;Mle ADJELY NANCY VANESSA CORINE;6/1/2010;0;NSIA Logements Paiement Indiv.;426171;M. KOFFI YAO FRANCK OLIVIER;0707089059;A0042;01226;02635066012;04  ;Compte clos;50000
