NUMERO_POLICES;NUMERO_QUITTANCE;;;;;;;;;;;
16811251;77984669;;;;;;;;;;;
16811243;77972676;;;;;;;;;;;
33322436;77886794;;;;;;;;;;;
33322689;77770656;;;;;;;;;;;
26008648;77916415;;;;;;;;;;;
33322162;78005265;;;;;;;;;;;
33314843;78028638;;;;;;;;;;;
33400314;78026663;;;;;;;;;;;
33423264;78028072;;;;;;;;;;;
33429462;78027513;;;;;;;;;;;
33433827;78027399;;;;;;;;;;;
33435197;78027849;;;;;;;;;;;
33436653;78028103;;;;;;;;;;;
16811536;78065603;;;;;;;;;;;
16811448;78268376;;;;;;;;;;;
16811553;78065618;;;;;;;;;;;
16811538;78268411;;;;;;;;;;;
16814012;78199301;;;;;;;;;;;
16814569;78283492;;;;;;;;;;;
16814355;78079105;;;;;;;;;;;
16814011;78199294;;;;;;;;;;;
16814211;78088307;;;;;;;;;;;
16814008;78199293;;;;;;;;;;;
16814010;78199299;;;;;;;;;;;
33323079;78073525;;;;;;;;;;;
33323150;78073543;;;;;;;;;;;
33321717;78291596;;;;;;;;;;;
33322163;78302157;;;;;;;;;;;
33321618;78291592;;;;;;;;;;;
33323460;78073582;;;;;;;;;;;
33330633;78120433;;;;;;;;;;;
33330499;78206848;;;;;;;;;;;
16807678;78094528;;;;;;;;;;;
16807762;78276508;;;;;;;;;;;
16807618;78205210;;;;;;;;;;;
16807807;78179910;;;;;;;;;;;
16809304;78228108;;;;;;;;;;;
16811485;78268398;;;;;;;;;;;
33312152;78134608;;;;;;;;;;;
33322743;78064777;;;;;;;;;;;
33323148;78073536;;;;;;;;;;;
33323358;78073572;;;;;;;;;;;
33322745;78181215;;;;;;;;;;;
21823307;74632652;;;;;;;;;;;
21823307;71693674;;;;;;;;;;;
21823307;72459930;;;;;;;;;;;
21823307;75244798;;;;;;;;;;;
21820130;74950825;;;;;;;;;;;
16813708;77189750;;;;;;;;;;;
26007584;74831982;;;;;;;;;;;
16813609;77144929;;;;;;;;;;;
21817464;73001683;;;;;;;;;;;
26003401;71717209;;;;;;;;;;;
21820599;75863014;;;;;;;;;;;
33419246;75417343;;;;;;;;;;;
21813430;73000004;;;;;;;;;;;
21825514;77784501;;;;;;;;;;;
21828881;77905026;;;;;;;;;;;
21833251;77939434;;;;;;;;;;;
21827972;77963384;;;;;;;;;;;
21830435;77919306;;;;;;;;;;;
21830029;77927138;;;;;;;;;;;
21829017;77822884;;;;;;;;;;;
31232335;77952871;;;;;;;;;;;
26009783;77916880;;;;;;;;;;;
21836271;77919966;;;;;;;;;;;
31235229;77878586;;;;;;;;;;;
31235779;77766890;;;;;;;;;;;
31235646;77942885;;;;;;;;;;;
21831205;77879008;;;;;;;;;;;
21831455;77773375;;;;;;;;;;;
21833140;77990433;;;;;;;;;;;
26010122;77766386;;;;;;;;;;;
26010475;77919993;;;;;;;;;;;
26009475;77786862;;;;;;;;;;;
26009474;77786861;;;;;;;;;;;
26009764;77879935;;;;;;;;;;;
26009763;77879934;;;;;;;;;;;
26009057;77822381;;;;;;;;;;;
26009073;77976429;;;;;;;;;;;
21828671;77882594;;;;;;;;;;;
21828297;77894459;;;;;;;;;;;
16817601;77930672;;;;;;;;;;;
16817309;77999331;;;;;;;;;;;
16817308;77999330;;;;;;;;;;;
21830783;77987733;;;;;;;;;;;
21824826;77807551;;;;;;;;;;;
21824040;78001208;;;;;;;;;;;
21831452;77773369;;;;;;;;;;;
24606244;77953814;;;;;;;;;;;
31234813;77865699;;;;;;;;;;;
16823611;78010360;;;;;;;;;;;
21837815;78010811;;;;;;;;;;;
26010851;78010888;;;;;;;;;;;
26010856;78010893;;;;;;;;;;;
33454295;78019949;;;;;;;;;;;
33454391;78020046;;;;;;;;;;;
21838423;78034185;;;;;;;;;;;
26010985;78038182;;;;;;;;;;;
31242587;78038605;;;;;;;;;;;
31242476;78038494;;;;;;;;;;;
33454674;78041078;;;;;;;;;;;
21832783;78089459;;;;;;;;;;;
31237980;78273423;;;;;;;;;;;
21837797;78150289;;;;;;;;;;;
21837976;78106364;;;;;;;;;;;
21837089;78058843;;;;;;;;;;;
21828671;78177024;;;;;;;;;;;
21828416;78274606;;;;;;;;;;;
21837483;78154427;;;;;;;;;;;
21837489;78154430;;;;;;;;;;;
21837481;78154435;;;;;;;;;;;
21836152;78214744;;;;;;;;;;;
26009564;78160729;;;;;;;;;;;
26009764;78174463;;;;;;;;;;;
21831225;78269877;;;;;;;;;;;
21830783;78283920;;;;;;;;;;;
26009763;78174461;;;;;;;;;;;
31242008;78106292;;;;;;;;;;;
31241675;78130427;;;;;;;;;;;
21830764;78067368;;;;;;;;;;;
21830809;78075399;;;;;;;;;;;
21830324;78177265;;;;;;;;;;;
21833251;78234608;;;;;;;;;;;
21832186;78273284;;;;;;;;;;;
21833490;78286678;;;;;;;;;;;
31241680;78142437;;;;;;;;;;;
31234575;78150864;;;;;;;;;;;
31234764;78147886;;;;;;;;;;;
31241676;78130413;;;;;;;;;;;
26010282;78115288;;;;;;;;;;;
26010550;78202620;;;;;;;;;;;
21830315;78189240;;;;;;;;;;;
26010922;78210730;;;;;;;;;;;
31234761;78099743;;;;;;;;;;;
31235447;78117219;;;;;;;;;;;
31235229;78173037;;;;;;;;;;;
21831452;78067410;;;;;;;;;;;
21832834;78259661;;;;;;;;;;;
21831534;78090187;;;;;;;;;;;
16818682;78197164;;;;;;;;;;;
16816695;78261785;;;;;;;;;;;
31234603;78150889;;;;;;;;;;;
31235686;78174338;;;;;;;;;;;
21831455;78067415;;;;;;;;;;;
21832785;78089460;;;;;;;;;;;
21831530;78102518;;;;;;;;;;;
21831529;78151110;;;;;;;;;;;
24607743;78058404;;;;;;;;;;;
21836025;78129436;;;;;;;;;;;
21835797;78062415;;;;;;;;;;;
21836477;78154278;;;;;;;;;;;
21836058;78141779;;;;;;;;;;;
21837494;78082078;;;;;;;;;;;
16818339;78080815;;;;;;;;;;;
24607852;78226166;;;;;;;;;;;
21836677;78101480;;;;;;;;;;;
21836666;78101483;;;;;;;;;;;
21835594;78210667;;;;;;;;;;;
24608063;78115281;;;;;;;;;;;
31238128;78113144;;;;;;;;;;;
31236983;78077504;;;;;;;;;;;
31237410;78221164;;;;;;;;;;;
31230616;78079787;;;;;;;;;;;
31230615;78079788;;;;;;;;;;;
31238129;78113145;;;;;;;;;;;
21834174;78105072;;;;;;;;;;;
21834820;78115270;;;;;;;;;;;
21834845;78127117;;;;;;;;;;;
21834561;78248317;;;;;;;;;;;
21834544;78248321;;;;;;;;;;;
31240349;78275072;;;;;;;;;;;
21831418;78067397;;;;;;;;;;;
21830882;78098944;;;;;;;;;;;
21833673;78105012;;;;;;;;;;;
21833694;78105030;;;;;;;;;;;
21833904;78115078;;;;;;;;;;;
21831205;78173440;;;;;;;;;;;
21831206;78173441;;;;;;;;;;;
21832617;78246979;;;;;;;;;;;
21828881;78199577;;;;;;;;;;;
21824597;78116096;;;;;;;;;;;
21830435;78214131;;;;;;;;;;;
21830029;78222021;;;;;;;;;;;
21824564;78067337;;;;;;;;;;;
21829017;78117085;;;;;;;;;;;
21830608;78259460;;;;;;;;;;;
21829239;78305456;;;;;;;;;;;
21835146;78249468;;;;;;;;;;;
21834495;78115151;;;;;;;;;;;
21824826;78101661;;;;;;;;;;;
21824474;78116068;;;;;;;;;;;
21824475;78116069;;;;;;;;;;;
21824529;78271713;;;;;;;;;;;
21824040;78298007;;;;;;;;;;;
31238842;78101461;;;;;;;;;;;
31238390;78150425;;;;;;;;;;;
31238387;78150450;;;;;;;;;;;
31238178;78197540;;;;;;;;;;;
21827199;78116901;;;;;;;;;;;
31230191;78297964;;;;;;;;;;;
31238392;78150451;;;;;;;;;;;
31238577;78151497;;;;;;;;;;;
26010141;78117313;;;;;;;;;;;
26009783;78211549;;;;;;;;;;;
31230778;78249513;;;;;;;;;;;
31239332;78103132;;;;;;;;;;;
26010166;78112603;;;;;;;;;;;
26010215;78115099;;;;;;;;;;;
26010218;78115106;;;;;;;;;;;
26010217;78115101;;;;;;;;;;;
26010061;78173635;;;;;;;;;;;
21830609;78247566;;;;;;;;;;;
26010375;78225174;;;;;;;;;;;
26010379;78298261;;;;;;;;;;;
26010368;78305118;;;;;;;;;;;
21830026;78221976;;;;;;;;;;;
26010122;78060885;;;;;;;;;;;
26010416;78093580;;;;;;;;;;;
26010147;78189671;;;;;;;;;;;
26010475;78214839;;;;;;;;;;;
31237368;78209022;;;;;;;;;;;
31237366;78209020;;;;;;;;;;;
31236294;78259526;;;;;;;;;;;
31236985;78077506;;;;;;;;;;;
21826270;78075795;;;;;;;;;;;
21826183;78272413;;;;;;;;;;;
21828335;78188989;;;;;;;;;;;
24606244;78249526;;;;;;;;;;;
21827972;78259015;;;;;;;;;;;
26009400;78250174;;;;;;;;;;;
26009331;78305368;;;;;;;;;;;
26009482;78248986;;;;;;;;;;;
26009475;78080767;;;;;;;;;;;
26009474;78080766;;;;;;;;;;;
26009409;78261958;;;;;;;;;;;
26009408;78261957;;;;;;;;;;;
26009660;78165474;;;;;;;;;;;
26009613;78185439;;;;;;;;;;;
31237369;78209023;;;;;;;;;;;
31236984;78077505;;;;;;;;;;;
21832560;78175963;;;;;;;;;;;
31232335;78248540;;;;;;;;;;;
21836274;78263190;;;;;;;;;;;
21835760;78062397;;;;;;;;;;;
21836271;78214810;;;;;;;;;;;
21836273;78214811;;;;;;;;;;;
21825911;78102746;;;;;;;;;;;
24607333;78148154;;;;;;;;;;;
24607290;78198773;;;;;;;;;;;
26008905;78116083;;;;;;;;;;;
26008950;78138149;;;;;;;;;;;
26008965;78213087;;;;;;;;;;;
26008966;78213088;;;;;;;;;;;
26009057;78116532;;;;;;;;;;;
26009058;78116533;;;;;;;;;;;
26009120;78176569;;;;;;;;;;;
26009114;78176542;;;;;;;;;;;
26009073;78272427;;;;;;;;;;;
21835266;78079840;;;;;;;;;;;
21835796;78062416;;;;;;;;;;;
21835336;78177588;;;;;;;;;;;
21835324;78177614;;;;;;;;;;;
31234813;78160140;;;;;;;;;;;
21825910;78102745;;;;;;;;;;;
21826023;78198995;;;;;;;;;;;
31234814;78147904;;;;;;;;;;;
31236014;78098910;;;;;;;;;;;
31235779;78061328;;;;;;;;;;;
31235222;78173022;;;;;;;;;;;
31235646;78238227;;;;;;;;;;;
31234193;78189072;;;;;;;;;;;
21825514;78078459;;;;;;;;;;;
31239331;78115295;;;;;;;;;;;
31239159;78212144;;;;;;;;;;;
31231100;78060592;;;;;;;;;;;
31232081;78140663;;;;;;;;;;;
31231241;78273880;;;;;;;;;;;
31234698;78099705;;;;;;;;;;;
31241171;78113361;;;;;;;;;;;
21835988;78129439;;;;;;;;;;;
21827971;78223209;;;;;;;;;;;
21828297;78188972;;;;;;;;;;;
31240207;78214408;;;;;;;;;;;
31238401;78150459;;;;;;;;;;;
31239165;78212178;;;;;;;;;;;
31239812;78225158;;;;;;;;;;;
31240289;78238596;;;;;;;;;;;
31240350;78275079;;;;;;;;;;;
21829581;78099827;;;;;;;;;;;
21829359;78151032;;;;;;;;;;;
21829944;78185474;;;;;;;;;;;
21829950;78185477;;;;;;;;;;;
21829955;78234444;;;;;;;;;;;
21829224;78305447;;;;;;;;;;;
21839245;78318783;;;;;;;;;;;
31232335;73323404;;;;;;;;;;;
26009475;74042907;;;;;;;;;;;
22601266;78340426;;;;;;;;;;;
22601266;78608722;;;;;;;;;;;
33453289;77315228;;;;;;;;;;;
26009564;77165846;;;;;;;;;;;
21830764;77073118;;;;;;;;;;;
31234764;77153636;;;;;;;;;;;
26010652;78612985;;;;;;;;;;;
16821968;77031371;;;;;;;;;;;
22601499;78626207;;;;;;;;;;;
31235229;77514868;;;;;;;;;;;
21829017;77459312;;;;;;;;;;;
21824040;77627083;;;;;;;;;;;
26010475;77555152;;;;;;;;;;;
21828297;77518424;;;;;;;;;;;
24607830;76131202;;;;;;;;;;;
33453484;77584321;;;;;;;;;;;
26009849;77410310;;;;;;;;;;;
21824826;77444166;;;;;;;;;;;
21832614;77587351;;;;;;;;;;;
33453431;77395277;;;;;;;;;;;
21837097;77739123;;;;;;;;;;;
21830435;77554332;;;;;;;;;;;
16820599;76132111;;;;;;;;;;;
16822432;77304589;;;;;;;;;;;
21831568;76986912;;;;;;;;;;;
26009763;75778086;;;;;;;;;;;
21828671;77518452;;;;;;;;;;;
21823682;77157577;;;;;;;;;;;
21826851;75003198;;;;;;;;;;;
21837096;77739122;;;;;;;;;;;
21823763;78224685;;;;;;;;;;;
31229478;78068353;;;;;;;;;;;
26008684;78208395;;;;;;;;;;;
26008723;78285264;;;;;;;;;;;
33322744;78064776;;;;;;;;;;;
16808209;78450722;;;;;;;;;;;
16807922;78475977;;;;;;;;;;;
16807864;78378334;;;;;;;;;;;
16807863;78378333;;;;;;;;;;;
16808212;78487708;;;;;;;;;;;
16809304;78523860;;;;;;;;;;;
16808056;78391559;;;;;;;;;;;
33313014;78442267;;;;;;;;;;;
16810884;78598021;;;;;;;;;;;
16811703;78407624;;;;;;;;;;;
16811667;78587693;;;;;;;;;;;
16811014;78563392;;;;;;;;;;;
16811548;78361401;;;;;;;;;;;
16811539;78563301;;;;;;;;;;;
16810885;78598022;;;;;;;;;;;
16811451;78539821;;;;;;;;;;;
16811714;78564376;;;;;;;;;;;
33322381;78353557;;;;;;;;;;;
33323695;78477291;;;;;;;;;;;
33322380;78353555;;;;;;;;;;;
33323188;78369378;;;;;;;;;;;
33419896;75419165;;;;;;;;;;;
21823425;78650123;;;;;;;;;;;
33429110;78657254;;;;;;;;;;;
33312152;78919279;;;;;;;;;;;
33312152;78919280;;;;;;;;;;;
21820130;71837228;;;;;;;;;;;
21820857;76005741;;;;;;;;;;;
31214850;74314442;;;;;;;;;;;
31206306;71716853;;;;;;;;;;;
16823381;77754017;;;;;;;;;;;
21831707;77904107;;;;;;;;;;;
21831519;77808380;;;;;;;;;;;
21831530;77808384;;;;;;;;;;;
26009114;77882099;;;;;;;;;;;
21830764;77773326;;;;;;;;;;;
26010855;78010892;;;;;;;;;;;
33454282;78019936;;;;;;;;;;;
16823750;78019534;;;;;;;;;;;
16823835;78021373;;;;;;;;;;;
21825514;78374657;;;;;;;;;;;
21825911;78398549;;;;;;;;;;;
26009849;78357280;;;;;;;;;;;
26010141;78413205;;;;;;;;;;;
26009783;78507251;;;;;;;;;;;
21830764;78363292;;;;;;;;;;;
21830809;78371217;;;;;;;;;;;
21834174;78400848;;;;;;;;;;;
21834820;78411140;;;;;;;;;;;
21834845;78422727;;;;;;;;;;;
21834561;78543686;;;;;;;;;;;
16818676;78493063;;;;;;;;;;;
16818639;78481407;;;;;;;;;;;
16818492;78516219;;;;;;;;;;;
16818549;78497034;;;;;;;;;;;
16818638;78493076;;;;;;;;;;;
21824597;78411959;;;;;;;;;;;
21824564;78362824;;;;;;;;;;;
21828671;78473002;;;;;;;;;;;
21828416;78569810;;;;;;;;;;;
33455541;78605205;;;;;;;;;;;
33455263;78604278;;;;;;;;;;;
21838174;78426486;;;;;;;;;;;
21837815;78493903;;;;;;;;;;;
26010856;78518625;;;;;;;;;;;
26010851;78518626;;;;;;;;;;;
26010985;78411659;;;;;;;;;;;
21825910;78398548;;;;;;;;;;;
21826023;78494898;;;;;;;;;;;
26010166;78408462;;;;;;;;;;;
26010215;78410966;;;;;;;;;;;
26010218;78410975;;;;;;;;;;;
26010061;78469560;;;;;;;;;;;
26010375;78520726;;;;;;;;;;;
26010379;78601686;;;;;;;;;;;
26010368;78601705;;;;;;;;;;;
26009058;78412455;;;;;;;;;;;
26009120;78472532;;;;;;;;;;;
26009114;78472511;;;;;;;;;;;
26009073;78579423;;;;;;;;;;;
26009400;78557300;;;;;;;;;;;
26009331;78602017;;;;;;;;;;;
26009482;78544334;;;;;;;;;;;
26009475;78377024;;;;;;;;;;;
26009474;78377023;;;;;;;;;;;
26008905;78411946;;;;;;;;;;;
26008950;78434129;;;;;;;;;;;
26008966;78509040;;;;;;;;;;;
26008965;78509066;;;;;;;;;;;
26009057;78412456;;;;;;;;;;;
31234814;78455984;;;;;;;;;;;
21828881;78495457;;;;;;;;;;;
21830435;78521387;;;;;;;;;;;
21829017;78413003;;;;;;;;;;;
21829948;78481430;;;;;;;;;;;
21830608;78554854;;;;;;;;;;;
21829239;78602134;;;;;;;;;;;
21836025;78425480;;;;;;;;;;;
21835797;78358319;;;;;;;;;;;
21836477;78450283;;;;;;;;;;;
31230191;78592590;;;;;;;;;;;
31230778;78545021;;;;;;;;;;;
24606244;78545009;;;;;;;;;;;
31239812;78520710;;;;;;;;;;;
31240289;78534007;;;;;;;;;;;
31240350;78570244;;;;;;;;;;;
21831418;78363363;;;;;;;;;;;
21832780;78385386;;;;;;;;;;;
21830882;78394731;;;;;;;;;;;
21833673;78400785;;;;;;;;;;;
21833694;78400803;;;;;;;;;;;
21833904;78410949;;;;;;;;;;;
21831205;78469357;;;;;;;;;;;
21831206;78469359;;;;;;;;;;;
21832621;78542462;;;;;;;;;;;
21832617;78542473;;;;;;;;;;;
22601266;78522691;;;;;;;;;;;
31234575;78446573;;;;;;;;;;;
31234764;78443845;;;;;;;;;;;
21830609;78554846;;;;;;;;;;;
21830026;78517518;;;;;;;;;;;
21837494;78378000;;;;;;;;;;;
21837797;78446307;;;;;;;;;;;
21837976;78402103;;;;;;;;;;;
21837089;78354789;;;;;;;;;;;
31231100;78356519;;;;;;;;;;;
31238128;78408948;;;;;;;;;;;
31236983;78373528;;;;;;;;;;;
31237410;78529094;;;;;;;;;;;
31238129;78408949;;;;;;;;;;;
31237368;78504673;;;;;;;;;;;
21826168;78567584;;;;;;;;;;;
21826270;78371628;;;;;;;;;;;
21826183;78567585;;;;;;;;;;;
31235229;78468967;;;;;;;;;;;
31234603;78446844;;;;;;;;;;;
31235686;78470287;;;;;;;;;;;
21824826;78397480;;;;;;;;;;;
21824474;78411934;;;;;;;;;;;
21824475;78411935;;;;;;;;;;;
21824529;78566960;;;;;;;;;;;
21824040;78592659;;;;;;;;;;;
24608063;78411153;;;;;;;;;;;
31240207;78510134;;;;;;;;;;;
31241680;78438383;;;;;;;;;;;
21837096;78354791;;;;;;;;;;;
21838690;78397605;;;;;;;;;;;
21838710;78397613;;;;;;;;;;;
21838423;78412629;;;;;;;;;;;
21838457;78412644;;;;;;;;;;;
21838788;78421735;;;;;;;;;;;
21838240;78462496;;;;;;;;;;;
21837097;78570893;;;;;;;;;;;
21830315;78485017;;;;;;;;;;;
21831225;78565159;;;;;;;;;;;
21830783;78579025;;;;;;;;;;;
31238392;78446405;;;;;;;;;;;
31238577;78447464;;;;;;;;;;;
31239332;78398919;;;;;;;;;;;
21829581;78395613;;;;;;;;;;;
21829359;78446987;;;;;;;;;;;
21829944;78481428;;;;;;;;;;;
21829950;78481431;;;;;;;;;;;
21829955;78529954;;;;;;;;;;;
21829224;78602124;;;;;;;;;;;
21828297;78485132;;;;;;;;;;;
21828335;78485119;;;;;;;;;;;
21827972;78554193;;;;;;;;;;;
21835146;78545067;;;;;;;;;;;
21834495;78411026;;;;;;;;;;;
16818422;78456910;;;;;;;;;;;
16818423;78456911;;;;;;;;;;;
16824657;78604004;;;;;;;;;;;
21831568;78447069;;;;;;;;;;;
21832783;78385388;;;;;;;;;;;
21830324;78485009;;;;;;;;;;;
21833251;78530123;;;;;;;;;;;
21832186;78580369;;;;;;;;;;;
21833490;78581522;;;;;;;;;;;
26009409;78557327;;;;;;;;;;;
26009408;78557328;;;;;;;;;;;
26009660;78461396;;;;;;;;;;;
26009613;78481406;;;;;;;;;;;
26009564;78456905;;;;;;;;;;;
26009764;78470417;;;;;;;;;;;
26009763;78470416;;;;;;;;;;;
21831452;78363376;;;;;;;;;;;
21831534;78386104;;;;;;;;;;;
21831455;78363383;;;;;;;;;;;
21832785;78385389;;;;;;;;;;;
21831519;78398090;;;;;;;;;;;
21831530;78398092;;;;;;;;;;;
21831529;78447056;;;;;;;;;;;
21832614;78542468;;;;;;;;;;;
21832560;78471543;;;;;;;;;;;
31234813;78456002;;;;;;;;;;;
21837483;78450163;;;;;;;;;;;
21837489;78450167;;;;;;;;;;;
21837481;78450173;;;;;;;;;;;
21836152;78510450;;;;;;;;;;;
21836058;78437733;;;;;;;;;;;
21836677;78397370;;;;;;;;;;;
21835594;78506482;;;;;;;;;;;
31231241;78569122;;;;;;;;;;;
21835988;78425482;;;;;;;;;;;
21836274;78570538;;;;;;;;;;;
21836271;78510016;;;;;;;;;;;
21836273;78510017;;;;;;;;;;;
31230616;78375509;;;;;;;;;;;
31230615;78375510;;;;;;;;;;;
21835266;78375942;;;;;;;;;;;
21835336;78473529;;;;;;;;;;;
21835324;78473557;;;;;;;;;;;
21831707;78507314;;;;;;;;;;;
31236014;78394692;;;;;;;;;;;
31235779;78357257;;;;;;;;;;;
31235222;78468951;;;;;;;;;;;
31235646;78533668;;;;;;;;;;;
31239331;78411165;;;;;;;;;;;
31239159;78508127;;;;;;;;;;;
31238401;78446413;;;;;;;;;;;
31239165;78519467;;;;;;;;;;;
26010147;78485655;;;;;;;;;;;
26010475;78522517;;;;;;;;;;;
26010282;78411161;;;;;;;;;;;
26010550;78498409;;;;;;;;;;;
26010922;78506433;;;;;;;;;;;
31234698;78395486;;;;;;;;;;;
31234193;78484975;;;;;;;;;;;
31234761;78395524;;;;;;;;;;;
21839245;78378308;;;;;;;;;;;
31232335;78543996;;;;;;;;;;;
31237369;78504674;;;;;;;;;;;
21827199;78412833;;;;;;;;;;;
31242587;78486632;;;;;;;;;;;
31242476;78404820;;;;;;;;;;;
31237366;78504676;;;;;;;;;;;
31236294;78554921;;;;;;;;;;;
31236985;78373530;;;;;;;;;;;
31237980;78568574;;;;;;;;;;;
31241676;78426446;;;;;;;;;;;
31242008;78402028;;;;;;;;;;;
31241675;78438373;;;;;;;;;;;
31236984;78373529;;;;;;;;;;;
24607333;78444089;;;;;;;;;;;
31240349;78570238;;;;;;;;;;;
24607290;78494537;;;;;;;;;;;
24607743;78354335;;;;;;;;;;;
31241171;78409161;;;;;;;;;;;
26011211;78608393;;;;;;;;;;;
33455960;78613418;;;;;;;;;;;
16824883;78615326;;;;;;;;;;;
26010652;78923954;;;;;;;;;;;
22601499;78925143;;;;;;;;;;;
22601499;78933137;;;;;;;;;;;
26009849;76457836;;;;;;;;;;;
31239130;76502106;;;;;;;;;;;
21832617;77587340;;;;;;;;;;;
31237840;75634703;;;;;;;;;;;
16822191;77031594;;;;;;;;;;;
21831452;75325003;;;;;;;;;;;
16814716;78394809;;;;;;;;;;;
16814354;78375249;;;;;;;;;;;
16814715;78394807;;;;;;;;;;;
16814850;78592708;;;;;;;;;;;
24605633;71899808;;;;;;;;;;;
31231092;77877151;;;;;;;;;;;
21837796;78010787;;;;;;;;;;;
21838734;78048840;;;;;;;;;;;
21837337;78068960;;;;;;;;;;;
24608356;78275429;;;;;;;;;;;
24608033;78199238;;;;;;;;;;;
21834819;78151610;;;;;;;;;;;
21826483;78153091;;;;;;;;;;;
21826245;78281665;;;;;;;;;;;
21828371;78189004;;;;;;;;;;;
24606283;78198860;;;;;;;;;;;
31232166;78153090;;;;;;;;;;;
24607448;78198758;;;;;;;;;;;
21836660;78222542;;;;;;;;;;;
31235740;78061306;;;;;;;;;;;
31235739;78061305;;;;;;;;;;;
31231094;78244985;;;;;;;;;;;
31241664;78142436;;;;;;;;;;;
31232166;73908886;;;;;;;;;;;
33456041;78623802;;;;;;;;;;;
24606298;76717427;;;;;;;;;;;
31238086;77455868;;;;;;;;;;;
21823743;78187897;;;;;;;;;;;
33312959;78442246;;;;;;;;;;;
33323937;78381823;;;;;;;;;;;
21625001;78944037;;;;;;;;;;;
21625001;78944038;;;;;;;;;;;
21625001;78944036;;;;;;;;;;;
24605633;71167500;;;;;;;;;;;
31231092;78171642;;;;;;;;;;;
21834528;78543672;;;;;;;;;;;
33455633;78605303;;;;;;;;;;;
31235739;78357234;;;;;;;;;;;
24606283;78507442;;;;;;;;;;;
31231092;78479856;;;;;;;;;;;
21826245;78588962;;;;;;;;;;;
24608033;78495123;;;;;;;;;;;
24608356;78570613;;;;;;;;;;;
31241233;78438241;;;;;;;;;;;
31241664;78438381;;;;;;;;;;;
21838734;78397641;;;;;;;;;;;
31235740;78357235;;;;;;;;;;;
21837337;78364847;;;;;;;;;;;
21836660;78518111;;;;;;;;;;;
31234680;78395484;;;;;;;;;;;
24607448;78494553;;;;;;;;;;;
21834528;77576923;;;;;;;;;;;
24606298;75849947;;;;;;;;;;;
33322181;77886792;;;;;;;;;;;
21823422;77987300;;;;;;;;;;;
33405232;78028579;;;;;;;;;;;
33430340;78028272;;;;;;;;;;;
33432052;78027516;;;;;;;;;;;
31221487;78028425;;;;;;;;;;;
21822903;77626504;;;;;;;;;;;
21823422;77612688;;;;;;;;;;;
33411112;72365417;;;;;;;;;;;
21813854;71678466;;;;;;;;;;;
33404105;75361678;;;;;;;;;;;
31227553;70834852;;;;;;;;;;;
31241645;77760452;;;;;;;;;;;
31235283;77772613;;;;;;;;;;;
21834882;77799292;;;;;;;;;;;
31236128;77990347;;;;;;;;;;;
21834489;77821014;;;;;;;;;;;
21835047;77895304;;;;;;;;;;;
21832914;77817980;;;;;;;;;;;
21831684;77879907;;;;;;;;;;;
21831087;77966499;;;;;;;;;;;
21829744;77810773;;;;;;;;;;;
21829395;77834657;;;;;;;;;;;
21830087;77903048;;;;;;;;;;;
24607128;77822943;;;;;;;;;;;
21829605;77805646;;;;;;;;;;;
21829772;77810788;;;;;;;;;;;
21829388;77834648;;;;;;;;;;;
21829607;77853696;;;;;;;;;;;
31235304;77783224;;;;;;;;;;;
31234671;77805521;;;;;;;;;;;
31235465;77823010;;;;;;;;;;;
21830817;77781397;;;;;;;;;;;
21830798;77866322;;;;;;;;;;;
21830744;77987706;;;;;;;;;;;
21827164;77798601;;;;;;;;;;;
21827809;77831937;;;;;;;;;;;
21830532;77966404;;;;;;;;;;;
31234845;77889727;;;;;;;;;;;
26010858;78010895;;;;;;;;;;;
33454221;78015815;;;;;;;;;;;
33454288;78019942;;;;;;;;;;;
33454478;78020132;;;;;;;;;;;
21837887;78019616;;;;;;;;;;;
21838000;78021518;;;;;;;;;;;
24608694;78038284;;;;;;;;;;;
31238014;78078431;;;;;;;;;;;
31239237;78163155;;;;;;;;;;;
21828362;78188997;;;;;;;;;;;
21828363;78188998;;;;;;;;;;;
21835864;78093726;;;;;;;;;;;
21836018;78129432;;;;;;;;;;;
21836023;78129435;;;;;;;;;;;
21838302;78202772;;;;;;;;;;;
21838303;78202786;;;;;;;;;;;
31242166;78154560;;;;;;;;;;;
21830284;78117189;;;;;;;;;;;
21829396;78128954;;;;;;;;;;;
21830532;78262127;;;;;;;;;;;
21830776;78283918;;;;;;;;;;;
31233946;78201014;;;;;;;;;;;
31233308;78128512;;;;;;;;;;;
21833210;78101356;;;;;;;;;;;
21832914;78112089;;;;;;;;;;;
21832412;78139983;;;;;;;;;;;
21832948;78172094;;;;;;;;;;;
21831684;78174435;;;;;;;;;;;
21831087;78262228;;;;;;;;;;;
21832072;78272056;;;;;;;;;;;
21833325;78282886;;;;;;;;;;;
21829395;78128953;;;;;;;;;;;
21830087;78197562;;;;;;;;;;;
31234671;78099699;;;;;;;;;;;
31235465;78117212;;;;;;;;;;;
31234121;78248895;;;;;;;;;;;
16817789;78213832;;;;;;;;;;;
21831468;78067424;;;;;;;;;;;
21830820;78075393;;;;;;;;;;;
24607406;78117272;;;;;;;;;;;
21835861;78093716;;;;;;;;;;;
21834062;78274971;;;;;;;;;;;
24608339;78239063;;;;;;;;;;;
24608059;78223874;;;;;;;;;;;
24607463;78198764;;;;;;;;;;;
24607465;78198753;;;;;;;;;;;
24607309;78058145;;;;;;;;;;;
21836017;78129431;;;;;;;;;;;
21836034;78129449;;;;;;;;;;;
21834063;78274972;;;;;;;;;;;
31230691;78224985;;;;;;;;;;;
31229371;78068326;;;;;;;;;;;
31230690;78237094;;;;;;;;;;;
21834488;78115145;;;;;;;;;;;
21834489;78115149;;;;;;;;;;;
21832766;78089450;;;;;;;;;;;
21832074;78272066;;;;;;;;;;;
21831234;78294756;;;;;;;;;;;
21829744;78104850;;;;;;;;;;;
21828520;78116987;;;;;;;;;;;
21827162;78092755;;;;;;;;;;;
21827163;78092756;;;;;;;;;;;
21827164;78092758;;;;;;;;;;;
31237822;78257208;;;;;;;;;;;
31230895;78249594;;;;;;;;;;;
21830817;78075403;;;;;;;;;;;
21829402;78128965;;;;;;;;;;;
21830798;78160769;;;;;;;;;;;
21831661;78174418;;;;;;;;;;;
21831658;78174425;;;;;;;;;;;
21830744;78283894;;;;;;;;;;;
31236128;78286582;;;;;;;;;;;
21831086;78286557;;;;;;;;;;;
21827696;78102059;;;;;;;;;;;
21827775;78126166;;;;;;;;;;;
21827809;78126181;;;;;;;;;;;
21827484;78305326;;;;;;;;;;;
24606125;78249231;;;;;;;;;;;
24606151;78114524;;;;;;;;;;;
21827926;78211169;;;;;;;;;;;
24606152;78114527;;;;;;;;;;;
24606628;78200735;;;;;;;;;;;
21832073;78272064;;;;;;;;;;;
31233162;78261850;;;;;;;;;;;
31233174;78286256;;;;;;;;;;;
31233003;78092782;;;;;;;;;;;
24701139;78106331;;;;;;;;;;;
21832912;78172080;;;;;;;;;;;
24606719;78274448;;;;;;;;;;;
24606684;78176769;;;;;;;;;;;
24606727;78274434;;;;;;;;;;;
24607120;78117140;;;;;;;;;;;
24606880;78274643;;;;;;;;;;;
24606879;78274641;;;;;;;;;;;
24607700;78281749;;;;;;;;;;;
24607128;78117142;;;;;;;;;;;
24606881;78274642;;;;;;;;;;;
24606905;78274650;;;;;;;;;;;
31233713;78247353;;;;;;;;;;;
21834882;78093458;;;;;;;;;;;
21834175;78105057;;;;;;;;;;;
31234845;78183969;;;;;;;;;;;
21825920;78102739;;;;;;;;;;;
21826027;78151357;;;;;;;;;;;
21825841;78162907;;;;;;;;;;;
21825868;78174718;;;;;;;;;;;
31232604;78128252;;;;;;;;;;;
31239111;78141488;;;;;;;;;;;
31235304;78077177;;;;;;;;;;;
31234899;78128999;;;;;;;;;;;
21823970;78103686;;;;;;;;;;;
21824510;78271699;;;;;;;;;;;
31238316;78125818;;;;;;;;;;;
31238962;78301389;;;;;;;;;;;
24700952;78093157;;;;;;;;;;;
24701052;78223889;;;;;;;;;;;
31231267;78249690;;;;;;;;;;;
31230305;78114492;;;;;;;;;;;
31229731;78224750;;;;;;;;;;;
31229701;78163845;;;;;;;;;;;
31235283;78066666;;;;;;;;;;;
31238915;78301371;;;;;;;;;;;
31238698;78185176;;;;;;;;;;;
31237933;78224794;;;;;;;;;;;
31239109;78129169;;;;;;;;;;;
21828856;78199570;;;;;;;;;;;
21829605;78099814;;;;;;;;;;;
21829772;78104865;;;;;;;;;;;
21829388;78128944;;;;;;;;;;;
21829394;78128952;;;;;;;;;;;
21829408;78128962;;;;;;;;;;;
21829607;78147981;;;;;;;;;;;
21828365;78188999;;;;;;;;;;;
33455159;78319646;;;;;;;;;;;
33455158;78319642;;;;;;;;;;;
33455161;78319651;;;;;;;;;;;
24608862;78329083;;;;;;;;;;;
31233946;78340316;;;;;;;;;;;
31233946;78340314;;;;;;;;;;;
31240422;78350165;;;;;;;;;;;
16824856;78604238;;;;;;;;;;;
33455328;78604350;;;;;;;;;;;
21839780;78607785;;;;;;;;;;;
21830591;77194979;;;;;;;;;;;
31234845;77525353;;;;;;;;;;;
21829388;77459380;;;;;;;;;;;
31236128;77615772;;;;;;;;;;;
21827164;77435070;;;;;;;;;;;
21829744;77447389;;;;;;;;;;;
31234671;77442050;;;;;;;;;;;
21829395;77470957;;;;;;;;;;;
33453237;77304843;;;;;;;;;;;
33451383;76494643;;;;;;;;;;;
31237933;77217975;;;;;;;;;;;
21831087;77590946;;;;;;;;;;;
21830087;77527250;;;;;;;;;;;
21829772;77447404;;;;;;;;;;;
21830817;77418139;;;;;;;;;;;
31235283;77409524;;;;;;;;;;;
21827809;77468315;;;;;;;;;;;
21829605;77442178;;;;;;;;;;;
21832914;77454697;;;;;;;;;;;
21830744;77613143;;;;;;;;;;;
21835047;78614746;;;;;;;;;;;
21831684;77504394;;;;;;;;;;;
21830532;77590911;;;;;;;;;;;
31235465;77459470;;;;;;;;;;;
21829607;77489931;;;;;;;;;;;
21835047;77519080;;;;;;;;;;;
24607128;77459404;;;;;;;;;;;
21835047;78614954;;;;;;;;;;;
31235304;77419999;;;;;;;;;;;
21830798;77501960;;;;;;;;;;;
31229701;75810956;;;;;;;;;;;
21835864;77040887;;;;;;;;;;;
31238814;76254910;;;;;;;;;;;
16825117;78624634;;;;;;;;;;;
21833210;77443782;;;;;;;;;;;
21830820;74837804;;;;;;;;;;;
21823655;77857936;;;;;;;;;;;
24605987;78079507;;;;;;;;;;;
21823650;78152229;;;;;;;;;;;
21823653;78152219;;;;;;;;;;;
21823655;78152242;;;;;;;;;;;
31229367;78260887;;;;;;;;;;;
31229727;78199782;;;;;;;;;;;
31229362;78260884;;;;;;;;;;;
24700775;78123686;;;;;;;;;;;
21823655;77493851;;;;;;;;;;;
21818401;73673624;;;;;;;;;;;
31227553;70530286;;;;;;;;;;;
21829394;77743876;;;;;;;;;;;
31241644;77760451;;;;;;;;;;;
21825842;77880189;;;;;;;;;;;
21830820;77781389;;;;;;;;;;;
31229701;77869348;;;;;;;;;;;
31239109;77834880;;;;;;;;;;;
16823447;78010171;;;;;;;;;;;
21838388;78034150;;;;;;;;;;;
21838678;78048783;;;;;;;;;;;
21830374;78225940;;;;;;;;;;;
21828548;78117029;;;;;;;;;;;
21830732;78271909;;;;;;;;;;;
21834627;78061475;;;;;;;;;;;
21834871;78115303;;;;;;;;;;;
31240732;78105943;;;;;;;;;;;
31242998;78315482;;;;;;;;;;;
21830284;78413087;;;;;;;;;;;
21829396;78425064;;;;;;;;;;;
21830374;78521475;;;;;;;;;;;
21830776;78579023;;;;;;;;;;;
21834488;78411018;;;;;;;;;;;
21834489;78411024;;;;;;;;;;;
21834871;78411173;;;;;;;;;;;
16819396;78557729;;;;;;;;;;;
21828363;78485108;;;;;;;;;;;
21828362;78485110;;;;;;;;;;;
21834063;78570172;;;;;;;;;;;
31232604;78424310;;;;;;;;;;;
21825920;78398543;;;;;;;;;;;
21826027;78447294;;;;;;;;;;;
21825841;78470680;;;;;;;;;;;
21825842;78470687;;;;;;;;;;;
21825868;78470697;;;;;;;;;;;
21835861;78389576;;;;;;;;;;;
31230895;78544716;;;;;;;;;;;
24606125;78544542;;;;;;;;;;;
24606151;78410259;;;;;;;;;;;
24606153;78470168;;;;;;;;;;;
24606152;78410258;;;;;;;;;;;
24606628;78496572;;;;;;;;;;;
31239109;78437405;;;;;;;;;;;
31239111;78437431;;;;;;;;;;;
21831086;78581397;;;;;;;;;;;
21832074;78567256;;;;;;;;;;;
21831234;78589521;;;;;;;;;;;
31233308;78424657;;;;;;;;;;;
21829402;78425105;;;;;;;;;;;
21831661;78470372;;;;;;;;;;;
21831658;78470380;;;;;;;;;;;
31231267;78544883;;;;;;;;;;;
21823970;78399818;;;;;;;;;;;
21824510;78566947;;;;;;;;;;;
24608009;78461576;;;;;;;;;;;
24608339;78534494;;;;;;;;;;;
24608059;78519509;;;;;;;;;;;
21838068;78378121;;;;;;;;;;;
21838758;78397636;;;;;;;;;;;
21838000;78594790;;;;;;;;;;;
21828520;78412917;;;;;;;;;;;
31237822;78552502;;;;;;;;;;;
31238316;78421445;;;;;;;;;;;
31238962;78596182;;;;;;;;;;;
21828856;78495451;;;;;;;;;;;
21829394;78425062;;;;;;;;;;;
21829408;78425104;;;;;;;;;;;
21828365;78485109;;;;;;;;;;;
21827696;78397889;;;;;;;;;;;
21827775;78422357;;;;;;;;;;;
21827484;78601968;;;;;;;;;;;
21827926;78518454;;;;;;;;;;;
31233162;78557222;;;;;;;;;;;
31233174;78581090;;;;;;;;;;;
21834627;78357399;;;;;;;;;;;
31241645;78438367;;;;;;;;;;;
31243182;78546862;;;;;;;;;;;
31238814;78397410;;;;;;;;;;;
16824430;78603775;;;;;;;;;;;
21833210;78397130;;;;;;;;;;;
21832412;78435917;;;;;;;;;;;
21832948;78468039;;;;;;;;;;;
21830820;78371212;;;;;;;;;;;
21831468;78363391;;;;;;;;;;;
21830732;78578990;;;;;;;;;;;
21832073;78567254;;;;;;;;;;;
24606719;78569650;;;;;;;;;;;
24606727;78569636;;;;;;;;;;;
24606880;78569837;;;;;;;;;;;
24606879;78569835;;;;;;;;;;;
24607148;78413055;;;;;;;;;;;
21836018;78425475;;;;;;;;;;;
21836023;78425479;;;;;;;;;;;
21838302;78498569;;;;;;;;;;;
21838303;78498585;;;;;;;;;;;
21836033;78461674;;;;;;;;;;;
21834062;78570171;;;;;;;;;;;
21836017;78425476;;;;;;;;;;;
21836034;78437718;;;;;;;;;;;
31229731;78532377;;;;;;;;;;;
31229701;78459828;;;;;;;;;;;
21832912;78467604;;;;;;;;;;;
31229371;78364223;;;;;;;;;;;
21834882;78389316;;;;;;;;;;;
21834175;78400832;;;;;;;;;;;
31234123;78556104;;;;;;;;;;;
31234899;78425134;;;;;;;;;;;
31234121;78556554;;;;;;;;;;;
21837887;78378011;;;;;;;;;;;
31233003;78388631;;;;;;;;;;;
21827162;78388604;;;;;;;;;;;
21827163;78388605;;;;;;;;;;;
24700952;78389001;;;;;;;;;;;
24701052;78519523;;;;;;;;;;;
24701139;78402067;;;;;;;;;;;
31242998;78402327;;;;;;;;;;;
31240422;78473777;;;;;;;;;;;
31238014;78374274;;;;;;;;;;;
31239237;78459166;;;;;;;;;;;
24608862;78486804;;;;;;;;;;;
24608720;78498662;;;;;;;;;;;
24608694;78596881;;;;;;;;;;;
31242166;78450439;;;;;;;;;;;
24606881;78569836;;;;;;;;;;;
24606905;78569843;;;;;;;;;;;
24607120;78413043;;;;;;;;;;;
31240732;78401669;;;;;;;;;;;
31238915;78596676;;;;;;;;;;;
24607700;78576879;;;;;;;;;;;
24607406;78413167;;;;;;;;;;;
24607463;78494548;;;;;;;;;;;
24607465;78494559;;;;;;;;;;;
24607309;78354135;;;;;;;;;;;
31238698;78481186;;;;;;;;;;;
33456081;78623843;;;;;;;;;;;
24608490;78657694;;;;;;;;;;;
31243215;78857067;;;;;;;;;;;
21828327;78834061;;;;;;;;;;;
16821182;76503857;;;;;;;;;;;
21836571;77341286;;;;;;;;;;;
21834489;77457839;;;;;;;;;;;
33453419;77395237;;;;;;;;;;;
16814824;78580159;;;;;;;;;;;
21823653;78448154;;;;;;;;;;;
24700775;78419540;;;;;;;;;;;
31229367;78556298;;;;;;;;;;;
31229727;78495660;;;;;;;;;;;
21823648;77157544;;;;;;;;;;;
21823288;77795549;;;;;;;;;;;
21823099;77612620;;;;;;;;;;;
21823288;77432364;;;;;;;;;;;
21821896;70808931;;;;;;;;;;;
33428908;75463427;;;;;;;;;;;
21824401;77905292;;;;;;;;;;;
21825909;77808617;;;;;;;;;;;
31234667;77805520;;;;;;;;;;;
21826239;77985559;;;;;;;;;;;
31237674;77938356;;;;;;;;;;;
21832853;77964022;;;;;;;;;;;
21832854;77964024;;;;;;;;;;;
31239786;77895447;;;;;;;;;;;
21827622;77795712;;;;;;;;;;;
21829757;77966348;;;;;;;;;;;
21829756;77810783;;;;;;;;;;;
21829770;77810798;;;;;;;;;;;
24607129;77786983;;;;;;;;;;;
31231698;77918731;;;;;;;;;;;
21829593;77805662;;;;;;;;;;;
21829594;77805663;;;;;;;;;;;
21829393;77834656;;;;;;;;;;;
21829391;77834659;;;;;;;;;;;
24700949;77951023;;;;;;;;;;;
31233134;77966148;;;;;;;;;;;
31234927;77906680;;;;;;;;;;;
21827064;77775083;;;;;;;;;;;
21829343;77856665;;;;;;;;;;;
21829333;77856675;;;;;;;;;;;
24607266;77942892;;;;;;;;;;;
24607060;77889696;;;;;;;;;;;
21829745;77810800;;;;;;;;;;;
21825367;77964077;;;;;;;;;;;
24606555;77822696;;;;;;;;;;;
21826241;78281664;;;;;;;;;;;
21829331;78151005;;;;;;;;;;;
21829332;78151006;;;;;;;;;;;
21829343;78151013;;;;;;;;;;;
21829333;78151023;;;;;;;;;;;
21837867;78173720;;;;;;;;;;;
21829745;78104879;;;;;;;;;;;
21829756;78104859;;;;;;;;;;;
21829770;78104875;;;;;;;;;;;
31234927;78214057;;;;;;;;;;;
21832853;78259670;;;;;;;;;;;
21832854;78259673;;;;;;;;;;;
24608257;78185953;;;;;;;;;;;
24607734;78273439;;;;;;;;;;;
21834485;78115158;;;;;;;;;;;
31240260;78238579;;;;;;;;;;;
21824410;78304907;;;;;;;;;;;
21829757;78262066;;;;;;;;;;;
21827073;78069039;;;;;;;;;;;
21827075;78069041;;;;;;;;;;;
21827065;78069046;;;;;;;;;;;
21827064;78069047;;;;;;;;;;;
31230896;78249595;;;;;;;;;;;
31237674;78233545;;;;;;;;;;;
21826277;78075808;;;;;;;;;;;
21826239;78281662;;;;;;;;;;;
21826240;78281663;;;;;;;;;;;
21828071;78283559;;;;;;;;;;;
24606272;78151198;;;;;;;;;;;
24605984;78079504;;;;;;;;;;;
24606074;78075286;;;;;;;;;;;
21827621;78089870;;;;;;;;;;;
21827622;78089871;;;;;;;;;;;
24606555;78116888;;;;;;;;;;;
31231680;78213511;;;;;;;;;;;
31231698;78213514;;;;;;;;;;;
31233134;78261863;;;;;;;;;;;
24607060;78183940;;;;;;;;;;;
24606732;78080644;;;;;;;;;;;
24607129;78080882;;;;;;;;;;;
24607266;78238230;;;;;;;;;;;
26009087;78176529;;;;;;;;;;;
31233135;78261864;;;;;;;;;;;
21824401;78199846;;;;;;;;;;;
21825909;78102744;;;;;;;;;;;
21825919;78114840;;;;;;;;;;;
31239786;78189955;;;;;;;;;;;
21824628;78152511;;;;;;;;;;;
21825006;78249585;;;;;;;;;;;
21825367;78259728;;;;;;;;;;;
21824409;78304906;;;;;;;;;;;
24700949;78246589;;;;;;;;;;;
31234667;78099698;;;;;;;;;;;
21829594;78099831;;;;;;;;;;;
21829593;78099832;;;;;;;;;;;
21829393;78128951;;;;;;;;;;;
21829391;78128955;;;;;;;;;;;
33454867;78307744;;;;;;;;;;;
21829391;77470959;;;;;;;;;;;
21829393;77470956;;;;;;;;;;;
21832853;77588311;;;;;;;;;;;
21832854;77588314;;;;;;;;;;;
21829745;77447418;;;;;;;;;;;
24607266;77578781;;;;;;;;;;;
31233135;77254622;;;;;;;;;;;
31239786;77530982;;;;;;;;;;;
24606555;77459047;;;;;;;;;;;
21829333;77492725;;;;;;;;;;;
21829594;77442197;;;;;;;;;;;
21825367;77600602;;;;;;;;;;;
21829770;77447414;;;;;;;;;;;
21826241;76011921;;;;;;;;;;;
21827064;77411823;;;;;;;;;;;
21827622;77432536;;;;;;;;;;;
31237674;77573661;;;;;;;;;;;
21829757;77590879;;;;;;;;;;;
21829756;77447398;;;;;;;;;;;
24607129;77423666;;;;;;;;;;;
31234927;77542789;;;;;;;;;;;
24700949;77575097;;;;;;;;;;;
21829593;77442196;;;;;;;;;;;
24607060;77513135;;;;;;;;;;;
21825909;77445221;;;;;;;;;;;
24608257;77515378;;;;;;;;;;;
31229442;77774353;;;;;;;;;;;
21824169;77949309;;;;;;;;;;;
21823734;78187894;;;;;;;;;;;
21823461;78208437;;;;;;;;;;;
21823636;78115905;;;;;;;;;;;
21824169;78244868;;;;;;;;;;;
31229442;78068329;;;;;;;;;;;
31229460;78068373;;;;;;;;;;;
31229032;78211101;;;;;;;;;;;
21824169;77573209;;;;;;;;;;;
21823288;77795549;;;;;;;;;;;
21823099;77612620;;;;;;;;;;;
21823288;77432364;;;;;;;;;;;
21821896;70808931;;;;;;;;;;;
33428908;75463427;;;;;;;;;;;
21824401;77905292;;;;;;;;;;;
21825909;77808617;;;;;;;;;;;
31234667;77805520;;;;;;;;;;;
21826239;77985559;;;;;;;;;;;
31237674;77938356;;;;;;;;;;;
21832853;77964022;;;;;;;;;;;
21832854;77964024;;;;;;;;;;;
31239786;77895447;;;;;;;;;;;
21827622;77795712;;;;;;;;;;;
21829757;77966348;;;;;;;;;;;
21829756;77810783;;;;;;;;;;;
21829770;77810798;;;;;;;;;;;
24607129;77786983;;;;;;;;;;;
31231698;77918731;;;;;;;;;;;
21829593;77805662;;;;;;;;;;;
21829594;77805663;;;;;;;;;;;
21829393;77834656;;;;;;;;;;;
21829391;77834659;;;;;;;;;;;
24700949;77951023;;;;;;;;;;;
31233134;77966148;;;;;;;;;;;
31234927;77906680;;;;;;;;;;;
21827064;77775083;;;;;;;;;;;
21829343;77856665;;;;;;;;;;;
21829333;77856675;;;;;;;;;;;
24607266;77942892;;;;;;;;;;;
24607060;77889696;;;;;;;;;;;
21829745;77810800;;;;;;;;;;;
21825367;77964077;;;;;;;;;;;
24606555;77822696;;;;;;;;;;;
21826241;78281664;;;;;;;;;;;
21829331;78151005;;;;;;;;;;;
21829332;78151006;;;;;;;;;;;
21829343;78151013;;;;;;;;;;;
21829333;78151023;;;;;;;;;;;
21837867;78173720;;;;;;;;;;;
21829745;78104879;;;;;;;;;;;
21829756;78104859;;;;;;;;;;;
21829770;78104875;;;;;;;;;;;
31234927;78214057;;;;;;;;;;;
21832853;78259670;;;;;;;;;;;
21832854;78259673;;;;;;;;;;;
24608257;78185953;;;;;;;;;;;
24607734;78273439;;;;;;;;;;;
21834485;78115158;;;;;;;;;;;
31240260;78238579;;;;;;;;;;;
21824410;78304907;;;;;;;;;;;
21829757;78262066;;;;;;;;;;;
21827073;78069039;;;;;;;;;;;
21827075;78069041;;;;;;;;;;;
21827065;78069046;;;;;;;;;;;
21827064;78069047;;;;;;;;;;;
31230896;78249595;;;;;;;;;;;
31237674;78233545;;;;;;;;;;;
21826277;78075808;;;;;;;;;;;
21826239;78281662;;;;;;;;;;;
21826240;78281663;;;;;;;;;;;
21828071;78283559;;;;;;;;;;;
24606272;78151198;;;;;;;;;;;
24605984;78079504;;;;;;;;;;;
24606074;78075286;;;;;;;;;;;
21827621;78089870;;;;;;;;;;;
21827622;78089871;;;;;;;;;;;
24606555;78116888;;;;;;;;;;;
31231680;78213511;;;;;;;;;;;
31231698;78213514;;;;;;;;;;;
31233134;78261863;;;;;;;;;;;
24607060;78183940;;;;;;;;;;;
24606732;78080644;;;;;;;;;;;
24607129;78080882;;;;;;;;;;;
24607266;78238230;;;;;;;;;;;
26009087;78176529;;;;;;;;;;;
31233135;78261864;;;;;;;;;;;
21824401;78199846;;;;;;;;;;;
21825909;78102744;;;;;;;;;;;
21825919;78114840;;;;;;;;;;;
31239786;78189955;;;;;;;;;;;
21824628;78152511;;;;;;;;;;;
21825006;78249585;;;;;;;;;;;
21825367;78259728;;;;;;;;;;;
21824409;78304906;;;;;;;;;;;
24700949;78246589;;;;;;;;;;;
31234667;78099698;;;;;;;;;;;
21829594;78099831;;;;;;;;;;;
21829593;78099832;;;;;;;;;;;
21829393;78128951;;;;;;;;;;;
21829391;78128955;;;;;;;;;;;
33454867;78307744;;;;;;;;;;;
21829391;77470959;;;;;;;;;;;
21829393;77470956;;;;;;;;;;;
21832853;77588311;;;;;;;;;;;
21832854;77588314;;;;;;;;;;;
21829745;77447418;;;;;;;;;;;
24607266;77578781;;;;;;;;;;;
31233135;77254622;;;;;;;;;;;
31239786;77530982;;;;;;;;;;;
24606555;77459047;;;;;;;;;;;
21829333;77492725;;;;;;;;;;;
21829594;77442197;;;;;;;;;;;
21825367;77600602;;;;;;;;;;;
21829770;77447414;;;;;;;;;;;
21826241;76011921;;;;;;;;;;;
21827064;77411823;;;;;;;;;;;
21827622;77432536;;;;;;;;;;;
31237674;77573661;;;;;;;;;;;
21829757;77590879;;;;;;;;;;;
21829756;77447398;;;;;;;;;;;
24607129;77423666;;;;;;;;;;;
31234927;77542789;;;;;;;;;;;
24700949;77575097;;;;;;;;;;;
21829593;77442196;;;;;;;;;;;
24607060;77513135;;;;;;;;;;;
21825909;77445221;;;;;;;;;;;
24608257;77515378;;;;;;;;;;;
31229442;77774353;;;;;;;;;;;
21824169;77949309;;;;;;;;;;;
21823734;78187894;;;;;;;;;;;
21823461;78208437;;;;;;;;;;;
21823636;78115905;;;;;;;;;;;
21824169;78244868;;;;;;;;;;;
31229442;78068329;;;;;;;;;;;
31229460;78068373;;;;;;;;;;;
31229032;78211101;;;;;;;;;;;
21824169;77573209;;;;;;;;;;;
33404133;75874397;;;;;;;;;;;
33401050;75431376;;;;;;;;;;;
21624555;71707773;;;;;;;;;;;
21624555;72199887;;;;;;;;;;;
16823294;77753917;;;;;;;;;;;
16823261;77753881;;;;;;;;;;;
33454135;77760708;;;;;;;;;;;
21836870;77833712;;;;;;;;;;;
21833611;77775606;;;;;;;;;;;
21831955;77796136;;;;;;;;;;;
31235072;77942864;;;;;;;;;;;
21830234;78006987;;;;;;;;;;;
31236484;77796103;;;;;;;;;;;
31238558;77857144;;;;;;;;;;;
21828888;77918010;;;;;;;;;;;
21836292;77931884;;;;;;;;;;;
21830543;77834731;;;;;;;;;;;
21831800;77975968;;;;;;;;;;;
31236432;77999830;;;;;;;;;;;
16823617;78010373;;;;;;;;;;;
21837570;78010557;;;;;;;;;;;
21837614;78010602;;;;;;;;;;;
33454417;78020072;;;;;;;;;;;
33454490;78020723;;;;;;;;;;;
21828522;78028946;;;;;;;;;;;
21832190;78028397;;;;;;;;;;;
21838518;78034280;;;;;;;;;;;
21838564;78034326;;;;;;;;;;;
31242389;78038406;;;;;;;;;;;
21838793;78048900;;;;;;;;;;;
33454711;78052014;;;;;;;;;;;
21837570;78077559;;;;;;;;;;;
21837614;78077576;;;;;;;;;;;
21828325;78188978;;;;;;;;;;;
21831018;78302731;;;;;;;;;;;
31241931;78082166;;;;;;;;;;;
21833611;78069595;;;;;;;;;;;
21830767;78283922;;;;;;;;;;;
21829534;78087382;;;;;;;;;;;
21829596;78099833;;;;;;;;;;;
21830681;78223464;;;;;;;;;;;
21830233;78303881;;;;;;;;;;;
31235234;78197299;;;;;;;;;;;
16818686;78197175;;;;;;;;;;;
31235604;78299332;;;;;;;;;;;
21832752;78077546;;;;;;;;;;;
21831437;78078264;;;;;;;;;;;
21832753;78089447;;;;;;;;;;;
21831955;78090277;;;;;;;;;;;
21830235;78303884;;;;;;;;;;;
24607338;78148178;;;;;;;;;;;
21836870;78127983;;;;;;;;;;;
31237082;78138178;;;;;;;;;;;
31237836;78257228;;;;;;;;;;;
31236035;78302805;;;;;;;;;;;
31238120;78113123;;;;;;;;;;;
22601011;78212196;;;;;;;;;;;
22601133;78157250;;;;;;;;;;;
22601183;78176151;;;;;;;;;;;
21834219;78223833;;;;;;;;;;;
21834361;78284511;;;;;;;;;;;
21834590;78058221;;;;;;;;;;;
21833599;78069580;;;;;;;;;;;
21833777;78117360;;;;;;;;;;;
21830543;78129037;;;;;;;;;;;
21827879;78174005;;;;;;;;;;;
24606405;78174900;;;;;;;;;;;
31236432;78296462;;;;;;;;;;;
31237709;78281733;;;;;;;;;;;
21832587;78079655;;;;;;;;;;;
21832077;78272069;;;;;;;;;;;
31231980;78104394;;;;;;;;;;;
21835896;78093728;;;;;;;;;;;
21836292;78226985;;;;;;;;;;;
24606748;78080645;;;;;;;;;;;
31237027;78089356;;;;;;;;;;;
21835431;78189953;;;;;;;;;;;
31236485;78090247;;;;;;;;;;;
31234431;78061190;;;;;;;;;;;
31236484;78090244;;;;;;;;;;;
31236445;78090208;;;;;;;;;;;
31234432;78061191;;;;;;;;;;;
31234277;78260810;;;;;;;;;;;
31234433;78061193;;;;;;;;;;;
31236207;78113469;;;;;;;;;;;
31236392;78283968;;;;;;;;;;;
31236393;78283973;;;;;;;;;;;
31232718;78128299;;;;;;;;;;;
31238849;78272558;;;;;;;;;;;
31238539;78151471;;;;;;;;;;;
31239883;78270888;;;;;;;;;;;
31236206;78113468;;;;;;;;;;;
31235072;78238195;;;;;;;;;;;
31236734;78174469;;;;;;;;;;;
31235483;78299320;;;;;;;;;;;
31235841;78148180;;;;;;;;;;;
31235144;78299295;;;;;;;;;;;
31238558;78151491;;;;;;;;;;;
21826299;78075820;;;;;;;;;;;
21828324;78188993;;;;;;;;;;;
31239050;78129206;;;;;;;;;;;
31239677;78298158;;;;;;;;;;;
31238515;78201488;;;;;;;;;;;
21828888;78212711;;;;;;;;;;;
21839306;78319431;;;;;;;;;;;
21833611;77087011;;;;;;;;;;;
21832587;77085600;;;;;;;;;;;
21836869;77680722;;;;;;;;;;;
33455280;78604298;;;;;;;;;;;
21836869;78608764;;;;;;;;;;;
21826190;78608791;;;;;;;;;;;
22601510;78612106;;;;;;;;;;;
16822358;77064032;;;;;;;;;;;
33453090;77294892;;;;;;;;;;;
31235841;77490177;;;;;;;;;;;
31238515;77530709;;;;;;;;;;;
24607338;76742308;;;;;;;;;;;
31238539;77481707;;;;;;;;;;;
21833777;77459618;;;;;;;;;;;
22601524;78626528;;;;;;;;;;;
16817891;77218681;;;;;;;;;;;
21828888;77553243;;;;;;;;;;;
31236432;77625494;;;;;;;;;;;
21830235;76405804;;;;;;;;;;;
31236445;77432898;;;;;;;;;;;
31231290;77001269;;;;;;;;;;;
22601524;78634332;;;;;;;;;;;
33323676;78369397;;;;;;;;;;;
21834219;77928802;;;;;;;;;;;
31239883;77974958;;;;;;;;;;;
31235425;77939494;;;;;;;;;;;
31235420;77939493;;;;;;;;;;;
21838427;78034189;;;;;;;;;;;
21838673;78048778;;;;;;;;;;;
21833282;78113093;;;;;;;;;;;
21839305;78319430;;;;;;;;;;;
21830701;78519015;;;;;;;;;;;
21831018;78598349;;;;;;;;;;;
21834361;78591767;;;;;;;;;;;
16818867;78364946;;;;;;;;;;;
16819368;78551040;;;;;;;;;;;
16818809;78362691;;;;;;;;;;;
16819185;78363333;;;;;;;;;;;
16818816;78362681;;;;;;;;;;;
21828325;78485127;;;;;;;;;;;
33455279;78604297;;;;;;;;;;;
33455255;78604270;;;;;;;;;;;
33455272;78604289;;;;;;;;;;;
21838518;78424141;;;;;;;;;;;
21839306;78462707;;;;;;;;;;;
31232718;78424359;;;;;;;;;;;
31236206;78409262;;;;;;;;;;;
31235072;78545648;;;;;;;;;;;
31236734;78470434;;;;;;;;;;;
31235483;78602173;;;;;;;;;;;
24606405;78470842;;;;;;;;;;;
22601011;78507824;;;;;;;;;;;
22601133;78453695;;;;;;;;;;;
22601183;78472084;;;;;;;;;;;
21830543;78424677;;;;;;;;;;;
21837614;78373392;;;;;;;;;;;
31238120;78408926;;;;;;;;;;;
21826299;78371652;;;;;;;;;;;
31235234;78505704;;;;;;;;;;;
31235604;78602242;;;;;;;;;;;
31235425;78530169;;;;;;;;;;;
31241931;78377627;;;;;;;;;;;
21835844;78389567;;;;;;;;;;;
21838564;78436424;;;;;;;;;;;
21829534;78383329;;;;;;;;;;;
21829596;78395618;;;;;;;;;;;
21830233;78599925;;;;;;;;;;;
21830234;78599927;;;;;;;;;;;
21828888;78508402;;;;;;;;;;;
21828324;78485114;;;;;;;;;;;
21833599;78365474;;;;;;;;;;;
21833282;78408897;;;;;;;;;;;
31242389;78380909;;;;;;;;;;;
16818504;78516220;;;;;;;;;;;
21830767;78579029;;;;;;;;;;;
21832752;78373363;;;;;;;;;;;
21831437;78374101;;;;;;;;;;;
21832753;78385376;;;;;;;;;;;
21831955;78386198;;;;;;;;;;;
24606748;78376643;;;;;;;;;;;
31236207;78409263;;;;;;;;;;;
31236392;78579071;;;;;;;;;;;
31236393;78591150;;;;;;;;;;;
21835896;78389588;;;;;;;;;;;
21836292;78522519;;;;;;;;;;;
21835431;78485940;;;;;;;;;;;
31239883;78566095;;;;;;;;;;;
31238558;78447458;;;;;;;;;;;
31239050;78425241;;;;;;;;;;;
31239677;78593006;;;;;;;;;;;
31235144;78593981;;;;;;;;;;;
31235420;78530167;;;;;;;;;;;
21838793;78434236;;;;;;;;;;;
31234431;78357125;;;;;;;;;;;
31234432;78357126;;;;;;;;;;;
31234277;78556230;;;;;;;;;;;
31234433;78357127;;;;;;;;;;;
31231980;78400336;;;;;;;;;;;
31236445;78386123;;;;;;;;;;;
31236432;78591180;;;;;;;;;;;
31237709;78576896;;;;;;;;;;;
31237892;78520416;;;;;;;;;;;
31237082;78433914;;;;;;;;;;;
31237836;78552522;;;;;;;;;;;
24607338;78444115;;;;;;;;;;;
33455917;78613375;;;;;;;;;;;
21833611;78650127;;;;;;;;;;;
16819826;78777337;;;;;;;;;;;
22601581;78923031;;;;;;;;;;;
22601372;78929826;;;;;;;;;;;
22601372;78929827;;;;;;;;;;;
33449654;78944677;;;;;;;;;;;
33449654;78944734;;;;;;;;;;;
