NUMERO_POLICES;NUMERO_QUITTANCE
77108536;77757225
77108543;77757804
77108583;78009771
77102819;74581006
77108552;77759786
77108618;78016782
77108558;77759954
77108604;78011035
77108594;78009782
77108593;78009781
77108590;78009778
77108582;78009770
77108585;78009773
77108589;78009777
77108551;77759785
77108549;77759783
77108547;77759781
77108565;77760858
77108586;78009774
77108600;78009788
77108592;78009780
77108591;78009779
77108625;78017021
77108574;78009532
77108573;78009501
77108613;78016172
77108571;78009432
77108563;77760329
77108601;78009789
77108535;77757219
77108611;78015905
77108616;78016778
77108630;78019025
77108584;78009772
77108570;78009431
77108537;77757226
77108624;78016976
77108612;78016157
77108612;78016157
77108637;78032352
77108640;78032392
77108638;78032364
77108639;78032376
77110170;78958367
77110168;78958261
77110169;78958327
77110167;78958147
77110192;78958527
77110246;78958966
77110214;78958576
77110215;78958578
77110220;78958598
77110224;78958604
78958641;77110227
77108641;78032411
77911260;77986157
77102757;74578578
77105061;78104980
77108688;78306561
77104244;77954854
77108820;78315676
77108394;77753748
77108689;78306562
77108598;78009786
77103271;74833193
77108848;78320044
77108714;78308999
77108791;78311391
77108789;78311386
77108828;78315684
77108827;78315683
77108826;78315682
77108793;78311397
77108792;78311395
77108740;78309299
77108739;78309297
77108702;78306585
77108749;78309319
77108700;78306583
77108734;78309241
77108732;78309237
77108733;78309239
77108763;78309389
77108757;78309377
77108760;78309383
77108762;78309387
77108729;78309229
77108731;78309231
77108794;78311459
77108771;78310036
77108772;78310041
77108735;78309285
77108741;78309302
77108718;78309016
77108744;78309305
77108780;78310098
77108707;78307390
77108742;78309303
77108755;78309374
77108743;78309304
77108713;78307495
77108721;78309019
77108782;78310104
;
77108788;78311380
77108796;78311465
77108703;78306586
77108823;78315679
77108854;78320127
77108867;78322863
77108873;78322894
77108861;78320176
77108874;78322895
77104454;78126853
77108917;78327613
77108860;78320154
77108844;78318160
77108808;78314370
77108865;78322861
77108803;78314321
77108716;78309002
77108842;78317671
77108864;78320204
77108863;78320199
77108841;78317647
77108820;78315676
77108855;78320128
77108738;78309295
77108850;78320097
77108849;78320053
77108847;78318170
77108843;78318159
77108802;78314305
77108833;78315689
77108710;78307461
77108851;78320101
77108840;78317392
77108838;78317390
77108859;78320145
77108870;78322866
77108814;78315670
77108819;78315675
77108815;78315671
77108876;78322897
77108872;78322893
77108881;78322902
77108877;78322898
77108829;78315685
77108722;78309022
77108790;78311388
77108868;78322864
77109069;78336483
77109083;78337418
77104707;78125253
77109048;78336100
77109033;78335798
77109029;78335717
77109027;78334444
77108926;78328573
77109067;78336362
77109059;78336199
77109009;78333024
77109007;78333019
77109118;78338323
77109053;78336158
77108909;78327342
77108913;78327352
77108916;78327365
77108900;78327289
77108904;78327311
77108882;78323005
77108902;78327302
77108918;78327690
77108933;78329029
77108934;78329041
77108962;78329745
77108930;78329003
77108923;78328568
77108959;78329627
77108919;78328350
77108924;78328569
77108893;78325317
77108960;78329741
77108914;78327360
77108949;78329133
77108987;78331179
77108948;78329132
77108915;78327363
77109064;78336265
77108993;78331367
77108944;78329123
77108999;78331459
77108966;78330441
77109244;78342425
77109186;78342350
77108986;78331172
77109060;78336211
77108908;78327336
77108965;78330382
77108925;78328570
77108942;78329116
77109004;78332173
77108905;78327319
77108931;78329011
77108895;78326126
77108947;78329129
77108952;78329152
77108958;78329284
77108964;78329842
77109148;78342061
77109039;78336067
77109038;78336065
77109098;78337496
77109051;78336117
77109028;78335473
77109063;78336246
77109011;78333027
77109015;78333068
77109120;78339872
77108884;78324532
77108967;78330518
77108897;78327265
77108970;78330521
77109000;78331462
77108980;78331036
77109065;78336279
77108974;78330764
77108937;78329049
77108921;78328555
77109062;78336225
77109122;78339894
77109008;78333020
77109135;78341932
77109117;78338282
77108954;78329274
77109006;78332175
77109005;78332174
77109002;78332167
77109001;78332166
77109086;78337432
77109089;78337437
77104809;78197539
77109025;78333776
77109036;78335998
77109255;78342570
77109209;78342381
77107155;77043847
77109157;78342257
77109149;78342074
77109136;78341950
77103846;78164000
77109128;78341905
77109216;78342393
77109162;78342307
77109174;78342338
77109143;78341983
77109248;78342430
77109229;78342408
77109127;78341903
77109145;78342011
77109251;78342566
77109217;78342394
77109217;78342394
77109130;78341907
77109102;78337643
77109215;78342392
77109144;78342005
77108990;78331359
77109254;78342569
77109166;78342326
77109141;78341974
77109168;78342329
77109161;78342296
77109138;78341963
77109200;78342370
77109192;78342357
77109023;78333773
77109018;78333653
77109075;78337384
77109042;78336079
77108892;78325311
77108901;78327298
77108899;78327287
77108961;78329743
77101843;76729294
77109077;78337389
77109096;78337490
77109022;78333772
77109021;78333683
77108969;78330520
77108963;78329748
77109014;78333063
77109104;78337823
77109100;78337500
77108992;78331363
77108991;78331362
77108998;78331412
77108997;78331410
77108996;78331407
77108938;78329103
77108989;78331184
77108988;78331181
77108945;78329124
77108943;78329122
77109078;78337390
77109076;78337386
77109171;78342334
77108979;78331010
77108978;78330988
77108973;78330763
77109239;78342419
77109070;78336856
77109222;78342400
77109207;78342379
77109197;78342365
77109224;78342402
77109223;78342401
77109228;78342407
77109227;78342405
77109226;78342404
77109225;78342403
77109250;78342436
77109208;78342380
77109220;78342397
77109219;78342396
77109164;78342324
77109163;78342323
77108955;78329277
77108976;78330786
77108888;78324733
77108885;78324540
77109068;78336454
77109095;78337486
78331394;78331394
77109111;78338004
77109236;78342416
77109013;78333062
77109099;78337499
77109097;78337491
77109093;78337452
77109126;78341902
77109094;78337483
77109131;78341908
77109108;78337886
77109047;78336099
77109030;78335733
77109040;78336069
77109032;78335786
77109043;78336080
77109037;78336064
77109238;78342418
77109205;78342377
77109188;78342353
77109204;78342376
77109088;78337436
77109091;78337450
77109180;78342344
77109236;78342416
77109181;78342345
77109020;78333682
77109024;78333774
77109079;78337392
77109019;78333659
77109115;78338218
77108972;78330558
77108889;78324889
77108910;78327344
77109046;78336097
77109010;78333026
77109107;78337885
77109172;78342335
77109245;78342426
77109180;78342344
77109194;78342359
77108932;78329028
77109203;78342375
77108938;78329103
77110077;78951601
77110158;78957813
77108631;78019026
77108784;78310106
77108778;78310095
77108806;78314363
77108805;78314360
77108684;78278324
77108758;78309378
77108754;78309371
77108750;78309320
77109245;78342426
77108835;78315691
77108704;78307323
77108728;78309210
77109082;78337416
77109235;78342415
77109234;78342414
77109202;78342373
77109049;78336114
77109035;78335997
77109034;78335979
77109044;78336081
77109090;78337440
77109231;78342411
77109247;78342429
77109140;78341969
77109246;78342427
77108985;78331171
77109106;78337884
77109087;78337434
77109084;78337420
77109080;78337395
77109214;78342391
77109222;78342400
77109206;78342378
77109195;78342361
77109193;78342358
77109175;78342339
77109159;78342270
77109153;78342105
77109152;78342100
77109165;78342325
77109129;78341906
77109123;78341892
77109137;78341957
77109244;78342425
77109186;78342350
77108975;78330775
77108914;78327360
77108890;78325305
77108929;78328997
77108920;78328368
77108950;78329145
77108971;78330522
77109058;78336197
77109031;78335752
