NUMERO_POLICES;NUMERO_QUITTANCE
16600039;78993387
16801040;79049047
33002437;79041207
33002832;79041213
33003094;79041229
33316047;79041519
33317242;79036241
33401211;79039899
33402276;79040434
33402969;79040647
33402973;79040649
33403192;79048481
33403552;78982434
33403577;78982442
33404115;78982661
33404431;78982581
33404661;78990598
33405126;78990855
33405786;78990726
33406093;78991944
33406606;78992096
33407493;79001159
33407649;79001212
33407712;79001241
33407727;79000000
33407814;79001271
33408547;79003619
33408639;79003652
33408679;79003667
33408801;79003719
33410173;79071729
33410253;79071750
33410433;79071821
33410600;79071893
33410746;79071991
33410944;79072038
33411031;79072076
33411123;79072108
33411305;79072604
33411319;79072620
33411463;79071608
33411746;79072771
33412256;79030758
33412387;79054244
33412826;78984850
33413491;79006362
33413781;79029021
33413812;79097634
33414169;79029790
33414170;79029791
33414541;79103598
33414671;78988688
33415159;79026689
33415499;79027675
33416013;79077001
33416292;79079131
33416535;79076898
33416681;78990285
33417553;79035796
33419538;79049434
33419577;79049466
33419912;79016928
33419927;79016943
33419932;79016948
33419939;79016953
33420314;79062528
33420325;79062535
33420448;79049815
33421800;79012034
33421817;79012056
33422075;79084436
33422220;79082168
33422315;79082907
33422439;78988162
33422441;78988167
33422940;79032277
33422974;79032319
33423012;79029365
33423042;79029346
33423267;79093771
33423413;79095774
33423609;78984023
33423614;78984036
33423624;78984029
33423642;78984054
33423649;78984118
33423669;78984338
33423993;78994912
33424484;79008290
33424850;79038564
33424948;79037528
33425331;79119894
33425463;79123400
33425557;79124410
33425714;78981993
33425728;78982005
33425729;78982004
33425736;78982014
33425742;78982019
33426238;79033482
33426546;79112218
33426862;79110810
33426865;79108846
33426872;79113819
33427384;79109211
33427479;79003196
33427638;78989634
33427934;79004493
33428323;79034047
33428339;79034067
33428342;79034070
33428357;79034089
33428568;79026235
33428591;79026256
33429156;79136888
33429651;79122788
33429739;79126783
33429760;79140476
33429944;78983901
33430040;78990121
33430984;79087306
33431021;79021434
33431082;79020872
33431510;79095180
33431524;79095190
33431525;79095193
33431528;79095199
33431530;79095203
33431545;79095209
33431549;79087590
33431764;79104818
33431891;79107632
33431976;79096232
33432001;79096193
33432263;78981742
33432578;78995961
33432581;78996022
33432631;79010770
33432793;79011654
33432820;79012429
33433014;78986099
33433095;78986303
33433243;79013948
33433327;78995085
33433577;79014758
33433637;79014193
33433640;79014625
33434162;79017245
33434196;79013334
33434207;79013346
33434745;79054798
33435199;79067202
33435268;79058303
33435283;79058318
33435526;79060312
33435787;79062762
33435808;79062768
33435865;79068505
33435950;79069391
33436038;79069576
33436093;76150522
33436489;79042871
33436567;79042921
33436610;79042968
33437220;79203267
33437319;79203501
33437447;79188772
33437543;79120635
33437547;79120636
33437657;79160196
33437661;79160216
33437666;79160231
33437721;79160252
33437971;79161420
33438089;79169258
33438107;79169262
33438263;79074540
33438303;79074580
33438390;79120680
33438443;79123655
33438620;79219353
33438670;79093556
33438941;79091383
33439347;79223956
33439817;79099010
33439943;79103507
33440039;79237574
33440075;79237583
33440438;79240126
33440528;79075916
33440589;79075928
33440945;79106082
33440949;79106027
33440972;79106032
33441067;79106487
33441315;79268029
33441341;79268059
33441528;79269003
33441568;79269047
33441588;79269067
33441915;79155190
33441939;79155245
33441941;79155235
33441977;79155240
33442128;79161987
33442141;79161973
33442161;79144440
33442280;79169799
33442396;79146664
33442406;79146673
33442487;79072987
33442537;79073006
33442834;79168054
33442868;79177066
33443090;79180315
33443104;79180321
33443415;79183659
33443610;79175621
33443638;79175641
33443671;79175684
33443692;79175717
33443812;79175811
33443816;79176636
33443919;79178285
33443935;79178293
33443943;79178330
33443999;79133900
33,444,109;79134464
33444473;79147430
33444649;79080328
33444684;79080358
33444994;79199863
33445058;79199904
33445348;79195309
33445409;79141550
33445652;79141801
33446001;79142228
33446275;79084944
33446393;79085040
33446504;79138224
33446781;79151429
33446879;79151502
33446888;79151524
33446889;79151552
33447042;79163635
33447060;79163691
33447084;79163665
33447152;79163715
33447216;79175309
33447412;79170733
33447501;79170837
33448016;79188142
33448143;79190100
33448193;79187348
33448284;79187776
33448333;79187843
33448452;79184665
33448522;79184741
33448557;79184795
33448671;79211078
33448709;79211093
33449020;79211840
33449025;79211836
33449384;79212175
33449401;79212215
33449874;79126612
33450112;79130613
33450311;79127476
33450339;79193849
33450382;79197751
33450423;79197772
33450427;79197785
33450558;79157927
33450568;79157915
33450715;79158067
33450851;79164199
33451102;79214268
33451111;79213194
33451202;79215089
33451288;79213652
33451435;79216276
33451782;79218171
33452091;79227575
33452209;79230111
33452456;79206483
33452484;79206508
33,452,500;79206515
33452515;79206561
33452551;79206588
33452582;79206606
33452779;79235811
33452793;79235796
33452816;79232262
33452867;79251510
33452899;79251539
33452994;79280010
33453095;79280098
33453099;79280124
33453122;79257668
33453691;79260562
33453811;79242725
33453829;79242730
33453892;77754590
33454146;79257038
33454560;79260814
33454634;79186376
33455328;79239193
33455506;79239306
33455599;79239340
33455700;78605370
33455749;79239407
33456150;78637900
33456309;78947521
33456747;78965790
33417515;79034591
33452448;79206493
33431970;79095300
