NUMERO_POLICES;NUMERO_QUITTANCE
16600039;78993387
16800736;79048308
33001569;79041132
33002394;79041204
33309215;79041286
33309253;79041352
33315769;79041512
33315775;79041513
33317241;79036243
33325302;79036346
33331162;79036401
33400949;79036597
33402482;79040498
33402970;79040646
33403194;79048482
33403210;79048554
33403210;79048554
33403482;78982414
33405084;78990836
33405535;78991798
33407427;79000313
33408272;79001472
33408686;79003672
33409143;79003864
33409146;79003862
33410421;79071814
33410947;79072059
33411990;79030870
33412142;79030537
33412374;79054222
33412409;79054287
33413033;78984995
33413072;78985218
33413385;78985023
33413814;79097636
33414516;79101036
33415067;79000941
33415169;79026696
33415478;79027665
33415507;79031438
33416010;79077000
33416017;79077005
33416086;79079430
33417066;79007111
33417075;79007127
33417089;79007130
33417107;79007138
33418446;78993107
33419541;79049437
33419561;79049453
33419917;79016933
33420362;79049620
33420988;78983509
33421441;78992781
33421816;79012051
33422092;79084455
33422364;79082928
33422423;78988096
33422437;78988160
33422499;78988454
33422921;79032250
33422933;79032268
33422945;79032284
33422954;79029500
33422985;79032335
33423301;79093883
33423481;79096648
33423611;78984021
33424688;79037109
33424928;79037506
33425064;79125267
33425389;79123109
33425719;78981997
33425722;78982000
33425762;78982160
33426289;79027179
33426422;79116884
33427363;79109193
33427403;79109232
33427893;79004682
33427904;79003391
33427922;79004473
33428228;79033882
33428384;79034114
33429259;79143657
33429309;79143736
33429660;79136967
33429661;79136966
33429710;79132776
33430170;78989935
33430457;78998970
33430913;79020095
33431114;79021592
33431115;79021593
33431498;79095134
33431529;79095196
33431535;79095200
33431610;79099253
33431972;79095324
33432013;79096251
33432022;79096260
33432531;78994343
33432545;78994340
33432554;78994347
33433077;78983098
33433099;78986321
33433108;78986318
33433115;78986266
33433120;78986279
33433126;78986274
33433133;78986282
33433313;78995492
33433634;79014607
33433638;79014624
33434181;79013633
33434206;79013345
33434616;79055154
33434692;79054749
33434702;79054758
33435045;79067078
33435076;79067108
33435182;79067190
33435805;79062792
33435847;79068493
33435931;79069397
33435965;79069501
33436111;79069670
33436851;79088936
33437020;79089229
33437238;79203317
33437390;79179611
33437569;79160198
33437984;79161425
33438101;79169266
33438116;79044813
33438131;79044826
33438177;79045174
33438225;79045401
33438608;79219346
33438836;79093696
33438926;79094577
33439142;79220454
33439143;79220428
33439227;79220526
33439283;79222577
33439284;79222578
33439570;79048719
33439695;79050923
33439787;79098984
33439915;79098889
33440025;79237552
33440078;79237586
33440416;79240100
33440766;79186327
33440767;79186302
33440810;79181342
33440958;79106059
33441044;79106480
33441216;79267616
33441225;79267612
33441336;79268073
33441370;79268231
33441514;79269006
33441529;79269007
33441589;79269080
33441653;79269316
33441759;79060971
33441843;79062220
33442547;79073026
33442615;79073069
33442708;79155850
33442743;79155882
33442901;79177100
33443036;79177197
33443293;79156665
33443381;79156620
33443489;79070424
33443494;79070351
33443516;79070358
33443516;79070358
33443560;79139735
33443839;79177830
33444161;79138960
33444329;79147300
33444725;79080380
33445303;79195278
33445339;79195297
33445450;79141576
33445543;79141724
33445667;79141767
33446105;79146245
33446261;79084907
33446438;79085092
33446458;79085127
33446672;79140106
33446703;79142438
33446952;79151597
33447687;79100636
33447921;79185861
33448271;79187761
33448465;79184674
33448692;79211071
33449612;79208611
33450163;79130690
33450618;79157970
33450673;79158012
33450848;79164179
33450989;79216689
33451454;79216268
33451474;79216281
33451489;79216390
33452230;79225498
33452325;79231253
33452445;79206479
33452462;78032291
33452485;79206564
33452581;79206592
33452751;79234802
33452767;79235834
33453255;79262283
33454067;79255308
33455029;79223662
33456189;79240542
