NUMERO_POLICES;NUMERO_QUITTANCE
33409245;79003909
33407753;79001264
33408107;79001422
33406940;78999966
33408914;79003779
33408175;79000042
33408227;79001459
33422852;79005165
33422596;79004312
33404286;78982777
33428098;79003408
33406633;78992104
33406707;78992128
33410004;79071509
33410660;79071914
33405148;78990848
33405496;78991785
33419428;79049306
33421355;78992799
33406150;78990734
33418748;78993354
33404808;78990650
33418491;78984695
33405737;78991844
33406820;78992170
33417529;79032018
33417253;79034657
33427689;78989083
33440792;79182746
33411088;79071598
33432107;79096391
33450534;79160670
33424627;79037058
33422201;79082149
33400709;79039974
33401599;79040228
33423793;78993885
33402111;79040377
33401546;79040215
33401610;79040045
33422288;79082890
33402888;79040637
33425038;79125229
33425264;79119845
33422097;79084505
33409613;79071368
33414287;79097786
33426909;79110761
33423080;79033164
33422372;79082984
33425538;79124391
33425096;79123495
33408903;78943495
33416640;78990276
33410454;79071831
33422030;79078250
33410499;79071560
33405849;78991875
33422112;79082814
33403287;79048587
33444619;79151059
33419079;78993181
33405493;78991784
33409104;79003851
33427319;79109412
33411495;79072677
33422699;79005005
33423389;79095988
33419053;78993161
33411033;79072074
33441504;79268992
33420479;79049862
33420159;79057018
33401990;79040344
33314879;79041404
33424505;78954647
33315528;79041507
33425335;79123339
33404296;78982772
33424116;78994643
33424395;79008102
33402656;79040099
33400611;79039997
33325211;79036330
33315057;79041450
33425474;79123410
33400923;79036595
33422017;79082760
33408141;79001403
33426199;79025920
33423665;78984339
33427649;78989381
33412813;78984843
33426348;79027101
33416795;79006975
33413970;79029154
33408192;79001439
33405912;78990736
33410472;79071842
33411479;79072669
33422471;78988343
33408726;79003681
33446493;79085130
33439669;79050900
33428646;79035814
33425778;78988017
33422884;79004368
33403703;78982474
33413971;79029153
33435556;79060354
33424270;79007805
33404139;78982574
33404075;78982659
33427692;78989085
33426571;79117896
33408388;79001515
33405972;78991914
33416781;79006957
33426384;79034538
33403468;79048636
33439867;79098643
33400480;79036500
33404757;78990617
33325362;79036228
33421699;79011758
33454782;78052090
33451253;76257708
33454918;78315286
33452837;77040780
33441679;79063463
33425883;78999620
33407209;79000229
33408373;79001507
33407047;79000172
33408907;79000075
33407262;79000249
33404145;78982671
33403664;78982452
33432251;78981737
33432273;78981747
33404061;78982655
33404115;78982661
33432987;78982906
33421001;78983526
33403657;78982455
33432940;78982861
33431363;79020536
33403669;78982458
33404590;78982587
33404007;78982613
33404259;78982729
33431036;79021444
33427977;79024145
33426003;78999688
33407416;79000293
33429382;79126917
33409324;79000097
33430749;79000377
33422572;79004056
33422581;79004059
33422770;79005094
33427908;79003394
33436475;79042851
33431140;79020416
33431413;79020707
33450350;79195775
33431300;79021012
33431430;79021174
33428669;79025553
33449975;79126714
33404266;78982580
33408338;79001495
33441681;79063466
33454469;78020123
33403793;78982406
33403981;78982411
33450255;79127452
33436487;79042872
33407207;79000224
33430853;79000589
33407923;79001326
33428024;79004599
33429548;79126973
33407974;79001341
33428037;79003314
33409258;79003935
33422666;79004973
33422723;79005053
33431347;79020520
33438154;79045072
33435048;79067080
33431428;79021158
33428000;79024179
33428131;79024315
33407538;79001169
33427799;79003235
33422606;79004165
33432997;78982935
33450302;79127484
33436497;79042858
33408374;79001508
33409061;79003830
33428622;79025458
33408455;79000047
33408201;79001431
33409077;79003839
33431858;79105845
33434987;79067026
33431258;79020972
33431417;79021126
33432281;78981846
33441086;79106499
33431344;79020514
33440874;79105997
33407995;79000010
33430724;79000334
33425981;79002368
33428671;79025558
33404200;78982698
33427257;79109027
33453602;79260469
33453606;79260479
33453632;79260504
33432246;79108272
33453598;79260465
33428178;79026045
33428743;79026156
33404017;78982616
33449805;79126569
33449894;79126633
33408723;79003680
33422569;79004041
33436621;79042932
33436613;79042935
33403334;79048594
33440354;79239835
33440434;79240109
33456102;78637852
33444422;79147362
33431223;79020937
33406814;78999922
33430841;79000557
33415148;79001105
33408582;79003638
33429381;79126916
33427951;79023992
33407359;79000286
33406995;79000158
33407239;78999981
33430740;79000363
33407911;79001320
33428091;79003382
33408557;79003632
33409058;79003831
33431024;79021437
33440419;79240105
33446251;79084913
33446334;79084964
33446351;79084998
33425897;78999636
33407794;79001276
33441710;79063505
33435091;79067118
33428680;79025571
33430852;79000588
33422714;79005039
33427818;79005351
33422656;79004967
33422873;79005209
33436554;79042903
33451776;76509317
33412474;79048457
33428949;79154075
33446324;79084982
33436808;79087070
33428971;79154131
33442006;79155318
33403948;78982539
33453676;79260536
33441161;79105372
33440942;79106060
33441079;79106548
33412634;79048106
33403442;79048631
33412769;79048976
33440449;79240138
33440351;79239840
33453462;79244047
33446299;79084956
33425946;78999693
33408083;79000013
33407225;79000233
33438946;79091389
33439037;79091591
33438703;79093607
33436558;79042902
33439462;79219103
33429502;79132593
33450253;79127427
33444045;79133938
33412717;79048277
33412491;79048872
33431871;79105875
33431346;79020516
33431262;79020976
33431278;79020987
33436840;79088926
33439027;79091571
33429625;79126801
33423733;78984296
33432334;78985557
33432375;78985640
33432382;78985674
33425795;78987668
33430145;78989914
33404583;78990569
33405205;78990697
33430216;78991162
33457040;79284194
33446903;79151573
33441998;79155278
33446916;79151562
33446468;79085109
33430948;79087290
33436783;79088884
33441063;79106493
33407041;78999972
33407737;79000022
33407474;79001149
33429160;79129739
33429773;79129789
33424195;79007594
33424524;79008365
33421653;79009608
33432663;79011262
33435910;79068555
33409754;79071417
33411602;79072724
33422103;79084672
33436925;79088992
33439004;79091549
33438998;79091588
33431941;79090113
33453471;79244043
33429552;79126972
33421591;79009528
33432728;79011528
33421697;79011754
33413011;78984983
33428050;79003323
33408514;79003597
33443474;79070338
33443499;79070422
33442563;79073041
33450493;79197833
33438264;79074544
33451808;79218167
33438584;79219339
33438632;79219351
33440436;79240116
33453450;79244032
33423674;78984347
33412822;78984845
33432417;78985923
33450256;79127418
33427525;78989414
33427637;78989626
33430172;78989937
33406884;78990761
33405924;78991902
33406140;78991958
33406528;78992084
33421275;78992484
33429400;79136613
33445009;79199853
33437160;79203121
33423909;78984271
33432445;78985431
33433182;78986929
33427486;78989116
33405700;78990717
33405132;78990853
33430013;78991298
33430019;78991301
33405468;78991781
33446245;79084898
33414690;78988714
33422574;79004055
33427922;79004473
33424197;79007593
33424290;79008234
33444509;79147463
33429164;79131261
33439165;79220483
33451586;79223232
33451592;79223233
33451602;79223244
33415628;79031586
33423212;79033046
33418836;78993765
33455885;78613342
33447390;79170741
33430068;78990953
33406479;78992078
33422375;78992302
33421167;78992936
33439496;79220217
33421576;79009517
33434961;79067012
33435097;79067123
33436044;79069574
33409506;79071315
33436978;79089180
33439042;79091615
33444618;79151066
33431837;79105699
33440905;79105985
33441020;79106512
33426914;79108892
33443544;79070377
33411604;79071622
33412772;79048971
33420487;79049892
33450353;79197728
33437140;79203105
33437200;79203271
33439317;79223944
33452211;79225490
33410514;79071849
33409740;79071411
33410852;79071583
33410382;79071802
33442438;79072920
33444017;79133916
33444100;79134448
33413103;78985171
33433178;78986924
33432621;79010742
33432646;79010991
33432717;79011483
33425774;78988005
33414831;78988857
33455335;79239206
33438276;79074555
33415996;79076766
33455342;78604367
33435289;79058331
33439131;79220426
33429927;78989746
33430189;78989951
33430097;78991009
33405462;78991779
33406374;78992027
33418614;78993216
33405361;78990923
33430079;78990992
33421286;78992502
33410268;79071756
33411492;79072674
33442487;79072987
33440366;79239853
33440358;79239855
33444382;79147340
33425247;79118608
33426699;79119698
33438558;79123738
33425228;79124330
33442754;79155925
33454925;79223604
33439311;79223937
33455111;79224913
33440465;79077162
33445088;79199965
33436833;79088919
33422783;79005101
33423669;78984338
33425782;78987650
33446178;79084839
33446250;79084938
33446272;79084917
33426814;79107570
33427260;79109032
33427304;79109390
33427280;79109049
33446904;79151537
33432180;79090249
33438987;79091533
33432859;79012733
33426461;79116938
33442313;79169814
33428999;79154167
33447023;79163624
33447054;79163641
33450812;79164171
33432948;78982903
33432359;78985571
33433201;78986993
33430230;78990041
33406221;78990741
33405254;78990901
33431019;79021429
33431021;79021434
33415246;79026822
33446175;79084783
33431473;79087570
33436835;79088920
33428775;79026143
33415817;79027918
33415326;79027941
33428751;79030266
33420387;79049648
33420413;79049711
33439774;79050641
33420367;79049622
33434860;79053954
33434555;79055124
33406504;78992068
33415605;79031556
33417243;79031879
33451563;79223218
33439316;79223945
33417708;79034762
33438881;79094185
33423421;79095779
33439446;79219100
33405037;78990823
33405242;78990895
33405255;78990902
33430123;78991120
33421162;78992933
33419017;78993557
33423780;78993872
33421585;79009523
33428546;79035380
33324267;79036253
33446551;79138222
33446541;79138234
33428898;79143793
33443751;79175760
33409704;79071389
33409823;79071446
33410820;79071949
33455811;78613269
33442278;79169800
33447483;79170807
33452110;79227589
33452242;79230143
33452383;79231295
33415784;79027841
33412058;79030804
33417674;79031901
33417730;79031949
33423076;79033161
33417444;79034991
33435951;79069399
33410518;79071861
33426268;79028683
33426188;79033378
33428480;79035212
33436010;79069536
33436104;79069622
33411791;79072798
33438295;79074574
33440524;79075890
33440545;79075901
33455261;78604275
33434084;79056250
33453351;79243918
33440543;79075913
33421959;79077778
33424301;79008242
33424567;79008450
33432655;79011032
33422117;79079857
33442083;79155344
33442786;79155949
33438032;79161505
33438060;79161509
33450909;79164239
33447253;79170584
33427150;79116616
33426550;79116971
33425010;79119937
33420518;79049957
33420595;79052951
33424867;79118348
33425267;79119848
33425527;79124378
33443708;79175704
33415728;79031644
33424994;79120187
33434627;79055164
33442753;79155923
33452187;79227691
33427086;79114889
33429647;79122785
33438496;79123709
33447022;79163623
33412461;79049087
33420421;79049714
33434554;79055100
33455124;79226301
33453182;79261805
33426175;79026968
33412142;79030537
33426122;79031068
33417308;79032074
33446153;79084791
33431935;79090098
33438958;79091522
33438756;79093635
33423316;79096980
33424361;79007962
33424538;79008401
33421525;79008633
33457212;79284366
33450876;79164208
33431317;79021036
33434292;79051893
33403316;79048596
33449679;79129100
33449704;79129156
33450141;79130633
33446183;79084843
33422739;79005066
33431640;79099326
33456990;79284128
33457059;79284213
33423388;79095986
33440817;79181355
33436494;79042841
33441516;79268989
33440413;79239915
33440451;79240140
33453376;79243976
33421823;79012007
33436909;79088988
33437059;79089269
33438755;79093676
33438871;79094168
33439113;79220437
33449972;79130531
33403759;78982401
33404204;78982579
33423736;78984302
33412814;78984842
33433015;78986084
33422490;78988446
33422543;78988496
33405752;78990723
33430098;78991008
33405480;78991788
33448632;79207068
33448990;79211811
33451050;79215918
33452235;79225501
33429446;79136731
33413620;79006747
33413626;79006752
33424484;79008290
33409831;79071450
33410667;79071917
33411159;79072535
33452199;79230134
33450015;79130537
33429908;78983931
33413250;78985100
33449318;79212110
33451099;79215933
33451401;79216217
33433719;79015136
33419715;79016785
33435931;79069397
33410047;79071527
33410585;79071888
33444533;79147475
33455737;78605407
33434862;79053952
33446565;79138233
33441299;79268025
33441335;79268071
33441368;79268216
33441449;79268343
33441550;79269032
33431842;79105753
33423608;78984024
33414313;79100718
33442907;79177101
33433193;78987005
33430166;78989929
33406205;78990738
33406902;78990762
33430126;78991130
33405521;78991794
33405952;78991911
33406816;78992172
33418867;78993804
33442809;79073654
33440569;79075953
33440685;79076521
33415954;79076685
33437461;79170378
33447229;79170603
33456900;79281595
33456975;79284113
33457214;79284368
33423902;78984265
33432353;78985362
33432476;78985434
33440242;79238213
33457105;79284259
33453229;79262314
33446217;79084869
33403368;79048603
33419463;79049327
33434361;79051589
33441149;79105356
33441121;79105411
33446758;79142558
33441891;79155174
33442740;79155879
33429926;78989837
33430162;78989932
33430054;78990126
33451813;79218202
33439508;79220189
33439137;79220447
33451606;79223264
33454988;79223659
33451769;79218130
33439396;79219072
33439133;79220427
33439219;79220493
33451565;79223220
33443774;79175787
33419471;79049326
33444429;79147373
33444472;79147438
33444504;79147443
33444606;79151031
33446959;79151576
33405347;78990919
33406052;78991936
33406810;78992167
33419058;78993167
33450906;79164238
33453420;79243992
33446913;79151560
33453263;79262307
33439905;79098674
33435008;79067053
33443521;79070363
33433217;78987011
33420598;79052953
33434629;79055189
33434681;79057083
33445105;79199967
33333718;79238328
33455445;79239253
33437344;79203538
33439128;79220418
33439253;79220536
33439305;79223939
33429131;79127105
33429527;79129694
33440223;79238205
33440323;79238279
33455604;79239359
33437049;79089243
33438354;79120686
33438889;79094189
33432301;79108422
33454006;79253465
33438726;79093594
33423261;79093768
33413769;79097524
33432813;79012212
33455351;79239231
33440339;79239847
33446917;79151584
33446491;79085165
33441598;79269078
33443156;79156751
33450733;79158062
33411234;79072578
33411742;79072770
33415861;79076607
33450437;79197796
33427043;79114772
33432904;79012522
33433550;79014909
33457087;79284241
33439473;79219109
33414853;78988868
33427488;78989119
33427632;78989627
33430194;78989989
33404907;78990781
33405428;78990948
33406662;78992114
33406718;78992135
33432426;78985939
33404529;78990557
33404707;78990609
33406664;78992120
33421065;78992291
33421333;78992558
33436597;79042937
33434269;79050478
33423085;79029638
33412227;79030584
33429487;79132547
33443973;79133873
33431459;79087555
33437031;79089233
33428458;79035189
33417174;79035552
33325172;79036310
33453208;79262258
33451550;79223228
33449806;79126551
33449989;79126729
33452444;79206478
33455437;78604464
33447231;79170605
33447346;79170697
33435130;79067150
33412904;78984916
33413268;78985131
33432483;78985448
33439329;79223957
33411577;79072711
33430156;78989925
33421061;78992858
33419095;78993413
33416917;79005971
33416830;79007010
33443390;79156651
33439320;79223948
33433243;79013948
33409758;79071418
33411719;79071630
33412152;79030549
33415572;79031544
33438237;79074512
33415004;79026457
33413926;79029060
33426943;79112569
33429566;79123016
33425416;79123125
33417229;79031869
33417672;79031898
33423185;79032488
33428545;79035382
33420078;79056082
33435292;79058325
33448921;79208753
33456066;78623828
33407234;78999980
33407206;79000227
33407371;79000295
33408904;79003764
33420917;78983567
33429457;79136773
33446489;79138204
33445366;79141514
33446380;79085036
33436917;79089002
33414504;79101031
33441291;79268014
33441317;79268056
33441474;79268976
33431641;79099328
33441856;79155167
33437740;79160267
33449748;79126493
33429547;79126976
33450227;79127469
33450002;79130519
33437131;79203114
33437338;79203529
33415800;79027907
33412077;79028431
33422898;79029318
33417675;79031900
33417534;79032028
33423061;79033151
33410991;79072055
33438269;79074549
33416771;79006950
33424169;79007571
33424316;79008249
33432830;79012550
33422703;79005017
33422822;79005133
33413414;79006661
33424333;79008040
33432656;79011031
33437089;79089299
33450252;79127426
33449734;79129183
33450067;79130563
33429849;79132754
33409800;79071432
33411438;79072649
33442543;79073013
33451628;79223268
33424359;79007958
33421835;79008740
33421839;79008747
33415771;79027823
33413674;79029196
33428813;79030335
33413643;79032644
33423083;79033166
33408578;79003636
33408924;79003767
33422600;79004161
33417704;79034759
33417199;79034792
33428519;79035284
33454836;78195991
33454697;78052000
33447175;79174182
33439083;79220395
33422059;79078258
33428725;79035937
33325276;79036338
33424634;79037062
33433543;79014886
33423656;78984106
33412838;78984854
33412906;78984920
33413387;78985024
33433004;78986074
33404496;78990543
33405371;78990926
33430067;78990951
33442886;79177083
33443071;79178934
33448445;79184662
33437086;79089278
33437062;79089281
33450108;79130628
33443964;79131329
33416928;79005991
33416785;79006960
33416997;79007240
33421518;79008615
33446165;79084834
33440266;79238227
33440372;79239857
33425398;79120247
33437341;79203549
33425844;79025808
33428582;79026247
33443675;79175721
33414034;79029821
33442471;79072928
33423875;78984250
33438405;79120723
33434538;79051477
33434589;79055133
33434617;79055161
33413885;79029004
33426115;79031062
33428496;79035275
33423189;79032493
33420446;79049814
33442769;79155930
33450622;79157975
33437744;79160265
33426554;79116979
33425285;79119861
33438408;79120730
33412519;79049145
33419480;79049333
33420412;79049709
33439622;79050853
33434384;79051781
33434602;79055180
33434046;79056255
33427273;79109046
33425308;79119884
33421573;79009512
33457246;79284400
33423369;79095969
33439740;79097985
33437353;79203552
33452490;79206520
33452155;79227673
33447674;79100653
33429401;79136612
33442043;79155305
33442064;79155370
33415471;79026667
33426078;79030991
33455619;78605288
33455632;78605302
33436122;79095692
33445513;79141628
33439853;79098189
33436276;79097039
33453776;79242674
33453933;79253446
33450710;79158030
33437836;79160300
33437909;79160326
33434283;79051897
33420684;79053287
33434695;79054752
33440716;79182971
33453549;79253319
33442757;79155939
33441640;79269347
33443288;79156614
33438076;79161478
33438048;79161516
33452229;79230164
33452617;79206625
33448889;79208722
33455215;79228120
33442755;79155924
33450551;79157911
33450866;79164211
33413712;79097495
33439847;79099885
33429455;79136768
33438005;79161428
33444198;79139010
33437367;79179587
33443082;79180319
33443105;79180324
33443354;79183638
33443697;79175699
33443823;79176640
33442909;79177106
33443933;79178292
33443362;79182047
33434863;79053958
33434485;79054706
33434514;79054961
33434606;79055153
33435626;79061796
33453084;79280091
33453859;79253404
33445755;79141891
33446714;79142450
33452949;79279965
33440753;79186308
33445893;79142148
33446721;79142453
33444234;79147186
33456206;79252128
33456288;79254301
33446090;79146254
33453521;79253279
33423321;79096985
33414579;79103654
33440873;79106016
33446900;79151546
33419501;79049344
33420475;79049848
33434562;79055114
33434083;79056261
33434819;79057396
33439267;79222179
33446260;79084950
33450291;79127553
33451640;79216989
33436075;79069618
33442455;79072923
33442469;79072941
33442508;79072962
33440592;79075942
33440546;79075903
33433544;79014885
33441411;79268257
33451856;79228954
33448424;79185431
33423770;78993864
33423833;78993922
33455426;78604453
33447226;79170600
33441971;79155232
33450845;79164176
33427506;78989147
33412950;78984928
33404868;78990674
33419010;78993560
33446533;79138246
33443248;79183617
33447177;79174184
33420715;79053340
33434559;79055116
33434626;79055166
33435872;79068509
33435866;79068520
33436048;79069597
33410315;79071776
33410877;79072020
33442542;79072993
33438301;79074575
33427187;79116653
33437566;79120646
33438413;79120726
33438468;79123678
33406834;78990758
33424573;79008451
33446348;79084991
33427668;78989052
33430257;78990107
33406173;78991966
33418718;78993455
33423708;78993815
33452497;79206533
33451679;79217018
33435927;79069398
33410039;79071520
33410519;79071562
33410564;79071877
33411154;79072533
33442554;79073005
33440662;79077128
33442861;79177054
33447590;79178113
33443107;79180322
33443125;79180335
33448343;79187840
33451161;79215069
33447561;79178054
33443939;79178332
33452822;79251484
33453501;79253260
33453489;79253266
33443898;79178265
33443117;79180330
33441249;79267997
33447597;79178098
33443102;79180325
33437618;79160211
33426203;79025923
33415559;79031541
33417474;79032132
33417153;79035539
33415632;79031590
33414089;79032618
33426370;79034319
33411074;79072083
33442566;79073025
33427216;79116752
33447173;79174179
33443725;79175738
33441951;79155256
33450807;79164140
33427228;79116778
33437516;79120622
33446554;79138252
33445796;79141953
33445113;79199949
33449613;79208612
33441324;79268041
33455130;79226302
33452011;79227482
33434282;79050476
33434506;79054984
33440696;79183031
33448339;79187855
33452377;79231304
33454747;79235483
33442791;79155962
33443133;79156746
33450607;79157959
33456942;79284080
33441484;79268961
33443194;79183600
33443076;79180306
33438778;79093639
33423569;79094087
33423358;79095955
33423370;79095970
33414307;79100712
33457452;79289400
33423366;79095966
33431445;79090498
33429550;79126975
33449667;79129138
33452403;79231311
33447077;79163688
33447799;79102545
33424202;79007604
33448442;79184682
33448350;79185584
33453525;79253282
33413012;78984984
33422518;78988472
33430039;78990120
33416600;78990264
33447569;79178058
33443335;79183628
33448377;79185607
33447857;79185812
33457137;79284291
33421212;78992588
33419008;78993559
33409566;79071349
33410477;79071852
33411688;79072748
33411781;79072793
33442580;79073032
33447248;79170593
33426132;79031261
33441409;79268258
33441528;79269003
33441208;79269410
33452218;79225491
33439387;79219060
33417519;79034594
33432234;79108448
33453888;79253417
33456241;79254190
33454069;79255268
33410050;79071526
33428688;79035872
33324277;79036255
33400042;79036413
33450463;79197815
33437230;79203278
33437312;79203477
33452458;79206484
33452273;79231210
33452322;79231231
33454725;79235477
33445193;79200058
33451533;79223192
33451548;79223239
33437292;79203390
33412527;79049141
33420474;79049847
33434240;79050382
33420594;79052949
33434801;79057390
33447339;79170665
33443029;79177191
33443869;79177845
33457243;79284397
33457280;79289230
33457494;79289442
33423240;79093750
33436192;79095736
33455848;78613305
33447180;79174186
33443734;79175746
33426280;79033609
33428238;79033918
33412771;79048972
33434576;79055143
33427294;79109380
33449596;79208234
33448675;79211087
33451176;79215111
33442778;79155953
33429220;79143584
33437730;79160243
33438727;79093596
33438825;79093683
33448210;79187351
33448312;79187814
33444153;79138962
33429227;79143576
33429219;79143583
33445698;79141813
33456093;79246496
33427244;79116810
33437534;79120631
33436081;79069612
33410771;79072002
33440624;79075969
33443899;79178277
33440821;79181429
33453997;79253502
33441432;79268331
33436193;79095737
33420456;79049828
33434251;79050392
33437219;79203266
33432191;79107984
33449528;79210200
33449400;79212192
33440184;79099944
33442052;79155355
33426524;79112204
33417515;79034591
33417461;79034614
33417824;79034890
33417847;79035577
33428861;79036148
33450546;79157899
33434608;79055155
33420018;79056018
33420080;79056085
33435253;79058295
33438874;79093732
33419372;79049279
33436224;79095754
33423591;79096018
33436282;79097031
33440175;79099916
33428417;79030337
33415598;79031555
33426232;79033471
33400200;79036447
33400881;79036585
33424632;79037060
33452704;79234739
33443893;79178308
33448405;79184991
33447596;79178097
33443275;79182074
33440788;79182814
33450904;79164229
33443272;79183608
33452881;79251551
33447706;79100662
33444163;79138974
33446677;79140103
33457165;79284319
33429438;79136707
33446581;79138274
33445756;79141913
33446038;79142248
33441423;79268253
33453044;79280031
33418525;78993037
33418615;78993217
33423854;78993940
33445672;79141769
33441605;79269074
33448162;79187330
33443431;79183667
33448523;79184761
33448276;79187786
33448914;79208748
33448748;79208106
33451282;79213664
33436157;79095695
33423359;79095956
33432089;79096375
33439836;79099027
33447764;79101922
33457468;79289416
33445923;79142116
33445985;79142185
33439944;79103512
33414534;79103594
33431558;79104129
33431749;79104794
33431665;79104066
33429170;79140618
33446753;79142549
33453912;77754610
33440801;79181368
33444152;79138959
33439832;79099025
33449531;79210220
33448733;79211275
33449209;79212038
33449226;79212046
33443336;79183629
33443386;79183648
33448501;79184723
33440674;79077125
33444732;79080393
33422011;79082756
33449012;79211831
33449386;79212176
33449489;79212277
33406782;78992162
33418723;78993465
33430396;78998471
33447985;79188107
33422148;79078596
33444738;79080389
33444880;79081192
33424030;78994949
33430289;78999024
33425809;78999111
33451039;79215897
33429769;79140555
33445362;79141496
33445740;79141885
33446004;79142202
33441659;79143297
33406808;78992168
33430607;78998632
33430677;78998695
33442402;79146677
33433659;79016144
33434103;79016580
33419843;79016889
33449351;79212145
33449372;79212167
33449280;79212095
33422285;79082885
33446661;79145293
33446576;79138248
33446630;79138407
33415993;79076764
33440472;79077151
33416334;79079168
33433429;79013980
33421466;78992375
33421161;78992931
33421198;78992966
33418557;78993059
33419063;78993170
33418641;78993231
33430367;78998447
33430994;78998892
33434148;79016129
33433871;79017698
33449478;79212254
33416421;79077982
33444798;79080459
33433384;78996461
33433523;79014874
33433709;79015130
33433926;79016507
33451049;79215939
33436453;79192001
33435291;79058330
33457414;79289363
33445860;79142065
33446093;79146257
33455135;78319597
33422245;79082188
33422272;79082868
33417907;79083256
33447963;79188129
33436342;79191076
33400329;79036474
33419642;79016741
33454995;78315363
33441419;79268256
33432592;78995913
33430290;78999034
33430701;78999102
33433457;78996415
33433416;78996564
33435604;79061780
33455003;78315371
33416342;79079176
33444766;79080422
33455077;78315444
33424639;79037065
33424808;79038472
33402453;79040491
33314973;79041432
33433785;79016315
33402810;79040106
33308418;79041331
33314788;79041380
33421945;79079832
33418296;79081083
33325188;79036319
33424635;79037066
33424773;79039311
33315061;79041453
33424132;78994651
33423971;78994897
33424901;79037406
33425625;79038915
33315504;79041317
33449079;79211889
33424149;78994667
33433324;78995499
33433464;78996423
33451163;79215053
33421100;78992882
33418827;78993516
33433435;78996568
33430896;78998927
33417385;79078643
33416461;79079224
33416387;79079315
33444335;79147283
33433335;78995103
33430574;78998596
33444911;79081175
33325305;79036349
33433942;79017075
33419213;79018706
33429602;79123060
33425448;79123384
33433646;79016036
33433793;79017404
33423964;78994889
33433988;79017150
33434014;79017539
33422247;79082189
33417502;79035509
33401048;79036542
33424626;79037053
33402026;79040360
33314744;79041369
33401905;79040339
33402269;79040427
33454905;78315163
33422140;79081911
33425485;79123132
33425456;79123399
33425025;79125202
33423858;78994787
33433274;78995365
33430405;78998931
33454197;79257067
33453173;79257737
33424628;79037057
33401403;79040179
33402782;79040591
33454467;79258245
33425617;79038911
33401580;79040226
33402685;79040558
33444254;79147202
33444315;79147279
33430702;78998670
33430450;78998974
33430712;78999006
33424878;79037862
33418148;79079032
33416362;79079262
33448040;79189032
33424774;79039313
33454320;79257358
33455173;78319665
33448060;79189057
33425570;79124423
33434131;79016618
33419659;79016753
33433846;79017607
33451120;79215034
33454458;79258275
33001863;79041161
33453149;79257695
33417406;79078653
33422293;79082895
33445248;79194415
33402857;79040615
33308079;79041159
33314711;79041365
33433296;78995459
33325031;79036276
33400649;79036522
33448239;79187738
33454422;79258239
33433939;79016517
33419607;79016696
33434033;79017844
33425630;79038920
33401360;79040162
33444693;79080370
33444878;79081188
33418352;79081725
33433366;78996309
33430602;78998623
33447979;79188102
33002148;79041183
33315036;79041440
33315078;79041458
33435629;79061803
33435715;79061881
33435796;79062788
33435837;79062291
33418118;79080792
33422236;79082181
33436460;79192008
33419241;79018919
33424631;79037061
33421871;79078473
33417408;79078655
33434123;79016595
33429577;79123027
33444323;79147264
33444328;79147268
33454425;79258270
33424001;78994917
33403068;79040671
33314762;79041374
33432515;78996138
33430411;78998936
33433961;79017152
33419755;79018253
33433367;78996326
33430445;78998965
33430653;78999097
33434147;79016128
33434016;79017533
33456603;78965545
33433731;79015157
33433800;79017399
33435284;79058334
33433945;79017084
33433998;79017308
33435379;79060168
33420211;79062387
33436325;79191021
33436436;79191979
33402913;79040115
33401834;79040317
33435355;79058389
33435565;79060357
33401266;79040128
33402123;79040383
33433771;79016220
33433836;79017422
33433377;78996335
33416473;79079230
33419308;79019044
33435714;79061880
33418158;79080690
33424812;79038505
33401329;79040148
33001872;79041122
33441778;79060989
33435756;79061913
33422118;79079856
33444762;79080437
33434917;79058969
33435573;79060365
33435576;79061732
33456644;78965684
33456660;78965700
33435754;79061911
33419265;79018968
33430924;79020103
33448116;79190117
33436370;79191096
33402030;79040363
33435736;79061893
33456642;78965682
33440009;79237537
33421900;79078559
33001873;79041163
33315520;79041322
33435440;79060200
33420249;79062427
33435453;79060258
33454870;79236532
33431656;79103989
33431760;79104806
33441782;79060992
33435701;79061870
33414526;79103586
33431676;79104176
33401251;79040018
33435580;79061752
33414541;79103598
33438493;79123694
33425114;79124562
33425171;79124702
33429058;79125862
33431564;79104751
33456598;78965540
33440141;79237657
33436384;79191102
33453071;79280104
33439982;79237527
33418145;79079029
33422161;79081916
33422307;79082900
33436407;79191073
33425564;79124414
33435251;79058313
33430685;78998709
33435785;79062760
33445257;79194419
33430543;78998565
33420226;79062399
33435774;79062774
33445251;79194418
33445271;79194433
33454852;79236552
33425211;79124730
33425545;79124402
33417923;79083267
33418029;79083379
33438544;79123760
33453031;79280023
33453090;79280118
33447836;79102565
33425195;79124719
33425051;79125252
33425674;79126040
33456605;78965547
33431704;79104196
33431576;79104892
33425153;79124688
33425039;79125233
33425136;79124572
33445286;79193369
33438566;79123748
33425526;79124377
33425636;79125512
33454969;78972044
33439931;79103499
33431769;79104824
33425208;79124726
33425608;79125358
33422188;79082140
33417917;79083261
33425454;79123388
33425102;79123504
33429820;79125771
33425346;79123348
33425575;79124578
33451228;76257682
33451708;76504401
33451482;76497949
33452054;76523946
33452053;76523944
33453892;77754590
33454289;78019943
33409076;79003836
33431436;79021184
33454367;78020022
33449774;79126573
33454310;78019964
33407731;79001248
33430729;79000338
33436592;79042914
33449792;79126544
33436516;79042865
33454786;78052094
33440915;79106006
33441084;79106549
33432936;78982873
33422554;79004015
33444623;79151039
33449808;79126552
33455932;79197464
33446798;79151463
33449804;79126550
33407710;79001239
33454798;78052106
33431578;79105103
33432173;79107878
33446405;79085084
33436602;79042917
33449895;79126667
33424243;79007763
33427791;79005327
33446296;79084954
33450262;79127429
33409203;79003886
33422670;79004980
33454225;78015819
33444035;79133927
33415157;79026685
33436736;79088855
33404897;78990768
33423099;79029651
33437184;79203205
33410587;79071887
33455474;78604501
33455881;79197434
33409515;79071317
33450187;79128132
33429862;79132764
33448598;79108774
33451649;79217012
33451633;79224418
33446301;79084997
33446965;79151619
33438345;79074618
33403696;78982470
33430011;78991297
33436999;79089204
33438597;79219366
33434894;79054046
33434529;79054970
33455974;79197467
33439506;79220188
33432405;78985904
33447769;79101953
33450186;79128130
33437227;79203260
33430117;78989870
33406392;78992033
33429854;79132758
33414094;79029263
33410647;79071924
33455548;78605212
33428568;79026235
33426991;79114707
33415751;79027769
33447132;79163705
33436979;79089182
33447057;79163655
33422813;79005124
33432075;79096365
33440328;79239821
33422549;79004005
33439411;79219064
33451959;79229239
33424532;79008400
33449127;79211934
33452703;77032032
33443889;79178268
33430102;78991015
33433016;78986086
33430044;78990124
33436949;79089167
33419368;79049278
33445855;79142122
33439505;79220211
33420134;79056886
33454815;78195402
33455755;79239398
33441910;79155213
33425272;79119852
33446954;79151599
33441884;79155180
33426809;79113801
33416798;79006980
33405181;78990866
33457208;79284362
33423905;78984268
33439551;79048688
33449641;79129091
33414883;78988881
33410649;79071927
33407931;79001327
33445757;79141892
33436985;79089210
33449837;79126623
33409827;79071449
33410680;79071922
33442433;79072914
33408838;79003727
33447239;79170581
33430260;78990111
33450267;79127446
33416809;79007001
33448628;79207084
33415798;79027904
33410388;79071557
33404982;78990801
33423267;79093771
33451994;79227474
33431626;79099292
33447128;79163700
33450898;79164228
33447190;79172250
33412709;79048278
33436261;79097017
33431632;79099309
33427165;79116627
33437943;79160352
33452550;79206599
33414300;79100843
33441171;79267357
33443892;79178306
33448187;79187345
33452026;79227507
33445728;79141907
33446128;79146248
33454000;79253495
33411071;79071593
33442813;79074991
33421220;78992986
33418948;78993149
33419056;78993165
33443375;79156605
33420611;79052979
33411001;79072060
33419970;79055881
33441477;79268978
33447617;79178116
33441367;79268215
33437931;79160333
33451540;79223195
33415019;79026462
33415656;79031609
33410444;79071826
33426495;79112178
33448591;79108773
33439947;79103518
33443498;79070421
33438086;79169239
33439187;79220497
33454814;78195375
33423030;79033107
33444211;79139004
33410702;79071939
33434561;79055115
33456032;78623793
33425298;79119874
33445742;79141920
33452145;79227624
33426535;79112210
33454726;79235511
33447616;79178117
33438028;79161506
33437373;79179588
33456927;79284065
33443811;79176645
33423422;79095778
33445888;79142125
33448573;79184792
33444310;79147274
33453869;77754567
33445660;79141776
33448904;79208733
33451183;79215075
33451185;79215081
33433868;79017719
33445458;79141610
33445587;79141730
33446123;79146259
33433239;78995338
33433458;78996409
33420055;79056059
33444748;79080415
33418710;78993598
33431384;79020248
33455090;78315457
33430381;78998458
33454970;78315338
33453924;77754622
33454921;78315289
33428862;79036149
33433730;79015142
33418403;79078926
33454023;77754725
33451094;79215929
33453898;77754596
33444654;79080330
33456811;78965852
33454261;79257337
33430709;78998755
33402196;79040405
33430463;78998981
33454194;79257063
33454996;78315364
33445214;79194376
33419280;79018986
33451072;79215916
33424797;79038441
33416397;79079320
33444664;79080323
33419332;79019072
33445215;79194398
33445237;79194401
33456815;78965856
33456763;78965805
33401945;79040354
33454761;79235540
33456680;78965721
33430711;78999003
33430491;78998513
33452997;79280063
33445252;79194404
33425455;79123389
33422261;79082855
33429825;79125784
33440024;79237551
33411436;79072646
33430816;79000468
33404041;78982635
33403778;78982483
33427798;79003234
33449953;79126719
33441705;79063493
33407700;79000021
33408081;79001386
33426028;79002406
33428173;79026041
33415394;79026573
33429894;78983642
33454421;78020076
33432910;78982851
33420902;78983350
33427512;78981387
33407229;79000235
33407537;79001170
33407695;79000001
33431070;79020909
33425840;79025784
33415005;79026455
33432975;78982882
33425975;78999919
33454329;78019983
33430793;79000430
33408839;79003728
33454328;78019982
33425829;79025760
33409175;79000088
33430768;79000385
33408289;79001476
33436523;79042879
33403770;78982489
33432943;78982870
33427434;78981302
33420802;78983258
33446861;79151490
33441021;79106511
33409070;79003835
33425954;78999772
33446526;79085163
33422632;79004948
33404027;78982623
33441677;79063484
33455832;79197405
33440356;79239837
33452771;77032109
33428633;79025473
33436816;79088900
33439067;79091619
33442724;79155876
33431828;79105680
33440948;79106085
33446436;79085074
33446763;79151419
33453671;79260537
33446773;79151426
33444003;79133888
33444517;79147455
33444558;79151012
33425950;78999768
33435996;79069524
33436062;79069602
33436901;79088979
33436945;79088997
33439022;79091577
33455939;79197448
33439450;79219097
33423735;78984299
33429913;78983887
33452805;77036823
33433832;78621677
33421564;79008523
33435948;79069409
33455659;78605329
33455730;78605400
33439191;79220511
33432855;79012735
33433222;78986985
33434876;79054041
33418914;78993624
33442607;79073081
33441983;79155257
33427756;79003586
33409119;79003855
33427264;79109039
33411597;79072723
33429399;79136611
33420361;79049621
33421299;78992520
33426126;79031239
33437267;79203371
33455010;79223650
33455097;79223722
33423745;78984210
33422473;78988345
33447716;79101900
33446611;79138284
33442251;79169756
33443739;79175749
33325945;79036400
33400434;79036497
33435947;79069406
33447365;79170690
33434740;79054793
33440629;79075978
33444996;79199844
33441923;79155195
33433524;79014876
33455717;78605387
33447371;79170708
33417451;79035417
33426911;79110763
33437666;79160231
33434321;79051879
33451989;79227505
33412087;79028442
33440908;79105988
33452744;79234806
33450194;79128160
33431297;79021008
33430995;79021392
33438380;79120674
33456898;79281541
33452786;77032125
33447744;79101963
33440456;79240128
33431922;79091962
33451678;79217031
33432255;78981730
33432912;78982852
33453245;79262309
33446961;79151577
33445084;79199918
33435317;79058354
33432311;78981923
33447755;79101936
33430026;78991094
33423831;78993921
33440590;79075941
33403321;79048591
33429461;79129810
33422496;78988453
33451793;79218174
33451650;79216994
33447381;79170742
33440855;79105553
33446955;79151610
33447710;79101890
33424187;79007590
33436913;79088990
33441353;79268064
33437728;79160232
33432846;79012721
33432442;78985429
33430233;78990044
33438364;79120685
33429865;79132767
33442662;79075597
33432838;79012569
33425393;79123106
33426098;79031034
33450450;79197846
33420047;79056049
33438714;79093643
33443611;79175622
33443034;79177202
33432287;78981838
33432974;78982904
33447752;79101934
33441418;79268268
33442038;79155298
33429087;79154247
33449996;79130533
33437104;79203070
33431025;79021439
33424354;79007954
33424536;79008404
33421636;79009598
33453246;79262279
33417330;79035642
33429529;79129730
33416719;78990498
33454714;79235472
33443014;79177185
33429543;79126965
33451517;79223180
33440272;79238244
33426681;79119648
33426157;79031305
33436018;79069544
33411570;79072708
33434610;79055206
33434070;79056221
33434285;79051864
33441973;79155268
33442073;79155333
33426739;79113756
33434265;79050408
33434542;79051542
33421749;79009353
33450352;79197727
33434869;79054026
33429640;79122775
33441364;79268130
33447743;79101918
33447817;79102538
33442799;79155957
33417819;79034888
33439762;79098046
33447568;79178057
33447712;79100648
33442785;79155947
33441630;79269264
33445771;79141917
33453474;79244037
33445849;79142054
33452662;79234710
33439764;79098033
33440918;79105991
33447347;79170698
33443171;79156758
33444088;79134433
33414826;78988861
33430151;78989923
33452795;79235791
33443906;79178302
33412466;79048451
33442598;79073059
33424352;79007947
33454591;79260791
33430968;79087299
33410888;79071977
33452212;79230135
33443017;79177182
33441277;79268002
33426116;79031063
33437259;79203366
33436061;79069567
33410022;79071517
33442521;79072981
33455613;78605281
33443682;79175692
33434431;79052119
33452265;79231226
33457103;79284257
33457295;79289245
33447916;79185853
33423277;79093784
33447765;79101923
33436781;79088877
33447745;79101931
33428073;79004758
33447929;79185864
33429902;78983894
33448384;79184983
33448429;79185449
33447884;79185809
33436073;79069616
33428301;79026263
33439378;79219034
33409936;79071487
33443686;79175696
33447555;79177878
33443597;79175626
33434675;79055237
33441916;79155191
33448191;79187363
33447753;79101935
33456208;79252130
33449562;79208189
33448286;79187790
33449148;79211971
33447400;79170747
33447167;79174201
33453993;79253470
33436186;79095739
33441397;79268248
33441542;79269034
33452127;79227598
33443149;79156772
33447587;79178092
33452735;79234784
33445456;79141609
33445399;79141533
33445463;79141589
33428938;79143834
33454104;79255299
33439815;79099018
33447741;79101917
33431731;79104285
33446710;79142467
33446570;79138237
33428921;79143827
33451134;79215064
33457221;79284375
33421462;78992739
33416371;79079274
33444902;79081173
33442203;79144473
33418643;78993232
33425993;78999287
33445745;79141887
33453930;77754628
33418603;78993208
33433326;78995540
33449007;79211833
33445619;79141740
33446047;79142245
33416375;79079285
33449432;79212224
33423797;78993889
33440474;79077149
33440476;79077173
33428641;79035404
33444284;79147248
33424154;78994686
33441853;79062242
33418343;79081717
33422179;79082129
33433915;79016453
33444816;79080465
33444278;79147238
33423934;78994824
33419796;79018116
33444253;79147205
33456242;79254179
33315072;79041455
33421948;79079836
33430527;78998547
33430281;78998724
33457398;79289347
33454210;79257114
33416447;79079221
33444813;79080462
33454322;79257360
33445305;79195281
33425439;79123380
33314935;79041419
33451397;79216220
33417359;79035773
33402343;79040088
33448009;79188140
33433829;79017437
33424741;79039078
33430627;78998655
33430512;78998533
33430425;78998950
33433907;79016343
33430930;79020111
33433818;79017414
33435318;79058337
33436432;79191977
33435642;79061809
33419248;79018931
33430511;78998532
33424848;79038562
33401441;79040195
33456715;78965758
33456761;78965803
33402631;79040535
33435638;79061805
33435712;79061874
33401845;79040325
33441754;79060966
33444838;79080485
33435775;79062775
33448080;79189086
33456773;78965815
33453094;79280128
33430548;78998568
33431677;79104177
33454865;79236513
33453024;79280069
33431791;79104997
33431763;79104816
33431695;79104188
33425558;79124411
33425147;79124684
33453100;79280125
33453101;79280101
33453092;79280114
33456764;78965806
33438455;79123662
33407100;79000190
33403830;78982503
33436525;79042873
33449795;79126547
33431293;79021003
33407339;79000267
33404281;78982779
33408769;79003705
33425900;78999639
33427945;79005484
33428129;79024317
33404201;78982697
33435904;79068538
33429463;79131177
33450274;79127533
33421228;78992334
33407883;79001307
33422636;79004947
33416893;79005945
33411617;79072716
33436762;79088857
33422880;79005217
33418570;78984687
33416942;79007076
33454912;79223484
33411729;79072766
33430148;78989915
33410375;79071558
33446498;79085149
33442097;79155356
33455247;78604206
33415416;79026584
33432707;79011480
33405607;78991809
33424058;78993971
33414975;79026435
33432680;79011321
33411455;79072658
33447274;79170650
33443721;79175732
33434092;79056344
33420515;79049954
33414777;78988817
33429143;79131024
33429449;79136745
33410346;79071793
33423281;79093786
33441049;79106478
33404383;78982747
33447626;79178122
33404929;78990783
33429833;79126778
33405142;78990859
33434635;79055209
33434795;79057256
33426533;79112211
33435081;79067113
33423834;78993924
33429484;79132518
33421022;78992212
33417694;79034751
33429475;79136828
33440302;79238270
33432687;79011340
33450272;79127448
33415620;79031580
33428451;79035181
33325122;79036292
33432327;78985252
33427678;78989068
33414021;79029814
33409639;79071374
33427339;79109428
33413002;78984977
33439550;79048716
33436233;79095760
33414483;79101018
33434225;79050195
33434815;79057407
33421179;78992952
33413260;78985134
33443131;79181764
33435907;79068540
33438079;79161479
33436160;79095697
33423594;79096019
33406093;78991944
33421359;78992811
33417643;79034601
33428510;79035277
33428644;79035813
33428720;79035910
33447163;79174197
33437953;79160348
33428854;79036072
33420150;79056896
33423245;79093755
33420049;79056052
33423285;79093790
33434699;79054754
33419469;79049322
33428264;79033944
33428539;79035378
33442936;79177129
33429749;79140330
33431668;79104162
33415900;79076647
33433293;78995449
33448882;79211804
33421288;78992505
33418984;78993447
33433684;79014974
33433266;78995378
33453791;77739426
33400587;79036515
33401984;79040070
33433568;79014738
33402831;79040606
33428503;79035272
33423979;78994899
33430387;78998462
33456574;78965511
33401295;79040138
33422232;79082179
33425392;79123107
33433253;78995336
33421926;79079488
33400525;79040004
33449414;79212216
33435581;79061753
33434935;79058983
33421936;79079814
33418199;79080931
33433779;79016223
33402007;79040368
33435577;79061744
33430931;79020113
33441796;79062228
33436336;79191031
33401353;79040157
33315499;79041316
33435585;79061770
33435603;79061779
33425651;79125527
33431737;79104293
33425225;79123448
33431560;79104783
33454705;78052008
33411460;74583838
33454426;78020081
33454642;78038642
33430744;79000369
33407611;79001194
33425944;78999677
33435832;79062888
33426026;79002635
33431348;79020518
33404291;78982599
33420806;78983262
33425969;78999810
33406956;79000139
33450324;75634710
33407172;79000213
33430798;79000397
33407317;79000279
33415144;79000755
33408592;79003646
33422608;79004167
33428086;79003349
33431403;79020690
33431299;79021011
33440938;79106086
33454410;78020065
33409034;79000078
33441722;79063522
33403790;78982493
33404872;78982604
33403670;78982463
33441664;79063453
33409231;79000093
33407563;79001182
33422722;79005050
33422859;79005189
33435176;79067183
33407403;79000304
33414941;79003123
33422882;79004364
33404391;78982754
33454296;78019950
33436590;79042971
33407727;79000000
33407140;79000206
33453622;79260488
33446874;79151550
33432966;78982919
33449923;79126684
33446967;79151606
33440310;79238269
33455716;79239403
33446827;79151475
33441159;79105358
33441160;79105359
33430776;79000391
33428048;79003320
33429631;79126806
33429781;79127058
33410057;79000127
33428040;79003316
33408498;79003592
33410048;79000125
33434986;79067027
33431241;79020954
33414920;79000784
33428105;79003409
33432268;78981748
33454268;78019922
33454592;79260619
33440441;79240129
33409185;79003876
33431905;79107660
33438214;79045256
33452630;77031949
33454351;78020005
33453590;79260467
33429091;79154216
33404276;78982782
33441111;79106572
33436646;79042960
33412786;79048983
33440254;79238221
33440401;79239875
33446846;79151509
33407381;79000296
33430720;79000331
33453630;79260541
33436907;79088984
33444497;79147426
33439427;79219077
33449943;79126723
33450017;79130548
33444125;79134473
33453641;79260545
33412746;79048970
33429998;78991243
33405431;78991766
33421136;78992909
33421137;78992912
33457056;79284210
33416986;79007232
33421621;79009591
33444462;79147407
33446890;79151531
33444594;79151025
33430799;79000396
33450171;79130674
33422706;79005026
33416963;79007101
33424527;79008395
33422747;79005071
33413199;79006136
33424577;79008460
33432862;79013101
33409559;79071344
33446254;79084893
33437074;79089293
33432740;79011549
33432839;79012716
33420988;78983509
33432332;78985518
33442659;79075596
33440534;79075898
33450484;79197828
33451845;79218195
33439147;79220473
33440327;79239825
33404217;78982702
33429923;78983787
33455489;79239295
33405281;78990905
33421144;78992918
33451691;79217032
33439399;79219068
33425835;79025774
33428584;79026249
33430261;78990113
33453191;79261793
33427601;78989594
33405535;78991798
33436496;79042857
33412688;79048259
33451682;79217030
33455768;79197398
33419117;78993429
33447369;79170715
33422528;78988482
33427712;78989533
33405980;78991918
33432594;79010706
33432694;79011366
33432799;79012158
33435954;79069403
33436751;79088866
33449892;79126630
33440928;79106067
33410008;79071511
33410798;79071965
33442349;79170093
33434977;79067033
33410543;79071865
33410807;79071971
33450083;79130597
33429848;79132752
33432738;79011548
33421504;79077564
33447496;79170815
33434905;79054130
33419060;78993166
33418686;78993351
33424097;78994016
33411586;79071616
33442520;79072978
33440357;79239854
33453793;79242688
33446769;79151441
33455274;79239153
33426421;79116878
33438561;79123763
33441974;79155269
33442081;79155374
33442792;79155963
33451519;79223159
33436746;79088843
33431930;79090094
33414807;78988852
33404912;78990772
33446365;79085010
33426923;79109604
33450115;79130616
33425009;79119936
33455669;78605339
33455931;78613389
33447465;79170803
33450704;79158051
33437756;79160268
33437864;79160316
33403489;78982410
33433977;79017174
33415807;79027910
33424177;79007575
33422909;79093829
33449639;79129117
33427597;78989593
33455131;79226295
33442277;79169776
33442322;79170074
33443730;79175744
33325952;79036399
33436095;79069620
33455329;78604351
33455649;78605319
33455970;78613429
33434075;79056214
33428985;79154141
33456277;79254250
33442468;79072939
33442557;79073014
33442803;79073649
33440646;79075997
33426783;79108955
33437336;79203531
33450779;79164104
33450889;79164223
33450927;79164251
33426496;79112180
33433721;79015135
33452477;79206490
33452619;79206626
33439597;79050859
33434820;79057393
33420563;79050069
33420688;79053288
33455200;79228060
33434073;79056242
33455275;79239149
33428741;79026154
33413843;79029099
33432241;79108452
33446461;79085104
33438937;79091363
33425832;79025770
33431268;79020977
33432759;79011596
33436757;79088863
33422892;79004374
33427852;79005393
33441334;79268047
33423504;79096803
33441128;79105425
33422831;79005141
33416805;79007000
33431940;79090118
33432877;79013235
33420865;78983310
33432412;78985930
33448725;79211262
33449122;79211931
33452163;79227639
33442502;79072966
33452806;79232251
33450998;79216706
33409572;79071351
33454643;79231873
33452657;79234738
33456049;78623810
33447453;79170796
33447466;79170818
33423360;79095957
33404256;78982725
33420986;78983508
33422500;78988455
33414684;78988709
33421029;78992197
33416506;79077869
33457070;79284224
33441274;79268013
33441396;79268230
33432154;79107725
33437012;79089237
33403365;79048605
33419436;79049307
33439685;79050941
33429544;79126966
33445411;79141559
33445453;79141631
33446052;79142268
33446707;79142461
33442210;79144475
33441984;79155258
33442732;79155861
33439497;79220184
33451599;79223238
33446971;79151617
33454816;78195426
33439350;79219046
33439445;79219131
33403238;79048564
33420495;79049934
33420058;79056061
33446910;79151545
33446998;79151620
33447015;79152057
33439786;79098985
33447523;79170848
33435178;79067185
33443522;79070365
33409981;79071495
33413033;78984995
33434868;79054039
33440200;79238171
33446328;79085019
33453959;79253461
33438685;79093565
33414127;79097549
33424481;79008294
33443204;79156675
33442831;79157686
33416790;79006964
33405811;78991865
33438617;79219383
33433023;78986110
33430266;78990115
33413361;78985239
33416723;78990387
33436528;79042848
33420392;79049666
33415673;79031618
33450296;79127462
33438965;79091558
33451739;79217061
33445118;79199954
33445136;79199973
33454960;79223628
33454979;79223637
33443470;79070337
33442641;79075190
33440587;79075939
33414750;78988811
33427543;78989430
33427546;78989432
33457334;79289284
33457498;79289446
33443333;79156612
33421592;79009527
33443500;79070420
33428525;79035369
33448610;79108802
33417618;79034845
33445017;79199857
33449602;79208264
33420910;78983552
33440754;79186307
33455964;79197474
33447179;79174185
33415293;79026699
33412169;79030558
33415577;79031547
33409587;79071358
33424729;79008178
33442418;79072886
33442517;79072976
33421729;79011858
33450905;79164230
33453579;79260445
33439487;79220174
33428489;79035221
33400925;79036594
33443974;79133872
33444111;79134489
33442241;79169757
33447449;79170775
33400061;79036417
33400159;79036439
33433515;79014875
33452790;79235787
33443911;79178299
33436864;79088945
33413599;79006726
33421553;79011950
33453399;79243996
33415287;79026531
33439698;79050926
33420691;79053293
33413631;79032638
33428253;79033938
33417693;79034749
33419464;79049320
33422533;78988487
33421329;78992554
33432444;78994234
33447081;79163668
33421563;79008522
33437249;79203339
33439730;79097965
33450659;79158011
33450685;79158020
33450674;79158059
33415772;79027825
33413518;79028895
33414240;79029954
33412170;79030559
33423196;79032503
33423498;79096643
33445501;79141666
33445712;79141871
33442288;79169774
33423344;79099477
33423543;79099699
33453435;79244005
33453932;79253433
33426500;79112183
33456246;79254185
33432209;79108431
33427148;79116604
33425329;79119902
33447034;79163672
33437959;79160354
33450808;79164169
33444176;79138978
33453467;79244026
33441266;79267989
33443613;79175661
33447565;79178081
33443855;79177819
33434724;79054780
33453384;79243985
33453928;79253431
33445585;79141693
33445693;79141808
33442179;79144463
33444243;79147195
33456219;79253805
33456240;79254178
33454668;79231934
33450890;79164224
33453563;79253314
33454026;79253476
33453564;79253315
33453934;79253434
33414271;79097776
33439895;79098665
33434317;79051904
33434438;79052085
33420702;79053311
33436661;79088805
33436761;79088854
33450304;79127456
33449706;79129151
33435894;79068550
33413382;78985020
33452124;79227595
33452139;79227648
33447914;79185847
33423786;78993880
33451520;79223163
33447358;79170727
33447428;79170761
33455757;79239401
33451591;79223254
33420892;78983343
33429895;78983656
33423925;78984279
33412877;78984899
33427461;78988926
33450039;79130570
33433042;78986166
33405197;78990862
33421058;78992253
33444114;79134465
33443954;79178334
33420401;79049659
33436000;79069557
33411830;79071644
33424509;79008329
33421837;79008744
33406514;78992075
33457262;79284416
33416275;79079117
33443081;79180314
33441470;79268953
33442879;79177078
33453488;79253269
33437380;79179595
33439093;79220402
33439094;79220424
33417361;79035782
33426265;79033555
33448959;79208777
33421958;79077779
33455395;78604421
33442910;79177105
33427032;79108905
33426457;79112128
33437552;79120638
33446490;79138205
33448474;79184711
33452295;79231245
33442890;79177088
33443244;79156630
33450623;79157974
33454641;79231893
33440804;79181352
33440740;79186309
33414118;79097534
33439911;79098894
33451190;79215082
33447705;79100661
33413732;79097508
33439816;79098992
33453417;79243997
33413399;79006318
33424203;79007606
33447943;79188095
33454043;79255273
33432892;79012344
33412889;78984912
33422501;78988457
33414761;78988815
33430158;78989924
33416711;78990458
33456922;79284060
33456951;79284089
33457532;79289480
33443124;79180334
33405647;78991825
33406047;78991932
33443538;79070371
33410874;79072018
33442304;79169793
33440488;79077157
33426072;79030981
33426233;79033474
33428515;79035280
33451807;79218168
33439081;79220393
33439101;79220409
33413867;79032757
33423060;79033150
33454074;79255281
33447952;79188083
33400589;79036516
33455765;79197388
33454903;79223463
33450391;79197754
33434328;79051880
33420624;79053014
33434067;79056218
33447629;79178133
33456953;79284091
33457484;79289432
33414494;79101026
33441176;79267366
33414107;79029265
33447073;79163681
33428212;79033861
33450559;79157928
33438687;79093567
33444194;79139007
33427020;79114763
33411583;79071615
33442515;79072975
33453863;79253402
33442899;79177095
33452826;79251503
33454085;79255335
33454153;79255342
33441281;79267991
33412396;79054281
33448212;79187352
33451875;79228964
33438860;79093724
33426586;79119450
33420526;79049964
33413972;79029155
33426034;79030928
33415834;79031712
33445975;79142188
33442134;79161972
33450871;79164206
33434737;79054790
33434622;79055158
33439638;79050890
33413755;79097521
33448612;79108814
33412207;79030576
33426390;79034544
33452299;79231217
33426470;79116957
33428983;79154139
33442864;79177060
33448413;79185454
33437738;79160266
33447137;79163743
33448580;79184780
33453941;79253444
33446558;79138218
33446050;79142246
33452955;79279997
33433425;78996534
33453750;79242648
33456201;79252124
33454005;79253491
33442876;79177072
33447882;79185807
33454057;79255269
33454143;79255338
33447630;79178134
33443274;79183591
33451270;79215165
33423509;79096806
33439792;79098998
33431553;79099181
33445461;79141582
33414592;79103665
33445889;79142124
33442186;79144468
33447910;79185843
33447788;79102540
33451062;79215911
33449206;79212013
33451022;79216759
33442700;79075635
33449137;79211945
33448553;79184758
33417970;79083308
33451101;79216041
33451198;79215128
33451020;79216735
33451132;79215031
33451027;79215878
33448101;79189162
33449105;79211927
33449402;79212217
33454622;79186970
33421942;79079828
33422180;79082131
33422267;79082861
33453797;77739434
33445642;79141757
33430697;78998545
33445518;79141649
33445576;79141699
33430585;78998607
33425857;78999260
33455061;78315428
33448729;79211269
33449045;79211869
33451261;79215142
33451407;79216225
33451023;79216760
33418012;79083368
33445689;79141816
33446130;79146249
33451043;79215906
33418551;78993055
33424162;78994703
33433329;78995111
33433273;78995356
33433255;78995368
33433315;78995490
33433314;78995527
33430303;78999050
33451138;79215063
33449120;79211943
33450952;79212847
33423870;78994100
33424123;78994645
33424085;78993986
33418027;79083378
33325320;79036361
33418875;79016652
33419691;79016767
33425858;78999262
33433354;78996308
33454972;78315340
33418677;78993342
33418690;78993576
33419756;79018251
33422121;79079859
33422209;79082157
33453894;77754592
33422227;79082174
33454886;78307763
33444881;79081176
33315027;79041447
33424087;78993992
33430666;78998381
33430276;78998721
33401528;79040212
33315194;79041464
33451389;79216228
33423933;78994822
33451155;79215087
33450982;79216710
33421178;78992949
33418957;78993159
33416293;79079133
33416383;79079314
33432518;78994594
33433362;78996290
33444719;79080383
33428508;79035267
33430954;79020131
33430306;78999049
33432504;78994571
33457350;79289299
33444671;79080365
33444891;79081162
33444897;79081165
33422007;79082753
33401670;79040241
33456239;79254176
33454050;79255243
33401620;79040043
33422362;79082925
33454278;79257344
33433265;78995394
33430385;78998459
33425859;78999261
33453172;79257707
33401099;79036608
33402309;79040456
33402848;79040609
33454339;79257372
33402649;79040546
33416458;79079220
33417932;79083281
33454188;79257027
33448085;79189173
33425589;79124589
33451263;79215166
33451274;79215171
33402161;79040075
33402247;79040420
33402710;79040579
33444233;79147188
33454178;79257073
33444737;79080388
33434134;79016614
33401567;79040221
33002157;79041185
33308378;79041278
33314864;79041403
33453151;79257713
33451061;79215954
33402299;79040443
33402872;79040619
33308398;79041334
33434055;79017864
33430639;78998663
33454454;79258232
33444716;79080377
33433387;78996512
33430784;78999007
33435670;79061827
33444792;79080479
33454334;79257368
33454485;79258251
33424005;78994921
33454487;79258253
33400885;79036584
33433655;79016050
33433938;79016516
33425099;79123499
33446101;79146230
33457467;79289415
33436333;79191026
33419822;79018137
33433963;79017143
33433780;79016240
33419696;79016769
33433837;79017425
33441738;79060946
33402441;79040486
33314755;79041372
33441731;79060952
33435627;79061797
33435609;79061800
33424858;79039574
33419305;79019032
33430323;78999070
33419281;79018985
33435449;79060257
33308382;79041282
33309258;79041357
33435470;79060280
33435543;79060324
33441779;79060983
33434921;79058990
33441802;79062188
33417874;79078989
33435258;79058298
33441787;79061006
33454880;79236567
33431379;79020232
33434910;79058797
33435703;79061898
33402268;79040429
33435409;79060203
33441742;79060955
33439936;79237496
33401985;79040343
33456600;78965542
33452948;79279969
33454850;79236515
33425629;79038922
33448086;79189152
33440064;79237642
33440124;79237643
33452947;79279964
33444876;79081151
33456601;78965543
33430390;78998464
33445318;79195305
33431725;79104276
33431785;79104994
33445302;79195264
33456587;78965529
33438461;79123671
33425064;79125267
33452995;79280065
33429062;79125880
33425044;79125237
33436381;79191100
33429826;79125785
33440017;79237535
33431788;79104995
33453029;79280042
33422133;79081905
33422259;79082852
33445221;79194379
33425579;79124582
33456703;78965746
33429052;79125859
33425184;79124711
33425220;79125178
33442039;79155299
33442128;79161987
33454011;79253482
33429489;79132546
33452808;79232253
33452647;79234692
33426513;79112198
33438836;79093696
33447944;79188084
33413734;79097510
33450557;79157925
33437702;79160250
33448459;79184672
33447957;79188085
33446641;79138413
33424045;78994983
33430582;78998614
33425997;78999291
33444314;79147261
33419610;79016700
33457419;79289368
33315431;79041309
33441824;79062202
33441828;79062236
33428674;79025565
33449779;79126538
33410017;79000122
33430739;79000362
33409024;79003808
33440934;79106013
33430843;79000565
33454490;79259470
33436814;79087078
33453875;79253406
33429106;79154230
33443251;79156624
33443501;79070419
33432379;78985658
33430203;78990022
33453431;79243999
33454982;79223626
33429152;79136883
33417652;79031909
33407129;79000185
33436615;79042951
33442009;79155313
33423067;79033152
33453280;79262727
33452326;79231236
33452612;79206622
33433155;78986409
33414827;78988858
33404972;78990806
33430237;78990049
33404539;78990563
33443013;79177232
33452718;79234746
33440006;79237529
33429877;78983836
33427606;78989614
33430244;78990081
33404945;78990789
33430072;78990954
33419979;79055886
33446750;79142544
33446597;79138278
33434450;79052123
33438650;79093559
33422902;79093809
33439559;79048724
33457481;79289429
33429417;79136653
33446571;79138281
33445554;79141653
33429768;79140556
33452981;79279985
33421960;79077781
33434019;79017841
33400990;79039921
33315281;79041469
33432433;78994246
33431007;78998916
33448098;79189184
33433851;79017624
33433867;79017718
33419828;79016868
33430669;78998384
33430589;78998604
33419222;79018720
33430977;79020150
33435812;79062800
33431766;79104822
33441724;79063510
33420794;78983248
33407761;79001251
33407961;79001346
33408573;79003625
33427783;79004662
33403515;78982421
33436626;79042952
33438135;79044827
33454653;78038653
33446869;79151500
33440324;79238280
33446294;79084976
33431806;79105027
33441151;79105366
33446276;79084921
33424368;79007974
33416864;79007031
33424715;79008164
33422751;79004331
33422819;79005134
33424396;79008103
33433040;78986174
33429102;79154224
33428752;79030265
33423601;79096020
33415878;79076628
33416431;79077990
33416372;79079276
33453203;79262257
33450230;79127407
33452349;79231288
33454648;79231872
33452999;79280022
33446814;79151449
33453637;79260506
33436693;79087195
33443420;79156600
33453347;79243919
33453350;79243934
33452504;79206517
33436967;79089183
33436743;79088849
33455955;79197450
33448599;79207050
33452637;79234705
33445886;79142101
33436230;79095756
33447815;79102559
33453534;79253299
33453550;79253320
33456233;79253799
33447700;79100644
33419483;79049330
33442950;79177229
33448473;79184669
33412670;79048132
33419869;79049508
33443840;79177832
33440803;79181370
33428561;79026232
33457028;79284166
33441567;79269046
33452424;79231323
33440826;79181430
33456906;79284045
33406733;78992138
33405629;78991816
33445397;79141547
33445938;79142176
33426488;79116970
33437554;79120639
33410651;79071571
33411665;79072735
33441229;79269442
33452188;79227654
33434871;79054036
33442230;79144479
33442372;79146710
33444208;79138999
33429233;79143588
33451279;79213666
33451131;79215030
33451343;79214010
33449078;79211898
33449506;79212293
33443368;79183640
33434172;79013625
33430359;78998440
33430670;78998386
33430705;78998676
33429248;79143613
33420021;79056022
33457391;79289340
33451310;79213676
33444731;79080424
33435474;79060267
33441762;79060974
33435617;79061788
33453760;77739387
33456622;78965564
33429595;79123053
33433989;79017153
33451014;79216731
33454463;79258236
33444764;79080413
33454408;79258269
33416407;79079325
33430279;78998722
33447945;79188094
33308247;79041149
33430912;79020094
33430526;78998556
33445238;79194402
33419688;79016761
33441791;79061010
33456582;78965524
33454745;79235482
33402471;79040493
33435443;79060271
33401697;79040049
33435337;79058362
33434934;79058984
33450520;79194213
33453026;79280039
33431748;79104791
33422292;79082893
33440033;79237558
33429812;79125753
33454305;78019959
33454470;78020124
33428126;79024311
33428870;79026431
33425815;79025729
33436596;79042913
33449912;79126686
33432286;78981850
33403494;78982428
33409737;79000111
33430888;79000652
33430874;79000613
33407198;79000220
33407730;79001249
33409348;79003948
33436559;79042893
33410076;79000126
33430847;79000579
33441706;79063497
33435003;79067047
33438134;79044830
33429002;79154171
33428972;79154132
33446453;79085102
33449929;79126694
33454932;79223635
33440457;79240148
33440377;79239861
33439030;79091574
33412437;79048378
33437458;79197001
33415474;79026786
33426376;79027344
33455271;79239146
33455414;79239259
33455637;79239357
33456056;78623817
33420767;79055977
33434758;79054861
33420029;79056034
33434501;79054705
33442646;79075188
33424404;79008256
33432836;79012579
33450055;79130558
33450104;79130609
33455339;78604364
33437198;79203242
33437287;79203386
33404674;78990599
33421053;78992239
33424543;79008424
33426505;79112190
33443767;79175779
33442756;79155938
33437736;79160245
33442341;79170082
33442314;79170101
33415325;79027940
33446185;79084875
33432168;79090494
33423250;79093760
33432109;79096409
33413243;78985094
33432841;79012711
33419833;79016871
33454872;79236517
33441105;79106558
33431863;79105857
33446457;79085126
33411463;79071608
33432302;78981899
33404080;78982647
33413072;78985218
33426476;79116961
33424871;79118358
33405436;78991769
33430073;78990956
33420896;78983346
33432471;78985427
33432333;78985520
33433189;78986958
33435853;79068495
33427681;78989069
33439748;79098019
33441914;79155202
33442116;79155411
33427749;79003580
33422895;79005223
33451774;79218172
33427953;79023994
33415169;79026696
33423087;79029640
33415672;79031617
33442422;79072899
33411655;79072728
33417313;79032075
33428321;79034000
33439576;79048735
33413283;78985146
33422452;78988285
33427639;78989635
33423777;78993871
33435278;79058312
33427056;79114797
33426589;79119452
33434322;79051909
33426547;79116973
33442239;79169734
33447174;79174178
33443683;79175693
33434247;79050386
33434564;79055181
33434080;79056252
33441414;79268255
33443630;79175649
33453014;79280029
33445496;79141617
33445837;79142049
33446258;79084948
33436801;79087067
33430909;79087259
33446271;79084946
33438952;79093485
33438746;79093667
33438651;79093542
33429496;79132585
33439351;79219047
33451792;79218188
33435164;79067173
33410516;79071860
33410620;79071901
33410742;79071994
33411160;79072534
33441526;79268987
33452102;79227579
33452420;79231321
33410438;79071823
33442628;79073397
33411490;79072671
33440645;79075996
33426954;79113926
33425313;79119888
33429350;79122860
33429604;79123091
33404909;78990771
33418645;78993234
33419054;78993162
33422865;79005198
33424171;79007579
33416780;79006956
33424353;79007951
33427573;78989354
33430204;78990023
33405296;78990907
33418924;78993490
33406653;78992110
33421195;78992967
33418434;78993097
33415314;79027933
33457091;79284245
33419980;79055885
33409674;79071396
33410930;79072031
33411401;79072627
33415769;79027822
33417689;79034744
33417371;79035806
33452539;79206543
33443516;79070358
33411823;79072807
33426747;79113778
33421494;79077540
33447487;79170831
33429104;79154227
33437656;79160230
33438033;79161504
33447092;79163677
33448412;79185453
33432082;79096370
33436242;79095763
33438883;79094144
33457211;79284365
33457113;79284267
33438664;79093573
33436222;79096999
33413728;79097506
33423545;79099701
33436960;79089172
33431953;79090868
33449786;79126541
33450196;79128153
33452393;79231303
33455588;78605252
33442270;79169780
33423070;79033154
33441615;79269064
33441372;79268219
33441235;79269452
33439522;79220221
33451585;79223246
33451521;79223179
33439258;79222188
33428491;79030245
33428272;79033954
33452672;79234724
33457489;79289437
33452535;79206541
33457540;79289488
33447728;79101905
33441288;79267994
33441532;79268997
33442243;79169736
33442783;79155946
33447044;79163651
33414238;79029952
33423164;79032468
33417324;79034663
33428477;79035208
33443903;79178295
33447902;79185829
33454189;79257030
33452847;79251499
33423506;79096802
33420355;79049617
33434396;79052056
33449609;79208616
33447318;79170645
33447467;79170819
33452309;79231222
33428958;79154079
33453348;79243935
33437578;79160204
33447134;79163731
33453717;79185382
33453692;79185329
33441582;79269040
33442901;79177100
33453732;79185387
33448376;79185599
33448200;79187349
33444828;79080503
33453866;77754564
33457454;79289402
33430576;78998602
33453769;77739398
33430309;78999046
33455002;78315370
33449063;79211883
33449453;79212242
33451179;79215100
33449081;79211909
33415870;79076623
33440497;79077167
33421929;79079489
33445721;79141866
33445476;79141658
33449094;79211899
33451368;79214043
33451248;79215163
33446016;79142236
33446085;79143934
33444333;79147292
33451145;79215060
33453759;77739385
33423862;78994075
33418663;78993681
33419513;79017886
33455096;78315463
33401352;79040156
33424967;79038859
33402567;79040532
33419644;79016742
33314714;79041366
33401873;79040309
33315272;79041468
33001950;79041170
33419108;78993422
33430897;78998928
33433325;78995097
33433235;78995737
33426023;78999297
33430591;78998625
33454123;79257016
33433386;78995087
33430489;78998508
33430541;78998564
33419762;79018786
33444929;79081199
33417845;79035574
33001959;79041171
33457266;79288256
33442382;79146726
33428875;79036201
33402604;79040095
33454272;79257361
33453133;79257711
33429594;79123051
33425359;79123364
33429648;79122787
33433755;79016167
33425672;79126038
33433798;79017388
33433864;79017691
33450334;79193801
33449186;79211986
33400655;79039979
33401822;79040291
33442399;79146667
33454382;79257380
33444347;79147297
33435656;79061822
33418347;79081723
33454439;79258241
33418805;78993747
33454392;79257389
33403149;79040706
33456612;78965554
33430963;79020130
33434911;79058800
33401933;79040065
33435383;79060241
33444890;79081161
33314960;79041426
33435745;79061910
33456630;78965668
33456661;78965701
33456818;78965859
33444652;79080317
33401833;79040318
33435628;79061802
33456704;78965747
33456732;78965775
33456776;78965818
33456609;78965551
33456671;78965711
33439984;79237526
33425605;79125353
33425344;79123350
33425355;79123361
33425559;79124412
33431775;79104884
33429353;79122858
33438507;79123712
33440002;79237528
33431660;79104018
33438552;79123756
33438534;79123742
33429641;79122777
33425140;79124682
33456607;78965549
33431752;79104796
33440113;79237637
33454283;78019937
33454655;78038655
33408079;79001393
33406842;78999928
33408736;79003692
33408900;79003762
33407114;79000196
33430773;79000388
33430858;79000591
33408343;79001493
33431287;79020996
33431057;79020893
33431264;79020978
33430767;79000383
33430832;79000516
33428021;79004553
33428072;79004761
33431340;79020510
33441713;79063508
33431173;79020760
33438212;79045254
33431351;79020525
33431182;79020770
33440930;79106057
33440355;79239873
33446914;79151586
33407288;79000257
33422577;79004058
33428069;79004608
33435028;79067065
33435085;79067114
33446361;79085003
33446441;79085070
33429540;79126967
33429427;79136667
33431582;79105746
33446284;79084932
33431938;79090100
33450024;79130575
33429757;79129722
33433024;78986107
33427851;79005395
33415774;79027829
33423197;79032506
33419129;78993317
33442265;79169763
33427677;78989066
33421158;78992930
33438979;79091540
33421686;79009644
33446817;79151498
33430154;78989922
33406080;78991939
33423859;78994789
33433310;78995508
33421478;78992671
33435858;79068535
33409563;79071347
33435972;79069502
33425468;79123406
33440602;79075963
33437752;79160255
33427561;78989445
33441005;79106111
33428174;79026043
33415155;79026684
33426176;79026969
33433950;79017072
33419724;79016794
33420423;79049719
33434453;79050427
33446643;79138415
33455609;78605273
33455802;78613259
33455313;78604334
33447418;79170737
33442273;79169758
33425821;79025741
33443661;79175670
33412109;79028464
33415541;79031527
33428443;79035017
33428876;79036203
33400019;79036408
33331162;79036401
33419996;79055898
33442001;79155315
33435840;79058533
33439831;79099019
33432804;79012177
33456913;79284052
33431333;79020507
33428574;79026240
33432879;79013222
33446802;79151467
33446941;79151569
33450494;79197834
33429756;79129721
33444007;79133887
33429375;79132880
33441104;79106569
33432067;79106997
33444070;79134442
33420819;78983276
33444053;79134341
33445635;79141749
33445718;79141865
33428909;79143812
33445618;79141726
33439447;79219124
33439390;79219063
33439102;79220410
33440329;79239822
33422515;78988466
33434716;79054773
33445199;79200031
33437202;79203273
33451620;79223271
33451823;79218203
33451835;79218189
33456973;79284111
33457032;79284170
33452483;79206507
33433154;78986408
33405467;78991780
33405735;78991843
33430247;78990085
33419451;79049317
33429363;79122811
33423193;79032498
33417651;79031907
33428286;79033965
33428571;79026238
33415463;79026665
33409725;79071407
33417830;79034900
33438344;79074617
33442420;79072883
33413676;79029197
33414236;79029951
33428218;79033866
33444616;79151057
33429109;79154234
33431948;79090738
33449647;79129095
33412095;79028452
33415773;79027827
33436654;79042962
33431050;79020349
33412206;79030575
33415589;79031550
33413635;79032640
33443541;79070373
33410377;79071559
33410926;79072028
33432900;79012503
33432792;79012159
33413563;79006420
33424422;79008268
33417154;79035541
33452340;76777293
33429469;79136818
33447502;79170839
33457362;79289311
33457011;79284149
33423307;79093887
33438782;79093636
33452517;79206567
33428416;79025362
33448527;79184784
33450700;79158049
33441344;79268062
33454040;79255257
33456243;79254246
33447874;79185824
33440751;79186291
33447937;79185872
33429169;79140616
33418966;78993435
33455401;78604427
33456012;78613471
33447380;79170743
33455813;78613271
33420863;78983306
33420903;78983352
33440539;79075915
33416523;79076979
33440565;79075918
33416441;79077889
33443086;79180320
33449070;79211878
33449180;79212009
33441333;79268046
33441469;79268952
33455086;79223699
33426942;79112567
33446606;79138285
33446722;79142454
33450384;79197749
33452530;79206582
33449564;79208178
33439599;79050862
33439636;79050867
33434604;79055195
33456058;79246487
33429372;79132882
33429721;79132806
33422643;79004954
33416787;79006961
33424464;79008064
33448439;79185461
33411588;79071619
33410329;79071781
33442660;79075595
33400353;79036478
33451308;79213677
33449289;79212094
33428877;79118625
33441922;79155194
33429247;79143609
33426123;79031069
33417731;79031948
33417673;79031899
33417363;79035783
33453871;79253407
33454071;79255271
33454137;79255349
33431986;79095343
33431633;79099316
33442839;79168268
33414368;79100748
33440165;79099908
33414533;79103593
33431750;79104795
33457174;79284328
33446621;79138401
33455098;78315465
33433395;78996527
33430416;78998944
33433375;78996333
33454044;79255274
33445924;79142136
33430671;78998385
33440477;79077164
33418848;78993790
33433571;79014746
33419001;79016670
33445519;79141627
33442406;79146673
33449356;79212152
33449152;79211964
33438556;79123736
33425401;79123115
33425216;79124734
33442408;79146674
33432495;78994564
33453943;77754641
33444720;79080385
33442361;79146728
33425204;79124725
33454204;79257042
33430695;78998392
33430679;78998752
33430433;78998957
33430354;78998438
33430935;79020119
33433392;78996555
33453143;79257698
33454455;79258281
33448697;79211079
33451284;79213665
33437439;79188767
33325275;79036227
33449171;79211980
33434925;79059001
33444722;79080426
33434164;79017247
33419824;79018138
33419283;79018988
33457440;79289388
33457491;79289439
33433884;79017707
33435668;79061852
33435667;79061825
33422286;79082888
33422291;79082892
33435694;79061842
33435584;79061769
33435612;79061801
33450328;79193814
33445211;79194389
33420251;79062423
33420183;79062362
33441812;79062240
33425648;79125528
33454353;78020007
33454428;78020082
33454333;78019987
33441690;79063476
33441682;79063487
33432965;78982920
33420956;78983489
33431211;79020923
33432308;78981915
33408808;79000065
33449951;79126717
33432313;78981925
33407322;79000280
33403642;78982450
33403744;78982481
33441728;79063517
33431181;79020769
33407297;79000261
33415108;79001122
33407670;79000020
33432217;79108445
33453580;79260474
33444628;79151042
33446952;79151597
33440958;79106059
33440227;79238187
33409285;79000094
33408193;79001430
33408202;79001432
33408483;79001546
33444634;79151062
33409210;79003890
33409304;79003937
33428415;79025360
33430890;79000658
33436738;79088828
33446919;79151563
33408189;79001436
33428065;79004592
33438763;79093629
33406249;78991991
33456988;79284126
33422647;79004960
33424466;79008083
33429016;79154189
33444412;79147372
33444409;79147347
33440393;79239891
33455524;79239302
33453367;79243938
33405279;78990904
33444105;79134451
33432478;78985443
33444991;79199839
33445148;79199989
33411405;79071602
33410399;79071810
33409675;79071395
33455656;78605326
33443825;79175815
33452585;79206618
33410404;79071811
33410312;79071554
33439044;79091603
33413180;79006127
33416903;79005955
33406342;78992013
33446143;79084774
33446492;79085128
33446341;79084986
33436785;79088886
33439009;79091554
33423142;79093852
33449595;79208213
33434543;79051543
33424351;79007946
33424283;79008230
33424417;79008262
33432682;79011323
33421726;79011861
33452337;76777289
33415850;79031728
33455060;79223681
33412899;78984919
33413385;78985023
33426366;79034315
33411937;79072838
33455693;78605363
33442237;79169746
33453396;79243968
33426363;79034314
33417177;79034956
33426722;79112904
33434585;79055130
33452014;79227495
33452116;79227609
33403344;79048599
33435261;79058300
33419440;79049311
33438164;79045050
33456970;79284108
33412730;79048285
33436986;79089223
33438882;79094187
33438840;79093699
33438918;79094195
33403844;78982522
33403974;78982563
33430076;78990958
33454717;79235491
33406439;78992058
33451294;79213656
33452226;79225496
33451954;79229240
33431614;79099268
33427644;78989645
33406254;78991996
33414349;79100746
33447717;79101913
33442486;79072949
33438266;79074547
33455553;78605217
33455775;78613231
33432373;78985654
33447191;79172249
33443586;79175600
33434541;79051510
33440966;79106071
33421204;78992972
33431945;79090117
33436972;79089186
33413550;79006407
33424416;79007441
33432815;79012206
33432703;79011479
33432509;78994574
33432575;78994553
33446212;79084867
33438764;79093630
33455859;79197421
33439136;79220434
33435228;79058276
33452439;79206472
33443817;79176637
33430848;79000581
33407487;79001156
33430766;79000381
33425957;78999775
33430758;79000379
33407739;79001261
33432842;79012713
33450211;79127441
33449665;79129136
33435884;79068511
33439314;79223943
33428605;79035393
33430198;78989992
33406081;78991940
33442987;79177164
33436809;79087071
33449642;79129090
33421776;79009404
33456902;79283657
33433521;79014869
33412663;79048130
33411801;79071637
33404045;78982628
33449513;79212305
33401849;79040060
33451333;79214005
33449593;79208223
33449052;79211863
33450918;79212838
33412969;78984962
33412859;78984862
33454818;79236357
33454945;78315313
33441788;79061008
33447280;79170638
33426595;79119497
33426892;79119707
33439763;79098047
33457026;79284164
33430546;78998562
33430521;78998541
33418627;78993221
33419090;78993401
33421830;79008738
33414726;78988798
33448649;79207052
33427021;79114764
33424700;79008141
33431890;79107631
33441007;79106114
33438749;79093669
33450984;79216712
33454177;79257015
33416292;79079131
33446982;79151627
33444837;79080483
33445549;79141647
33445957;79142169
33442220;79144476
33442222;79144481
33444265;79147220
33402355;79040462
33447966;79188097
33434765;79054867
33456958;79284096
33429397;79136617
33445653;79141802
33447664;79100624
33436396;79191054
33444916;79081179
33444909;79081189
33433421;78996535
33450134;79130649
33445147;79200020
33445185;79200012
33415911;79076656
33440286;79238239
33435404;79060177
33435560;79060356
33001844;79041143
33452281;79231241
33447574;79178064
33443361;79182051
33447947;79188124
33449076;79211887
33449433;79212231
33426752;79113783
33420057;76495396
33431354;79020530
33441047;79106532
33432937;78982862
33442832;79157687
33437917;79160330
33437978;79161416
33442127;79161990
33426798;79109190
33438634;79219360
33439272;79222193
33435403;79060176
33436699;79087616
33443854;79177820
33434566;79055118
33435950;79069391
33431439;79021194
33456750;78965793
33402349;79040460
33440122;79237639
33426528;79112206
33445077;79199914
33437323;79203503
33442117;79155413
33452819;79232259
33456760;78965802
33456767;78965809
33453043;79280062
33444717;79080406
33453076;79280085
33452804;77036821
33449256;79212070
33409080;79003842
33432193;79108026
33446815;79151514
33436677;79088085
33444453;79147398
33446767;79151422
33451121;79215035
33451151;79215059
33446263;79084910
33454577;79260808
33453649;79260524
33427646;78989375
33404712;78990615
33434452;79052117
33426580;79112223
33456939;79284077
33436501;79042839
33436083;79069614
33409530;79071327
33450501;79197872
33408583;79000052
33419434;79049308
33454803;78052259
33403443;79048629
33440222;79238183
33455704;79239395
33440292;79238243
33453796;79242673
33404417;78982760
33404073;78982570
33455260;79239156
33444431;79147375
33454647;78038647
33454292;78019946
33432282;78981836
33451687;79217019
33443986;79133890
33449607;79208627
33428004;79024184
33444397;79147350
33444535;79147477
33429765;79132489
33438940;79091365
33429413;79136643
33452689;79234729
33446133;79084817
33455379;79239229
33429404;79136620
33448432;79185448
33441471;79268954
33443879;79178274
33447646;79178159
33415697;79031630
33455942;78613400
33455526;78605190
33455988;78613447
33434412;79052076
33434064;79056216
33447667;79100658
33414468;79100981
33450841;79164202
33438579;79219342
33429510;79125712
33456872;78965915
33456707;78965750
33452864;79251508
33423157;79032451
33441566;79269045
33444483;79147428
33448159;79187326
33448180;79187334
33417930;79083277
33437916;79160329
33451525;79223164
33423132;79029441
33413679;79029199
33443332;79183626
33451512;79223161
33451537;79223194
33446455;79085141
33446289;79084975
33450365;79197745
33437187;79203216
33423252;79093761
33430239;78990061
33414701;78988721
33415308;79027926
33437708;79160223
33447892;79185859
33448283;79187770
33450223;79127403
33418920;78993485
33438945;79091388
33417849;79035578
33428735;79035971
33453239;79262301
33451562;79223248
33452210;79225489
33426149;79031289
33415613;79031560
33437041;79089252
33452979;79279983
33442095;79155385
33418378;79079024
33454232;79245434
33445705;79141870
33442223;79144497
33454300;78019954
33407120;79000200
33449850;79126610
33432944;78982888
33454468;78020122
33446075;79142273
33441584;79269042
33441387;79268238
33454488;78020142
33407368;78999999
33434997;79067041
33445433;79141587
33418791;78993738
33451238;79215151
33449606;79208626
33451322;79214001
33453985;77754686
33431060;79020897
33427958;79023998
33441045;79106534
33441113;79106566
33451451;79216267
33456584;78965526
33425390;79123108
33330234;79036569
33404795;78982601
33431197;79020805
33451849;76509460
33440893;79106038
33408353;79001503
33422887;79004369
33454138;79255327
33453164;79257732
33433369;78996325
33433330;78995113
33433968;79017165
33433878;79017705
33455398;79239237
33433463;78996421
33433670;79014995
33314880;79041406
33435618;79061790
33435700;79061895
33445249;79194416
33452759;79235832
33456722;78965765
33453019;79280070
33438549;79123757
33406646;78992108
33406040;78991930
33451731;79217094
33439130;79220425
33406753;78992147
33435890;79068552
33404166;78982680
33451569;76501624
33454223;78015817
33419144;78993302
33447451;79170779
33447463;79170817
33442793;79155964
33418571;78984688
33427653;78989382
33447131;79163727
33426523;79112203
33447098;79163717
33450418;79197804
33416791;79006965
33421595;79009531
33448662;79207065
33425512;79123157
33427223;79116763
33437596;79120649
33440973;79106034
33452270;79231198
33442133;79161997
33450744;79164086
33426863;79112727
33441907;79155197
33454812;79236358
33443369;79183641
33454741;79235519
33443024;79177192
33441490;79268963
33441508;79268983
33434300;79051870
33435238;79058282
33441413;79268254
33447407;79170751
33443639;79175642
33453510;79253272
33454061;79255284
33445609;79141728
33423846;78993933
33437128;79203100
33445590;79141695
33445952;79142168
33442044;79155307
33455922;78613380
33447349;79170700
33448133;79190089
33417960;79083302
33417382;79035812
33433810;79017421
33429579;79123029
33453906;77754604
33421974;79077793
33325283;79036358
33435118;79067142
33434613;79055216
33315371;79041496
33448108;79190121
33451265;79215167
33451483;79216385
33425253;79118613
33416849;79007021
33452027;79227548
33452807;79232252
33435957;79069412
33451700;79217074
33434310;79051900
33439052;79091620
33452557;79206583
33418683;78993347
33457402;79289351
33450625;79157977
33449311;79212101
33442258;79169782
33452378;79231291
33439835;79099026
33441933;79155237
33410808;79071970
33428523;79035366
33442593;79073045
33436265;79097021
33439634;79050901
33409065;79003832
33444241;79147193
33422371;79082985
33442885;79177085
33443849;79177818
33447864;79185802
33448530;79184744
33452706;79234771
33449817;79126557
33412523;79049143
33445555;79141652
33441305;79268032
33441601;79269061
33454103;79255298
33435500;79060290
33441939;79155245
33447862;79185799
33449611;79208609
33449551;79208170
33445969;79142173
33445920;79142159
33451532;79223182
33444134;79134494
33452739;79234798
33437126;79203079
33423427;79095782
33450996;79216713
33457020;79284158
33434535;79054989
33436231;79095758
33447281;79170669
33447473;79170824
33439910;79098862
33444865;79081146
33455035;78315403
33431872;79105877
33436502;79042838
33406942;79000132
33432672;79011259
33449689;79129112
33453277;79262295
33439014;79091583
33452536;79206593
33449622;79208631
33432852;79012728
33455685;78605355
33430183;78989947
33450359;79197726
33435122;79067145
33436067;79069585
33411416;79072640
33438250;79074532
33422711;79005029
33429784;79129792
33456059;78623821
33413650;79032648
33406237;78991989
33409517;79071319
33410713;79071945
33442259;79169783
33456035;78623796
33444711;79080372
33441145;79105351
33431808;79090680
33455574;78605238
33453544;79253298
33436338;79191041
33414956;79003139
33407685;79001226
33403818;78982508
33421048;78983389
33404322;78982763
33436514;79042863
33432484;78985454
33446837;79151507
33415583;79031546
33415879;79076631
33424403;79008257
33432789;79011650
33442446;79072893
33438318;79074599
33447136;79163711
33440417;79240102
33440247;79238218
33455206;78321028
33446330;79084988
33446155;79084850
33410528;79071879
33442505;79072970
33457096;79284250
33422710;79005031
33447973;79188135
33431714;79104203
33436855;79088941
33436877;79088961
33426746;79113777
33419788;79049411
33455525;78605189
33423308;79093889
33445953;79142194
33445926;79142131
33452599;79206615
33452573;79206619
33451113;79213192
33444972;79199826
33445146;79200019
33435024;79067059
33431061;79020898
33407104;79000191
33408457;79001540
33428549;79026196
33436055;79069565
33452560;76784686
33453891;77754589
33420554;79049996
33450565;79157924
33447066;79163689
33439725;79097962
33407764;79001269
33412664;79048129
33446838;79151480
33457197;79284351
33447816;79102560
33430672;78998388
33432662;79011256
33429509;79125711
33453065;79280088
33447789;79102541
33416110;79078216
33422275;79082870
33429295;79123087
33429578;79123028
33438512;79123715
33411780;79071634
33446872;79151544
33449643;79129092
33452323;79231263
33451258;79215172
33451273;79215170
33445902;79142150
33445795;79141951
33433697;79015016
33406761;78992152
33433648;79016037
33453953;77754652
33447146;79163747
33427680;78989072
33447645;79178158
33449219;79212027
33449614;79208614
33448918;79208750
33453674;79260567
33440548;79075905
33424432;79008277
33438613;79219365
33418366;79083145
33451042;79215900
33451399;79216215
33421377;78992628
33430350;78998434
33453756;77739382
33448898;79208729
33442779;79155972
33437939;79160335
33442118;79155414
33449889;79126627
33453747;77739370
33408451;79001537
33417691;79034747
33454829;78195788
33442590;79073035
33438395;79120711
33420358;79049619
33420749;79055941
33434719;79054774
33413917;79029046
33452391;76777345
33452586;76784731
33434688;79054745
33424205;79007612
33433881;79014185
33445497;79141618
33446041;79143923
33447495;79170813
33428734;79026148
33432903;79012505
33434998;79067043
33417686;79034851
33426415;79028537
33413655;79032834
33426161;79031315
33428858;79036147
33426960;79114577
33427186;79116652
33455153;79226312
33426965;79114581
33429587;79123042
33457330;79289280
33455151;79226310
33452058;79227540
33426721;79112901
33413424;79006509
33446286;79084933
33446469;79085110
33436676;79087928
33439513;79220216
33439442;79219084
33413277;78985139
33423586;79096010
33450003;79130527
33420901;78983351
33432352;78985361
33425790;78987662
33430050;78990975
33421126;78992653
33446974;79151629
33447260;79170609
33443689;79175713
33440886;79106037
33440961;79106069
33445145;79200018
33453355;79243943
33454049;79255270
33450236;79127409
33443478;79070340
33452576;76784702
33434672;79055226
33429073;79154200
33434916;79058988
33434664;79055194
33449463;79212248
33451250;79215133
33452169;79227664
33451977;79229255
33443985;79133874
33447839;79102546
33420668;79053250
33443531;79070364
33427107;79115840
33451924;79229068
33436134;79095681
33452449;79206524
33436072;79069588
33411223;79072571
33430017;78991302
33408611;79000057
33447273;79170619
33457074;79284228
33408543;79003616
33447025;79163642
33430439;78998962
33453876;77754574
33454477;79258286
33416338;79079172
33448731;79211267
33449508;79212303
33449196;79212003
33451356;79214034
33451348;79214040
33433327;78995085
33433405;78996530
33440068;79237593
33401879;79040335
33457510;79289458
33418164;79080709
33438479;79123687
33448017;79188143
33438528;79123722
33451204;79215129
33001843;79041141
33448205;79187356
33402745;79040567
33315473;79041505
33449251;79212064
33433267;78995383
33430751;78998988
33453157;79257729
33314921;79041416
33416574;79079068
33433964;79017166
33435781;79062756
33435523;79060334
33436343;79191077
33441740;79060959
33422903;79093808
33439735;79097970
33407886;79001308
33454939;79223634
33450239;79127425
33432702;79011469
33422289;79082897
33444270;79147221
33452885;79251532
33404898;78990770
33408945;79003769
33425893;78999632
33439120;79220443
33435875;79068523
33432150;79090302
33428882;79130956
33446930;79151579
33440996;79106104
33410462;79071836
33444444;79147385
33455290;79239177
33441948;79155249
33450691;79158069
33436918;79089003
33430258;78990108
33430259;78990109
33440866;79105973
33432878;79013233
33433698;79015018
33414671;78988688
33437286;79203385
33447043;79163670
33445506;79141688
33452418;79231333
33455267;79239159
33452249;79230137
33441586;79269050
33452029;79227535
33443266;79183611
33429843;79132728
33444110;79134487
33422889;79004371
33453359;79243923
33440747;79186304
33428965;79154109
33445550;79141648
33445568;79141677
33415310;79027929
33413781;79029021
33437990;79161467
33450885;79164237
33440505;79077197
33446674;79140121
33445956;79142172
33446729;79142458
33449074;79211896
33417720;79078733
33444364;79147308
33433276;78995374
33444853;79080502
33444650;79080315
33422015;79082759
33423930;78994820
33430462;78998982
33447984;79188106
33435561;79060358
33435354;79058388
33445234;79194409
33456783;78965825
33435396;79060173
33425131;79124573
33435803;79062765
33456588;78965530
33456738;78965781
33430458;78998980
33456589;78965531
33445216;79194380
33431141;79020422
33429907;78983932
33434996;79067042
33454500;79260602
33446950;79151594
33440903;79106011
33439545;79048713
33429206;79143565
33451715;79217080
33450298;79127464
33432348;78985552
33450245;79127416
33431454;79087548
33408361;79001505
33450818;79164156
33429434;79136673
33441521;79269010
33431487;79090521
33448479;79184712
33416284;79079123
33434855;79053943
33420666;79053247
33433699;79015020
33433806;79017392
33430875;79000623
33408080;79001394
33445040;79199888
33430308;78999047
33430534;78998553
33435486;79060275
33407993;79001352
33408947;79003770
33446163;79084832
33434051;79056211
33420660;79053241
33406447;78992051
33450053;79130579
33434832;79057889
33455893;78613351
33440749;79186292
33445612;79141719
33445734;79141900
33409909;79071479
33441730;79063518
33430825;79000493
33413555;79006411
33424709;79008149
33424582;79008464
33411136;79072113
33413009;78984982
33449900;79126662
33450180;79128149
33428697;79030259
33423151;79032403
33437907;79160341
33437700;79160249
33413622;79006746
33414763;78988816
33453537;79253324
33448000;79188119
33414881;78988889
33405443;78991771
33435264;79058314
33438771;79093694
33456996;79284134
33453771;77739400
33423852;78993939
33444862;79080536
33400738;79039960
33417713;79078721
33402013;79040356
33448112;79190085
33425885;78999623
33409477;79000103
33430821;79000471
33425974;78999918
33404070;78982657
33449893;79126631
33444391;79147346
33444513;79147453
33415747;79031653
33412046;79030786
33409984;79071499
33438844;79093701
33450488;79197829
33452213;79225485
33414543;79103604
33427744;79004461
33411784;79072802
33448691;79211070
33414301;79100839
33441918;79155228
33429166;79140593
33425811;78999115
33433357;78996318
33444658;79080319
33429346;79122722
33426380;79034536
33455410;78604437
33454228;79245400
33400712;79039971
33450058;79130566
33442998;79177173
33450599;79157942
33438057;79161458
33444696;79080387
33432283;78981839
33427955;79023996
33427995;79024176
33404879;78990765
33445937;79142139
33442192;79144488
33446964;79151602
33430235;78990048
33438629;79219381
33438622;79219376
33412765;79048973
33419812;79018127
33433985;79017176
33445095;79199936
33401875;79040308
33402751;79040569
33454161;79257007
33448152;79190594
33434132;79016615
33450916;79164249
33419336;79019075
33430943;79020125
33435597;79061766
33435790;79062795
33440082;79237624
33446851;79151484
33408050;79001378
33414960;79003141
33428675;79025567
33438208;79045263
33446663;79147923
33325359;79036371
33455820;78613278
33431277;79020986
33455721;79239386
33416863;79007029
33417065;79007109
33426367;79034316
33441585;79269048
33441221;79267607
33440652;79077122
33429148;79130990
33446176;79084838
33437056;79089265
33429917;78989807
33406537;78992085
33448608;79108801
33450828;79164159
33412736;79048960
33452732;79234778
33448422;79185462
33437223;79203299
33437510;79120642
33428884;79143779
33437123;79203090
33437490;79120609
33415242;79026821
33442146;79161981
33414531;79103592
33450552;79157906
33437768;79160262
33437842;79160291
33441302;79268001
33442358;79146703
33449109;79211919
33440968;79106031
33434721;79054777
33411186;79072552
33417764;79078765
33418266;79081017
33432440;78994244
33444248;79147201
33457015;79284153
33441587;79269051
33449454;79212243
33443202;79183566
33418475;78992999
33456254;79254260
33436012;79069534
33411565;79071633
33452868;79251511
33441496;79268985
33430335;78998422
33433850;79017622
33435586;79061749
33444845;79080519
33419139;78993296
33423973;78994901
33432992;78982908
33408403;79001522
33449427;79212209
33453886;77754584
33444167;79138973
33440964;79106021
33430845;79000570
33408115;79000041
33418116;79080791
33455140;78319606
33455205;78321027
33437097;79203093
33413205;78985059
33325335;79036365
33424596;79037037
33454118;79255317
33433391;78996522
33435706;79061900
33410769;79071982
33411019;79072068
33435444;79060272
33420644;79053199
33434833;79057878
33429068;79125888
33431870;79105871
33427723;79003566
33428150;79025231
33444395;79147336
33438203;79045260
33436867;79088943
33432917;78982850
33446418;79085053
33437005;79089254
33445131;79199970
33445061;79199901
33413876;79028995
33447479;79170828
33439152;79220453
33457190;79284344
33426680;79119647
33425599;79119966
33426599;79119504
33452510;79206519
33430107;78989861
33413429;79006513
33445137;79199978
33421305;78992525
33406711;78992130
33432845;79012719
33448351;79185585
33424597;79008485
33428746;79030261
33452677;79234748
33437010;79089220
33437061;79089268
33423233;79093744
33451300;79213668
33423275;79093780
33419637;79016721
33436011;79069542
33409553;79071340
33429864;79132766
33441023;79106509
33441032;79106543
33443540;79070372
33410282;79071761
33414878;78988886
33424710;79008157
33421706;79011962
33430101;78991012
33420919;78983572
33432350;78985566
33409710;79071391
33404782;78990640
33441261;79267987
33439169;79220498
33428206;79033864
33415638;79031592
33452578;76784704
33430065;78990133
33406109;78991947
33450908;79164267
33434700;79054756
33437391;79179612
33442902;79177104
33435330;79058373
33451688;79217020
33410829;79071950
33410623;79071902
33433537;79014888
33448440;79185446
33405171;78990872
33406458;78992053
33421290;78992509
33421619;79009590
33418628;78993224
33418743;78993701
33417216;79031915
33426143;79031278
33452549;79206575
33411431;79072650
33426693;79112355
33421884;79078517
33441937;79155221
33450619;79157971
33437612;79160191
33438916;79094193
33439722;79097960
33436891;79088972
33451955;79229220
33456082;78623844
33455467;78604494
33415267;79027952
33455013;79223653
33413953;79029070
33426980;79109292
33448371;79185600
33443696;79175719
33423053;79033142
33420499;79049937
33454145;79255347
33420545;79049981
33437151;79203140
33437351;79203565
33451907;79229015
33427191;79116662
33446076;79143930
33454109;79255302
33454059;79255259
33448984;79208807
33415983;79076759
33448008;79188139
33451182;79215076
33444302;79147247
33416314;79079148
33444815;79080464
33444758;79080400
33444893;79081164
33422260;79082854
33325358;79036370
33401912;79040062
33416470;79079229
33417667;79035551
33401531;79040213
33430545;78998560
33433456;78996414
33419303;79019030
33448340;79187837
33454316;79257362
33456616;78965558
33434831;79057882
33401342;79040152
33435630;79061791
33448291;79187797
33435608;79061763
33435654;79061816
33401642;79040243
33435800;79062791
33424831;79038548
33435799;79062789
33452777;79235824
33440134;79237651
33425047;79125246
33429063;79125882
33438557;79123737
33456565;78965502
33410040;79000129
33429389;79126931
33435037;79067069
33431327;79021047
33436601;79042916
33440913;79106003
33428157;79025241
33438140;79044833
33436598;79042938
33455287;79239175
33403451;79048511
33429663;79130965
33441004;79106054
33405967;78991895
33421235;78992343
33406255;78991995
33412812;78984844
33433179;78986928
33440454;79240123
33403697;78982468
33421680;79009631
33436875;79088955
33439201;79220470
33422302;78993671
33409801;79071433
33454908;79223503
33415171;79076806
33418412;78984443
33404650;78990594
33446269;79084945
33433500;79014861
33434614;79055157
33443672;79175686
33411554;79071614
33415531;79031515
33437802;79160278
33427748;79004464
33431573;79087578
33441453;79268329
33440931;79106012
33423690;78984416
33444518;79147456
33405843;78991874
33439367;79219042
33451806;79218200
33455495;79239285
33438590;79219328
33437150;79203139
33439148;79220432
33450014;79130536
33412794;79048981
33413987;79029748
33432716;79011473
33409884;79071466
33411674;79072734
33442812;79074990
33426444;79112107
33428552;79026215
33415788;79027891
33415561;79031542
33410513;79071850
33415013;79026466
33451622;79223257
