NUMERO_POLICES;NUMERO_QUITTANCE
77100146;73558546
77100184;73560383
77100207;73561205
77101336;80131179
77104774;78137934
77105116;78425231
77105212;78590518
77105261;78820251
77104851;78816867
77104872;75896694
77109115;
77100205;73561178
77102931;74581960
77104802;77974536
77104803;77974537
77104804;77974538
77105041;78238288
77107558;80208942
77105150;78820162
77105151;78820163
77105152;78409780
77101262;76456373
77105156;78409777
77105157;78481849
77105158;78481850
77105159;78820166
77109113;78338040
77105161;77891779
77105193;78820185
77105195;78820186
77105196;78820187
77105197;78820202
77109908;78936712
77105199;78820209
77105200;78820188
77105208;78820197
77110003;78946620
77105210;78820200
77105262;78820252
77105263;78820253
77105265;78820267
77105266;78820268
77105267;76131851
77100808;79402379
77104869;78814934
77104964;75897346
77104965;75897347
77104967;78821125
77104969;78821101
77108573;78009501
77105074;78104981
77101782;73810163
77102714;74577818
77101234;80036783
77104763;78397108
77104764;78397077
77104766;75894048
77109200;78342370
77105058;78104978
77105059;78104982
77105060;78104979
77105067;77810895
77102522;76948966
77104024;77918257
77105072;78104977
77105078;75897963
77105081;78400349
77109344;78615046
77105091;78400355
77105148;78409783
77103305;77404370
77105162;78820170
77110523;79293836
77105166;78409773
77108478;77754102
77108477;77754100
77111922;80236110
77104879;78814957
77102268;76948549
77104881;78814959
77104883;78814961
77104884;78814962
77104886;78814964
77104887;78814966
77100535;79404959
77104889;78814967
77104892;78814970
77109139;80238527
77104894;78821047
77104896;78821049
77110362;78963471
77104899;78821052
77104900;78814973
77104901;78814972
77104903;78814975
77110696;79312778
77104911;78821046
77108751;78309323
77104913;75896755
77104783;78137940
77104301;78002702
77103171;77229563
77104791;78295333
77104796;78295335
77105042;78262320
77105093;78570117
77105094;78400362
77105118;78425232
77105119;78425233
77105121;78485649
77105202;76131517
77105204;76131598
77105205;78820195
77104974;75897422
77104975;78821112
77104977;78821097
77111395;79907323
77104985;75897456
77104995;75897567
77104996;78821131
77105035;75897863
77100087;75051303
77104602;75891196
77100089;75283191
77100090;73550905
77100091;73550908
77101531;80132591
77100118;73552199
77103911;78261049
77104785;78433880
77104770;78137919
77104808;78197538
77102895;74581671
77104812;78197534
77104813;78197543
77104814;78197536
77104815;78197531
77104816;78197542
77104818;78197535
77104819;78197544
77105171;78409765
77105172;78409764
77105173;78409769
77105174;78409768
77105175;78820175
77110649;79309249
77105180;78820176
77101410;80131266
77105183;78590517
77105184;78590609
77110718;79316018
77112620;80873675
77105187;76131404
77105188;78820182
77105189;78820192
77100324;79404462
77100915;78365127
77102557;76949044
77106746;76779172
77100584;79404979
77104945;78821086
77112355;80839360
77104947;78821082
77112123;80269033
77102842;74581183
77104952;75897298
77102305;76948790
77104954;78821115
77111280;79904645
77104958;78821103
77104959;75897319
77104960;78821094
77110163;78957910
77104963;75897344
77105831;79216080
77104870;75896692
77104916;75896761
77104918;78821062
77104919;78821063
77104920;75896771
77110903;79612039
77104923;78821055
77102326;76948777
77104926;78821067
77108683;78045476
77101927;80749836
77103353;77481103
77100178;78375257
77104866;78814930
77104420;78174736
77104422;75889140
77109288;78350357
77104425;75889160
77104426;78174742
77104696;78420771
77104697;75892387
77109718;78653816
77104699;75892390
77104703;75892415
77104704;75892421
77104706;78420777
77104709;75892469
77104710;78420780
77104711;75892471
77104714;75892474
77104715;75892495
77104716;75892498
77104717;78420790
77110113;78953431
77104721;75892503
77104724;75892507
77102590;76949052
77104726;75892515
77104737;78433782
77104742;75892539
77107170;77044162
77100187;78824827
77104746;75893706
77104752;78481635
77104776;78137928
77104777;78137929
77104799;78270446
77104807;75896296
77105045;78262322
77106462;79772291
77105113;78821466
77101826;80748318
77107242;77045083
77105130;78819335
77103451;76986708
77105136;76130826
77102121;80186014
77105138;78819887
77105140;76130877
77105191;78820183
77105249;76131833
77105250;78820248
77105252;76131836
77105253;76131837
77102186;80757078
77101046;78388664
77100614;79404995
77105257;78820222
77105258;78820221
77105259;78820223
77104820;78816863
77104823;75896363
77104824;78816851
77101766;80748262
77104836;78816858
77101219;80036175
77104759;78481653
77112130;80269054
77104760;78481672
77105099;78570115
77105115;78400811
77105215;76131774
77101145;80078919
77100775;79192980
77105222;76131806
77105223;78820212
77100312;79799005
77105226;78820215
77105227;78820224
77105230;78820227
77105232;78820229
77105751;76137697
77105240;76131824
77100556;79799011
77100870;78071918
77101218;80036173
77105246;76131830
77105247;78820246
77101158;80079362
77104837;75896539
77104838;75896540
77102466;76948962
77104844;78814939
77102917;77131473
77108156;77687156
77104849;75896586
77100289;78069217
77100289;78069217
77100191;78824830
77109993;78946006
77102059;79165596
77102009;79381604
77100507;79404491
77100690;79405029
77101004;79405080
77100695;79405034
77100792;79402368
77106789;76779729
77100805;79402377
77100475;79404469
77100666;79405021
77105193;78820185
77100307;79404454
77105876;78817726
77111895;80226491
77105878;78817729
77105879;78817728
77105897;79214269
77109782;78655243
77105899;79214273
77100011;78822540
77105924;78817738
77110581;79305003
77105301;78820532
77105929;79214281
77104432;78187101
77105957;79212929
77105958;79212938
77100475;79404469
77101351;80131185
77109826;78921634
77105964;79212935
77101675;78973266
77105968;79212945
77107413;80207614
77105970;78815471
77105971;78553120
77105972;78815469
77101648;80748149
77105196;78820187
77106244;79214924
77101362;80131222
77106246;79214927
77108323;77748111
77106248;79214937
77106249;79214950
77106250;79214951
77106251;79214929
77106252;79214949
77106255;79214948
77110057;78951486
77105898;79214271
77106267;79214994
77106270;78819151
77106272;79215001
77106008;79213116
77108823;78315679
77100276;78269303
77106011;79213105
77106012;79213106
77110290;78960883
77106015;79213117
77106016;79213113
77106018;79213118
77106019;79213135
77106020;79213130
77106021;79213131
77101807;80748084
77106023;79213112
77106110;78820737
77106360;79423685
77104154;78213018
77106362;79423687
77106315;79423635
77106316;79423636
77106318;79423632
77101363;80131223
77100497;79404939
77100496;79404488
77100496;79214279
77100494;79404484
77100535;79404959
77100536;79404923
77100243;79403205
77100237;79403153
77100241;79403212
77100609;79404993
77100610;79405004
77100675;79405013
77105967;79212930
77100481;79404474
77105593;79420451
77105935;79214288
77105936;79214282
77105937;79214285
77100536;79404923
77105940;79212914
77105941;79212916
77105943;78815467
77111076;79626871
77105945;79212918
77105946;79212919
77111781;79947860
77105948;79212927
77105949;79212922
77105950;79212924
77105952;79212926
77105953;79212925
77105954;79212928
77106229;79214704
77106230;79214705
77106231;79214727
77106232;79214699
77106233;79214746
77106234;79214697
77106235;79214698
77106237;79214743
77106346;79423675
77105594;79420452
77105816;76137936
77106242;79214911
77106243;79214903
77106260;79214953
77106261;79214981
77106262;79215000
77106263;79215004
77106264;79214988
77106265;79214996
77106076;79216106
77109627;78644937
77106080;79216109
77100496;79404488
77106120;79215746
77106121;79215747
77106125;79215784
77106126;79215770
77103487;75075977
77106143;79423708
77106145;79423709
77106281;79423610
77106341;79423664
77106342;79215176
77106343;79423671
77106344;79423673
77101724;80748257
77106347;79423674
77106348;79423688
77106349;79423676
77106351;79423678
77106352;79423690
77106364;79215177
77105905;78590220
77105908;76141035
77105910;78817735
77105911;78590224
77105912;79214313
77105914;78818148
77112058;80256968
77110602;79308098
77105918;78590222
77105920;78590225
77105921;78590227
77106173;79215803
77106024;78815608
77106083;79216120
77106089;79216131
77112636;80887566
77109392;78625782
77106280;79423605
77106309;79423623
77106311;79423627
77100995;79405078
77105831;79216080
77103259;78973065
77107908;80179752
77106003;79213109
77107961;77349007
77100338;78521589
77100564;79404954
77105176;78820179
77110245;78958963
77106482;79772293
77106296;79423613
77100571;79404947
77100995;79405078
77112270;80279517
77100597;79404974
77100454;79799227
77100587;79404991
77100589;79404973
77105995;79213025
77101411;80131267
77100584;79404979
77105983;79212950
77105987;79212946
77106305;79215018
77106105;79215732
77106106;79215733
77109135;78341932
77101689;80748127
77106156;79423718
77101863;80749785
77106296;79423613
77106298;79423621
77106322;79423649
77106323;79423650
77106274;79215010
77106326;79423653
77112406;80840949
77106332;79423659
77106333;79423660
77105872;79214252
77105875;78817725
77106193;79214405
77106194;79214407
77106100;79216124
77105874;79214255
77105880;79214256
77105884;79214263
77106211;79214686
77106212;79214683
77106054;79213381
77106055;79213386
77106056;79213384
77106057;79213385
77106058;79213387
77106061;79213382
77105930;78818150
77100853;78071904
77106074;79216102
77106075;79216119
77106129;79215772
77106147;79423711
77106286;79423619
77106292;79423616
77106294;79423614
77106306;79423625
77100845;78128426
77106063;79216609
77100533;79404925
77100866;78071915
77100261;79195223
77100518;80078871
77100737;78821955
77100486;79200616
77102043;75557125
77112373;80840083
77105930;78818150
77102042;75557123
77100782;78968091
77100521;79404503
77100746;78968789
77100785;78969029
77109114;78338177
77108859;78320145
77102057;79381623
77100259;79403260
77100757;79402359
77100269;79403227
77100499;79404495
77100499;79404495
77105445;76133579
77100500;79404496
77100267;79403262
77100612;79405005
77100255;79403220
77102027;79381613
77100249;79403217
77100756;78969154
77100510;79404494
77100520;79404505
77100502;79404971
77100520;79404505
77100251;79403218
77100743;79402352
77100492;79404942
77102028;79381614
77100256;79403223
77100258;79403225
77100748;79402354
77100749;79402367
77102035;79165585
77101008;79405072
77100613;79405007
77105851;79213442
77105852;79213432
77105854;79213497
77105871;78817723
77105977;79212942
77106175;79215805
77106176;76254704
77101133;80078908
77106071;77106071
77106049;79213144
77105422;78820623
77106069;79216096
77106071;79216098
77106072;79216099
77100906;77029415
77106094;79216125
77106098;79216128
77101393;79773566
77106135;79215781
77100782;78968091
77106276;79423602
77106295;79423615
77106427;79446716
77106435;79446700
77100670;79405011
77106444;79446715
77106445;79446717
77106446;79446692
77101550;80132631
77106449;79446694
77106480;79446744
77106500;79446878
77106502;79217520
77106503;79446902
77106504;79446948
77106505;79772794
77106628;79773344
77106630;79773342
77106632;79773338
77100133;78555501
77106636;79773341
77106637;79773347
77100507;79404491
77109249;78342431
77106642;79773352
77100798;79402372
77106678;79773377
77106679;79773516
77106680;79773384
77106682;79773386
77106683;79773387
77106685;79773509
77101750;80748276
77106687;79773514
77100789;79192984
77102009;79381604
77100507;79404491
77100690;79405029
77101004;79405080
77100695;79405034
77100792;79402368
77100805;79402377
77100666;79405021
77100470;79404467
77100468;79404477
77100307;79404454
77100471;79404471
77100716;73821249
77100717;78069229
77110818;79330794
77100499;79404495
77100463;78062096
77100711;73821246
77100718;78069231
77102385;76948866
77100094;78569612
77105955;77634409
77100108;78472737
77100097;78298949
77100205;78824935
77106506;79446926
77106442;79446701
77100247;79403215
77111007;79625254
77106414;79446667
77101294;80131097
77106417;79446675
77100530;79404938
77106420;79446690
77105163;78820171
77100677;79405018
77101718;80748093
77106434;79446684
77106450;79446703
77101717;80748094
77106472;79446719
77106474;79446720
77106475;79446721
77100497;79404939
77106590;79773262
77106593;79773315
77100491;79404480
77106595;79773305
77106596;79773306
77106597;79773285
77106599;79447466
77106600;79773320
77106601;79773321
77106602;79773308
77106603;79773309
77102821;74581008
77106606;79773324
77106607;79773311
77102300;80758346
77108666;78967485
77100379;78056456
77109902;78933978
77100383;78569585
77107821;77338459
77100380;78569591
77101234;80036783
77109655;78649351
77106375;79446142
77106380;79446138
77106381;79446139
77106383;79216475
77106391;79446151
77101214;80036193
77106393;79446640
77106394;79217334
77106395;79446650
77106496;79772339
77106498;79446885
77106511;79772796
77102539;76949020
77106555;79772500
77105339;78820556
77106612;79773312
77106613;79773313
77106615;79773336
77106560;79772509
77106561;79772510
77106463;79772292
77106439;79446687
77106481;79772357
77102901;74581738
77106484;79772358
77106486;79772295
77101326;80131167
77106490;79772322
77102845;77239364
77106528;79772465
77106529;79772466
77106530;79772915
77106532;79772902
77106533;79772903
77101271;80131085
77106535;79772914
77106537;79772913
77100298;78062081
77106539;79772909
77101873;80749797
77106544;79772905
77106621;79773346
77106622;79773328
77101526;80132590
77101411;80131267
77100181;78139504
77101029;78188904
77100147;78187400
77101073;78188909
77100079;78521340
77100359;78569597
77100364;78569584
77100120;78533120
77101064;78388658
77100091;78569618
77104938;78821078
77100599;79404984
77100165;78824817
77100089;78826758
77106646;79773358
77106645;79773353
77106644;79447472
77106647;79773359
77106649;79773360
77106396;79446661
77106397;79446656
77106400;79446651
77106401;79446652
77106563;79447073
77106619;79773335
77106652;79773363
77106655;79773376
77100547;79404928
77100226;79402975
77100551;79404930
77100555;79404933
77101018;79405087
77100704;78176772
77103709;77998192
77104866;78814930
77100155;78544140
77102371;76948797
77100151;78544144
77106367;79446137
77106368;79446145
77106461;79446718
77106321;79423645
77105561;76134189
77101813;80748322
77106430;79446713
77106491;79772323
77106507;79446927
77106524;79772469
77106568;79772491
77100356;78569588
77100933;78164940
