NUMERO_POLICES;NUMERO_QUITTANCE
16802699;79005837
16803658;80914947
16806404;80943303
16806827;80979411
16806851;80988589
16806862;80988598
16806876;80988619
16809104;80952762
16809871;80934664
16809878;80934163
16809918;80933064
16809941;80934076
16809972;80933108
16810031;80933317
16810041;80933330
16810067;80933266
16810093;80933292
16810100;80933784
16813247;81055638
16813506;80960605
16813596;80995879
16817251;80994568
16821366;81045369
16824548;78603893
16824892;78615335
16827993;80225850
16828074;80225935
16828912;80470996
16829503;81142199
21212574;71598655
21608487;80946961
21609841;81178277
21609874;73637497
21610189;77733508
21610905;76801912
21611515;76301335
21611925;81147751
21612655;80917942
21612904;80918185
21615303;80947600
21615704;76484310
21616635;81176695
21617315;76332981
21619683;73160189
21619853;80957833
21620167;80071934
21620234;81015894
21620537;75044144
21624642;81035089
21626019;81085597
21626029;81085601
21626782;78301936
21800045;80932759
21800458;80938348
21800739;80922070
21802392;80922928
21802569;81182756
21804273;77427336
21805239;78167673
21805250;80926420
21805423;73192459
21805913;77475635
21806723;71134098
21807603;77982501
21807610;80916127
21808680;80917925
21808954;80935287
21809119;76297596
21809595;78192361
21809901;75677270
21811278;78191106
21811638;80931327
21812348;78276464
21812358;75456801
21812765;81182234
21813643;80926057
21813646;77836437
21813687;80946459
21813734;75040964
21813743;76288621
21814259;78205987
21814771;77282323
21814890;78278401
21815271;74912790
21815271;80919709
21815286;78135013
21815535;77416779
21815681;80961483
21815762;80913799
21815762;81182532
21815828;78291989
21815883;76260134
21816144;73308811
21816877;76867506
21817342;78292357
21817365;72221350
21817429;81182115
21818034;75482790
21818164;78220154
21818164;80970578
21818292;81004498
21818341;78111486
21818578;74902397
21818616;78111766
21818926;81035441
21819590;77772230
21820204;78123518
21820381;77987265
21820381;81012914
21820634;78296109
21820665;81118139
21820785;80975337
21821164;73450949
21821183;78148471
21821301;77868332
21821350;75805798
21821580;78256429
21821646;78151206
21821871;80961658
21821926;80961672
21822111;75120494
21822307;78115375
21822360;77493457
21822787;75848150
21823427;81020057
21823451;77913881
21823824;78236730
21823827;78236731
21823975;78103690
21823977;78103691
21823977;81098139
21824565;75755866
21824593;78116092
21824633;76089650
21824915;75800898
21825058;78188251
21825174;74978545
21825174;81046594
21826284;80978140
21826897;77242539
21827393;81114933
21827503;78305338
21827619;76726393
21827768;76041098
21827794;78162359
21827855;78173992
21828391;81130231
21828877;76437161
21828900;76716760
21828954;81068441
21828972;81068450
21828975;81068452
21829068;81068522
21829090;78128784
21829122;78128796
21829289;78186619
21829485;76717953
21829486;81080096
21829794;78262067
21830179;77263105
21830245;78303876
21830658;78162606
21830772;77073120
21831177;78235769
21831366;77625433
21831446;78078272
21831462;76455609
21831481;78777412
21831545;77144681
21831939;78090276
21832003;78061333
21832043;76460383
21832301;77636425
21832503;78163877
21832611;81067442
21833002;78201411
21833132;81077116
21833285;78234617
21833319;78234636
21833466;81031602
21833628;77009571
21833766;81164751
21833857;78090663
21834041;78274980
21834489;81044506
21834607;78061470
21834610;77020560
21834829;77857258
21834829;81045201
21835420;81059295
21836482;81100033
21836536;81100065
21837104;81027820
21837798;80744705
21838475;81065074
21838568;81065162
21839038;81074556
21839083;81074606
21839627;81034327
21840445;81112344
21840569;78624704
21840610;81113004
21840655;81113049
21840845;80786441
21840845;81118717
21841088;81119732
21841635;81072033
21842129;81079401
21842787;81107492
21842917;79323196
21843274;81126718
21843555;81132140
21844005;81082409
21844269;81083541
21844478;81084065
21844630;79943694
21844825;79943899
21844994;81063006
21845206;80212356
21845475;81071215
21845575;81075915
21845960;80257311
21846058;81115178
21846324;81041506
21846330;81041519
21846334;81041521
21846379;81041529
21846398;81041542
21846418;80827056
21846438;80827076
21846454;81041575
21846481;80827133
21846486;81041593
21846666;80827417
21846686;81041696
21846758;81094080
21846779;81094087
21846830;80843181
21847026;81096650
21847037;81096636
21847101;80884998
21847376;80903613
21847430;80903667
21847575;81142734
21847704;81142873
21847709;81142878
21847717;81168360
21847880;81168551
21847923;81168595
21848039;81168719
21848040;81168720
21848045;81168725
21848072;81168753
22602177;81142965
24102365;78134225
24103500;80960512
24104306;79329908
24104407;80968167
24601630;75092946
24601836;80916017
24601836;81182157
24602306;76349879
24602352;80953836
24602488;77923121
24602790;78071377
24602844;74236845
24602887;76931851
24603232;72438232
24603306;76898525
24603322;80956322
24603393;77282074
24603973;77979791
24603975;78275927
24604140;80919830
24604171;78086376
24604367;78231614
24604874;81008016
24605212;76337358
24605891;81020110
24605928;78283478
24605983;74565806
24606173;80988181
24606226;74990318
24606226;81009410
24606847;79143913
24606874;79814960
24606874;80999461
24607115;80996416
24607231;78080903
24607340;81026487
24607441;78162751
24607557;80990208
24607596;78068516
24607735;78058401
24607865;78226170
24608585;81105584
24608945;81032401
24609057;78623718
24609057;81112885
24610221;80837811
24610321;80885491
24610491;81147768
24610583;81169970
24610620;81170033
24700271;78156305
24700467;81182785
24700494;77911490
24700631;75164342
24701003;81066691
24701121;81027980
24701147;80787896
24701182;81013431
24701299;81076726
24701411;81092662
24701429;81094794
24701447;81147772
24800049;80999523
26000080;80954342
26001652;74933755
26002217;75430385
26002217;80944902
26002249;74922791
26002967;73309566
26004418;80917905
26005155;81183000
26005548;78254040
26005731;78251817
26005768;74933486
26006798;73928093
26006863;77079966
26006934;79609288
26007474;80057909
26007474;81006003
26007821;78221503
26007967;81051282
26008483;71167790
26008544;81008646
26008591;78175421
26008592;74456996
26008592;81016280
26008995;74347827
26009051;81042535
26009395;77590655
26009535;76894055
26009883;81018220
26010584;81085859
26010959;81105442
26011225;81102033
26011539;81079805
26011550;81104692
26011711;81083686
26011726;81084210
26011821;81071305
26011896;81115240
31007891;76467874
31008107;81004860
31010094;81053353
31011289;81110493
31012441;74797593
31016064;81078009
31017115;81175627
31017660;76125701
31017660;81118364
31018651;77840058
31020047;78169793
31020421;81062470
31020571;77875463
31020571;81062495
31020762;74464070
31020939;81062575
31020999;80217203
31021097;75639496
31021493;77899783
31021768;81091933
31023762;75020677
31024507;81106838
31024598;81106866
31024796;81106926
31025026;81106979
31025459;70469200
31025777;76490767
31027577;81108202
31028150;75804571
31028637;81108473
31029855;70805856
31030997;81109452
31031182;76820625
31032072;80995153
31200456;80934422
31201687;80915645
31202126;80925168
31202988;81176814
31204506;81182823
31204860;78179364
31205921;73313826
31206973;77088089
31207357;78266158
31208142;78167965
31208295;70702013
31208922;76888068
31209955;75370711
31209955;80918038
31209978;80918046
31210515;80955701
31211006;80953326
31211331;81182024
31211441;80996317
31211446;80996318
31212520;78204101
31212533;80944711
31213644;75658900
31213714;78301502
31214359;78191503
31214596;80616443
31214724;75979955
31215517;80958386
31215530;78252135
31216312;78265260
31216312;80913208
31216437;75369332
31216595;80926046
31217199;80952348
31217199;81182967
31217290;71759687
31217583;80952683
31217789;80955095
31218191;74945747
31218478;78279678
31218674;71102837
31219237;78243674
31219429;75156871
31219463;78279624
31219893;80933904
31220160;80012948
31220812;77272061
31221164;81025668
31221438;78207425
31221693;80969864
31222518;78208310
31222762;78028026
31223283;78208650
31223317;78257074
31223317;80972101
31223686;77772035
31223888;74466876
31223894;78184430
31224116;80972524
31224787;75205927
31225068;78101573
31225307;81051561
31225308;81051562
31225788;78100672
31225792;76385619
31225802;78100679
31225975;77528227
31226058;74552435
31226354;81054599
31226423;74161623
31226477;76973273
31226657;81054049
31226906;81053439
31227911;76429661
31228527;76928310
31228830;77553278
31229200;80978411
31229559;78115874
31229678;81098087
31230437;81009417
31230466;81009428
31231130;76449832
31231573;81047691
31231754;80983442
31232027;81067061
31232029;81067071
31232171;76965508
31232172;81067215
31232173;81067209
31232174;81067217
31233302;78128510
31233965;80998570
31234262;77953329
31234305;76441913
31234332;81068575
31234696;78099728
31234877;75834287
31234902;78129003
31235073;81095371
31235143;81095421
31235286;77772607
31235494;75322460
31235714;81030798
31235721;78174356
31235766;77216815
31235901;81024928
31236269;81019025
31236521;76987743
31236707;81019588
31237168;81064472
31237264;80989545
31237698;81066681
31238008;81072606
31238009;81072607
31238191;78077669
31238191;81030403
31238367;80709531
31238368;81030941
31238409;81030974
31238828;81029914
31238964;78301390
31239072;78129184
31239327;81045406
31239400;81061057
31240128;81055286
31240355;81060206
31240519;81098686
31240595;81098753
31240643;81100094
31240849;81089308
31240951;81089352
31241038;81100124
31241431;81123038
31241829;81103603
31241834;81103643
31241938;81103698
31242193;80787831
31242532;81069513
31244575;80787330
31244575;81119776
31244576;80787352
31244576;81119796
31244577;80094524
31244577;81119779
31245384;81077899
31245467;81078372
31246322;81104745
31246435;81107679
31246454;81107711
31246875;79613341
31246875;81132190
31247727;81084270
31247813;79923210
31248030;81120311
31248374;81071406
31248429;81076063
31248549;80268653
31248557;80268661
31248575;81115282
31248592;81115290
31248947;80838099
31248972;81092816
31249052;81092835
31249064;80838230
31249083;81092863
31249157;80838325
31249195;81092914
31249250;81092944
31249260;81092960
31249273;81092948
31249274;81092961
31249393;81093003
31249484;81094180
31249485;81094181
31249541;81094202
31249627;80843509
31249631;80843513
31249632;80843514
31249649;80843531
31249726;81096704
31249934;80904121
31250082;80904289
31250160;81143453
31250217;81143520
33310199;80955944
33310271;80002800
33330115;80959748
33404897;78990768
33444253;79147205
33460025;80842890
33460176;80843040
33460420;80886024
71605735;80764758
71605910;80144656
71606095;79476336
71608704;81156808
71608705;81156810
71608720;81157143
71702040;76816042
71702253;77415342
71702288;71678436
71702328;76649400
71702807;76883648
71703142;76533522
71703202;76800917
71703297;76608604
71703375;76600117
71703434;76864881
71703513;76878484
71703567;76796699
71703698;76790211
71703937;76913072
71704024;74219093
71704058;76697082
71704440;76934632
71704477;78234045
71704485;75867095
71704490;78234050
71704493;77938882
71704578;74370546
71704611;76924950
72011249;80937712
72012411;78122134
72014069;80950836
72015536;72525199
72402320;80963801
72404436;80963933
72404853;75184346
72406536;78277276
72406757;81180382
72407400;81178560
72407557;81176828
72408082;81181702
72408125;76527527
72409741;80916240
72409783;81181809
72410360;81181596
72410496;81181314
72411006;81179984
72411576;78131928
72411729;81177296
72412811;76802941
72415605;81178198
72415649;76823941
72417720;78191969
72417958;81177180
72418471;77618200
72418787;78155951
72418788;76822593
72419390;78156182
72420003;81179632
72420058;81003087
72420150;75812871
72420503;75129705
72420889;81180660
72421013;81175849
72421326;81176772
72421552;77994186
72621080;76329538
72625600;76269839
73100886;76536111
73101064;78301263
73107279;80606795
73108402;81181320
73108710;76879676
73109373;81178281
73109377;78229513
73109394;81181012
73109567;78229627
73109633;80950974
73109878;80608338
73110268;75043013
73110445;78215228
73111041;81177587
73111532;78168826
73111885;78120619
73200011;80594765
73200855;80611179
73201099;80656577
73201307;80944137
73201323;81177579
73202300;78300570
73202597;76797460
73202924;78278615
73203452;81178835
73203543;78227573
73203779;75019739
73204292;76622296
73204519;81176781
73204918;81177158
73205980;80935265
73205981;80613951
73206634;78218167
73206747;80578797
73206863;78072263
73206973;80614623
73207099;78203880
73207486;78122462
73207664;78279899
73207717;78170533
73208254;78183373
73208619;80670950
73208621;80672186
73208623;80672198
73208659;78135918
73208767;81005093
73209135;73044932
73209267;80673404
73209433;78088365
73209573;78284309
73209611;78284419
73209899;80972930
73209904;81002277
73210006;74881418
73210055;78139795
73210258;78159458
73210290;78232273
73210333;80634345
73210830;76679567
73211001;78211356
73211141;80980706
73211577;78163833
73211663;76034433
73211664;81092531
73211709;78137972
73212040;81091116
73212064;76946603
73212090;73977703
73212143;78127760
73212226;76878963
73212258;80963077
73212466;78114586
73212597;80734459
73212634;78173676
73212635;80694398
73212636;80694397
73212856;81063777
73212870;78090971
73212953;80640288
73212968;78247316
73212977;78271330
73213025;74199893
73213273;80688079
73213472;75316698
73213518;78141350
73213538;78081084
73213577;80737098
73213661;80726065
73213833;78211633
73213835;78211640
73213857;78247621
73213858;80732123
73213878;80732144
73213880;78247672
73213890;78296490
73213898;78296523
73213944;80735646
73213945;78102578
73214116;80727711
73214146;78258671
73214172;78058008
73214207;80680516
73214208;75861547
73214255;80679482
73214261;81066191
73214301;76129487
73214314;76471816
73214333;80707924
73214342;80707891
73214359;76741694
73214382;76742606
73214506;76744978
73214586;80748426
73214590;81006558
73214827;78248255
73214840;78163122
73214979;80748740
73215092;77022651
73215147;80727137
73215173;77015821
73215541;80756650
76037037;76312510
76038763;77137427
76040123;78265509
76040424;78241795
76040530;80941001
76041286;78277970
76042763;76866826
76042984;81178521
76047333;80939187
76062096;78131621
76069794;76553010
76071734;80942762
76071903;76603029
76100027;80917554
76105283;74861277
76108050;74687532
76108133;78168857
76108814;78059347
76109103;78120920
76109427;80931730
76109460;76571582
76109471;80931431
76109483;78252309
76109658;80931481
76109802;77065014
76109832;75105504
76110047;80931871
76110246;78109018
76110248;80959101
76110509;78193680
76110567;80959464
76110691;77921268
76111095;76334658
76111354;80956256
76111376;78203819
76111464;78215410
76111591;80920294
76111734;78096331
76111852;78157073
76111914;78145058
76111964;78193077
76112009;80926258
76112019;80926261
76112045;75917868
76112129;78193142
76112262;78205519
76112308;80928799
76112726;77462721
76113115;78181401
76113519;80929847
76113717;81181710
76113808;80930065
76114281;76608552
76114398;78083214
76114453;78265226
76114455;76323791
76114538;80952164
76114793;80952553
76114927;80954992
76115086;78169191
76115244;78121187
76115857;78155268
76116211;81015674
76116278;75868258
76116437;81015274
76116526;78278548
76116546;81015831
76116598;75201905
76116770;75867974
76116939;81016029
76116958;73365380
76117206;77151992
76117650;78182918
76117666;78194903
76117904;78231411
76118087;78182853
76118520;73050881
76118752;78243486
76119261;76812792
76119589;76813961
76119772;78219509
76119986;75664598
76120403;78267567
76120448;76827272
76121034;75057702
76121268;77453319
76121417;80963319
76121418;80963320
76121958;78280325
76122012;76879341
76122055;78195467
76122112;76040584
76122124;73008086
76122434;78122710
76122452;73002660
76122756;78065484
76122925;78086671
76123013;78207638
76123025;80969744
76123372;78147571
76123892;80971192
76124717;81005516
76125262;72993089
76125371;78087267
76125491;78183503
76125641;81035472
76125642;81035489
76125888;72992619
76125989;72992392
76125992;81035959
76126046;77561391
76126249;78136152
76126284;76389343
76126358;78087312
76126453;72991861
76126506;78087565
76126700;80971990
76126884;76975629
76126896;78257874
76127208;74814134
76127383;78148643
76127421;78171909
76127465;81052487
76127626;78271038
76127737;78113859
76127788;78155233
76128009;76854046
76128135;80953721
76128143;80953719
76128147;76852077
76128261;81012880
76128266;78101865
76128593;78149117
76128676;77465854
76128883;77188924
76129073;81011536
76129097;81011543
76129233;78174030
76129313;81014063
76129588;81014292
76129739;76944977
76129797;78271457
76130020;75318515
76130243;81014765
76130498;78259124
76130775;80974953
76130927;78114294
76130929;78114296
76130958;70489367
76130960;78114329
76130998;76867814
76131284;78114412
76131374;80975713
76131782;81053035
76131783;81053036
76131940;78058087
76132116;77537125
76132343;76048423
76132505;78303652
76132516;78303664
76132655;72182112
76132689;80974622
76132762;81055466
76132765;81055469
76132794;70729756
76132833;78102636
76132886;78198602
76133016;78256372
76133105;78074974
76133130;78111628
76133247;76001247
76133362;80962231
76133616;78281305
76133653;77889910
76134156;76023354
76134208;78223691
76134522;78102810
76134527;78126961
76134574;80998888
76134576;80998908
76134670;80998961
76134946;76661827
76135172;78115006
76135327;76054611
76135423;81000061
76135558;78150121
76135573;78270759
76135969;71058862
76136005;77941090
76136076;78272641
76136088;78272652
76136387;78236342
76136514;78236355
76136568;78059167
76136743;78187326
76136857;78175259
76136872;77180958
76136907;78061520
76137085;78103263
76137283;78258729
76137333;78075961
76137419;72647414
76137541;71566136
76137560;78221610
76137607;78209459
76137658;78124702
76137691;78245869
76137750;81009068
76137779;81009084
76137784;78088344
76137812;78124773
76137920;78149099
76137963;78184947
76138141;78280408
76138186;81008374
76138426;78183337
76138559;80972844
76138652;78302580
76138767;71923936
76138796;78260319
76138920;76101836
76139161;81017544
76139183;78138479
76139277;78091588
76139344;81104917
76139387;78091615
76139392;76113603
76139444;80977577
76139696;80978651
76139722;75790965
76139973;76683647
76139991;80982871
76140210;80987269
76140717;78285308
76141449;75741529
76141624;76365079
76141895;76877008
76142004;78174313
76142254;76655315
76142575;78151083
76142615;78261060
76142695;80988382
76142696;80988379
76142707;72937066
76142719;78116175
76142742;78090149
76142956;75575025
76142982;78174587
76142994;81010339
76143065;81010394
76143069;81010380
76143211;81010547
76143306;75270228
76143325;76715477
76143385;81010692
76143432;78078319
76143532;81010864
76143607;78235870
76143853;72974121
76143855;81011206
76144123;75266046
76144247;75256969
76144287;78100344
76144368;81046671
76144424;76722775
76144544;81047726
76144546;81047728
76144657;81047808
76144721;81047852
76144725;81047875
76144784;78092247
76144798;78092256
76144806;78068875
76144812;78092243
76144836;78092278
76144851;77005371
76144903;78176302
76144947;78213354
76145007;81052639
76145366;78164581
76145396;78176373
76145451;77218345
76145460;78225498
76145518;80983164
76145572;78068905
76145808;80983337
76145841;80983368
76145854;78152921
76145885;78304452
76145927;80978883
76146036;78067637
76146305;78247984
76146361;80979998
76146390;80980029
76146406;76685044
76146658;78151448
76146701;76379318
76146703;76379321
76146704;76013640
76146736;78078558
76146971;80978208
76147071;78225588
76147112;78237532
76147132;80983548
76147135;75819319
76147147;77278283
76147360;80978070
76147425;80984514
76147514;78104301
76147541;80984604
76147564;78152964
76147581;80984588
76147590;78164643
76147596;75819644
76147612;73499483
76147658;80984655
76147757;73956967
76147906;80986467
76147907;80986469
76147962;78200586
76148033;78249913
76148061;80986580
76148275;81060664
76148387;81065237
76148404;75572356
76148440;78116787
76148536;76961164
76148742;81067822
76148833;76706521
76148838;81063898
76148952;78304594
76149250;81061793
76149251;81061766
76149330;78223049
76149344;78271065
76149394;78271108
76149552;78151835
76149675;80968741
76150115;74870241
76150117;80976258
76150175;77846453
76150176;80976316
76150177;80976317
76150178;80976318
76150179;80976319
76150181;80976320
76150253;78176672
76150308;78274270
76150348;78298910
76150376;80976532
76150519;80976618
76150694;76943811
76150901;78199375
76151028;78068002
76151067;81114787
76151113;73884245
76151189;81110520
76151270;78160632
76151312;81113485
76151350;77098344
76151372;78092856
76151446;76882412
76151513;77542359
76151781;80993823
76151837;80993907
76152015;78101974
76152037;78114128
76152498;78186349
76152651;81129191
76152731;81129330
76152928;78165135
76153178;81129659
76153211;76729928
76153253;81129721
76153392;81129842
76153453;81129866
76153472;78176957
76153594;81129963
76153632;78080716
76153643;77423499
76153836;78165169
76153954;76719870
76154025;78152097
76154149;78104787
76154631;81001391
76154634;81001395
76154851;80996803
76154866;78248926
76154921;78297754
76155000;78091494
76155021;78091508
76155096;75835022
76155153;78284955
76155270;78163620
76155287;80997054
76155291;80997069
76155295;78163633
76155304;78187825
76155520;78139731
76155566;76990266
76155680;80997415
76155681;80997417
76155723;80997879
76155729;78163645
76155887;78285093
76155901;76075729
76155945;78285113
76156027;78162447
76156164;78250227
76156234;78286406
76156346;78177184
76156362;78213988
76156453;78299097
76156497;78199601
76156580;81068768
76156586;81068766
76156608;78250332
76156740;81068915
76156830;78141125
76156876;78238064
76157038;78058630
76157042;78058634
76157127;78177218
76157180;74410334
76157302;80987151
76157450;78259250
76157468;80985455
76157521;78271582
76157540;78058067
76157545;76893648
76157669;78247425
76157687;78247438
76157694;80985826
76157721;80985855
76157759;78126281
76157824;80985911
76157930;78114268
76157933;76951229
76157965;78211435
76157977;78209737
76158059;80985234
76158102;80985298
76158117;80985278
76158119;78136705
76158193;80984016
76158223;80984027
76158224;80984031
76158268;78124292
76158275;78124306
76158350;74679642
76158368;77178124
76158406;78184567
76158504;78196372
76158536;78196376
76158763;81080135
76158848;80982448
76158849;80982449
76158980;78245305
76158988;77237972
76159030;78245333
76159059;78293966
76159438;81083117
76159450;75766565
76159466;78065851
76159524;78160087
76159537;78160096
76159689;77585065
76159706;81080640
76159757;81080698
76159770;81080693
76159932;78220596
76159937;78220600
76159957;74751967
76160007;81081287
76160008;81081272
76160009;78256678
76160199;76948514
76160404;74679050
76160523;78091632
76160531;76939039
76160776;76938365
76160846;75551882
76160878;78295268
76160897;81029264
76160898;81029265
76161159;78226005
76161164;78226009
76161168;77412223
76161183;74870740
76161716;81025454
76162328;81018181
76162419;75861488
76162627;78077516
76162629;78077518
76162654;78101742
76162756;78156917
76162992;76055641
76163100;81072461
76163101;81072462
76163312;76050644
76163582;81064903
76163584;81064904
76163632;78303206
76163715;81076868
76163777;81076892
76163817;78117307
76163848;81076963
76163885;76064360
76164019;81030291
76164020;81030263
76164052;78198070
76164113;76470429
76164122;77007974
76164146;78282730
76164276;81028785
76164315;77578903
76164322;81031518
76164396;81031397
76164440;78295415
76164569;78303611
76164582;81027587
76164633;78212130
76164717;76920909
76164762;78102909
76164825;76747548
76164848;81006337
76164909;78199185
76164931;78078653
76164935;78078660
76164951;81006504
76164952;77019468
76164965;81006556
76165073;81006969
76165267;77020068
76165291;81044689
76165348;81044746
76165552;81044984
76165587;81044975
76165645;81045527
76165774;78272704
76165776;78297086
76165796;78175193
76165802;78260008
76165803;81045859
76165808;78260018
76166011;81046063
76166062;77483570
76166075;81046207
76166076;77022633
76166077;81046210
76166079;81046212
76166080;81046224
76166081;81046226
76166110;77022721
76166242;81056714
76166339;81061329
76166340;81061332
76166434;81061846
76166502;81061915
76166551;77016063
76166555;78214324
76166607;81061991
76166713;81058105
76166793;78237202
76166823;77014796
76166896;77015091
76167017;78164224
76167094;77015292
76167150;81060534
76167165;77015369
76167352;81057466
76167493;78248422
76167720;77169335
76167765;81055828
76167793;81055855
76167993;81056041
76168301;81056303
76168311;81056312
76168315;81056300
76168321;81056313
76168337;77157314
76168343;77145548
76168377;81056338
76168380;81056349
76168418;81056402
76168447;81056418
76168450;81056421
76168781;81059067
76168783;81059030
76168971;78201591
76169079;78137893
76169216;81054203
76169333;77238489
76169380;81054337
76169491;77214900
76169808;81054962
76169809;81054929
76170121;81059553
76170122;81059531
76170535;81059996
76170567;81060015
76170568;81060013
76170661;81058648
76171435;81130559
76171457;81130570
76171577;81130677
76171661;81130777
76171831;81131009
76171879;81131085
76171909;81131114
76171910;81131115
76172050;81131203
76172651;81129114
76172652;81129116
76172980;81140874
76172986;81140875
76172988;81140876
76173844;81136882
76173972;81136967
76173976;81136970
76174182;81098501
76174843;81086537
76175221;81122990
76175552;81101540
76175555;81101550
76175939;81088398
76176507;81072812
76176508;81072821
76176510;81072813
76176708;81064953
76176768;81073699
76176996;81074043
76177283;81074324
76177296;81074355
76177297;81074356
76177391;81074457
76177407;81074494
76177451;81013554
76177475;81013603
76177514;81013636
76177545;81013667
76177701;81084808
76177959;81091579
76178020;81091614
76178148;81098830
76178161;81098880
76178197;81098910
76178238;81099091
76178239;81099089
76178343;81098991
76178468;81081013
76178568;81081170
76178853;81099763
76178902;81099814
76179340;81105888
76179427;81079162
76179921;81078046
76180081;81078197
76180329;81078820
76180340;81078839
76180474;81078932
76180475;81078934
76180607;81106025
76180870;81032912
76181154;81111252
76181242;81111730
76181893;81114690
76181894;81114692
76181994;81116404
76182012;81116423
76182013;81116424
76182039;81116445
76182271;81116645
76182793;81011886
76183208;81124425
76183210;81124428
76183211;81124429
76183214;81124416
76183216;81124414
76183331;81124673
76183333;81124697
76183342;81124692
76183365;81124703
76183367;81124705
76183369;81124706
76183372;81124709
76183594;81124925
76183680;81077643
76183806;81076512
76184037;81074819
76184102;81074881
76184139;81074904
76184271;81075001
76184275;79302737
76184430;79323740
76184868;81131831
76185568;81133264
76185710;81133397
76188346;81083958
76188552;81084354
76188554;81084355
76188805;81086458
76189053;79938777
76189625;79945426
76189730;80222065
76189861;81070260
76189863;81070289
76189864;81070291
76190627;81070991
76190628;81071026
76190629;81070993
76191327;81073139
76191692;81075196
76191781;81075491
76191788;81075497
76191816;81065980
76191828;81065962
76191841;81066006
76191844;81066010
76191887;81066043
76192033;81076137
76192121;81076239
76192137;81076233
76192138;81076232
76192139;81076231
76192212;81076316
76192217;81076312
76192327;81111895
76192412;81111995
76192418;81112013
76192445;81112191
76192448;81112194
76192450;81112196
76192469;81112233
76192471;81112234
76192483;81112218
76192495;81112200
76192530;81112243
76192537;81113890
76192671;81114140
76192688;81114001
76192689;81114154
76192709;81114119
76192735;81114133
76192975;81115116
76193005;81115386
76193057;81115427
76193059;80269835
76193064;81115430
76193119;81115497
76193120;81115501
76193125;81115433
76193126;81115435
76193133;81115465
76193271;81115613
76193303;81115642
76193305;81115651
76193430;81112150
76193446;81112153
76193452;81112132
76193563;81041750
76193565;81041785
76193587;81041771
76193592;81041804
76193606;81041799
76193706;81041894
76193710;81041898
76193750;81041931
76193751;81041914
76193805;81041289
76193808;81041257
76193854;81041312
76193919;81041366
76193968;81041394
76194099;81093714
76194151;81093756
76194157;81093766
76194190;81093791
76194191;81093792
76194192;81091844
76194193;81091845
76194194;81091846
76194197;81091850
76194198;81091838
76194200;81091841
76194201;81091854
76194202;81091840
76194213;81093799
76194362;81093937
76194442;81094005
76194725;81094894
76194873;81095052
76194909;81095903
76194928;81095084
76194952;81095938
76194976;81095933
76195093;81096058
76195151;81096107
76195159;81096126
76195165;81096130
76195168;81096146
76195169;81096147
76195244;81096283
76195277;81096326
76195280;81096330
76195283;81096333
76195285;81096335
76195287;81096336
76195288;81096337
76195291;81096345
76195292;81096340
76195293;81096341
76195459;81096510
76195500;81096558
76195503;81096561
76195504;81096547
76195506;81096549
76195507;81096550
76195508;81096551
76195509;81096552
76195510;81096555
76195511;81096556
76195512;81096562
76195515;81096553
76195518;81096565
76195519;81096567
76195525;81096575
76195664;80886084
76195693;80886466
76195697;80886473
76195732;80886856
76195826;80888851
76196003;80896087
76196018;80896102
76196019;80896103
76196020;80896104
76196097;80896278
76196101;80896282
76196106;80896287
76196107;80896288
76196108;80896289
76196109;80896290
76196288;80904682
76196315;80904709
76196329;80904726
76196378;80904794
76196424;80907400
76196558;80907689
76196602;80907743
76196811;80908559
76196812;80908560
76196820;80908628
76196821;80908629
76197056;81156985
76197241;81158150
76197242;81158151
76197243;81158152
76197244;81158153
76197245;81158154
76197246;81158155
76197247;81158156
76197248;81158157
76197249;81158158
76197250;81158159
76197253;81158162
76197254;81158163
76197256;81158165
76197257;81158166
76197258;81158167
76197259;81158168
76197260;81158169
76197262;81158171
76197263;81158172
76197266;81158175
76197271;81158180
76197278;81158187
76197289;81158198
76197335;81158244
76197367;81158276
76197368;81158277
76197369;81158278
76197370;81158279
76197371;81158280
76197372;81158281
76197374;81158283
76197494;81158542
76197642;81158809
76197650;81158817
76197725;81158900
76197783;81158961
76197784;81158962
76197787;81158965
76197788;81158966
76197790;81158968
76197798;81158976
76197799;81158977
76197853;81159031
76197855;81159033
76197857;81159035
76197859;81159037
76197868;81159046
76197870;81159048
76197873;81159051
76197876;81159054
76197878;81159056
76197879;81159057
76197880;81159058
76197915;81159094
76197916;81159095
76197917;81159096
76197946;81159125
76198087;81159862
76198186;81164954
76610098;76395826
78400199;80954434
78400283;76847497
78400380;78057021
78400739;81180390
78400744;80944205
78400792;77187069
78400954;78216563
78401039;81178682
78401041;72989984
78401128;80915097
78401235;80915390
78401246;80927640
78401341;81176187
78401462;77944813
78401711;81180013
78401714;78120420
78401730;80942358
78402171;76860224
78402689;81178906
78403160;78142953
78403456;76278016
78403686;75656857
78403697;75657281
78403770;80938844
78403912;75277771
78403992;80939646
78404436;80942056
78404729;81177211
78404781;78227277
78405373;80916027
78405530;77908462
78405586;81181675
78405655;78155114
78406399;80957048
78406474;78289862
78407108;78205396
78407503;80945820
78407768;78072363
78407941;81180009
78408225;78107517
78409080;81175899
78409366;77175168
78409525;81023093
78409530;81023096
78409531;81023097
78409626;78132862
78409743;78063949
78409946;80930037
78410550;77886482
78410679;81015281
78410718;81016044
78410805;80919501
78411096;80960818
78411104;75411118
78411181;78279640
78411235;75928025
78411278;80930648
78411279;80930650
78411504;80961313
78411549;75271661
78411748;80973438
78411761;80973976
78412022;80967969
78412417;77913503
78412611;77013028
78412661;78123359
78412730;76389656
78412799;81035831
78412815;72762427
78413031;72761854
78413157;81014607
78413290;78114890
78413495;81056565
78413505;78272760
78413559;80969389
78413592;81008676
78413598;76426990
78413706;81008187
78413707;76992951
78413723;78135548
78413753;81008315
78414010;80977718
78414158;80963010
78414457;78283928
78414458;78283927
78414484;78174584
78414501;78247701
78414514;75576096
78414557;78259614
78414692;81011056
78414707;81011113
78414824;78125710
78414936;76685163
78414971;78200596
78415282;80997924
78415294;75834361
78415351;78093093
78415422;76475616
78415501;78101379
78415506;76700077
78415628;78262295
78415650;77919396
78415660;81018054
78415674;81017959
78415693;81018015
78415787;78223501
78415813;81020862
78415825;78296491
78415862;78296539
78415877;81020964
78415884;78090362
78415885;81020983
78415932;78126668
78415998;78235062
78416019;81018457
78416037;78258647
78416053;81018540
78416056;78056645
78416065;81018122
78416066;78149162
78416161;77274051
78416182;78257328
78416249;81076395
78416306;77006835
78416321;81029656
78416359;78246623
78416541;76920930
78416681;81006552
78416697;81006793
78416721;78177438
78416925;78115201
78416930;78127093
78417042;81043800
78417069;78093431
78417121;81046119
78417126;81046133
78417134;78105126
78417215;81056773
78417286;81054327
78417420;81099607
78417562;81070217
78621568;77846921
78631406;81106478
78632531;80839383
78632532;80839384
80027732;80911169
80027958;80911793
16805942;79722832
16806382;80943304
16806741;80977162
16806784;80988455
16809870;80934665
16809893;80933054
16809913;80933066
16809914;80933079
16809945;80933092
16809956;80933102
16809957;80933101
16809980;80933130
16810004;80933144
16810039;80933806
16810086;80933283
16813286;81053487
16813474;81053800
16816024;80981198
16816025;80981204
16816029;80981202
16816422;81067346
16816437;81067354
16816467;81063769
16816537;80959867
16816707;80976754
16816797;80976772
16817334;80994588
16817370;80994583
16817396;80994592
16817413;80994601
16817417;80994598
16820021;80990327
16820549;80072204
16820785;81032164
16820883;81028475
16820947;81031266
16821109;81006684
16821217;81043898
16821218;81043899
16826855;79615193
16829001;80843045
16829046;80843090
21601521;74217244
21602109;81180248
21610115;76897258
21617743;77151130
21620720;80919610
21622221;80960869
21623702;78157831
21624754;81035119
21627112;78073086
21800013;78203058
21801605;72534701
21803691;80940107
21803738;74462651
21804184;78252289
21804533;80942431
21807882;81182951
21808065;78240934
21808185;78121146
21808378;74157742
21809093;73127698
21810269;80945927
21810410;77570316
21812578;76641895
21813017;78157197
21813613;78167366
21814816;77851293
21814983;78243431
21815152;78979318
21815156;80919559
21815166;77523985
21815572;80931133
21815594;74524375
21815767;75905116
21816263;77260101
21816666;75860610
21817103;81182770
21817210;81025676
21817241;76694796
21817294;80967523
21817691;78280768
21817692;72945166
21817789;80969965
21818266;78111450
21818432;81004543
21818432;81182680
21818558;78087425
21818659;78244843
21818787;78268604
21818913;74938379
21819214;78220896
21819479;72764178
21819979;81051742
21820383;70507783
21820386;76925146
21820562;78296083
21821025;81053966
21821120;75757762
21821325;77189438
21821538;76844851
21821582;78232816
21822499;78248675
21822599;78100889
21822991;77956791
21823140;81017438
21823314;81017705
21823566;78256087
21823807;78236745
21823918;78273178
21823972;78103688
21824181;81091234
21824296;78065941
21824495;78271695
21824641;78152522
21824641;80988294
21824714;78298189
21824765;81012177
21825266;77529672
21825871;78846025
21825871;81052788
21825876;77168889
21825917;78114838
21825917;81052819
21826052;77540694
21826238;78281661
21826267;78075805
21826290;77781816
21826298;73766173
21826379;78274185
21826430;81066976
21826619;78140687
21826697;78153124
21826907;78250011
21826948;78250031
21827015;74017608
21827316;78225718
21827327;81114888
21827351;78286186
21827419;78298946
21827510;74039510
21827523;78128390
21827527;77122398
21827555;81113625
21827558;81113642
21827561;78822550
21827577;78077787
21827669;73858582
21827706;78102078
21827735;78102107
21827843;78173997
21828011;78259057
21828054;75532032
21828107;78295978
21828112;80994921
21828162;78077904
21828314;78485134
21828343;75792395
21828517;76003192
21828860;80998093
21828881;80998110
21828902;80998127
21828952;79370199
21828952;81068458
21829013;79823312
21829013;81068474
21829065;76441859
21829149;80659627
21829151;78153453
21829171;78165305
21829186;78165311
21829464;81080082
21829556;78099801
21829606;76948616
21829669;75796579
21829682;79168948
21829695;78160186
21829915;81095124
21829957;81028152
21830047;81028192
21830093;78197555
21830111;76937135
21830194;78282941
21830226;76405782
21830278;76407238
21830362;78225935
21830541;76940249
21830619;78247565
21830645;78259492
21830660;78162612
21830955;76960684
21831003;80702360
21831114;81025241
21831135;81025254
21831178;78235770
21831187;78173438
21831215;78173437
21831442;81018809
21831521;76455646
21831556;77808387
21831610;78151166
21831618;78151144
21831960;81019568
21832012;75823099
21832055;80107355
21832055;81024048
21832066;78272031
21832112;81018590
21832114;78066880
21832249;78304859
21832250;80990477
21832315;81064141
21832405;78079651
21832457;78139996
21832486;78163858
21832496;78163875
21832659;81067456
21832797;81067525
21832834;76055716
21832841;76732860
21832899;78272156
21833006;78201416
21833045;78250531
21833049;77578878
21833049;81077044
21833302;78234624
21833304;81028950
21833318;76469170
21833460;78089053
21833485;77279133
21833494;78250605
21833534;78286701
21833724;81032184
21833877;81031335
21833910;78103082
21833935;77121116
21834179;77810971
21834443;78103064
21834445;81044478
21834540;81045028
21834836;81045202
21835202;81058376
21835223;77614864
21835242;78285744
21835370;77579094
21835413;78177661
21835456;81059317
21836028;81131336
21836259;81141532
21836569;81097416
21836762;81094302
21836828;80793713
21836828;81094363
21837014;79463927
21837014;81122774
21837016;81122781
21837346;81101423
21837564;81088044
21837806;79244551
21837895;81103399
21837907;81103396
21838124;81104065
21838868;81073568
21838889;81073581
21838974;81073784
21839006;81074566
21839053;81074567
21839071;81074584
21839100;81074633
21839126;81074623
21839274;81077448
21839666;78607599
21839896;81034562
21839899;81034576
21840305;81111813
21840467;81112361
21840892;81118745
21841036;81119682
21841141;81120882
21841162;81120889
21841165;81120877
21841166;81120894
21841367;81121703
21841393;81121740
21841417;81121745
21841548;81071973
21841558;81071974
21841599;80152266
21842184;81079440
21842457;81079726
21842541;81104590
21842571;81104593
21843129;81125080
21843253;81126709
21843254;81126737
21843310;81126768
21843437;81132056
21843523;81132101
21843788;79615634
21844166;81082565
21844238;81082586
21844451;81084038
21844604;81084178
21844673;81120138
21844732;81120148
21845003;81063008
21845080;81063055
21845095;81063068
21845140;81063113
21845250;81063169
21845354;81063239
21845582;81075938
21845624;80236359
21845644;81075960
21845697;81075991
21845838;80257189
21845942;80257293
21845976;81068329
21846018;81115171
21846042;81115164
21846047;80268511
21846323;81041485
21846356;80826982
21846357;80826983
21846385;81041540
21846425;80827063
21846538;80827275
21846545;80827282
21846603;80827352
21846730;80827500
21846745;81092003
21846874;80843225
21846878;81094128
21846879;80843230
21846917;80843268
21846966;80884812
21847014;80884862
21847027;81096632
21847055;81096640
21847160;80887682
21847190;80887718
21847226;80887754
21847283;80903520
21847354;80903591
21847489;81142648
21847706;81142875
21847904;81168576
21847971;81168647
24100863;74899790
24104900;81008083
24200042;81009557
24600974;77258331
24601038;76605974
24602117;78277027
24602980;78192779
24603229;78290639
24603416;73613570
24603723;80920295
24604006;81015440
24604604;76593727
24604770;80969809
24605197;74858265
24606053;78139963
24606231;78261074
24606390;77242361
24606468;81065622
24606729;81126069
24606762;81126115
24606789;78062097
24606977;76994525
24606985;81068666
24607025;74693660
24607079;78183949
24607132;78080892
24607210;75024736
24607222;76701450
24607230;81033388
24607797;81030984
24607899;78199110
24608018;81044597
24608022;81044631
24608300;81131524
24608759;81073500
24608876;81032364
24608910;81032373
24608961;81032408
24608962;81032410
24609296;81079959
24609728;81083337
24609950;81120366
24609952;81120370
24610003;81063409
24610186;81092168
24610193;81092182
24610200;81092181
24610202;81092188
24610296;80846808
24610324;81109528
24610329;81109531
24610472;81147747
24610537;81169895
24610612;81170025
24610618;81170031
24610632;81170045
24700670;76663954
24700922;78299131
24700982;76456312
24700995;78079558
24701106;81122718
24701141;81103822
24701177;81073863
24701263;81079926
24701426;81094787
24701439;81147608
24701445;81147630
26003184;76332408
26003324;81171851
26003598;80923797
26004957;76283580
26005756;72764916
26005769;76778838
26005844;80954860
26006015;81024665
26006428;75233503
26006509;80912761
26006619;76576846
26006888;77128494
26006888;80973416
26007159;80970043
26007239;78207909
26007305;78207953
26007310;70685404
26007310;80970475
26007318;75070082
26007369;78302885
26007509;81008002
26007518;78087169
26008342;80995891
26008521;80969621
26009092;77170215
26009116;81065668
26009185;80968600
26009398;80040001
26009398;80998407
26009580;81081299
26009590;81081629
26009608;77086768
26010103;78060882
26010188;81028493
26010207;78112632
26010259;81044564
26010398;81057243
26010507;81141604
26010651;80797147
26010651;81122789
26010781;80129620
26010875;81088450
26011263;81102077
26011471;81121893
26011518;81072200
26011790;79952819
26011935;80468300
26012038;80887820
26012084;80903776
26012125;81168788
26012139;81168802
31008292;81043817
31013715;81122403
31020440;81182628
31021266;81176110
31021725;81180676
31021996;77912157
31022214;81178861
31024928;81106966
31024977;77959176
31026385;81107261
31030432;81109325
31031278;76305162
31200034;74212011
31201371;80954304
31205829;78118895
31205926;80947162
31206303;77139030
31206740;78242423
31206967;81180516
31207493;80923858
31207694;80938777
31208765;77545167
31208958;78218548
31209213;80949356
31211231;74781202
31213170;80988756
31213543;75911274
31213977;78094453
31214113;80932068
31214114;80932069
31214415;78083050
31214487;78301679
31214502;80960116
31215693;81178401
31215719;77174455
31216154;77401717
31216327;80919965
31216843;76600265
31217544;76612082
31217770;77862916
31218515;80929356
31218781;78302419
31218963;80930765
31219021;78194829
31219083;72391813
31219701;80920827
31219736;80920859
31219958;78292115
31219963;78098529
31220337;81182131
31220976;71943540
31221503;81026793
31222370;81005434
31222421;78082822
31222506;81034856
31222598;78244932
31222720;77985161
31222720;81034977
31222730;78281292
31222746;78075305
31223270;78184312
31223302;76391772
31223329;80972111
31223330;80972112
31223380;77890087
31223665;78060682
31224401;77442017
31224862;77154924
31224910;78184888
31224933;77938643
31225513;73480937
31225884;76868022
31226534;77526803
31226550;75760614
31226737;76667009
31227021;78268746
31227171;78302987
31227360;80995909
31227920;78115365
31228026;77157180
31228493;81002220
31229633;77229676
31229658;77601659
31230035;74393925
31230160;80956177
31230934;81043025
31231235;80109439
31231235;81166573
31231356;78092164
31231387;74881887
31231767;75185313
31231807;76472438
31232064;77098040
31232208;78248483
31232242;75494100
31232430;80976014
31232570;77590414
31232705;78080561
31232726;80976941
31232763;80076593
31232799;78164900
31232863;78164980
31232987;81113590
31233066;78113984
31233152;77966131
31233185;80995612
31233186;80995627
31233206;78069290
31233225;80995629
31233293;78069252
31233294;80038026
31233294;80995660
31233320;78069301
31233496;78165059
31233589;78225733
31233662;78237784
31233684;80131017
31233684;80995094
31233745;78115433
31234308;81068567
31234546;80985621
31234731;76947867
31234938;78214097
31234944;78214068
31234981;80760373
31235072;81095370
31235096;81095378
31235356;81029568
31235481;80062373
31235522;77290301
31235522;81033330
31235557;76407476
31235639;77159127
31235653;78153509
31235854;78075371
31236426;76456027
31236470;78090230
31236551;81019220
31236582;78126560
31237258;80989487
31237283;78210694
31237586;78196428
31237619;81066547
31237794;81066238
31237927;76753446
31238094;81029085
31238158;77119159
31238557;77481721
31238568;81031360
31238660;81028571
31238711;81028618
31238891;81004668
31239006;77229194
31239225;81045215
31239722;81060335
31239723;81060314
31239826;81055051
31240419;81131387
31240608;81098759
31241130;81108937
31241220;81122517
31241288;81122657
31241580;81103156
31241612;81103207
31241752;81103540
31241753;81103526
31241754;81103539
31241755;81103570
31242134;81105494
31242796;81073012
31242822;81073443
31242972;81073824
31243003;81013287
31243028;81013321
31243029;81013310
31243045;80138971
31243045;81013322
31243065;81013350
31243085;81013346
31243137;81013482
31243284;81084702
31243463;81091779
31243926;81032660
31243979;81032693
31243986;81032730
31244181;81032869
31244573;81119785
31244661;81147679
31244706;81119921
31244740;81119908
31245279;81077832
31245330;81077861
31245584;81078476
31245818;81078655
31246582;81125579
31246583;81125588
31246584;81125578
31246975;81132276
31247212;81082633
31247344;81082779
31247735;79923070
31247904;81120185
31248182;81063308
31248256;80213604
31248257;80213605
31248328;81071343
31248542;80268646
31248577;80268681
31248581;80268685
31248907;81092740
31248921;80838069
31248931;81092747
31248932;81092763
31248933;81092764
31249042;81092833
31249043;81092830
31249056;81092840
31249072;80838238
31249120;81092871
31249123;80838289
31249212;81092929
31249314;81092973
31249321;81092972
31249374;81092997
31249376;80838564
31249530;81094197
31249598;81094224
31249668;81094248
31249671;81096693
31249672;81096679
31249702;81096699
31249770;81096727
31249877;81109621
31250025;80904232
31250058;80904265
31250061;80904268
31250145;81143432
31250204;81143507
31250213;81143516
31250501;81169182
31250645;81169326
33301704;80955906
33403365;79048605
33426034;79030928
33436062;79069602
33442879;79177078
33445318;79195305
33453898;77754596
33460545;81142975
33460570;81143004
33460721;81143182
71601708;81130862
71601728;79249887
71601787;80201696
71601954;80190839
71601985;81098543
71601987;81098544
71601990;81098535
71601991;81098532
71602096;79857567
71602238;80191461
71602248;80191467
71602250;81099430
71602258;80191499
71602336;80718914
71602365;80719140
71602501;80720678
71602523;79262538
71602535;80720727
71602536;80720722
71602610;80196689
71602639;81102532
71602641;79477220
71602777;80196819
71602841;80804435
71602965;81108913
71602967;80806633
71603097;80806995
71603111;80807001
71603185;81109099
71603187;80806908
71603212;79478262
71603250;79263505
71603251;79263506
71603252;80806865
71603262;81109164
71603266;80197552
71603348;80806773
71603377;81123177
71603630;80189228
71603632;81123306
71603688;80798586
71603737;81123428
71603770;81123464
71603771;80189440
71603858;81086606
71604028;80182145
71604064;79863275
71604247;79863298
71604323;80182705
71604961;81069118
71604962;80170294
71604996;79867027
71605034;80170359
71605036;80804080
71605076;81102986
71605077;81102989
71605078;80754909
71605079;81102991
71605080;81102992
71605081;81102993
71605382;80745540
71605859;81085248
71608193;81083428
71608430;80894960
71608436;81109770
71608693;81156554
71608694;81156579
71608709;81157089
71702351;75728607
71702356;78096914
71702427;76875882
71702844;75539257
71703061;71492631
71703295;76608601
71703333;75964212
71703373;76600116
71703395;76608663
71703456;76612136
71703483;78064171
71703744;76790303
71703848;75955006
71703940;76635674
71704317;76917901
71704473;78234043
71704522;77179710
71704540;76593870
71704730;75745384
71704752;76923929
71704852;78080138
72024026;71636470
72025083;77259615
72404637;81180809
72405652;78095603
72407102;81178844
72411644;78131956
72411769;80916757
72416473;78071559
72418433;81181744
72418593;81180722
72418844;78155986
72418976;81002569
72419784;81181119
72420449;81177029
72420525;81179883
72421009;81179824
73104122;81178049
73104851;80589227
73106212;78203621
73108922;80607193
73109084;76363501
73109880;80608340
73109881;80951064
73110720;80601004
73111456;78230083
73200745;81180721
73201319;80656777
73201582;78119083
73202456;76790752
73202485;78131222
73203243;77923115
73203845;73886812
73204183;81177175
73206106;80617445
73206152;78276163
73206748;80578796
73206800;76555531
73206822;78217508
73206913;80592609
73206938;80593152
73206962;78242052
73207409;78219590
73207412;78219572
73207813;78135294
73207885;80973974
73208166;77984114
73208195;78195565
73208259;73042206
73208313;80633442
73208827;81005510
73208902;81005767
73209306;78220782
73209580;80998745
73209676;74989856
73209892;72977139
73210363;78123271
73210444;80979550
73210859;78223278
73210949;78211323
73210963;78211327
73211068;80721404
73211759;78293692
73211768;78148271
73211850;80721166
73211941;72453565
73212030;81091096
73212113;78186738
73212280;80653870
73212335;78067332
73212367;78249362
73212412;78247739
73212718;78298652
73212939;78176804
73213485;81016927
73213636;80726104
73213660;80726067
73213685;80726028
73213691;80726017
73213703;80726057
73213719;80722271
73213728;80722282
73213734;80722289
73213815;80732006
73213820;80732061
73213828;80732018
73213830;78186899
73213846;80732117
73213872;75823546
73213873;78247636
73213874;75823541
73213876;76749129
73213882;75823581
73213889;80732176
73213981;81021051
73214015;78126667
73214035;78101711
73214046;75822076
73214057;75822142
73214134;80729386
73214139;75822264
73214258;78257325
73214315;78198149
73214331;76741538
73214383;80707678
73214384;76742608
73214388;80707675
73214433;76747959
73214434;76747977
73214523;76747573
73214587;78078687
73214623;80753865
73214671;81006956
73214672;81006949
73214690;80753701
73214791;81044552
73214831;77020076
73214918;77020956
73215000;77022279
73215049;80754448
73215407;80768683
73215804;81115745
73215805;81115742
76040152;80940887
76041085;80941090
76049775;81181595
76073957;77174363
76077348;73064045
76090216;73873286
76092487;80993497
76092490;80993498
76093017;80917864
76094216;78193799
76096758;80957371
76099926;77629520
76105059;77270100
76107004;78131357
76108911;78084840
76109378;78106502
76110059;73065787
76110490;77570483
76110529;80959437
76110854;76335856
76111672;76793065
76112121;76553190
76112425;80928882
76112584;78072298
76113027;77510278
76113255;76819414
76113608;76291081
76113844;78229921
76113987;75193823
76113999;78239750
76114124;78157495
76114625;80955189
76114869;78070482
76114953;78218430
76115129;80955203
76115369;78085186
76115750;78143120
76116458;77968313
76116488;81015208
76117019;78207118
76117340;78110684
76117755;80919728
76117906;75672118
76117918;78267285
76118126;75157539
76118180;74876357
76118219;80930193
76118375;75409007
76118785;80930358
76119018;78267319
76119413;80961100
76119463;75068961
76119526;78267420
76120062;80920732
76120312;78243727
76120473;78146970
76120504;76571250
76120728;78267671
76120859;80973133
76121042;73046763
76121196;78122658
76121612;80965048
76121790;76593537
76121930;80967904
76122085;80968013
76122087;74751077
76122090;80968015
76122109;80968034
76122165;81025617
76122425;81026819
76122494;78170848
76123046;78219918
76123104;78256462
76123185;72996855
76123249;80970251
76123254;80970271
76123425;80970669
76123573;76890435
76123574;80970820
76123823;78268491
76123995;81004357
76124711;78268675
76124737;78074940
76125144;77189625
76125238;72993135
76125459;78183488
76125608;75597088
76126613;76926842
76126638;78233187
76126907;81115776
76127063;77575043
76127162;78222722
76127214;81051937
76127258;78150108
76127357;78221052
76127408;78148657
76127458;78066258
76127658;78210882
76128101;78191290
76128191;76369522
76128313;76924091
76128349;78294374
76128524;75166013
76128644;78123532
76128858;81011417
76128859;81011414
76128861;81011408
76128863;73867775
76128949;81011470
76128958;81011477
76129164;70955643
76129215;78268104
76129324;78295993
76129392;81014158
76129515;76387144
76129555;81014214
76129612;77503940
76129676;78186434
76129938;78198341
76130000;70927652
76130298;76422661
76130417;77480745
76131072;78186686
76131101;78271733
76131146;70495626
76131193;70495914
76131278;80975674
76131409;78283855
76131730;70497087
76131920;70497506
76131966;70497668
76131972;78061236
76131999;76381572
76132236;70487384
76132587;70496667
76132596;77142682
76132654;74927608
76132857;78174612
76132941;78256572
76133168;78303019
76133192;75034504
76133334;80962208
76133338;78211772
76133538;80961859
76133576;78303226
76133596;80961588
76133664;78148221
76134318;78304472
76134405;78126918
76134492;78247991
76134517;78090606
76134540;78162963
76134721;78259845
76134810;78284347
76135027;75280909
76135291;80999962
76135430;78174953
76135588;71094254
76135961;78103179
76136016;78236326
76136087;78272651
76136308;74869240
76136340;78078811
76136382;78212262
76136542;78057110
76136590;78175241
76136721;75242568
76136752;76966976
76136790;81056581
76136804;76669717
76136809;78236395
76137083;77193267
76137112;78199311
76137275;80968377
76137376;78112131
76137586;81008881
76137608;78209460
76137673;81009012
76137674;81008991
76137918;81009194
76137919;81009192
76137998;78255718
76138173;76997684
76138261;81008442
76138605;76927954
76138656;78302582
76138739;76031556
76138816;78091158
76138972;76997646
76139842;78199622
76140044;78152165
76140159;78068410
76140238;80987262
76140602;76922894
76141066;78233065
76141284;78123593
76141292;78123599
76141295;78123601
76141530;78285544
76141572;80962772
76142130;80986164
76142160;80986180
76142161;80986181
76142163;78211537
76142345;80986288
76142353;80986293
76142371;78102477
76142469;80986397
76142700;78068640
76142816;78126526
76142885;78186907
76142893;81010279
76143227;78114536
76143361;78102630
76143391;78078299
76143400;76088228
76143461;73955740
76143492;81010781
76143493;81010786
76143544;78186965
76143562;78235833
76143582;78235853
76143659;78058159
76143769;78247765
76143781;73254699
76143908;78176113
76143978;81013020
76144018;77232301
76144165;78150210
76144173;75180804
76144499;81047701
76144532;78080157
76144547;78104153
76144666;78298427
76144907;81052553
76144909;81052555
76144912;81052557
76144913;81052583
76145110;78058188
76145219;78200476
76145382;80981454
76145393;80981444
76145696;78152887
76145716;78176436
76145738;80983303
76145739;80983306
76145754;75818947
76145768;78305233
76145780;78213475
76145799;80983347
76145802;80983348
76145859;75073162
76145869;76610984
76145926;73506485
76146043;78067650
76146068;75817309
76146070;78067662
76146071;78067661
76146217;76901782
76146302;78247982
76146337;78272351
76146377;80980008
76146382;75502201
76146386;78296938
76146401;75817633
76146450;78114911
76146484;80980105
76146485;80980080
76146694;76013647
76146715;76013644
76146875;78163024
76146937;76900254
76147041;80983472
76147042;80983474
76147285;76009220
76147410;76904858
76147466;78261601
76147633;76015675
76147637;76380335
76147651;76015701
76147661;80984649
76147781;80984753
76148108;76905928
76148133;76016190
76148147;77506084
76148223;80986679
76148365;78140561
76148407;75820959
76148728;78298820
76148792;78298863
76149154;78304095
76149267;78077738
76149282;78077747
76149374;76959381
76149511;78125912
76149559;80968646
76149596;80968681
76149612;80968694
76149681;76861693
76150080;80976265
76150173;80976305
76150304;78274264
76150333;78298905
76150388;78080538
76150496;77146563
76150735;76129641
76150767;78091084
76150778;78091091
76150823;77528742
76150834;81113754
76150869;75785028
76151196;78075767
76151259;78160622
76151280;77214333
76151296;78221037
76151319;76938626
76151374;78092859
76151478;78165039
76151483;78176791
76151489;78176795
76151656;81125924
76151657;81125915
76151857;80993942
76151864;78271316
76152155;78089850
76152160;78186326
76152313;77067046
76152340;78101985
76152376;78102015
76152392;80994363
76152394;77444488
76152451;76726300
76152472;80994432
76152473;80994433
76152799;76977054
76152856;78225743
76152918;78128594
76153065;74259339
76153066;81129551
76153288;76978220
76153342;81129793
76153344;76978270
76153465;78225756
76153469;81129877
76153481;78237904
76153697;78104726
76153740;75792259
76153789;81130107
76153799;81130085
76153870;80999530
76153935;78165230
76154097;78212610
76154204;74176210
76154269;78213944
76154279;75003305
76154288;81001158
76154290;78225811
76154380;78092966
76154476;78261986
76154479;78261989
76154510;78299068
76154694;78299070
76154826;76434300
76154838;78199515
76154902;78297764
76154997;78091486
76155009;78091474
76155078;80996929
76155107;80996963
76155306;75198322
76155391;78068264
76155441;78127437
76155562;80997298
76155568;78260753
76155718;78139765
76155842;78212673
76156098;78229170
76156291;78299090
76156301;78189115
76156393;78189124
76156473;78285133
76156670;78250381
76156869;81069806
76156886;76725999
76157047;78062244
76157143;80986913
76157144;80986932
76157171;80986926
76157183;78128895
76157283;78128937
76157472;80985459
76157493;78271572
76157564;78061182
76157597;77540131
76157701;78271631
76157704;80985831
76157713;75768895
76157729;78271640
76157764;78162511
76157855;78174154
76157993;78245480
76158121;80985281
76158259;78124302
76158263;78148741
76158283;78136647
76158358;80984131
76158359;80984133
76158372;78184576
76158376;78184558
76158408;78184569
76158420;74963352
76158431;78221113
76158570;78221138
76158598;76713215
76158711;75795987
76158860;76055342
76158925;80982500
76159001;78245323
76159038;78245327
76159073;78293987
76159127;80982634
76159302;78160515
76159344;78196233
76159354;81083028
76159397;75011479
76159484;75557025
76159500;78111726
76159577;78293330
76159597;78293349
76159712;81080663
76159917;78220575
76159922;78220568
76159924;78220570
76159980;78220617
76160071;78232998
76160091;78232990
76160109;81081350
76160245;81081958
76160275;78075190
76160299;81081942
76160371;76949215
76160459;81082909
76160575;78139839
76160678;81030633
76160728;78235697
76160881;78303802
76160958;77598894
76161012;78101383
76161039;76937109
76161249;81031914
76161267;81026691
76161340;81026622
76161482;78098959
76161676;77082164
76161769;75534029
76161935;76985431
76161940;77806689
76161943;81018060
76162067;78186865
76162286;81018126
76162414;78068470
76162468;78224706
76162476;75861529
76162929;76055604
76163157;81072495
76163158;81072496
76163210;81066586
76163211;81066587
76163223;81066617
76163314;81066764
76163638;81066181
76163673;76068370
76163704;78153624
76163717;81076870
76163721;81076885
76163753;81076913
76163795;76072828
76163796;81076923
76163814;76072858
76163898;76060068
76164008;78162063
76164044;81030302
76164046;81030305
76164212;81028737
76164213;81028738
76164228;81028746
76164310;81031512
76164436;76741566
76164451;81029660
76164576;81027537
76164658;81006065
76164662;81006067
76164671;78223807
76164816;81006275
76164833;78297013
76164836;78297016
76164838;78297019
76164932;78078654
76164934;78078657
76165089;81006984
76165097;81007002
76165286;81044685
76165580;81044982
76165600;81045474
76165730;81045719
76165732;81045711
76165800;78260007
76165820;81043738
76165879;78093392
76165889;78093414
76165946;77022356
76166013;77022453
76166024;81046101
76166124;78189728
76166127;78201520
76166137;81046282
76166176;81056649
76166235;78141571
76166333;77015799
76166377;81061386
76166482;77015990
76166485;78117491
76166486;78117492
76166496;81061909
76166498;81061910
76166501;81061907
76166610;81062004
76166617;77014534
76166746;81058125
76166769;81058158
76166792;77014716
76166803;78237191
76166958;81060395
76167128;81060519
76167178;77015381
76167206;81056930
76167208;78127171
76167280;77013834
76167332;77013895
76167373;77013934
76167416;81057496
76167473;81057547
76167479;81057594
76167480;81057556
76167496;77577137
76167549;78260152
76167583;77016551
76167734;81055810
76167754;77205561
76168137;81056156
76168182;77288872
76168222;81056234
76168225;81056238
76168350;77169360
76168375;77157328
76168501;81056482
76168519;81056486
76168579;81056534
76168584;81056529
76168585;81056530
76168619;77096900
76168622;81056964
76168623;81056965
76168626;81056969
76168731;77099085
76168774;81059015
76168775;81059041
76168855;81059089
76168857;81059122
76168860;81059133
76168870;81059095
76168871;81059123
76168873;81059091
76168875;81059119
76168876;81059132
76168877;81059093
76168879;81059142
76168881;81059116
76168883;81059117
76168896;81059141
76168919;77195341
76168922;81059164
76168924;81059167
76168943;81059177
76168950;81059179
76168952;81059193
76168954;81059181
76168960;81059187
76168963;81059188
76168968;81059229
76168969;81059197
76169020;77231346
76169100;81054912
76169155;77250249
76169172;78281994
76169176;81054191
76169294;81054264
76169296;81054265
76169355;81054303
76169357;81054284
76169443;77262186
76169754;81057100
76169755;81057070
76169780;81054926
76170040;81059486
76170042;81059455
76170128;81059554
76170161;81059586
76170525;81059994
76170662;81058649
76170686;81058670
76170687;81058671
76170692;81058676
76170743;81058725
76171102;81069309
76171122;81126577
76171612;81130750
76171650;81130744
76171664;81130752
76171753;81130839
76171872;81131077
76171882;81131088
76171895;81131090
76172278;81133864
76172279;81133866
76172331;81134048
76172332;81134041
76172394;81133997
76172396;81133998
76172403;81134002
76172504;81134054
76172505;81134055
76172533;81134086
76172534;81134101
76172560;81134115
76172563;81134117
76172795;81140662
76172797;81140678
76172799;81140733
76172950;81140836
76173571;81136667
76173907;81136911
76173909;81136913
76173910;81136940
76173953;81136960
76174061;81095538
76174063;81095547
76174176;81098490
76174855;81083143
76174966;81089526
76174969;81089533
76175434;81027783
76175658;81102873
76175689;81102966
76176107;81096835
76176157;81096870
76176269;81103443
76176409;81064039
76176538;81072843
76176551;81072866
76176590;81072906
76176704;81064951
76176817;81073733
76176827;81073740
76176915;81073969
76176916;81073970
76177089;81074131
76177515;81013637
76177845;81091453
76177995;81091617
76178052;81091662
76178058;81091667
76178061;81091671
76178183;81098898
76178488;81081016
76178990;81099908
76179299;81105848
76179338;81105869
76179345;81105905
76179450;81080887
76179545;81080902
76179556;81080911
76179615;81105934
76179616;81105935
76179667;81081206
76179677;81081211
76179740;81084523
76179742;81084524
76179979;81078120
76180006;81078132
76180341;81078836
76180613;81106019
76180735;81034200
76180841;81032581
76180843;81032582
76180867;81032908
76180986;81110978
76180993;81110985
76181200;81111280
76181751;81114317
76181895;78646032
76181952;81116373
76181953;81116381
76181954;81116383
76181955;81116384
76181977;81116390
76182677;81012669
76183028;81118625
76183085;81118672
76183135;81123798
76183218;81124442
76183220;81124444
76183671;81077657
76183682;81077648
76183689;81077654
76183691;81076406
76183841;81076563
76183966;81076661
76184013;81074827
76184062;79302421
76184125;81074898
76184215;79302667
76184279;81075004
76184411;79323718
76184432;79323743
76184876;81131806
76185207;81132896
76185539;81133220
76188755;81086292
76188765;81086302
76188881;81086938
76189395;81119487
76190665;81071006
76190666;81071007
76190667;81071008
76190973;81071550
76191206;81073027
76191586;81073424
76191587;81073425
76191588;81073426
76191590;81075130
76191591;81073427
76191862;81066028
76192000;81068361
76192222;81111849
76192320;81111889
76192334;81111929
76192347;81111941
76192351;81111946
76192353;81111947
76192364;81111954
76192366;81111998
76192367;81112000
76192368;81111999
76192369;81112001
76192414;81112002
76192457;81112181
76192774;81114071
76192908;81114199
76192963;81115111
76192973;81115117
76193009;81115382
76193061;81115429
76193062;81115431
76193259;81115632
76193354;81115719
76193355;81115721
76193356;81115720
76193453;81112131
76193512;81041715
76193878;81041334
76193881;81041325
76194055;81041467
76194160;81093769
76194161;81093770
76194329;81093923
76194330;81093925
76194412;81093972
76194413;81093973
76194547;81094720
76194896;81095079
76194903;81095067
76194983;81095947
76195033;81095996
76195394;81096431
76195406;81096462
76195415;81096467
76195551;80885058
76195552;80885059
76195698;80886474
76195726;80886849
76195794;80888792
76195796;80888800
76196001;80896085
76196002;80896086
76196165;80896352
76196186;80897401
76196299;80904693
76196304;80904698
76196358;80904766
76196501;80907534
76196504;80907537
76196614;80907779
76196721;80907917
76196744;80907955
76196818;80908626
76196936;81143333
76197125;81157060
76197213;81157344
76197310;81158219
76197400;81158309
76197700;81158875
76197785;81158963
76197852;81159030
76197871;81159049
76609449;77260378
76612435;76469982
76612447;76469961
76612772;75861152
76613319;77998931
76615949;80889535
76615957;80889543
76615988;81109726
78200561;72268697
78400840;75727311
78401224;78167206
78402092;73149680
78402128;78193662
78402268;81175641
78403382;80924653
78403591;74946892
78404114;78178980
78404256;81176136
78404415;81177126
78404725;81177523
78404743;77943982
78405208;78191212
78405519;78227744
78405728;78070562
78405913;78241104
78406033;75714268
78406037;80949201
78406291;76805160
78406468;76868045
78406665;78217801
78407113;75677840
78407541;77790531
78407593;75100649
78407653;81182093
78407656;76597460
78408508;80988828
78408729;78144931
78408894;80914251
78408902;80914268
78409100;76816155
78409332;80958782
78409343;75727952
78409537;81023105
78409541;81023112
78409545;81023114
78409546;81023115
78409639;77850699
78409660;80926283
78409691;80928719
78409824;78133037
78409919;78217692
78410413;78155285
78410844;74925049
78410937;78182852
78410966;78086228
78411015;80930133
78411098;80960819
78411099;80960759
78411127;78086357
78411164;75409687
78411215;80930439
78411327;80930899
78411369;78231554
78411680;78231655
78411796;78111014
78412279;72763872
78412282;76886743
78412296;78256469
78412518;78099354
78412677;81005954
78412753;81035479
78412889;80971781
78413008;75859293
78413135;78268113
78413254;80961589
78413416;75781973
78413497;75802121
78413609;75011815
78413676;77000271
78413793;76676829
78414188;80963031
78414189;80963027
78414495;77917033
78414614;81010747
78414619;76995091
78414667;78272017
78414716;78247766
78414812;78150217
78415114;78235323
78415200;80996578
78415210;75295289
78415230;78062183
78415231;78058602
78415261;76709672
78415278;80997391
78415299;81062261
78415323;78163704
78415384;80985263
78415673;81017973
78415688;81018010
78415735;78186838
78415752;81020745
78415755;81020774
78415756;81020741
78415770;81020756
78415797;78247633
78415824;81020856
78415935;78126676
78415940;78304353
78415965;76739983
78415994;78235039
78415996;81018415
78415997;81018446
78416038;78258648
78416054;81018541
78416060;81018573
78416069;81018163
78416094;81018214
78416111;80990116
78416329;78295443
78416339;78234702
78416361;78246625
78416483;81031485
78416484;81031487
78416485;81031464
78416511;81006163
78416521;78304546
78416561;78102907
78416603;81006380
78416685;78103029
78416736;81006944
78416815;81007183
78416844;78262361
78416896;81044726
78416906;81044764
78416937;77020367
78416956;78078845
78417037;81043791
78417115;81046112
78417117;81046110
78417127;81046134
78417189;81046246
78417195;81046279
78417358;81100314
78417461;81124421
78417484;81124823
78614386;78235304
78614851;78126084
78614920;74395815
78624034;78236888
78631018;81106133
80026833;80911265
80027368;80911337
80027955;80911180
80028037;80911140
80028190;80911102
