NUMERO_POLICES;NUMERO_QUITTANCE
33310617;76852691
31207867;76888907
31208471;76803887
31030452;77018697
31234523;76893720
31234524;76893721
31204874;76790917
33302714;76852655
73111051;76844601
31204117;76859271
33310618;76852692
31027654;77017890
31010136;77010087
31223919;76928437
31002830;76970886
31005754;76982679
33330101;76844253
31229512;76871204
31228474;76928228
31003762;76988033
31204073;76821430
16806828;76932696
31005922;76982685
31005986;76982692
31222915;76882953
31026773;77017622
31028075;77017998
31006157;74843736
77010688;76812150
31013939;77010720
16817846;76897780
31006850;76977908
31006975;76977916
31234973;76953351
31019685;76968031
31007411;76999859
73109377;76879956
31007431;76999863
31007483;76999871
31220468;76913335
31031593;76823329
31027029;77017699
31238156;77006695
31007995;77019318
31214516;76892859
33301802;76852632
31224951;76977369
31008294;77019361
31215964;76883685
31224638;76930372
16807313;76815947
31008965;77012427
31028328;77018078
31009034;77012431
31009097;77012446
33301700;76852621
31221914;76843365
31228344;76998319
73202457;76790753
31031323;76823524
73205980;76804947
73205981;76804949
31227764;76965182
31010043;77010009
31231406;77001339
31201743;76794767
31201744;76794770
31207045;76794512
31222873;76918197
31222872;76918196
73204783;76799915
73110933;76823285
31213063;76931601
31010534;77010153
31208050;76894439
31223265;76927185
31217951;76857540
33300951;76852535
31226657;76970651
33301096;76852564
33301705;76852544
33304886;76852667
33302064;76852650
33302089;76852651
33302110;76852652
31209183;76888455
31212740;76846367
33302730;76852551
33302767;76852657
33302782;76852659
33302797;76852660
33302836;76852661
33302837;76852663
31031600;76844610
73204406;76889088
73202924;76860428
31207430;76805840
31238257;77008168
31202245;76812024
31012441;77010442
31012619;77010476
31210070;76885698
31012694;77010484
73100886;76802342
73100894;76802344
73101064;76814202
31207269;76794329
73101164;76814215
31012873;77010516
31030547;77018718
31031327;76823529
31222374;77012604
31204077;76857237
16810395;76913086
33310207;76852669
31013166;77010564
31013180;77010568
73102389;76814369
33310611;76852690
33310724;76852695
33310779;76852698
31226969;76969329
31017076;77011325
31017077;77011326
31017080;77011330
31203880;76857067
31031433;76843593
31013543;77010636
31228688;77005726
31013660;77010653
31013796;77010685
31013800;77010687
31013931;77010716
31014060;77010743
31228432;76997860
31014324;77010784
31014403;77010793
31015868;77011054
31014544;77010818
31014561;77010817
31014583;77010828
33333267;76815989
31200790;76829930
31215742;76896763
31215963;76883684
31031852;76843764
31214569;76887448
77010622;76920256
31014897;77010878
31014898;77010877
31014901;77010879
31027046;77017706
33319051;76843991
31215001;76898755
31215826;76887739
73103099;76802114
31015164;77010940
31015166;77010938
73109999;76881095
73200077;76808064
31015652;77011019
31231290;77001269
33319076;76843989
33319104;76844002
77010574;76811333
31208234;76895140
31217331;76864318
33319659;76844028
31030569;77018723
33319765;76844051
33319787;76844063
31201258;76834915
31016009;77011089
31230600;76937977
33319945;76844078
31016130;77011109
33320087;76844094
33320119;76844102
33320137;76844156
33320182;76844150
33320187;76844116
33320198;76844166
33320211;76844113
31215010;76836177
31215011;76836178
31216367;76800804
77002905;76820470
31225069;76954986
77003009;76820463
77003025;76820460
33320376;76844179
33320396;76844181
33333274;76828067
31016299;77011149
33320461;76844182
33320462;76844184
33320491;76844183
33320517;76844186
33320533;76844188
33320539;76844189
33320550;76844190
33320551;76844191
33320554;76844192
33320748;76844195
33320753;76844193
33320764;76844117
31016345;77011157
31230883;76984464
31236686;76988142
73103234;76802141
33321066;76844197
73203543;76827212
31016543;77011211
33321207;76844198
33333254;76799371
73103746;76801977
73103748;76801978
33321282;76844201
33321302;76844119
33321328;76844204
31216482;76800929
31209267;76889417
73105086;76814930
31016821;77011269
31228026;76966768
73106212;76814514
31017037;77011316
31017779;76967609
31017082;77011327
31017088;77011331
31017137;77011340
31221940;76886825
31217753;76871575
31017221;77011358
31233195;76882706
31238136;77006699
31017464;77011392
31237858;76985003
31017512;77011407
31017555;77011420
31238573;77008843
31205352;76831442
31017651;77011438
31017692;76967585
31231386;77002172
31026076;77017457
31225903;76868461
31203628;75875982
33450824;75898759
31204708;76860095
31223965;76928460
31232584;76942721
31212520;76848150
31215599;76895725
31206412;76856547
31231054;76984512
31231053;76984521
31219044;76812796
33331327;76844364
31237643;76978870
31237829;76978515
31238018;76981330
31223682;76927412
31213706;76799296
31027940;77017963
31027939;77017965
31203431;76796249
31218392;76785859
31218253;76880347
31206105;76860341
31206441;76855182
77010440;76810952
31018776;76967825
31020072;76968141
73200933;76811978
31028088;77018006
31018841;76967847
31212693;76845593
31028691;77018185
31211452;76787026
33327810;76844215
31235262;76936629
31202042;76812051
31216401;76800737
31028876;77018250
31019285;76967944
73107436;76815212
31019237;76967934
31237833;76978519
31237994;76985502
33329275;76844224
31234654;76949906
33329430;76844234
33329511;76844241
31019624;76968028
33329663;76844245
33330104;76844256
31238515;76134556
31238539;76136388
33330426;76844300
33330575;76844314
33330623;76844330
31204862;76790550
33330696;76844351
33330703;76844352
31019822;76968081
31225369;76955230
31200828;76834747
33333512;77012609
31020069;76968137
31020070;76968140
31204663;76859920
31020171;76968165
31020274;76968192
31026132;77017471
31020583;76968268
31214378;76816192
31214311;76872996
31232962;76942989
31230295;76933434
31230296;76933437
31020691;76968251
31020698;76968252
31020736;76968296
31020753;76968302
31020762;76968305
73205695;76786550
73204268;76894489
31224665;76930409
31225338;76955695
31225337;76955696
31020981;76968357
31020925;76968343
31020924;76968344
31212273;76850681
31221429;76872028
31021067;76968374
31235813;76962858
31026137;77017474
31021351;76968439
31207406;76805829
31021477;76968468
73202458;76790756
31021557;76968484
31021567;76968485
31021773;76968534
31203254;76789463
31217358;76864805
31022118;76968616
73107960;76815373
31206340;76855038
31212110;76819510
31207357;76826851
77010471;76811115
73108183;76879501
73108202;76879510
31022214;77061986
73202456;76790752
31212834;76932221
31022345;76968665
31200284;76808051
31201569;76788921
31201668;76789136
73205703;76786759
73205712;76786780
31022489;76968709
73200033;76807998
31227015;76969321
31210220;76833447
31203962;76821526
73205308;76888739
73111249;76843951
73111250;76843954
31022946;76968824
31022980;76968831
73108710;76879676
31211839;76819773
73110807;76823413
31023148;76968870
31206385;76855092
31023390;76968929
31023432;76968943
31223614;76927322
31221623;76842848
31234226;76990074
73204149;76897069
73111885;76807750
77005095;76820458
31209542;76891615
31024046;76969119
73202204;76859407
31222331;76889826
73109084;76879839
77010498;76811186
77005208;76820371
77200214;76820384
77005243;76820373
31024444;77017029
31232171;76965508
31232174;76965518
31232173;76965512
31232172;76965517
31024507;77017051
31228362;77000523
73206153;76864608
73206152;76864612
73206207;76870001
31024530;77017060
31208003;76894401
31024590;77017082
31202072;76811755
16802432;76920320
31235027;76953391
31024615;77017092
31024682;77017112
31024740;77017137
73109228;76879890
31026597;77017575
31236698;76988148
31236697;76988149
16806838;76935134
31024800;77017155
31024808;77017157
31027785;77017924
31024977;77017215
31028747;77018206
31223989;76928481
31031808;76844495
31025080;77017226
31025240;77017273
31025280;77017280
31211508;76798246
31211509;76798248
31229146;76853141
31025378;77017308
31205314;76826672
31211937;76820723
31025416;77017323
31025423;77017324
31025454;77017337
73109469;76879999
31028850;77018238
31029168;77018334
73109567;76880047
73109568;76880050
31223082;76927015
77010322;76794802
31229242;76853208
31237151;76983738
31025767;77017385
31025768;77017383
73109798;76880171
31231402;77002179
31031309;76823505
31031441;76843600
31026022;77017440
77800936;76931938
31226014;76868738
31026496;77017560
31026096;77017460
31236473;76987688
31236472;76987687
31026126;77017467
31221106;76873869
31026276;77017514
31026347;77017532
31026393;77017537
31229210;76853190
73109701;76880124
31221170;76877620
31221166;76995500
31231511;77002522
31232540;76941600
31235313;76937264
31219681;76809039
31209893;76791602
31200843;76834643
31202081;76920265
31208142;76894581
31204247;76860002
31235463;76939391
31216411;76793067
31216147;76787283
31216226;76787565
73202393;76790650
31212548;76848424
31027014;77017697
31027044;77017704
31028227;77018049
31027127;77017732
31029706;77018481
31027298;77017783
31027528;77017850
31030538;77018716
31027589;77017869
31027646;77017883
31027784;77017919
31028078;77018000
31028077;77017999
31028153;77018028
31030853;77018790
31221552;76875756
31030826;77018784
31202961;76923827
31028604;77018163
31028666;77018180
31219286;76862051
31206502;76856289
31234627;76893811
31028836;77018232
31215153;76883583
31028952;77018286
31215307;76895443
31029693;77018474
31029185;77018339
31222533;76917976
31228709;77005736
73110029;76881107
73110028;76881108
31236224;76991599
73110046;76881120
73110045;76881119
31231553;77003978
31224804;76930526
31029594;77018447
31219028;76812771
31030075;77018593
73110085;76881136
31214434;76898485
31214414;76887318
31029748;77018496
73201582;76796431
31216425;76792986
31216426;76792992
31030480;77018702
31214988;76884995
73201270;76926153
31030762;77018771
31219185;76862302
73200442;76847431
31030278;77018643
31030276;77018646
31031471;76843664
31217498;76864983
31234862;76948541
31234863;76948537
77010660;76920322
31030619;77018735
31200566;76837009
31215999;76883724
31218707;76796092
31218706;76796091
31231986;76962250
31203217;76789559
31031082;77018865
31031077;77018862
31234234;76990080
31031048;77018856
31224444;76926578
31200014;76807667
73110445;76820415
73110450;76820419
31031181;76820624
31209529;76891608
31031233;76823237
77800834;76794463
31207181;76795464
31031652;76844559
31219992;76828565
31219993;76828605
73111456;76844772
31201137;76834830
73111524;76845048
31200290;76808056
31200483;76829786
31202533;76812082
31221497;76873793
31215985;76883703
31200333;76829705
31200411;76807927
31200243;76808035
31224955;76977459
31224954;76977457
31200538;76829866
31200268;76808046
31237571;76978817
31204522;76857254
31200451;76829744
31206956;76794485
31200529;76829886
31236646;76987833
31211883;76817569
31211884;76817570
31211930;76817589
31223717;76927427
31200703;76836744
16816423;76965666
31204366;76860901
31202621;76920561
31201613;76788970
31201028;76846490
77010696;76812147
31201763;76836739
31201581;76788994
31201211;76834873
31219195;76865178
31207859;76888905
31201330;76836770
31201331;76836771
73201744;76821232
31213475;76792175
73202794;76858590
77010253;76794645
77010300;76810975
77010305;76810988
77010401;76794832
77010366;76794820
77010370;76794825
31201951;76811285
77010414;76794852
77800735;76810935
77010528;76811123
77010461;76812045
77010463;76812044
77010527;76811122
77010550;76811964
77010526;76811121
77010529;76811124
31202101;76920283
77200476;76920269
77200480;76920276
77010703;76812146
31226833;76969171
77200485;76811203
31219510;76806865
31226703;77016885
31228533;76928277
31209374;76878207
31237222;76977684
31227283;76901157
31222930;76882959
31204025;76831299
31202743;76926254
31227264;76901087
31213630;76799816
73202300;76857175
31202893;76923561
31208505;76800216
31217400;76864879
16810015;76827587
31203337;76796542
31212187;76819518
31217797;76873409
31203328;76789478
31203316;76789406
31203315;76789407
31203369;76789612
31203390;76796378
31211055;76870045
31204889;76790921
73201580;76796428
73202233;76859977
73202759;76858552
73202761;76858555
73206366;76798093
73206367;76798094
73206368;76798095
73201815;76821312
31203828;76825212
73201876;76830993
73203318;76806696
73201998;76831140
31210773;76863616
31204069;76831009
31230872;76984461
16817729;76979585
31207493;76806556
31204075;76825382
31204099;76859253
31223393;76927231
31204514;76857247
31220098;76829200
31204224;76857153
31204222;76857380
31204541;76859206
31214329;76873011
31226919;76969212
31204451;76859062
31214669;76898882
31214670;76898881
31222508;76882784
31205533;76831617
31206046;76858550
73202268;76860077
31207053;76794521
31204806;76857071
73202294;76860777
73202485;76790775
73202449;76790750
73209308;76928765
73204618;76895167
73204619;76895257
73204697;76895978
31204818;76790518
73202426;76790733
31204873;76790900
31234058;76898069
31206176;76831417
31206177;76831418
31205335;76822235
31208180;76889236
31205473;76831577
31205774;76822140
31216578;76804542
31205965;76826748
73204727;76786429
31207160;76794568
31206220;76831460
31209739;76837685
31208083;76894456
31206287;76831465
31206253;76860466
31206123;76860350
73203748;76894978
31206335;76855036
31208642;76855034
73202947;76855329
31237881;76985010
73203068;76856256
31206546;76856306
31206932;76795437
31228603;76993756
31206644;76858366
31207015;76795424
31206861;76794455
73204315;76890672
73203243;76808786
73203684;76827897
31208053;76894443
73204715;76786415
31214202;76828264
73203363;76885411
31207580;76830904
31207613;76830690
31219499;76794182
31207750;76835164
31223966;76928461
31207751;76835166
73204416;76889094
73204026;76896527
73204028;76896528
31216704;76801091
73204058;76896559
73204317;76890673
31207841;76888893
73205738;76786706
31207939;76894554
31208338;76792087
73204629;76895291
73204630;76895294
31219999;76828651
31208601;76800074
31208600;76800073
31209732;76792075
31208499;76803975
31208747;76825022
73205324;76888725
31238558;77008816
31208462;76803869
31222953;77012504
31208626;76833928
73205239;76837919
16810115;76828657
31223575;76927335
31208709;76872545
31208922;76888068
31208923;76888069
31208870;76885649
31208869;76885651
31208879;76885667
31217741;76871521
31217742;76871522
31209077;76888651
31209079;76888653
16806912;76932929
73205352;76888700
73205435;76888443
31209522;76891445
73205729;76786798
73205635;76878084
31209628;76874726
31210081;76786708
31210082;76786709
31213705;76799291
31209822;76786699
31209935;76804111
73206018;76805145
73206068;76835514
31213288;76788070
31210626;76836173
31218073;76863369
31218072;76863402
31211516;76798253
31211515;76798252
16810099;76828554
31211658;76798213
31211659;76798211
31211329;76874296
31211454;76787069
31211460;76787066
31211569;76797999
31211571;76798006
73206341;76798079
73206342;76798080
73206361;76798091
31212076;76845208
31212074;76845199
31211976;76820856
31212003;76821052
16806567;76819858
16806858;76935190
31212175;76817406
31237346;76978617
31212178;76819859
31227471;76900492
31214941;76898333
31212277;76846936
31212369;76851365
16806727;76845790
31212574;76846073
31226719;77016927
31229587;76871264
31229590;76871265
31213028;76934941
31235088;76953432
31235087;76953431
31212947;76931804
31229089;76997593
31212954;76931809
31213005;76934918
31214042;76932448
31213038;76935108
31213047;76935229
31213153;76935739
31236369;76987631
73208641;77012054
73208634;77012041
73208636;77012044
31232057;76965351
16807191;76800531
31213257;76931782
31214517;76932965
31214521;76935960
31213344;76792221
31213379;76792304
31215805;76887309
31215957;76892789
31224302;76925516
31213589;76799612
31213597;76799616
31213647;76799675
31213696;76800467
16811148;77001471
31213698;76800461
31225839;76924839
31213829;76815440
31213797;76800684
31215625;76887454
31213773;76800671
31215631;76895692
31214997;76898514
31214255;76828422
31228713;76997553
31236141;76990932
31214648;76898929
31214436;76873070
31214523;76898252
31214577;76898626
31229977;76852288
31214587;76898552
31214783;76898954
31230285;76876849
31230286;76876850
31216593;76804553
31215201;76883557
31227290;76902135
31227291;76902137
31215276;76884842
31215340;76895473
31218803;76811482
31215507;76887418
31215567;76875930
31215710;76896686
31215908;76887419
31215823;76887737
31216580;76804543
31217582;76865089
31216079;76977637
31216083;76977638
31216093;76787324
31216330;76800802
31216177;76787481
31216353;76800839
31216810;76818456
31216633;76804576
31236939;76988849
31216728;76818275
31216742;77035298
31216870;76818291
31216883;76862369
31216926;76856113
31217723;76871602
31218078;76863962
31217058;76856179
31217057;76856180
31226949;76969293
31218712;76798300
31218088;76856150
31217337;76864323
31217395;76864877
31224654;76930404
31221501;76873758
31217873;76878294
16809970;76827533
31217881;76878296
31233053;76940145
31218117;76878536
31218196;76864087
31218471;76789837
31219555;76793953
31218543;76795912
31218489;76789891
31218440;76789739
31218456;76789792
31218461;76789794
31231939;76962208
16816352;76965652
31219021;76812703
31218634;76796722
31218709;76796799
31218781;76856833
31218882;76812297
16809952;76827547
31218899;76812494
31218949;76812602
31219020;76812701
31219197;76865180
31219196;76862320
16809935;76827549
16809890;76827496
31219865;76827344
31219262;76865221
16810030;76827593
31219331;76862074
16810026;76827595
31219484;76793895
16809971;76827532
31223371;76927226
31219712;76809052
31219760;76809188
31219775;76809459
31219790;76809542
31219819;76809608
31219820;76809624
31220738;76870119
31219847;76827244
16809885;76829104
31219994;76828647
16813878;76964733
31226172;76969890
31220173;76834310
31220440;76913174
31220580;76912998
31220579;76912989
31220272;76911829
31220625;76865351
31220402;76834582
31235460;76939349
31220617;76867273
16600185;76913089
31220613;76913117
31220903;76870425
31220990;76871739
31221165;76995477
31221201;76879407
31221202;76879413
31224015;76928497
31224014;76928499
31221230;76873841
31221231;76873839
31222876;76918198
31223333;76927152
31222899;76995588
31221382;76871918
31221512;76875529
31221540;76875727
31221577;76875750
31221938;76842934
31224436;76926565
31223603;76927352
31224106;76928545
31221725;76842855
31223879;76927558
31224079;76928528
31224409;76926395
31224463;76926589
31222426;77012318
31238364;77008236
31223950;76928424
31222870;76918195
31223649;76927332
31229493;76871223
31224045;76928474
31222805;76918170
31223363;76927206
31224459;76926586
31223853;76927580
31223360;76927204
31222428;77012320
31233911;76897956
31222473;76882772
31222484;76882774
31222493;76882786
31222509;76917984
31224613;76930153
31222879;76918184
31223352;76927200
31225469;76953017
31224813;76930505
31238152;77006711
31224811;76930531
31224334;76925536
31224845;76930558
31223236;76927096
31223152;76927172
31223241;76927099
31223251;76927191
31223366;76927224
31223559;76927323
31224251;76925470
31224294;76925494
31224388;76926377
31224825;76930519
31224826;76930532
31224729;76930459
31228271;76991524
31228269;76991523
31224499;76928945
31224532;76928962
31224860;76915101
31224893;76915148
31229017;77000622
77505746;76957809
77500002;76875374
77500006;76875350
77500003;76875359
77500004;76875375
77500005;76875351
77500007;76875352
77500008;76875363
77500009;76875354
77500010;76877017
77500011;76875353
77500012;76877023
77500013;76875358
77500014;76877019
77500015;76875357
77500017;76875356
77500018;76875360
77500019;76875355
77500020;76875364
77500021;76877024
77500022;76875362
77500023;76875361
77500024;76877038
77500025;76875365
77500026;76877021
77500027;76875367
77500028;76875366
77500029;76877040
77500030;76875369
77500031;76877039
77500032;76875368
77500033;76877022
77500034;76875372
77500035;76875373
77500036;76877058
77500037;76875371
77500038;76877041
77500039;76875370
77500040;76877036
77500042;76877011
77500043;76877010
77500044;76877020
77500045;76877042
77500046;76877009
77500047;76877136
77500048;76875377
77500049;76877044
77500050;76877015
77500051;76877037
77500052;76877018
77500053;76877025
77500054;76877016
77500055;76877054
77500056;76877014
77500057;76877045
77500058;76877013
77500059;76877035
77500060;76877012
77500061;76877026
77500062;76877140
77500063;76877028
77500064;76877043
77500065;76877030
77500066;76877034
77500067;76877029
77500068;76877027
77500069;76877148
77500070;76877031
77500071;76877050
77500072;76877032
77500073;76877046
77500074;76877155
77500075;76877033
77500076;76877156
77500077;76877049
77500078;76877137
77500079;76877048
77500080;76877047
77500081;76877163
77500082;76877051
77500083;76877157
77500084;76877053
77500085;76877147
77500086;76877052
77500087;76877180
77500088;76877057
77500089;76877153
77500090;76877056
77500091;76877154
77500092;76877055
77500093;76877183
77500094;76877130
77500095;76877164
77500096;76877135
77500097;76877152
77500098;76877133
77500099;76877151
77500100;76877149
77500101;76877134
77500102;76877195
77500103;76877131
77500104;76877138
77500105;76877181
77500106;76877139
77500107;76877161
77500108;76877142
77500109;76877160
77500110;76877205
77500111;76877141
77500112;76877182
77500113;76877146
77500114;76877162
77500115;76877144
77500116;76877158
77500117;76877145
77500118;76877143
77500119;76877196
77500120;76877159
77500121;76877174
77500122;76877150
77500123;76877165
77500124;76877211
77500125;76877206
77500126;76877167
77500127;76877166
77500128;76877227
77500129;76877171
77500130;76877170
77500131;76877173
77500132;76877231
77500133;76877169
77500134;76877210
77500135;76877172
77500136;76877207
77500137;76877168
77500138;76877184
77500139;76877241
77500140;76877185
77500141;76877178
77500142;76877177
77500143;76877176
77500144;76877212
77500145;76877194
77500146;76877179
77500147;76877226
77500148;76877175
77500149;76877213
77500150;76877186
77500151;76877193
77500152;76877253
77500153;76877187
77500154;76877232
77500155;76877188
77500156;76877209
77500157;76877190
77500158;76877208
77500159;76877189
77500160;76877192
77500161;76877249
77500162;76877191
77500163;76877228
77500164;76877197
77500165;76877217
77500166;76877198
77500167;76877200
77500169;76877199
77500170;76877234
77500171;76877203
77500172;76877216
77500173;76877202
77500174;76877201
77500175;76877260
77500176;76877204
77500177;76877240
77500178;76877214
77500179;76877225
77500180;76877279
77500181;76877215
77500182;76877258
77500183;76877218
77500184;76877255
77500185;76877219
77500186;76877233
77500187;76877259
77500188;76877295
77500189;76877220
77500190;76877276
77500191;76877224
77500192;76877261
77500193;76877222
77500194;76877239
77500195;76877221
77500196;76877223
77500197;76877277
77500198;76877235
77500199;76877257
77500200;76877238
77500201;76877256
77500202;76877236
77500203;76877237
77500204;76877290
77500205;76877248
77500206;76877275
77500207;76877246
77500208;76877264
77500209;76877229
77500210;76877247
77500211;76877299
77500212;76877244
77500213;76877282
77500214;76877245
77500215;76877263
77500216;76877243
77500217;76877251
77500218;76877298
77500219;76877252
77500220;76877289
77500221;76877242
77500222;76877274
77500223;76877254
77500224;76877262
77500225;76877230
77500226;76877250
77500227;76877301
77500228;76877268
77500229;76877285
77500230;76877266
77500231;76877265
77500232;76877317
77500233;76877267
77500234;76877302
77500235;76877269
77500236;76877288
77500237;76877273
77500238;76877272
77500239;76877316
77500240;76877271
77500241;76877308
77500242;76877270
77500243;76877300
77500244;76877284
77500245;76877283
77500246;76877321
77500247;76877287
77500248;76877320
77500249;76877286
77500250;76877303
77500251;76877278
77500252;76877293
77500253;76877331
77500254;76877280
77500255;76877315
77500256;76877281
77500257;76877306
77500258;76877291
77500259;76877296
77500260;76877292
77500261;76877330
77500262;76877297
77500263;76877314
77500264;76877294
77500265;76877307
77500266;76877346
77500267;76877309
77500268;76877332
77500269;76877311
77500270;76877312
77500271;76877310
77500272;76877348
77500273;76877313
77500274;76877340
77500275;76877304
77500276;76877339
77500277;76877305
77500278;76877323
77500280;76877318
77500281;76877357
77500282;76877319
77500283;76877341
77500284;76877322
77500285;76877338
77500286;76877367
77500287;76877329
77500288;76877368
77500289;76877328
77500290;76877345
77500291;76877327
77500292;76877347
77500293;76877326
77500294;76877325
77500295;76877366
77500296;76877324
77500297;76877349
77500298;76877333
77500299;76877344
77500300;76877335
77500301;76877369
77500302;76877364
77500303;76877342
77500304;76877336
77500305;76877384
77500306;76877334
77500307;76877365
77500308;76877337
77500309;76877351
77500310;76877388
77500311;76877387
77500312;76877343
77500313;76877350
77500314;76877403
77500315;76877389
77500316;76877352
77500317;76877354
77500318;76877374
77500319;76877353
77500320;76877358
77500321;76877401
77500322;76877355
77500323;76877391
77500324;76877356
77500325;76877383
77500326;76877359
77500327;76877360
77500328;76877402
77500330;76877361
77500331;76877362
77500332;76877390
77500333;76877363
77500334;76877372
77500335;76915772
77500336;76877373
77500337;76877398
77500338;76877370
77500339;76877386
77500340;76877371
77500341;76877385
77500342;76915773
77500343;76877404
77500344;76877375
77500345;76877393
77500346;76877376
77500347;76877392
77500348;76915785
77500349;76877414
77500350;76877380
77500351;76877381
77500352;76877412
77500353;76877377
77500354;76877378
77500355;76877379
77500356;76915783
77500357;76877382
77500358;76877410
77500359;76915803
77500360;76877395
77500361;76915801
77500362;76877394
77500363;76915784
77500364;76877396
77500365;76877413
77500366;76877397
77500367;76877399
77500368;76915802
77500369;76877400
77500370;76915797
77500371;76877405
77500372;76915782
77500373;76877406
77500374;76915813
77500375;76877408
77500376;76877407
77500377;76915791
77500378;76877409
77500379;76877415
77500380;76915815
77500381;76877411
77500382;76915799
77500383;76915769
77500384;76915794
77500385;76877416
77500386;76915768
77500387;76915780
77500388;76915798
77500389;76915827
77500390;76915771
77500391;76915812
77500392;76915770
77500393;76915793
77500394;76915774
77500395;76915792
77500396;76915835
77500397;76915775
77500398;76915814
77500399;76915776
77500400;76915796
77500401;76915777
77500402;76915795
77500403;76915778
77500404;76915779
77500405;76915828
77500406;76915781
77500407;76915804
77500408;76915786
77500409;76915800
77500410;76915787
77500411;76915788
77500412;76915836
77500413;76915789
77500414;76915822
77500415;76915790
77500416;76915806
77500417;76915839
77500418;76915805
77500419;76915838
77500420;76915807
77500421;76915823
77500422;76915808
77500423;76915809
77500424;76915846
77500425;76915810
77500426;76915840
77500427;76915811
77500428;76915837
77500429;76915816
77500430;76915817
77500431;76915848
77500432;76915818
77500433;76915841
77500434;76915819
77500435;76915843
77500436;76915820
77500437;76915826
77500438;76915850
77500439;76915821
77500440;76915845
77500441;76915824
77500443;76915825
77500445;76915851
77500446;76915829
77500447;76915847
77500448;76915830
77500449;76915842
77500450;76915831
77500452;76915833
77500453;76915832
77500454;76915849
77500458;76915844
77500459;76915834
77500468;76915853
77500514;76915857
77500516;76915858
77500526;76915852
77500529;76915854
77500530;76915860
77500534;76915856
77500536;76915855
77500571;76915859
77500577;76915861
77500593;76915862
77500600;76915867
77500607;76915864
77500612;76915863
77500618;76915866
77500684;76915874
77500710;76915876
77500738;76915877
77500808;76915879
77500840;76915880
77500861;76915881
77500865;76915883
77500892;76915882
77500910;76915885
77500939;76915884
77500942;76915886
77500988;76915887
77501086;76915888
77501131;76915889
77501148;76915890
77501170;76915891
77501171;77725809
77501172;77736089
77501174;77735797
77501175;77719064
77501188;76915894
77501193;77742915
77501194;76915892
77501197;76915893
77501209;76915898
77501210;76915895
77501213;76915897
77501216;76915896
77501217;77739874
77501220;77721923
77501221;76915899
77501279;76915901
77501284;76915900
77501320;76915902
77501330;76915903
77501366;76915904
77501371;76915906
77501372;76915912
77501374;76915905
77501375;76915913
77501376;76915909
77501377;76915910
77501378;76915915
77501379;76915907
77501380;76915908
77501381;76915911
77501382;76915914
77501384;76915916
77501392;76915925
77501405;76915923
77501411;76915924
77501422;76915929
77501425;76915927
77501433;76915926
77501434;76915930
77501450;76915928
77501493;76915931
77501539;76915953
77501540;76915938
77501574;76915945
77501579;76915948
77501609;76915957
77501644;76915972
77501655;76915963
77501666;76915962
77501669;77705853
77501671;76915965
77501672;76915985
77501673;76915967
77501674;76915977
77501675;76915966
77501676;76916004
77501677;76915968
77501678;76915989
77501679;76915975
77501680;76915988
77501681;76915969
77501682;76915987
77501683;76915970
77501684;76915971
77501685;76915974
77501686;76916003
77501687;76915973
77501688;76915990
77501689;76915976
77501690;76915986
77501691;76915978
77501692;76915980
77501693;76915981
77501694;76916005
77501695;76915979
77501696;76915993
77501697;76915983
77501698;76916025
77501699;76915982
77501700;76916024
77501701;76915984
77501702;76916002
77501703;76916043
77501704;76915991
77501705;76916041
77501706;76915992
77501707;76916023
77501708;76915994
77501709;76916008
77501710;76915995
77501711;76915996
77501712;76916040
77501713;76915997
77501714;76916026
77501715;76915999
77501716;76916022
77501717;76915998
77501718;76916000
77501719;76916001
77501720;76916039
77501721;76916007
77501722;76916027
77501724;76916006
77501725;76916042
77501726;76916009
77501727;76916033
77501728;76916010
77501729;76916032
77501730;76916011
77501731;76916045
77501732;76916034
77501733;76916035
77501734;76916013
77501735;76916014
77501736;76916012
77501737;76916016
77501738;76916031
77501739;76916053
77501740;76916015
77501741;76916046
77501742;76916017
77501743;76916036
77501744;76916018
77501745;76916028
77501746;76916019
77501747;76916020
77501748;76916047
77501749;76916021
77501750;76916038
77501751;76916030
77501752;76916037
77501753;76916052
77501754;76916029
77501755;76916051
77501768;76916044
77501786;76916049
77501790;76916054
77501791;76916048
77501794;76916050
77501810;76916061
77501958;76916055
77501964;76916059
77501972;76916056
77501973;76916060
77501974;76916057
77501977;76916058
77502154;76916062
77502157;76916063
77502159;76916065
77502160;76916064
31225040;76954988
31225164;76955120
31225311;76955218
31225312;76955219
31227876;76966654
31234285;76994506
31225435;76953029
31225453;76953034
31225798;76924192
31225514;76853723
31225515;76853724
31226215;76972295
31234420;77004632
31225563;76925604
31230149;76852422
77502303;76945301
77502304;76945277
77502305;76945278
77502306;76945300
77502307;76945302
77502308;76945276
77502309;76945295
77502310;76945280
77502311;76945283
77502312;76945279
77502313;76945299
77502314;76945281
77502315;76945282
77502316;76945418
77502318;76945307
77502319;76945284
77502320;76945285
77502321;76945305
77502323;76945286
77502324;76945293
77502325;76945287
77502326;76945288
77502327;76945304
77502334;76945296
77502335;76945303
77502337;76945308
77502342;76945309
77502343;76945416
77502346;76945306
77502348;76945298
77502357;76945415
77502358;76945297
77502398;76945414
77502425;76945311
77502429;76945312
77502434;76945310
77502435;76945412
77502473;76945413
77502532;76945321
77502687;76945326
77502959;76944476
77503044;76945421
77503063;76945354
77503203;76945368
77503234;76945420
77503278;76945381
77503297;76945384
77503333;77705083
77503335;77743058
77503337;77736145
77503340;77705618
77503342;77736217
77503348;77715813
77503360;77721985
77503370;77719149
77503398;77748042
77503402;77722063
77503404;77705672
77503414;77705045
77503416;77736272
77503418;77722337
77503419;77719250
77503444;77748385
77503458;77739912
77503462;77725867
77503466;77735930
77503470;77714924
77503509;77748417
77503520;77714987
77503528;77735966
77503529;77722385
77503534;77736001
77503555;77748451
77503556;77736358
77503560;77715078
77503567;77743092
77503574;77725934
77503586;77719323
77503587;77748534
77503588;77743168
77503601;77705719
77503615;77725988
77503627;76945663
77503711;76945664
77503737;77743206
77503799;77722506
77503821;76945808
77503826;76945811
77503829;76945809
77503877;76866947
77503893;76866948
77503924;76866949
77503954;76866950
77503970;76866951
77503975;76866952
77503976;76866953
77503990;76866955
77504035;76866957
77504062;76866959
77504063;76866954
77504074;76866961
77504075;76866956
77504091;76866958
77504102;76866960
77504125;76866962
77504133;76866965
77504177;76866963
77504182;76866964
77504210;76866966
31225853;76867903
77504506;76866990
77504528;76866992
77504550;76866991
77504574;76866993
77504579;76866996
77504584;76866994
77504615;76866995
77504647;76866997
77504653;76866999
77504709;76866998
77504722;76867000
77504754;76867001
77504757;76867003
77504762;76867002
77504836;76867004
31227339;76902289
31227552;76963510
31226021;76868744
31226168;76969909
31226231;76972322
31226298;76972358
31227151;76845163
31226472;76973288
31226763;77016903
31230327;76876959
31237700;76978967
31226727;77016891
31226826;76969160
16813380;76969278
31226982;76969315
31227053;76969486
16813439;76969606
31231745;76904080
31227124;76845124
31227166;76899048
31227171;76899041
31227186;76901146
31227217;76900591
31233264;76974548
31227421;76903568
31227615;76963671
31227736;76963545
31227741;76963561
31227767;76964711
31227787;76962102
31227789;76962099
31227988;76966211
31228010;76966743
31228018;76966750
31228020;76966751
31236950;76988875
31228069;76961803
31228148;76886236
31228168;76886252
31228252;76991528
31228392;76997952
31229546;76871241
31228465;76928242
31228524;76928303
31228729;76997615
33450779;75898700
31228866;76999153
31228874;76999149
31228929;76999182
31228954;77000561
31229060;77000638
31230171;76852478
31235605;76939764
31229161;76853144
31229170;76853145
31229189;76853155
31229290;76853292
31229301;76853298
31229356;76871107
31229414;76871124
31229552;76871235
31229659;76924700
31229658;76924697
31229694;76947397
31229959;76852274
31230097;76852387
31230137;76852411
31230214;76876819
31230279;76933378
31230325;76876956
31230337;76876963
31232579;76942748
31230451;76937869
31230491;76937886
31230733;76993305
31230785;76999531
16815630;76999629
31234893;76953337
31230888;76984467
31231180;77001013
31231160;76992085
77505474;77743245
77505599;77705485
77505662;77719363
77505678;77743283
77505679;77736412
77505681;77748571
77505702;77736515
77505703;77743318
77505704;77722630
77505707;77739955
77505709;77739990
77505711;77715967
77505716;77743357
77505723;77740037
77505732;77736583
16817348;76973759
31231231;77001247
31231268;77001262
31231318;77001297
31231362;77001344
31231456;77002501
31231521;77002527
31231593;76996736
31232576;76942382
16816037;76902857
31231886;76961356
31231619;76902967
31231635;76902941
31231851;76961327
31231739;76904052
31231876;76961334
31232493;76941586
31232494;76941587
31231845;76961354
31231959;76962221
31232064;76965355
31232269;76937343
31232400;76941455
31232345;76937394
31232454;76941527
31232195;76861910
31232602;76942772
31232727;76942846
31232758;76942869
31232931;76942971
31232960;76942988
31233241;76882718
31233244;76882719
31233265;76974550
31233279;76974552
31233603;76974818
31233604;76974819
31233606;76974821
31238509;77009813
16817163;76973712
16817198;76973705
16817435;76973772
16817464;76973780
33451022;76134453
31233711;76974384
16817631;76979578
31233763;76976291
16817647;76979577
16817649;76979576
16817650;76979579
16817711;76979580
16817721;76979595
16817722;76979581
16817723;76979594
16817724;76979582
16817725;76979583
16817726;76979591
16817728;76979584
16817730;76979586
16817731;76979587
16817732;76979598
16817733;76979588
31233970;76898016
16817739;76979597
16817740;76979590
16817741;76979596
16817742;76979592
16817743;76979593
31233841;76897917
16817844;76897785
16817845;76897779
16817847;76897784
16817848;76897786
16817850;76897783
16817851;76897787
16817913;76897800
16817914;76897788
16817915;76897799
16817916;76897789
16817917;76897790
16817918;76897791
16817919;76897797
31233864;76897912
31233935;76897980
31233980;76898051
31234005;76898031
16817977;76990465
16817985;76990461
16817986;76990482
16817988;76990476
16818037;76994424
16818038;76994418
16818039;76994423
16818040;76994419
16818041;76994422
16818042;76994425
16818043;76994420
16818044;76994421
16818135;77004514
16818136;77004516
16818138;77004515
16818139;77004513
31234300;77004536
31234339;77004530
31234369;77004580
31234389;77004584
31234416;77004612
16818213;76893827
16818214;76893829
16818388;76951708
31234682;76947825
31234835;76947933
31234911;76953308
31234929;76953320
31235025;76953389
31235034;76953422
31235104;76953461
31235252;76936582
31235376;76937303
31235814;76962862
31235951;76960551
31236531;76987745
31236768;76988733
31236773;76988732
31236779;76988720
31236780;76988731
31236839;76988798
31236848;76988782
31237062;76986068
31237758;75634619
31237336;76978571
31237205;76977653
31237938;76985045
31238142;77006691
31238233;77008132
33451086;76136346
31238579;77008841
31238683;77003786
31238696;77003804
31238699;77003793
31238707;77003800
31238717;77003818
31238719;77003814
31238721;77003816
31238727;77003820
16820951;76254763
33451226;76257680
33451239;76257694
31238939;76494932
31239215;77020729
31239236;77020772
31239251;77020784
31239269;77020776
31239291;77020796
31239498;76514901
33451882;76514953
33452037;76523925
33452119;76524014
33452135;76524031
31239697;77015108
31239727;77015132
31239752;77016197
31239796;77012939
33452364;76777317
33452402;76777359
33452554;76784676
31239868;77025111
31239926;77025178
31239927;77025179
31239936;77025188
31239941;77025193
31240107;77025374
31240108;77025376
16822012;77031415
16822061;77031464
33452758;77032095
31240289;77034013
31240312;77034036
31240323;77034047
31240338;77034062
31240339;77034063
31240341;77034065
31240351;77034075
31240387;77034112
33452873;77040816
33452889;77040832
33452907;77040850
33452963;77294752
33452968;77294757
33452988;77294779
33453010;77294805
33453028;77294826
33453046;77294844
33453056;77294856
33453078;77294879
33453083;77294884
33453122;77299509
33453252;77304858
