NUMERO_POLICES;NUMERO_QUITTANCE
16600185;80973624
16803658;80914947
16806567;80944748
16806708;80988832
16806724;80979161
16806728;80977151
16806741;80977162
16806811;80988531
16806825;80979410
16806827;80979411
16806854;80988590
16806858;80988595
16806912;80982033
16807191;80919427
16807313;80931605
16809104;80952762
16809870;80934665
16809871;80934664
16809878;80934163
16809893;80933054
16809952;80933120
16809978;80933151
16809989;80933118
16810004;80933144
16810008;80933143
16810010;80933146
16810023;80933166
16810026;80933171
16810030;80933169
16810053;80933811
16810067;80933266
16810074;80933269
16810090;80933294
16810099;80933765
16810319;80973434
16810395;80973623
16811148;81027176
16813286;81053487
16813315;81053497
16813320;81053524
16813458;81053784
16813463;81053804
16813474;81053800
16813499;80960599
16813535;80960386
16813919;81000099
16815541;81009278
16815630;81012436
16816024;80981198
16816025;80981204
16816423;81067345
16816537;80959867
16816540;80959877
16816633;80969022
16816803;80976777
16816817;80976780
16816841;80976797
16816842;80976790
16817163;80994545
16817251;80994568
16817252;80994569
16817295;80994571
16817348;80994586
16817350;80994580
16817435;80994599
16817453;80994604
16817540;80995042
16817631;81130139
16817647;81130138
16817649;81130136
16817650;81130141
16817711;81130140
16817721;81130157
16817722;81130142
16817723;81130156
16817724;81130147
16817725;81130148
16817726;81130151
16817728;81130143
16817729;81130144
16817730;81130146
16817731;81130145
16817732;81130159
16817733;81130149
16817739;81130158
16817740;81130152
16817741;81130155
16817742;81130153
16817743;81130154
16817844;80998397
16817845;80998392
16817846;80998393
16817847;80998396
16817848;80998398
16817850;80998395
16817851;80998399
16817913;80998416
16817914;80998403
16817915;80998404
16817916;80998400
16817917;80998401
16817918;80998402
16817919;80998406
16817977;80997856
16817985;80997850
16817986;80997870
16817988;80997869
16818037;80998088
16818038;80998082
16818039;80998086
16818040;80998083
16818041;80998087
16818042;80998090
16818043;80998084
16818044;80998085
16818135;81068552
16818136;81068551
16818138;81068553
16818139;81068550
16818213;80986911
16818214;80986912
16818388;80986837
16820785;81032164
16821664;81058208
16822012;81059859
16822061;81059865
16822172;81059875
16823821;78021359
16823897;78034004
16824396;78320818
16824561;78603906
16824892;78615335
16825120;78624637
16825602;79281681
16825662;79281742
16826018;79282115
16826065;79282175
16826391;79291138
16826479;79311974
16826487;79311982
16826601;79322765
16826819;79612973
16826884;79615227
16826900;79615245
16826925;79615273
16827287;79912114
16827317;79912144
16827326;79916724
16827421;79916851
16827435;79922346
16827980;80225836
16828137;80226001
16828280;80236275
16828422;80268358
16828505;80268441
16828629;80469447
16828791;80470341
16828793;80470352
16828856;80470690
16829046;80843090
16829056;80884597
16829118;80884659
16829244;80887582
16829392;80902530
16829400;80902539
16829453;80902593
16829503;81142199
16829994;81175028
16830605;81797738
16830634;81797767
31004520;81080241
31005160;81024764
31006157;81015976
31006584;81064740
31006975;81064760
31007483;81025777
31007704;81025809
31008055;81004852
31008056;81004850
31008107;81004860
31008174;81043805
31008550;81043851
31009063;81056862
31009066;81056861
31009085;81056864
31009317;81056819
31009497;81053295
31010094;81053353
31010107;81053354
31010707;81126396
31010883;81126421
31012473;81089944
31012930;81080246
31013050;81819268
31013051;81819982
31013166;81080282
31013305;81080308
31013543;82503386
31013711;81122401
31013715;81122403
31013741;81122409
31013931;81087892
31013939;81087889
31013958;81087885
31014106;81087924
31014107;81087922
31014143;81087925
31014583;81060873
31014659;81060886
31014840;81060915
31014901;81060921
31014918;81060941
31015034;81060955
31015166;81060978
31015566;81077520
31016064;81078009
31016130;81024785
31016282;81024814
31016299;81102290
31016303;81102288
31016345;81102297
31016352;81102299
31016355;81102298
31016437;81102319
31016543;81102346
31016683;81102369
31016913;81102413
31016916;81102416
31017037;81118251
31017137;81118265
31017465;82797194
31017473;81118325
31017512;81118336
31017647;81118361
31017659;81118365
31017660;81118364
31017714;81118376
31017829;81064773
31017956;81064792
31017997;81064801
31018276;81064848
31018287;81064855
31018288;81064853
31018295;81064856
31018582;81104571
31018697;81125305
31018776;81125334
31019263;81125431
31019513;81082049
31019685;81082083
31019763;81082107
31020047;81082167
31020069;81082173
31020070;81082175
31020085;81082178
31020421;81062470
31020571;81062495
31020583;81062500
31020698;81062519
31020875;81062560
31020929;81062577
31020939;81062575
31021067;81112035
31021138;81112046
31021234;82858734
31021236;81036585
31021242;81036586
31021351;81036613
31021567;81091895
31021718;81091922
31021768;81091933
31021947;81091979
31021960;81091981
31021969;81091983
31021971;81091984
31022212;81105061
31022345;81105090
31022613;81105153
31023061;81998285
31023348;81106545
31023390;81106556
31023439;81106573
31023663;81106648
31023830;81106671
31023993;81106729
31024507;81106838
31024571;81106855
31024844;81106933
31024896;81106947
31024928;81106966
31025026;81106979
31025454;81107086
31025767;81107130
31025768;81107129
31025839;81107150
31025946;81107160
31026006;81107178
31026022;81107181
31026073;81107194
31026096;81107197
31026126;81107203
31026182;81107216
31026367;81107260
31026385;81107261
31026918;81108027
31027008;81108056
31027014;81108058
31027093;81108077
31027187;81108099
31027509;81108187
31027577;81108202
31027773;81108245
31028046;81108305
31028153;81108341
31028227;81108361
31028554;81108450
31028637;81108473
31028665;81197328
31028711;82790971
31028786;81108512
31028888;81108542
31029033;81108579
31029083;81108593
31029366;81108656
31029442;81108673
31029449;81108675
31029499;81108682
31029642;81108723
31029672;81108729
31029699;81108737
31029734;81108746
31029768;81108755
31029858;81108780
31030041;81109234
31030077;81109243
31030432;81109325
31030480;81109337
31030798;81109401
31030853;81109412
31030981;81109447
31030997;81109452
31031036;82337628
31031048;81109469
31031049;81109468
31031077;81109474
31031082;81109477
31031296;80932932
31031309;80932942
31031327;82336703
31031441;80937895
31031470;80937958
31031530;80938423
31031600;80938344
31031606;80938033
31031685;80938083
31200014;80922005
31200086;80933454
31200113;80922124
31200143;81167171
31200226;80922295
31200284;80922315
31200305;80922329
31200333;80933356
31200341;80933361
31200417;80934409
31200442;80933386
31200456;80934422
31200459;80934425
31200781;80933507
31200791;80933508
31200839;80933746
31200925;80934239
31201143;80953524
31201178;80953544
31201511;80956673
31201651;80915425
31201687;80915645
31201951;80922952
31201964;80922963
31202042;80924999
31202047;80925002
31202072;80923114
31202101;80925158
31202126;80925168
31202168;80924909
31202245;80924936
31202442;80942870
31202525;80942827
31202614;80941397
31202680;80942787
31202726;80944214
31202789;80942779
31202843;80943051
31202887;80941178
31203150;80941228
31203159;80941236
31203315;80915183
31203316;80915212
31203512;80940194
31203644;80940056
31203739;82844860
31203776;80927992
31203859;80944874
31204125;80942508
31204155;80942535
31204179;80945096
31204221;81447729
31204242;80945173
31204247;80945304
31204364;81042369
31204402;80942658
31204522;80942483
31204873;80925636
31204874;80925638
31204889;80925645
31204953;80926621
31205049;80925811
31205259;80925925
31205381;80926696
31205416;80926652
31205510;80926757
31205511;80926756
31205555;80926786
31205556;80926787
31205738;80925860
31205773;80925751
31205921;80947164
31206287;80977896
31206316;80977906
31206340;80943582
31206385;80943616
31206549;80943930
31206590;80946993
31206958;80914989
31206981;80902905
31206990;80914895
31206993;80914894
31207015;80923564
31207020;80923573
31207135;80914865
31207173;80914720
31207174;80914721
31207181;80914724
31207233;80914839
31207252;80914949
31207426;80923735
31207454;80923927
31207493;80923858
31207542;80924527
31207694;80938777
31207713;80938806
31207867;80980503
31208331;80916094
31208440;80946271
31208461;80946284
31208471;80946288
31208481;80946293
31208527;80980453
31208642;80943576
31208709;80949225
31208818;80948155
31208949;80949150
31209077;80949542
31209079;80949547
31209127;80949197
31209294;80949399
31209374;80948211
31209559;80993367
31209628;80993493
31209893;80918120
31209897;80918126
31209955;80918038
31209978;80918046
31209980;80918049
31209983;80918052
31210515;80955701
31210626;82859760
31210635;80957398
31210784;80953804
31210785;80953806
31210956;80955502
31211006;80953326
31211131;80955794
31211268;80954127
31211395;80957245
31211441;80996317
31211446;80996318
31211452;80917482
31211460;80917485
31211486;80917685
31211496;80917715
31211571;80917708
31211658;80943309
31211659;80943307
31211688;80943317
31211891;80925484
31211916;80925498
31211930;80925509
31211943;80943398
31212047;80943443
31212168;80945752
31212175;80944414
31212269;80945947
31212284;80944556
31212496;80947556
31212548;80944718
31212739;80979147
31212740;80979154
31212989;80982214
31212991;80982215
31212994;80982216
31213006;80982230
31213049;80988622
31213257;80977235
31213336;80914215
31213492;80919186
31213674;80919388
31213696;80919412
31213705;80918825
31213790;80932394
31213889;80932519
31213894;80932522
31213939;80931597
31214012;80931454
31214069;80932220
31214133;80931895
31214343;80959128
31214400;80959280
31214466;80959300
31214517;80982041
31214521;80988840
31214523;80958923
31214607;80959933
31214669;80959992
31214670;80959994
31214862;80956385
31215001;80959359
31215050;80958272
31215276;80956483
31215277;80956485
31215517;80958386
31215572;80956237
31215584;80956264
31215599;80958805
31215617;81022955
31215636;81024443
31215701;81022994
31215727;81024583
31215728;81024584
31215964;81022906
31216314;80913211
31216353;80919922
31216396;80913258
31216425;80913126
31216426;80913129
31216603;80926054
31216728;80928510
31216750;80946442
31216751;80946443
31216863;80948607
31216962;80950181
31217056;80946587
31217057;80946589
31217058;80946590
31217150;80952316
31217271;80952387
31217352;80946748
31217400;80952527
31217515;80952609
31217583;80952683
31217631;80946713
31217752;80952888
31217796;80955115
31217916;80957470
31218017;80950275
31218078;80952298
31218088;80946594
31218482;80912916
31218602;80929552
31218706;80919631
31218707;80919632
31218709;80919734
31218712;80929275
31218803;80930285
31218928;80930680
31218936;80930674
31219028;80930853
31219144;80961131
31219484;80914065
31219775;80921096
31219830;80933950
31219847;80934585
31219848;80934586
31219888;80934662
31219894;80933888
31220112;80934726
31220243;80973735
31220259;80973765
31220265;80973753
31220266;80973755
31220291;80973769
31220440;80973884
31220477;81186526
31220541;80973533
31220549;80973520
31220579;80973536
31220580;80973549
31220584;80973551
31220613;80973643
31220617;80963528
31220625;80963291
31220871;80965959
31220935;80965999
31220955;80966003
31220997;80967271
31221059;80967416
31221107;80967480
31221158;81025665
31221201;80967989
31221382;81025905
31221388;81025927
31221448;81025947
31221501;81442315
31221516;81026875
31221536;81026880
31221632;80969860
31221706;80969866
31221725;80969910
31221915;80969819
31222370;81005434
31222393;81004636
31222418;81004643
31222445;81034842
31222498;81034879
31222500;81034883
31222508;81034885
31222533;81034867
31222628;81034927
31222720;81034977
31222792;81035016
31222848;81035047
31222865;82844966
31222876;81035070
31222903;81027512
31222930;81007794
31223013;80941862
31223078;80971311
31223082;80941908
31223157;80972013
31223251;80972071
31223286;80972087
31223318;80972102
31223333;80972114
31223488;80972163
31223605;80972241
31223614;80972220
31223754;80972322
31223918;80972432
31223920;80972434
31223921;80972435
31223951;80972422
31224043;80972462
31224049;80972460
31224060;80972490
31224106;80972517
31224463;80971710
31224503;81021116
31224548;81021125
31224598;81021158
31224599;81021159
31224607;81021153
31224613;81021841
31224638;81022444
31224825;81022567
31224826;81022575
31225237;81051516
31225272;81051532
31225289;81051538
31225321;81051575
31225433;81048247
31225453;81048281
31225469;81048263
31225512;80956950
31225563;81013772
31225592;81013820
31225757;81012029
31225766;81012052
31225858;80975221
31225859;80975192
31226021;80975461
31226080;80975498
31226144;80975536
31226172;80974204
31226354;81054599
31226415;81054633
31226478;81054656
31226542;81054687
31226561;81054691
31226589;81054718
31226657;81054049
31226792;81055716
31226806;81055718
31226874;81053430
31226964;81053547
31226989;81053567
31227015;81053554
31227205;80961976
31227228;80961988
31227244;81847961
31227276;82667236
31227283;80962255
31227290;80962318
31227291;80962319
31227299;80962314
31227300;80962315
31227360;80995909
31227413;80995943
31227446;80961947
31227466;80961601
31227583;80999095
31227587;80999106
31227588;80999105
31227741;80999179
31227761;81000082
31227790;80997478
31227875;81000751
31228246;80969646
31228265;80969676
31228292;80968190
31228305;81008724
31228306;81008725
31228333;81008931
31228337;81008932
31228386;81008587
31228392;81008593
31228410;81708889
31228421;81008165
31228426;81008514
31228459;81002206
31228465;81002224
31228474;81002215
31228524;81002269
31228603;81016292
31228648;81016409
31228682;81016428
31228688;81016433
31228694;81016429
31228712;81002084
31228713;81002086
31228714;81002087
31228730;81002093
31228794;81020076
31228813;81017198
31228830;81020106
31228843;81017207
31228856;81017218
31228892;81017384
31228938;81017602
31228964;81017599
31228965;81017617
31229122;81020042
31229161;80978394
31229200;80978411
31229233;80978437
31229248;80978433
31229303;80978501
31229352;80983123
31229457;80983589
31229512;80983626
31229664;81098080
31229678;81098087
31229780;81098259
31229845;81098285
31229857;81091365
31229978;80956059
31229979;80956060
31230045;80956088
31230114;80956149
31230178;80962367
31230207;80962602
31230236;80962727
31230337;80985010
31230437;81009417
31230466;81009428
31230474;81009441
31230574;81009486
31230589;81167082
31230619;81009517
31230654;81012201
31230655;81012200
31230719;81012335
31230790;81012367
31230888;81046538
31230934;81043025
31230957;81043036
31230977;81819670
31231318;81047287
31231406;81047319
31231456;81047504
31231495;81047513
31231497;81047515
31231507;81047519
31231511;81047522
31231551;81047555
31231553;81047563
31231611;80981250
31231619;80981290
31231940;81065572
31232009;81067042
31232042;81067063
31232057;81067069
31232106;81067107
31232129;81067121
31232171;81067206
31232172;81067215
31232173;81067209
31232174;81067217
31232184;81061638
31232195;80968870
31232269;80968875
31232369;80968934
31232406;80976017
31232407;80976010
31232408;80976011
31232572;81067882
31232601;80976844
31232602;80976898
31232645;80976895
31232727;80976954
31232758;80976979
31232889;81110250
31232980;81113550
31232989;81113588
31232990;81113591
31232991;81113589
31233068;81113673
31233121;80995546
31233279;80995676
31233290;82291577
31233299;80995695
31233318;80995684
31233321;80995686
31233585;81125942
31233619;81125989
31233763;81126183
31233778;81129101
31233935;80998549
31234005;80998598
31234234;80997132
31234278;80998146
31234285;80998156
31234300;81068569
31234329;81068585
31234363;81068623
31234389;81068613
31234415;81068659
31234448;80985565
31234591;80985633
31234603;80985652
31234609;80985655
31234763;81080560
31234766;81080537
31234913;81095284
31234919;81095286
31234983;81095318
31235025;81095346
31235072;81095370
31235073;81095371
31235105;81095385
31235143;81095421
31235164;81095441
31235252;81028256
31235254;81028258
31235262;81028287
31235442;81033280
31235460;81033284
31235483;81033318
31235814;81026655
31235877;81026533
31235909;81024944
31235951;81024965
31236099;81016859
31236163;81025275
31236373;81019111
31236472;81019162
31236473;81019163
31236531;81019209
31236557;81019223
31236558;81019241
31236596;81019273
31236718;81019641
31236734;81019659
31236773;81019685
31236779;81019674
31236780;81019683
31236847;81019759
31236848;81019726
31236939;81019786
31236970;81018330
31237153;81064451
31237258;80989487
31237311;80989613
31237411;81066419
31237561;81066533
31237641;81066581
31237684;81066658
31237700;81066634
31237801;81066254
31237802;81066252
31237803;81066251
31237833;81066264
31237912;81075886
31237974;81075876
31237994;81075907
31238022;81074656
31238024;81074658
31238077;81029056
31238267;81708919
31238286;81030460
31238331;81030907
31238346;81030934
31238509;81032293
31238515;81032284
31238539;81031365
31238711;81028618
31238726;81028638
31238828;81029914
31238939;81004685
31239047;81043652
31239152;81044557
31239522;81061150
31239534;81058570
31239565;81058578
31239606;81060258
31239608;81060253
31239738;81057680
31239868;81055078
31239995;81055189
31240107;81055315
31240108;81055277
31240113;81055279
31240312;81060192
31240313;81060182
31240367;81069013
31240369;81820069
31240440;81131397
31240519;81098686
31240559;81098705
31240581;81098752
31240608;81098759
31240730;81089273
31240780;81089283
31241049;81100127
31241288;81122657
31241328;81122631
31241329;81122659
31241345;81122660
31241393;81122674
31241448;81123053
31241449;81123056
31241484;81122412
31241485;81122411
31241486;81122410
31241501;81025181
31241642;81103197
31241696;81088559
31241781;81103549
31241902;81103632
31242260;81068108
31242261;81068110
31242273;81068116
31242288;81068133
31242312;81060713
31242373;81060762
31242380;81060773
31242850;81073472
31242873;81073615
31242902;81073641
31243042;81013317
31243051;81013324
31243053;81170931
31243162;81013474
31243183;81013518
31243467;81091801
31243528;81098784
31243705;81102229
31243926;81032660
31243959;81032676
31243992;81032696
31244003;81032717
31244250;81112663
31244256;81112666
31244391;81112772
31244890;81067612
31244919;81067623
31244964;81067658
31245040;81067732
31245042;81067718
31245043;81067760
31245176;79285791
31245229;81077790
31245262;81077838
31245428;81078361
31245446;81077950
31245489;81078398
31245526;81078424
31245555;81078464
31245644;79286393
31245722;81078575
31245747;81078614
31245796;81078645
31245812;81078692
31245841;81078668
31245860;81078682
31246040;81079261
31246115;81079615
31246150;81079599
31246189;81079858
31246193;81079838
31246321;81104744
31246325;81104752
31246387;81107657
31246435;81107679
31246606;81125610
31246649;81125622
31246763;81131735
31246951;81132236
31246986;81132274
31247067;81132355
31247258;81082700
31247275;81082683
31247286;81082707
31247406;81082824
31247447;81083253
31247448;81082829
31247486;79917421
31247503;81083697
31247509;81083702
31247557;81083728
31247598;81083771
31247615;81083779
31247826;81084329
31247939;81120213
31247972;81120238
31247981;81120272
31247983;81120247
31248184;81063283
31248213;81063295
31248226;80213559
31248284;81063352
31248287;81063366
31248316;81063363
31248318;81063365
31248384;81071426
31248504;81066151
31248550;81115257
31248551;80268655
31248563;81115261
31248585;80268689
31248668;81115323
31248790;81042162
31248972;81092816
31249016;80838178
31249110;81092866
31249130;81092875
31249153;81092887
31249195;81092914
31249235;81092939
31249273;81092948
31249274;81092961
31249296;81092965
31249329;81092989
31249499;80843381
31249555;81094212
31249562;81094223
31249577;81094215
31249594;81094221
31249598;81094224
31249621;81094244
31249635;80843517
31249636;80843518
31249673;80885248
31249734;81096706
31249896;80888331
31249897;80888334
31249909;80888348
31249934;80904121
31250004;80904211
31250005;80904212
31250012;80904219
31250013;80904220
31250087;80904294
31250263;81143762
31250272;81143779
31250502;81169183
31250508;81169189
31250610;81169291
31250688;81192111
31250730;81194779
31250757;81194806
31250768;81194817
31250769;81194818
31251268;81780253
31251286;81811447
31251287;81811449
31251364;81811545
31251365;81811546
33003725;80955837
33301507;80955811
33301602;80955879
33301645;80955814
33301704;80955906
33301802;80955912
33301845;80955819
33302064;80955927
33302089;80955928
33302110;80955929
33302714;80955932
33302756;80955934
33302767;80955936
33302782;80955935
33302797;80955937
33302836;80955938
33302837;80955939
33304886;80955943
33310199;80955944
33310611;80955954
33310617;80955955
33310705;80955957
33319104;80959516
33319660;80959542
33319738;80959556
33319783;80959574
33319945;80959590
33320127;80959611
33320136;80959627
33320137;80959628
33320211;80959492
33320287;80959646
33320376;80959650
33320379;80959648
33320396;80959655
33320461;80959656
33320462;80959657
33320491;80959678
33320495;80959680
33320517;80959682
33320533;80959683
33320539;80959684
33320550;80959685
33320551;80959686
33320554;80959687
33320748;80959689
33320753;80959688
33320764;80959658
33321207;80959692
33321255;80959694
33321282;80959696
33321328;80959697
33329275;80959718
33330104;80959744
33330111;80959747
33330115;80959748
33330351;80959770
33330353;80959769
33330366;80959773
33330575;80959797
33330613;80959808
33330623;80959809
33330728;80959839
33333254;80918882
33333274;80932348
33333512;81005440
33333657;81009729
33458645;79926553
33458973;79928679
33459517;80235168
33459640;80268837
33459654;80268851
33460215;80847519
33460282;80847587
33460298;80847603
33460385;80885989
33460432;80886036
33460433;80886037
33460494;80889456
33460495;80889457
33460669;81143122
33460718;81143179
33460973;81171623
33460984;81171634
33461023;81171673
33461095;81171763
33461140;81171830
33461163;81194831
33461165;81194833
33461186;81194855
33461187;81194856
33461200;81194869
33461201;81194870
33461202;81194871
33461204;81194873
33461269;81541078
33461287;81541096
33461346;81541152
33461354;81541160
33461358;81541164
33461493;81541391
33461516;81541414
33461761;81860538
33461768;81860553
73101363;80927263
73101765;80927302
73102038;80927323
73103125;80928188
73104289;80927601
73107279;80928283
73107527;80928327
73108922;80949922
73109633;80950974
73109878;80951065
73109880;80951067
73109881;80951064
73110378;80949932
73110714;80938237
73110720;80938243
73111654;80960450
73111712;80960466
73200011;80933423
73200363;80954545
73200725;82475788
73201099;80944050
73201726;80940132
73201858;80940052
73202713;80947779
73202947;80943807
73203243;80924545
73204317;80939514
73204406;80980581
73204727;80915927
73205980;80935265
73205981;80935267
73206106;80955728
73206310;80925224
73206341;80943138
73206342;80943139
73206361;80943148
73207885;80973974
73208256;80940551
73209308;81020420
73210668;80987614
73214791;81044552
77002775;80932618
77002914;80932622
77003025;80932633
77005173;80932649
77005241;80932659
77010253;80915597
77010300;80924948
77010305;80924957
77010366;80923060
77010414;80923141
77010461;80924986
77010463;80924985
77010471;80922882
77010526;80922888
77010527;80922889
77010528;80922890
77010529;80922891
77010574;80923100
77010622;80925134
77010662;80925191
77010703;80924926
77010766;80923003
77200214;80932676
77200476;80925146
77200484;80922999
77800382;80932564
77800483;80932687
77800659;80932703
77800672;80932709
77800735;80924870
77800823;80947029
77800831;80914650
77800834;80914654
77800934;80977253
77800936;80977329
77801049;80920673
