NUMERO_POLICES;NUMERO_QUITTANCE
31009253;82175269
31009782;82187668
21609736;82085430
31012407;82226162
21204316;82238801
31003345;82085724
21208862;82072518
31004920;82111173
21605245;82250263
31014657;82010274
31012488;82226186
31002508;82072794
31014515;82010255
31005504;82111199
31012316;82226146
21838112;82030112
31011686;82213164
21210467;82085427
31232393;82079426
31232392;82079424
31032041;82122024
31009393;82175281
31006212;82124600
31013400;82239187
26011390;82217820
31245157;82184143
31005921;82124582
31212716;82237017
31012489;82226185
31011546;82213148
31011095;82200506
21840295;82170692
21831665;82115686
31005496;82111198
31012178;82226125
21609888;82085451
31014758;82021161
24100305;82034141
24100347;82034149
24100316;82034142
24100386;82034151
24100381;82034152
24100287;82034137
24100281;82034135
24100291;82034139
24100391;82034153
24100380;82034150
31014120;82004131
24100288;82034138
24100292;82034140
24100429;82034159
24100335;82034146
24100326;82034143
24100342;82034145
24100343;82034148
24100390;82034154
24100337;82034144
24100425;82034157
24100424;82034156
21609377;82072547
24100338;82034147
24101484;82059537
24101531;82059542
24101521;82059541
24101481;82059536
24101473;82059533
24101636;82059554
24101551;82059545
24101649;82059556
24101536;82059544
24101683;82059560
24101681;82059561
24101672;82059559
24101478;82059535
24101503;82059540
31237497;82241681
24101294;82059517
24101296;82059518
31012528;82226191
24101491;82059538
24101493;82059539
24101564;82059546
24101474;82059534
24101470;82059531
24101525;82059543
24101472;82059532
31235547;82253763
21822799;82073889
21835707;82084702
21806256;82044822
31014210;82010218
31014520;82010258
31014206;82010217
31216370;82212543
31243852;82220064
31245158;82184145
21814744;82149007
21814744;82149007
21837519;82229740
31244887;82090678
31244888;82090680
31227364;82126348
31227437;82179036
31224471;82048755
26004096;82098946
26004266;82111368
26004002;82070256
26004243;82059266
26004080;82098898
26004097;82098947
26004091;82098923
26004250;82059273
26003981;82212807
26004134;82173485
26004283;82200084
26004247;82059269
26004064;82098881
26003984;82212810
26004246;82059267
26004098;82098949
26004089;82098915
26006230;82210874
26004100;82098952
26004186;82085275
26004122;82109591
26004001;82070254
26003987;82212811
26004145;82186392
26004264;82111367
26004094;82098933
26004074;82098894
26004077;82098896
26004127;82109593
26004085;82098912
26004133;82173482
26003999;82070253
26005937;82008239
26004395;82149299
26004090;82098916
26005936;82008237
26004244;82059265
26004136;82186379
26004248;82059271
26004407;82200099
26004125;82109592
26004262;82111365
26004142;82186389
26004078;82098895
26004067;82098885
26003979;82212804
26005935;82249277
26005956;82225279
26005941;82008242
31241700;82243155
26005938;82008240
26005901;82172465
26005895;82160586
21821816;82140480
26005912;82210855
26005919;82185263
26005943;82008244
26005933;82249274
26005923;82083092
26005921;82185265
26005888;82123078
26005889;82123080
26005950;82121689
21825627;82166632
26005915;82185261
26005945;82008247
26005932;82249273
26005927;82044948
26005897;82159637
26005879;82237843
26005887;82123076
26005918;82185262
26005951;82121690
26005899;82172454
26005874;82224949
26005882;82109787
26005904;82185249
26005934;82249275
26005947;82008246
26005880;82237842
26005958;82249271
26005952;82121693
26005884;82109786
26005890;82123081
26005885;82109788
26005940;82008241
26005942;82008243
26005876;82224964
26007912;82050154
21817635;82176833
31225039;82050169
26007851;82140265
26007930;82050146
21818845;82061351
26007904;82050124
26007929;82050139
26007907;82050153
26007900;82050121
21818876;82074447
21818143;82138401
26007927;82050137
21817658;82176843
26007896;82050119
21818144;82138402
26007884;82012975
26007847;82114465
26007855;82140275
21818151;82163348
26007886;82012976
26007856;82140263
24604750;82047949
31239399;82182699
21819080;82214759
26007921;82050144
21822747;82227316
21835622;82191132
21818156;82138407
26007842;82114460
26007834;82114455
26007858;82190851
21817664;82227456
21817666;82214530
21818413;82112574
26007889;82012977
26007911;82050128
21817667;82176848
26007833;82114456
26007849;82140270
21822802;82022393
21818145;82163339
26007913;82050130
31243756;82131123
21817601;82150888
26007934;82050149
26007899;82050122
21818158;82163340
21818830;82061344
26007926;82050136
26007898;82050120
26007918;82050145
26007852;82140260
26007854;82140274
26007920;82050132
21817670;82176851
26007888;82050126
21818448;82138468
21817669;82227459
26007905;82050123
26007836;82114457
26007925;82050135
21818831;82061340
21817656;82176847
26007903;82050152
26007928;82050138
26007839;82140262
21818444;82138467
21818153;82138405
26007843;82114462
21818453;82138471
26007906;82050141
21818409;82138459
26007935;82025105
26007916;82050143
26007897;82050151
26007919;82050131
21817602;82176830
21818147;82138404
26007914;82050142
21818154;82138406
26007891;82012979
26007992;82025136
26007893;82012980
26007882;82050116
21818458;82138472
26007923;82050133
21819079;82214768
26007924;82050134
26007902;82050127
21818152;82163344
26007840;82114458
26007933;82050148
26008812;82078506
26008783;82219086
26008802;82091768
21822612;82075608
21822685;82227273
21822744;82227297
21822737;82240336
21822740;82214136
21822754;82240337
26008789;82219089
21822691;82240331
21822710;82227142
26008757;82219077
21822704;82227326
26008778;82078521
21822700;82214122
21822716;82240339
21822695;82277381
26008782;82219088
21822717;82227293
21822646;82062621
21822713;82214129
21822687;82227313
21822750;82227304
21823051;82023540
26008808;82219097
21822693;82227314
21822616;82075609
21822706;82227289
26008776;82078511
21822610;82075617
21822708;82214127
26008761;82078509
21822711;82214133
21822682;82227325
21822690;82227278
21822726;82214135
21822703;82240332
21822683;82227303
21822692;82227283
21822623;82075614
21822702;82227288
21822684;82240330
21822696;82227279
21822698;82227285
21822617;82075620
21837352;82053548
31242086;82030147
21822611;82075607
26008780;82219093
21822609;82075612
21823052;82023542
21822712;82240334
26008787;82078502
21822723;82240335
26008793;82219090
21822714;82227290
21822625;82075621
26008809;82078516
21822731;82240340
21822701;82227287
21823050;82023547
26008804;82078515
21822709;82214132
21822745;82227143
26008846;82251310
21822715;82227327
21822729;82214114
21822759;82214117
26008754;82219078
21823048;82023538
26008807;82219096
26008771;82078520
21822719;82214128
21822680;82227312
26008801;82078505
26008791;82078512
26008775;82219084
26008792;82219094
21822626;82075622
26008760;82219079
21822742;82240341
26008765;82219082
21822772;82086749
26008774;82219091
21822748;82214115
26008786;82078523
26008799;82078514
21822720;82227302
26008795;82078519
21822734;82214124
26008779;82219085
21822757;82227305
26008766;82078517
21822621;82075623
21822753;82227296
21822728;82227315
21822624;82075616
21822736;82227294
26008772;82219092
21822705;82214123
26008797;82078503
21822741;82227295
21822622;83488038
26008770;82078518
26008773;82219083
26010040;82065892
26010026;82065863
26010028;82065851
26009992;82040376
26010036;82065874
26009961;82027453
26009972;82027460
26009990;82065847
26009833;82154180
21840194;82248009
31243847;82220056
26009982;82027469
26010020;82065871
26010034;82065864
26010011;82040396
26009962;82027454
26010030;82065853
26010041;82065882
26009963;82040369
26010003;82065859
26009835;82154172
26010005;82065860
26009989;82040389
26010047;82065901
26009837;82154173
26010033;82065855
26010002;82065858
26009994;82040379
26009976;82027462
26010025;82065881
26010021;82065873
26009968;82027456
26009964;82040370
26010015;82065870
26009960;82027475
26010037;82065866
26010012;82065868
26009985;82040385
26010018;82065872
26009988;82040388
26010039;82065891
26009826;82154164
26010022;82065850
26009840;82154174
26009993;82040377
26010010;82040393
26009991;82040375
26009855;82013787
26010023;82065862
21840919;82189225
31240293;82220986
26009997;82040380
26009978;82027464
26010009;82040392
26010016;82065849
26009975;82027461
26010014;82065869
26009828;82154165
26009967;82027455
26009983;82040384
26009965;82040371
26009984;82040374
26009996;82065848
26010043;82065875
26009969;82040383
26010031;82065854
26009974;82040373
26009977;82027463
26009831;82154168
26009971;82027476
26009998;82040381
26009852;82013775
26009841;82154177
26010029;82065852
26009987;82040387
21832471;82091802
26009838;82154175
26009966;82040372
26010008;82040391
26010024;82065880
26010007;82065861
26010000;82040382
26010044;82065877
26009958;82027474
26010045;82065879
26009839;82205094
26010001;82277167
26009830;82154167
26009979;82027466
21837699;82050525
21837665;82050503
31248694;82117178
21837627;82025255
21837711;82050537
21837635;82050489
21837704;82050534
21837629;82025257
21837683;82050543
21837653;82050493
21837669;82050541
21837630;82025258
21837625;82050498
21837650;82050518
24609011;82079244
21840644;82094498
21842506;82222280
21837623;82025251
21837689;82050515
31241827;82247538
21837700;82050527
21837668;82050540
21837680;82050521
21837858;82191249
21837690;82050544
21837739;82089576
21837644;82050492
21837634;82025260
21837706;82050546
21837702;82050528
26011391;82205218
21837660;82050502
21837705;82050535
21837726;82089558
21837658;82277114
21837694;82050549
21837701;82089550
21837624;82025243
21837738;82089547
21837688;82050514
21837691;82050516
21837662;82050530
21837735;82089553
21837727;82089573
21837639;82050511
21837667;82050506
21837730;82050556
21837655;82050494
21837638;82050491
21837642;82050497
21837697;82050526
21837709;82050536
21837698;82050533
21837677;82050531
21837618;82025262
21837652;82050512
21837674;82050542
21837631;82050504
21837695;82050517
21837666;82050513
21837657;82050495
21837687;82050522
21837641;82025264
21837636;82050510
21837710;82050550
21837712;82050548
21837663;82050505
21837736;82089585
21837664;82050501
