NUMERO_POLICES;NUMERO_QUITTANCE
31009253;83088099
31009782;83099664
21609736;83003647
21204316;83147888
31003345;83003898
21208862;83191167
31004920;83027719
21605245;83158791
31014657;82933870
31002508;82992246
31014515;82933890
31005504;83027744
31012316;83135949
21838112;83192911
31011686;83123429
21210467;83015701
31232394;82998125
31232392;82998122
31232393;82998124
31009393;83087652
31006212;83040139
31013400;83148094
31005921;83040120
31212716;83146054
31012489;83135986
31011546;83123808
31011095;83111688
21840295;83083515
21831665;83032119
31005496;83027743
31012178;83135931
31014758;82943814
24100305;82956062
24100347;82956070
24100316;82956063
24100386;82956073
24100381;82956072
24100287;82956058
24100281;82956056
24100291;82956060
24100391;82956075
24100380;82956071
31014120;82927878
24100288;82956059
24100292;82956061
24100429;82956078
24100335;82956067
24100326;82956064
24100342;82956066
24100343;82956069
24100390;82956074
24100337;82956065
24100425;82956076
24100424;82956077
21609377;82991951
24100338;82956068
24101484;82979943
24101531;82979948
24101521;82979947
24101481;82979942
24101473;82979938
24101636;82979960
24101551;82979950
24101649;82979961
24101536;82979951
24101683;82979965
24101681;82979966
24101672;82979963
24101478;82979941
24101503;82979946
31237497;83150709
24101294;82979925
24101296;82979924
31012528;83135991
24101491;82979944
24101493;82979945
24101564;82979952
24101474;82979940
24101470;82979937
24101525;82979949
24101472;82979939
31235547;83162474
21822799;83194339
21835707;83002954
21806256;82966024
31014210;82933445
31014520;82933887
31014206;82933446
31216370;83123569
31216368;83123570
21814744;83063680
21837519;83195392
31227364;83041600
31227437;83091516
26004096;83016136
26004266;83027928
26004002;82989923
26004243;82979682
26004080;83016178
26004097;83016135
26004091;83016155
26004250;82979689
26003981;83123266
26004134;83086531
26004283;83110907
26004247;82979685
26004064;83016193
26003984;83135642
26004246;82979684
26004098;83016132
26004089;83016162
26006230;83121718
26004100;83016129
26004186;83003496
26004122;83026576
26004001;82989921
26003987;83135643
26004145;83098558
26004264;83027927
26004094;83016145
26004074;83016182
26004077;83016181
26004127;83026573
26004085;83016164
26004133;83086529
26003999;82989920
26005937;82931691
26004395;83063322
26004090;83016161
26004244;82979683
26004136;83098550
26004248;82979687
26004407;83111408
26004125;83026574
26004262;83027926
26004142;83098556
26004078;83016180
26004067;83016191
26003979;83123270
26005935;83157775
26005956;83134983
26005941;82931694
31241700;83152051
26005938;82931692
26005901;83085485
26005895;83074403
21821816;83055248
26005912;83121689
26005919;83097539
26005943;82931696
26005933;83157773
26005888;83038719
26005889;83038720
26005950;83037595
26005915;83097537
26005945;82931698
26005932;83157772
26005927;82966068
26005897;83073519
26005879;83146905
26005887;83038718
26005918;83097538
26005951;83037597
26005899;83085476
26005874;83135225
26005882;83026358
26005904;83097528
26005934;83157774
26005947;82931697
26005880;83146906
26005952;83037600
26005884;83026356
26005890;83038721
26005885;83026355
26005940;82931693
26005942;82931695
26005876;83135223
26007912;82971205
21817635;83089725
26007851;83055043
31225039;82970794
26007930;82971198
21818845;82981557
26007904;82971176
26007929;82971192
26007907;82971204
26007900;82971177
21818876;82993681
21818143;83053281
26007927;82971190
21817658;83089721
26007896;82971173
21818144;83053282
26007884;82936521
26007847;83030703
26007855;83055054
21818151;83076911
26007886;82936519
26007856;83055042
24604750;82969102
31239399;83094684
21819080;83125326
26007921;82971197
21822747;83197803
21835622;83102718
21818156;83053286
26007842;83030699
26007858;83102441
21817664;83194421
21817666;83136925
21818413;83029060
26007889;82936520
26007911;82971182
21817667;83194412
26007833;83030687
26007849;83055050
21822802;83191449
21818145;83076921
26007913;82971183
31243756;83045686
21817601;83065037
26007934;82971201
26007899;82971175
21818158;83076920
21818830;82981551
26007926;82971188
26007898;82971174
26007918;82971196
26007852;83055039
26007854;83055052
26007920;82971185
26007888;82971180
21818448;83053329
21817669;83136929
26007905;82971178
26007836;83030689
26007925;82971189
21818831;82981547
21817656;83089717
26007903;82971203
26007928;82971191
26007839;83055041
21818444;83053328
21818153;83053284
26007843;83030701
21818453;83053332
26007906;82971193
21818409;83053321
26007935;82947469
26007916;82971195
26007897;82971202
26007919;82971184
21817602;83089726
21818147;83053283
26007914;82971194
21818154;83053285
26007891;82936517
26007992;82947441
26007893;82936518
26007882;82971171
21818458;83053333
26007923;82971187
21819079;83125316
26007924;82971186
26007902;82971181
21818152;83076915
26007840;83030698
26007933;82971200
26008812;82997398
26008783;83129391
21822612;83195101
21822744;83197793
21822737;83197814
21822740;83194330
21822754;83197815
26008789;83129390
21822691;83197810
21822710;83194332
26008757;83129399
21822704;83197808
21822700;83194319
21822695;83197783
26008782;83129392
21822717;83197790
21822646;83191877
21822713;83194322
21822687;83197800
21822750;83197797
21823051;83191539
26008808;83129383
21822693;83197801
21822616;83195102
21822706;83197788
26008776;82997392
21822610;83195107
21822708;83194321
26008761;82997393
21822711;83194327
21822682;83197806
21822690;83197778
21822726;83194328
21822703;83197811
21822683;83197795
21822692;83197782
21822623;83195105
21822702;83197787
21822684;83197809
21822696;83197780
21822698;83197785
21822617;83195108
21837352;83192119
31242086;82952063
21822611;83195100
26008780;83129387
21822609;83195103
21823052;83191540
21822712;83197812
26008787;82997405
21822723;83197813
26008793;83129389
21822714;83197789
21822625;83195110
26008809;82997389
21822731;83197817
21822701;83197786
21823050;83191541
26008804;82997388
21822709;83194326
21822745;83194331
26008846;83159842
21822715;83197807
21822729;83194313
21822759;83194315
26008754;83129400
21823048;83191537
26008807;83129385
26008771;82997384
21822719;83194323
21822680;83197799
26008801;82997401
26008791;82997391
26008775;83129394
26008792;83129384
21822626;83195111
26008760;83129398
21822742;83197818
26008765;83129396
21822772;83194333
26008774;83129386
21822748;83194314
26008786;82997383
26008799;82997390
21822720;83197796
26008795;82997386
21822734;83194320
26008779;83129393
21822757;83197798
26008766;82997387
21822621;83195112
21822753;83197794
21822728;83197802
21822624;83195106
21822736;83197791
26008772;83129388
21822705;83194318
26008797;82997400
21822741;83197792
21822622;83488039
26008770;82997385
26008773;83129395
26010040;82985648
26010026;82985622
26010028;82985611
26009992;82961712
26009961;82949596
26009972;82949602
26009990;82985607
26009833;83067767
26009982;82949609
26010020;82985630
26010034;82985623
26010011;82961729
26009962;82949597
26010030;82985613
26010041;82985639
26009963;82961705
26010003;82985618
26009835;83067759
26010005;82985619
26009989;82961724
26010047;82985657
26009837;83067760
26010033;82985615
26010002;82985617
26009994;82961714
26009976;82949605
26010025;82985638
26010021;82985631
26009968;82949601
26009964;82961706
26010015;82985628
26009960;82949616
26010037;82985625
26010012;82985626
26009985;82961720
26010018;82985629
26009988;82961723
26010039;82985647
26009826;83067752
26010022;82985610
26009840;83067762
26009993;82961713
26010010;82961727
26009991;82961711
26010023;82985621
31240293;83131124
21840919;83100787
26009978;82949606
26010009;82961726
26010016;82985609
26009975;82949603
26010014;82985627
26009828;83067753
26009967;82949598
26009983;82961719
26009965;82961707
26009984;82961710
26009996;82985608
26010043;82985634
26009969;82961718
26010031;82985614
26009974;82961709
26009977;82949604
26009831;83067755
26009971;82949617
26009998;82961716
26009841;83067763
26010029;82985612
26009987;82961722
21832471;83009260
26009838;83067761
26009966;82961708
26010008;82961725
26010024;82985637
26010007;82985620
26010000;82961717
26010044;82985635
26009958;82949614
26010045;82985636
26010001;82985616
26009830;83067754
26009979;82949607
21837699;82971516
31248694;83033233
21837627;82947590
21837711;82971525
21837635;82971483
21837704;82971522
21837629;82947589
21837683;82971530
21837653;82971486
21837669;82971528
21837630;82947588
21837625;82971490
21837650;82971509
24609011;82997586
21840644;83011892
21842506;83132286
21837623;82947593
21837689;82971506
21837668;82971527
21837680;82971512
21837858;83102826
21837690;82971531
21837739;83007487
21837644;82971485
21837634;82947587
21837706;82971533
21837702;82971518
21850154;83001404
31251941;83061792
21837660;82971493
21837705;82971523
21837726;83007496
21837658;82971489
21837694;82971536
21837701;83007501
21837624;82947597
21837688;82971505
21837691;82971507
21837662;82971519
21837735;83007500
21837727;83007489
21837639;82971502
21837667;82971497
21837730;82971541
21837655;82971487
21837638;82971484
21837642;82971491
21837697;82971514
21837709;82971524
21837698;82971521
21837677;82971520
21837618;82947586
21837652;82971503
21837674;82971529
21837631;82971495
21837695;82971508
21837666;82971504
21837657;82971488
21837641;82947584
21837636;82971500
21837710;82971537
21837712;82971535
21837663;82971496
21837736;83007482
21837664;82971492
