CODES_POLICES;TERME
76608062;86,836
76608063;76,329
76608064;129,908
76608072;96,219
76608081;672,767
76608082;554,290
76608084;274,301
76608085;920,195
76608086;64,593
76608087;65,205
76608088;21,322
76608089;10,660
76608090;11,002
76608091;10,660
76608092;129,939
76608094;119,154
76608095;374,900
76608102;314,985
76608105;10,660
76608109;65,205
76608110;22,005
76608111;43,882
76608112;1,210,706
76608113;11,002
76608114;21,322
76607995;605,356
76607998;140,510
76608018;21,322
76608061;10,660
76608066;2,979,416
76608067;65,238
76608068;65,238
76608069;1,170,283
76608075;140,511
76608079;517,064
76608080;21,065
76608097;119,247
76608100;192,527
76608101;53,146
76608104;42,235
76608107;114,275
76608108;21,322
76607955;21,065
76607958;32,756
76607992;244,575
76607863;339,727
76607996;594,354
76608073;433,271
76608078;313,439
76608099;31,741
76608115;118,874
76608116;73,286
76608128;498,575
76608129;462,381
76608130;472,006
76608134;163,148
76608135;116,087
76608138;594,354
76608139;594,300
76608140;21,322
76608142;807,686
76608143;1,188,701
76608144;32,167
76608145;735,372
76608146;21,322
76608151;21,321
76608152;21,322
76608153;594,354
76608154;2,971,470
76608155;539,330
76608157;495,824
76608158;21,322
76608159;594,327
76608175;20,799
76608176;63,992
76608177;21,322
76608178;63,992
76608179;1,427,634
76608180;374,575
76608181;42,664
76608187;594,354
76608191;10,660
76608192;10,660
76608194;125,604
76608206;648,569
76608212;594,354
76608217;86,525
76608219;21,321
76608222;21,322
76608223;21,322
76608225;594,354
76608226;32,401
76608227;21,602
76608228;53,588
76608229;21,322
76608230;41,635
76608233;220,779
76608234;193,690
76608235;54,328
76608239;308,361
76608246;594,354
76608248;594,298
76608249;1,169,599
76608250;10,660
76608251;10,660
76608252;614,889
76608253;398,855
76608254;303,387
76608255;32,261
76608256;21,322
76608258;594,323
76608259;149,675
76608261;423,967
76608263;191,832
76608268;171,555
76608269;65,139
76608270;129,475
76608121;594,354
76608122;594,354
76608123;594,322
76608124;232,537
76608125;264,339
76608126;262,116
76608137;13,324
76608148;660,129
76608149;75,833
76608161;594,354
76608162;242,569
76608163;252,336
76608164;546,427
76608166;584,859
76608167;32,541
76608168;21,322
76608171;594,354
76608173;10,660
76608174;21,322
76608185;21,878
76608190;366,244
76608196;65,076
76608197;427,557
76608198;594,327
76608199;78,386
76608215;65,079
76608216;54,419
76608237;21,322
76608238;63,317
76608241;584,944
76608242;584,577
76608243;400,619
76608244;594,201
76608245;21,322
76608267;21,322
76608274;232,339
76608277;294,531
76607638;10,660
76608307;53,984
76608344;160,710
76608345;531,045
76608346;530,156
76608348;10,908
76608349;466,160
76608350;583,415
76608351;10,660
76608352;43,569
76608353;54,232
76608354;31,942
76608355;64,892
76608356;10,660
76608357;392,046
76608359;139,117
76608360;583,415
76608362;348,775
76608363;21,723
76608364;43,044
76608371;261,225
76608372;21,322
76608373;462,042
76608375;402,584
76608376;636,178
76608377;42,647
76608380;303,303
76608384;97,244
76608388;43,044
76608389;53,799
76608400;592,979
76608405;10,940
76608406;573,853
76608407;73,363
76608409;180,990
76608410;2,914,620
76608416;94,018
76608417;10,940
76608418;10,940
76608419;10,940
76608420;10,940
76608421;21,065
76608422;496,734
76608436;118,536
76608438;398,267
76608442;571,340
76608443;592,844
76608444;583,083
76608445;311,838
76608446;490,270
76608449;20,799
76608450;67,239
76608451;277,590
76608452;42,633
76608453;248,373
76608455;10,660
76608456;527,109
76608457;517,724
76608461;374,659
76608469;43,569
76608470;54,232
76608471;43,569
76608472;65,170
76608473;680,351
76608477;10,660
76608479;593,284
76608481;352,661
76608482;574,027
76608490;466,542
76608281;232,913
76608282;259,933
76608283;97,029
76608301;53,293
76608302;75,211
76608304;139,397
76608306;291,206
76608318;583,415
76608327;104,125
76608340;21,570
76608342;583,415
76608367;292,615
76608369;139,479
76608370;10,876
76608399;593,250
76608414;84,471
76608415;94,018
76608427;43,385
76608429;53,346
76608430;63,484
76608433;10,660
76608434;43,354
76608435;75,678
76608448;51,774
76608459;196,966
76608464;26,751
76608468;21,065
76608475;96,810
76608488;20,799
76608489;75,432
76608315;85,895
76608497;10,660
76608498;272,896
76608499;1,088,643
76608500;139,210
76608501;75,553
76608502;10,660
76608503;293,788
76608504;301,587
76608505;572,331
76608506;572,475
76608507;71,125
76608508;81,364
76608518;221,143
76608523;31,942
76608524;42,850
76608525;406,984
76608526;509,398
76608527;95,636
76608528;128,630
76608529;128,230
76608530;623,382
76608531;82,338
76608532;184,621
76608533;64,521
76608534;43,570
76608535;64,892
76608537;21,538
76608538;441,376
76608541;107,498
76608542;42,200
76608543;447,941
76608544;26,652
76608554;53,047
76608564;82,511
76608565;96,933
76608566;96,933
76608567;118,287
76608568;118,287
76608577;108,926
76608589;30,881
76608593;54,307
76608594;572,443
76608595;1,069,822
76608596;54,386
76608597;524,570
76608598;410,631
76608599;420,233
76608600;410,631
76608601;410,968
76608602;410,603
76608603;410,631
76608604;410,631
76608605;410,605
76608606;572,475
76608658;107,688
76608659;21,065
76608660;141,272
76608661;141,079
76608662;141,272
76608666;32,446
76608667;10,660
76608668;450,873
76608093;138,092
76608284;10,876
76608287;10,660
76608303;64,704
76608305;232,095
76608308;10,660
76608314;10,660
76608338;75,306
76608343;107,597
76608402;64,891
76608404;388,864
76608412;219,112
76608413;218,947
76608437;21,065
76608478;31,709
76608480;10,908
76608487;399,143
76608496;10,660
76608511;572,418
76608512;293,157
76608513;139,470
76608514;138,965
76608520;31,709
76608521;563,089
76608522;10,751
76608540;21,065
76608549;858,718
76608550;572,475
76608551;21,754
76608552;52,307
76608553;52,307
76608583;410,631
76608584;366,116
76608585;30,881
76608586;41,020
76608591;10,876
76608592;80,961
76608645;176,146
76608646;284,093
76608651;215,193
76608655;497,713
76608657;97,026
76608665;54,542
76608670;603,485
76608671;564,825
76607989;478,755
76608673;572,389
76608674;540,777
76608676;10,660
76608678;75,079
76608447;548,430
76600071;123,046
76600110;91,712
76600117;685,381
76600118;582,306
76600150;156,283
76600164;138,085
76600170;123,046
76600181;219,079
76600218;443,059
76600222;355,019
76600238;119,571
76600275;141,546
76600294;297,691
76600334;103,520
76600341;163,528
76600389;211,582
76600401;89,929
76600468;223,422
76600473;215,033
76600483;152,100
76600484;91,535
76600510;319,226
76600535;152,851
76600543;101,999
76600546;240,126
76600548;91,757
76600569;128,438
76600575;431,632
76600577;380,640
76600581;174,793
76600582;187,380
76600598;428,210
76600625;141,372
76600655;163,528
76600660;142,372
76600672;224,781
76600781;112,340
76600795;325,181
76600807;377,475
76600812;258,615
76600831;61,724
76600832;61,724
76600842;170,261
76600859;91,757
76600906;103,040
76600917;142,415
76600946;151,730
76601035;172,655
76601042;111,379
76601079;160,414
76601089;365,727
76601091;234,708
76601138;294,829
76601156;151,326
76601158;330,458
76601166;161,262
76601168;231,031
76601169;151,519
76601178;182,345
76601185;69,992
76601187;150,476
76601190;182,739
76601216;251,632
76601220;113,158
76601233;162,141
76601244;131,174
76601271;354,342
76601300;91,556
76601314;113,048
76601317;100,659
76601328;173,094
76601341;90,954
76601354;236,321
76601406;312,504
76601414;133,597
76601415;112,704
76601418;132,718
76601442;152,565
76601459;113,136
76601467;113,372
76601469;123,647
76601482;276,737
76601483;92,350
76601487;174,845
76601500;131,440
76601502;101,502
76601524;87,756
76601536;92,602
76601548;146,039
76601569;151,266
76601577;296,837
76601603;186,263
76601623;114,572
76601641;581,577
76601643;113,661
76601668;114,572
76601671;172,221
76601672;254,772
76601675;448,860
76601683;145,027
76601686;91,853
76601697;102,063
76601701;165,447
76601753;114,463
76601764;93,094
76601768;124,432
76601782;104,163
76601791;203,775
76601803;112,598
76601804;124,367
76601813;114,157
76601817;92,663
76601818;133,372
76601830;112,491
76601878;143,150
76601879;132,839
76601892;238,302
76601894;257,097
76601918;92,798
76601924;205,200
76601928;102,292
76601942;133,195
76601949;342,038
76601988;92,382
76601999;273,151
76602012;265,931
76602013;208,958
76602018;215,076
76602113;175,446
76602115;175,446
76602129;123,515
76602132;100,364
76602135;131,974
76602139;113,961
76602145;123,941
76602153;1,418,798
76602167;205,856
76602171;114,682
76602175;165,902
76602177;123,162
76602179;155,495
76602202;305,445
76602206;920,078
76602210;93,188
76602252;317,770
76602256;103,228
76602257;124,237
76602267;237,453
76602280;102,640
76602284;113,961
76602295;424,274
76602318;103,198
76602340;133,589
76602361;92,906
76602362;92,906
76602397;266,343
76602398;266,343
76602405;235,462
76602408;308,353
76602410;136,847
76602417;91,998
76602433;92,104
76602436;153,836
76602444;164,630
76602448;123,608
76602456;205,040
76602489;175,232
76602494;277,336
76602496;256,661
76602520;175,046
76602529;103,097
76602548;143,445
76602552;329,012
76602555;111,672
76602560;544,608
76602579;93,489
76602599;145,837
76602601;114,598
76602605;212,437
76602606;113,918
76602607;471,391
76602623;102,398
76602632;247,216
76602679;122,107
76602692;91,229
76602717;111,697
76602759;1,904,965
76602765;103,856
76602768;93,424
76602810;142,408
76602814;135,198
76602815;373,325
76602827;193,416
76602832;92,423
76602836;101,231
76602837;151,954
76602861;57,067
76602872;116,842
76602910;362,960
76602911;127,593
76602916;105,508
76602926;105,508
76602933;232,072
76602968;231,461
76602979;266,463
76602981;232,533
76602985;156,871
76602988;402,405
76603009;442,941
76603019;515,443
76603041;140,286
76603042;342,916
76603054;117,351
76603066;159,338
76603067;106,726
76603077;127,865
76603084;276,433
76603090;117,143
76603101;197,989
76603105;127,865
76603125;503,382
76603142;578,190
76603155;139,317
76603162;137,485
76603178;127,513
76603181;118,096
76603198;222,310
76603210;608,760
76603225;159,719
76603228;116,897
76603231;435,614
76603243;85,781
76603254;140,848
76603261;126,878
76603263;300,542
76603293;218,365
76603294;358,824
76603298;126,278
76603299;157,386
76603392;129,608
76603394;600,996
76603397;263,459
76603398;1,181,715
76603413;128,958
76603418;180,397
76603443;108,277
76603465;602,456
76603494;97,427
76603495;613,237
76603500;407,432
76603514;452,354
76603544;117,972
76603551;161,240
76603567;139,564
76603578;96,930
76603581;245,643
76603582;97,176
76603601;108,024
76603607;128,953
76603612;129,410
76603622;407,980
76603630;161,335
76603631;161,099
76603700;108,282
76603701;97,555
76603712;161,614
76603716;304,873
76603790;193,204
76603791;193,204
76603820;203,662
76603836;277,968
76603901;119,160
76603902;108,200
76603903;108,200
76603924;459,397
76603929;97,707
76603930;97,707
76603935;191,548
76603958;182,753
76603991;557,166
76604024;192,860
76604030;257,344
76604083;204,448
76604119;309,324
76604121;224,058
76604126;215,210
76604127;215,210
76604143;108,511
76604211;118,556
76604218;588,627
76604222;171,904
76604268;236,545
76604275;604,198
76604282;139,685
76604305;215,205
76604331;1,208,263
76604394;455,438
76604405;118,676
76604408;309,546
76604421;119,135
76604475;106,845
76604476;106,845
76604481;267,981
76604487;614,688
76604520;138,746
76604529;106,874
76604538;252,544
76604540;222,846
76604569;119,402
76604570;97,876
76604605;603,525
76604608;172,777
76604626;62,627
76604636;98,597
76604640;194,825
76604673;108,330
76604737;130,240
76604744;174,176
76604747;141,706
76604752;184,786
76604765;163,484
76604766;163,484
76604773;129,488
76604776;109,027
76604783;195,885
76604784;174,402
76604785;174,657
76604794;624,874
76604795;615,387
76604813;1,251,250
76604829;376,056
76604830;322,734
76604837;533,789
76604840;152,969
76604858;327,408
76604920;163,150
76604926;360,879
76604934;152,969
76604936;451,777
76604942;604,946
76604945;156,744
76604964;195,834
76604976;142,174
76604995;109,086
76605014;174,432
76605016;153,100
76605040;184,527
76605090;227,212
76605096;109,545
76605097;109,545
76605115;1,232,218
76605166;308,085
76605167;296,339
76605169;298,154
76605170;287,565
76605171;276,741
76605174;297,189
76605176;119,950
76605180;98,597
76605183;238,211
76605185;614,294
76605189;953,007
76605238;173,505
76605245;307,397
76605248;174,593
76605280;142,111
76605282;163,484
76605284;98,277
76605295;625,772
76605298;418,543
76605303;265,184
76605329;174,613
76605354;558,823
76605365;614,596
76605371;163,771
76605372;98,728
76605401;238,375
76605483;328,202
76605484;142,071
76605485;327,733
76605486;98,068
76605513;174,082
76605514;152,475
76605515;131,427
76605516;164,106
76605517;328,188
76605518;120,726
76605527;109,820
76605529;164,120
76605530;131,759
76605531;118,931
76605559;365,802
76605563;484,616
76605951;97,710
76606371;97,960
76606372;97,960
76605774;98,348
76605769;98,396
76605722;108,591
76605768;109,163
76605765;109,194
76606361;114,835
76606254;118,721
76606146;119,194
76606085;119,435
76605799;129,790
76606370;138,625
76606384;145,059
76605798;151,808
76606376;157,555
76606314;160,529
76605920;161,067
76606169;170,090
76605973;172,501
76605975;172,501
76605974;172,592
76606307;179,785
76605688;181,711
76605838;183,207
76605964;187,226
76605999;191,581
76606243;202,136
76605848;203,227
76605849;203,227
76605911;211,964
76606204;219,822
76606142;230,905
76606130;231,473
76606132;231,723
76606143;231,723
76605571;233,166
76606137;240,965
76606135;241,215
76606134;242,446
76606141;242,446
76605712;244,221
76606129;250,637
76606140;251,119
76606242;251,842
76606133;251,938
76606139;251,938
76606127;252,599
76606128;252,599
76606138;252,657
76606126;261,363
76606136;261,625
76606145;269,068
76606131;271,116
76605662;323,110
76606249;326,140
76606363;336,660
76605702;345,768
76605636;346,137
76606250;356,169
76605635;365,193
76605634;388,997
76606144;422,945
76605828;436,072
76605818;473,200
76605891;503,231
76600380;503,563
76606374;512,883
76605650;605,470
76605651;605,470
76606258;615,709
76606263;615,709
76606279;615,709
76605892;615,900
76605846;625,576
76605664;626,130
76605236;931,060
76606067;1,093,209
76606066;1,111,709
76606302;631,109
76606337;162,463
76606434;67,702
76606448;450,753
76606452;147,929
76606473;76,903
76606515;621,396
76606544;211,863
76606550;131,097
76606555;388,861
76606556;398,347
76606594;870,386
76606612;619,659
76610943;88,335
76610944;29,363
76606639;623,820
76606653;138,661
76606668;129,263
76606692;86,822
76606693;86,822
76606712;10,985
76606715;313,190
76606725;189,574
76606735;300,494
76606736;75,020
76606499;234,434
76606740;445,299
76606747;253,755
76606752;30,478
76606755;275,033
76606756;30,222
76606759;30,478
76606761;616,200
76606762;182,338
76606764;20,481
76606765;336,616
76606772;20,481
76606776;30,251
76606777;301,172
76606780;615,354
76606781;265,869
76606783;144,169
76606785;10,241
76606787;20,481
76606789;615,376
76606790;616,200
76606791;20,481
76606793;128,547
76606794;615,354
76606795;301,172
76606797;594,976
76606798;616,200
76606800;116,982
76606804;97,520
76606805;615,405
76606806;171,493
76606808;150,262
76606810;615,405
76606817;20,542
76606825;96,062
76606836;85,836
76606837;264,121
76606838;20,542
76606839;79,925
76606841;30,089
76606843;30,089
76606846;20,542
76606848;128,343
76606852;118,188
76606853;61,159
76606854;61,159
76606855;61,159
76606866;578,111
76606867;10,270
76606874;10,270
76606882;63,439
76606887;20,542
76606890;25,677
76606899;80,262
76606906;61,159
76606907;30,754
76606909;20,542
76606910;192,326
76606916;61,159
76606917;232,364
76606930;234,281
76606936;129,721
76606940;129,721
76606941;129,721
76606943;129,721
76606944;20,542
76606947;107,313
76606954;20,542
76606974;921,966
76606980;107,343
76606983;43,540
76606988;65,265
76606989;54,449
76606990;65,265
76606991;54,449
76606997;335,944
76607002;65,171
76607010;182,033
76607011;20,542
76607014;118,063
76607027;615,405
76607028;20,541
76607033;20,542
76607042;85,836
76607046;285,427
76607050;615,405
76607065;20,542
76607071;20,542
76607074;20,542
76607075;10,270
76607082;62,279
76607089;150,262
76607093;500,837
76607097;10,270
76607100;73,429
76607113;97,163
76607114;107,917
76607119;615,405
76607153;20,542
76607157;596,056
76607158;605,824
76607159;596,056
76607160;605,824
76607162;605,824
76607163;596,056
76607164;596,056
76607165;596,056
76607166;596,056
76607172;85,145
76607174;85,836
76607180;202,563
76607181;74,958
76607188;74,866
76607190;15,406
76607192;54,418
76607195;65,233
76607196;86,319
76607197;65,265
76607198;65,265
76607199;54,449
76607200;54,387
76607202;202,001
76607204;41,797
76607205;31,526
76607206;41,797
76607207;31,526
76607208;31,526
76607217;54,117
76607233;84,406
76607242;63,156
76607036;616,252
76607270;376,607
76607274;362,950
76607275;376,577
76607276;376,577
76607289;74,895
76607295;31,436
76607297;234,996
76607301;518,921
76607302;509,950
76607304;379,761
76607306;616,252
76607318;83,836
76607321;20,989
76607322;31,436
76607334;31,436
76607337;597,725
76607338;181,732
76607344;31,436
76607345;149,488
76607325;31,526
76607326;31,526
76607361;606,175
76607362;20,658
76607364;20,658
76607368;76,424
76607369;97,082
76607370;20,658
76607378;86,236
76607379;140,817
76607380;161,478
76607383;20,658
76607392;20,658
76607394;255,828
76607395;276,306
76607398;106,978
76607400;53,468
76607401;32,809
76607404;65,462
76607409;616,262
76607414;606,175
76607267;20,630
76607316;31,618
76607317;21,109
76607387;83,714
76607393;265,663
76607419;20,719
76607428;509,927
76607431;10,359
76607432;10,359
76607433;32,662
76607439;53,352
76607445;182,115
76607447;1,118,572
76607460;149,725
76607461;129,848
76607462;140,206
76607464;32,175
76607476;301,091
76607479;115,766
76607489;20,720
76607490;20,720
76607491;164,434
76607493;20,720
76607494;20,720
76607495;64,260
76607498;10,359
76607502;316,431
76607503;125,544
76607504;104,884
76607505;94,435
76607506;615,510
76607507;139,627
76607509;10,359
76607510;366,175
76607512;285,879
76607514;15,539
76607516;615,510
76607517;10,359
76607519;10,359
76607523;96,412
76607526;10,359
76607530;21,879
76607556;197,282
76607536;139,436
76607534;128,814
76607547;122,652
76607558;97,107
76607559;64,601
76607388;63,175
76607540;62,430
76607374;42,752
76607532;42,721
76607463;32,268
76607545;31,782
76607546;31,750
76607356;21,973
76607537;21,392
76607543;20,779
76607544;20,779
76607549;20,779
76607548;10,388
76607576;416,964
76607577;616,279
76607579;176,122
76607584;192,498
76607585;192,565
76607588;108,729
76607599;160,665
76607607;606,453
76607609;365,853
76607610;512,864
76607575;31,007
76607581;31,872
76607583;42,876
76607603;31,872
76607605;84,257
76607614;65,730
76607615;31,138
76607620;64,568
76607621;43,427
76607631;53,658
76607633;76,580
76607640;285,139
76607651;129,113
76607675;115,478
76607676;108,038
76607680;263,311
76607683;312,620
76607688;119,044
76607705;255,355
76607710;132,632
76607714;286,145
76607720;590,537
76603429;49,832
76606698;30,549
76607642;53,753
76607645;32,914
76607646;32,914
76607647;71,204
76607648;71,204
76607657;75,124
76607658;75,124
76607663;58,665
76607682;54,240
76607684;43,822
76607704;53,753
76607713;74,051
76607721;83,650
76607729;587,370
76607730;97,317
76607736;222,680
76607739;97,765
76607740;65,178
76607741;620,255
76607742;20,959
76607744;394,186
76607745;374,083
76607746;2,497,601
76607747;289,810
76607753;182,788
76607754;301,749
76607755;615,348
76607757;620,479
76607758;351,383
76607763;233,884
76607764;108,375
76607783;214,047
76607789;119,066
76607802;302,337
76607803;323,357
76607822;556,339
76607834;234,483
76607835;244,739
76607839;180,061
76607840;140,084
76607848;253,601
76607849;254,473
76607760;31,275
76607793;42,960
76607799;97,400
76607815;43,789
76607816;43,789
76607823;75,251
76607828;64,561
76607829;91,752
76607841;52,936
76607775;839,314
76607776;636,871
76607859;606,125
76607862;418,073
76607865;606,152
76607871;596,408
76607876;548,542
76607883;444,992
76607884;606,152
76607895;165,764
76607896;164,904
76607902;596,741
76607903;606,043
76607904;605,911
76607914;380,712
76607924;1,515,381
76607877;31,750
76607879;42,049
76607900;75,240
76607922;31,989
76607616;20,839
76607819;21,942
76607639;20,839
76607888;21,079
76607602;21,878
76607765;11,002
76607874;11,001
76607619;20,839
76607794;20,277
76607628;21,389
76607711;20,899
76607817;20,738
76607674;21,419
76607843;11,002
76607820;21,942
76607626;20,839
76607892;21,974
76607875;11,001
76607921;22,006
76615209;92,500
76607629;20,839
76607578;21,389
76607830;21,942
76607727;20,899
76607627;20,839
76607664;21,419
76607928;75,809
76615247;69,735
76615253;18,580
76607945;605,495
76615227;46,490
76607942;65,732
76615233;9,330
76615293;37,134
76615230;18,633
76615236;46,490
76615216;46,490
76615213;27,963
76615239;18,660
76615279;46,490
76607943;65,732
76615262;27,884
76615225;46,490
76615285;9,330
76615265;18,660
76607940;21,140
76607937;445,186
76615288;46,490
76615268;46,649
76615242;74,426
76607777;21,140
76607860;369,315
76615245;46,490
76615251;27,883
76615277;46,490
76615274;69,695
76607929;595,751
76615254;9,330
76615234;46,490
76607926;369,706
76615294;46,437
76615211;46,463
76615217;46,490
76615240;46,490
76615280;46,490
76615243;9,330
76607786;223,356
76615263;46,490
76615260;9,250
76615206;46,490
76607778;32,140
76615266;46,490
76615229;92,979
76615289;46,490
76615292;46,410
76615269;55,820
76607941;97,440
76615223;139,390
76615226;9,330
76607947;32,140
76607933;76,142
76615298;46,650
76607930;64,681
76615215;46,490
76615238;46,490
76615278;46,490
76615275;46,490
76615281;46,490
76615244;18,660
76615224;46,490
76615264;179,516
76615218;46,490
76615241;18,580
76607850;21,602
76607851;32,202
76607854;21,942
76607861;329,429
76607950;54,544
76607866;91,654
76607967;97,719
76607968;75,612
76607970;163,469
76615421;46,517
76615423;46,517
76615425;93,032
76607784;43,235
76607855;11,003
76607856;11,003
76607864;329,508
76607959;54,512
76607971;108,189
76607972;97,310
76607975;108,838
76607977;605,405
76607979;593,537
76607980;568,175
76607981;496,757
76607982;431,900
76607983;403,937
76607984;21,261
76607985;140,541
76607986;64,175
76607987;84,541
76607990;21,261
76607991;21,261
76607993;605,405
76607994;605,405
76607997;31,636
76608001;96,315
76608003;11,003
76608004;150,945
76608005;64,672
76608006;595,931
76608007;605,058
76608010;21,261
76608012;328,878
76608013;350,743
76608014;330,287
76608015;43,079
76608021;1,192,128
76608023;605,405
76608024;605,405
76608025;266,661
76608026;32,263
76608029;605,405
76608030;605,405
76608031;605,405
76608032;605,405
76608033;605,405
76608034;10,971
76608036;356,097
76608037;356,097
76608038;605,172
76608040;166,741
76608041;605,405
76608044;305,203
76608045;605,405
76608046;21,261
76608047;10,629
76608049;73,258
76608050;386,131
76608051;182,632
76608052;21,261
76608053;63,360
76608054;1,192,084
76608056;326,113
76608057;86,959
76608059;76,145
76608060;26,576
