 Quittance;Numero_ polices
84563780;21854065
84327507;31253373
84223205;21853488
84223203;21853487
84223201;21853486
84223198;21853485
84223195;21853484
84223193;21853483
84223188;21853481
84222899;21853370
84222896;21853369
84222894;21853368
84135033;21853228
84135008;21853203
84135007;21853202
84135006;21853201
84135005;21853200
84135004;21853199
84135003;21853198
84134977;21853172
84134976;21853171
84134975;21853170
84134903;21853101
84134902;21853100
84134901;21853099
84134900;21853098
84134899;21853097
84134898;21853096
84134897;21853095
84134896;21853094
84134895;21853093
84134894;21853092
84134893;21853091
84134892;21853090
84134890;21853089
84134889;21853088
84134888;21853087
84134887;21853086
84134886;21853085
84134885;21853084
84134884;21853083
84134883;21853082
84134882;21853081
84134881;21853080
84134880;21853079
84134879;21853078
84134878;21853077
84134840;21853039
84134839;21853038
84134838;21853037
84134837;21853036
84134836;21853035
84134835;21853034
84134834;21853033
84134833;21853032
84134832;21853031
84134831;21853030
84134830;21853029
84134829;21853028
84134827;21853027
84134826;21853026
84134825;21853025
84134824;21853024
84134823;21853023
84134822;21853022
84134821;21853021
84134820;21853020
84134819;21853019
84134818;21853018
84134817;21853017
84134816;21853016
84134815;21853015
84134814;21853014
84134813;21853013
84134812;21853012
84134810;21853011
84134809;21853010
84134808;21853009
84134806;21853007
84134805;21853006
84134804;21853005
84134803;21853004
84134802;21853003
84134801;21853002
84134800;21853001
84134799;21853000
84134798;21852999
84134797;21852998
84134796;21852997
84134795;21852996
84134794;21852995
84134793;21852994
84134792;21852993
84134791;21852992
84134790;21852991
84134789;21852990
84134788;21852989
84134787;21852988
84134786;21852987
84134785;21852986
84134784;21852985
83996667;26005954
83986990;21850147
83986178;31248662
83986174;31248653
83985932;31245753
83984838;31235547
83982149;31247130
83982121;31241700
83981053;31237497
83980793;31244707
83980786;31244688
83980737;26008846
83979384;31013400
83979187;21605245
83977820;31212716
83977505;26005935
83977503;26005934
83977502;26005933
83977501;26005932
83977500;26005929
83977499;26005958
83976890;21848899
83975645;21840194
83975132;31241827
83974478;21833546
83973773;21837235
83973718;21836705
83972017;21842685
83971566;21847705
83971565;21847702
83971558;21847703
83971075;31244469
83970222;21819726
83970213;31224974
83968393;21822742
83968391;21822731
83968388;21822754
83968387;21822737
83968386;21822723
83968385;21822712
83968384;21822703
83968382;21822691
83968380;21822684
83968379;21822715
83968377;21822704
83968376;21822682
83968369;21822747
83968368;21822728
83968366;21822693
83968365;21822687
83968364;21822680
83968358;21822757
83968357;21822750
83968355;21822720
83968354;21822683
83967004;21204316
83966261;26005879
83966260;26005880
83964454;31251452
83964345;21848983
83963001;21842332
83962997;21842327
83962995;21842324
83962580;26011117
83962549;26011104
83962416;21838905
83962395;21838858
83962198;31241408
83962073;21836531
83962072;21836530
83959286;21826209
83958184;21837519
83958174;21837518
83956077;21817669
83956073;21817664
83956070;21817666
83955990;21822753
83955989;21822744
83955988;21822741
83955987;21822736
83955986;21822717
83955984;21822714
83955983;21822706
83955982;21822702
83955981;21822701
83955979;21822695
83955978;21822698
83955977;21822692
83955972;21822696
83955971;21822690
83955970;21822688
83955969;21822686
83955967;21822685
83955874;21822745
83955873;21822710
83955872;21822758
83955871;21822740
83955870;21822726
83955868;21822711
83955867;21822709
83955509;31219511
83954949;31012528
83954943;31012488
83954942;31012489
83954919;31012407
83954904;31012316
83954888;31012178
83954571;26003987
83954568;26003984
83954566;26003983
83954563;26003981
83954124;26005956
83953804;26005878
83953802;26005877
83953796;26005876
83953783;26005874
83952748;26005912
83952727;21852714
83952722;21852708
83952720;21852712
83952719;21852716
83952715;21852710
83952710;21852704
83952694;21852227
83951129;24609413
83951113;24609378
83951102;24609375
83951087;21842508
83951086;21842506
83951081;21842505
83951076;21842483
83949974;31240346
83949956;31240345
83949943;31240293
83949560;21845944
83949513;24606927
83949056;31243852
83949047;31243847
83948960;21826390
83948681;31231312
83948052;26008808
83948049;26008807
83948048;26008792
83948046;26008780
83948045;26008774
83948044;26008772
83948043;26008793
83947987;26008789
83947984;26008783
83947983;26008782
83947982;26008779
83947981;26008775
83947979;26008773
83947978;26008765
83947977;26008764
83947976;26008760
83947975;26008757
83947974;26008754
83947971;31229650
83947969;31229644
83946799;26011390
83945638;31239876
83943932;21819079
83943924;21819080
83943877;31227103
83943234;21822725
83943233;21822719
83943232;21822713
83943230;21822708
83943228;21822734
83943227;21822705
83943226;21822700
83943220;21822759
83943218;21822748
83943217;21822729
83942373;31011686
83942355;31011546
83942015;26003979
83941745;31216370
83941744;31216368
83941648;31240768
83940177;26006230
83940100;21851414
83940099;21851443
83940097;21851411
83940095;21851442
83940088;21851413
83940087;21851408
83940086;21851407
83940076;21851410
83938961;24610307
83938503;21842143
83938502;21842142
83936816;31234360
83936813;31234359
83934304;26011386
83934301;26011391
83934300;26011387
83934158;26009839
83929883;31011095
83929514;26004283
83929479;26004407
83929472;26004405
83927662;21852706
83927661;21852702
83927658;21852700
83927655;21852698
83927650;21852209
83927645;21852185
83927644;21852184
83927470;31252369
83925333;31245233
83925323;31245202
83923170;31231218
83923169;31231217
83922789;21843439
83922229;31232298
83922213;31232306
83921588;21825761
83920544;21837858
83920436;21835622
83920173;26007858
83920171;26007857
83918674;21840919
83917394;31009782
83916263;26004145
83916260;26004142
83916253;26004136
83915286;26005915
83915284;26005918
83915283;26005919
83915282;26005920
83915281;26005921
83915238;26005908
83915237;26005904
83914910;21849395
83914897;21849398
83914896;21849396
83913910;31245165
83913909;31245158
83913908;31245157
83913895;31245160
83913894;31245159
83913355;24701164
83912491;31239399
83912075;21845852
83911856;31233625
83910926;31229643
83908894;31227437
83908452;31235265
83907123;21840909
83906830;21817670
83906826;21817667
83906825;21817663
83906824;21817656
83906820;21817658
83906811;21817635
83906808;21817602
83905294;31009393
83905282;31009253
83903661;26004134
83903660;26004133
83902698;26005903
83902688;26005901
83902687;26005900
83902678;26005899
83902675;21852956
83902674;21852949
83902673;21852947
83902671;21852941
83902670;21852958
83902669;21852957
83902668;21852955
83902667;21852951
83902666;21852953
83902665;21852948
83902664;21852946
83902663;21852944
83902662;21852942
83902661;21852943
83902660;21852939
83902659;21852940
83902619;21851776
83902617;21851775
83902616;21851779
83902545;21851345
83902543;21851331
83902542;21851302
83902540;21851332
83902538;21851325
83902536;21851324
83902535;21851327
83902533;21851322
83902532;21851320
83902531;21851318
83902530;21851304
83902529;21851317
83902527;21851315
83902526;21851316
83902520;21851308
83902519;21851306
83902518;21851305
83902517;21851303
83902516;21851301
83902515;21851299
83902513;21851297
83902511;21851298
83902388;21850533
83901052;21846100
83901049;21846083
83900670;31247954
83900377;21840295
83898592;31243841
83898511;31231922
83898427;21838373
83898426;26010806
83896544;26011554
83896006;21827944
83896000;21827920
83893597;21818151
83893594;21818157
83893592;21818152
83893590;21818150
83893587;21818159
83893586;21818158
83893585;21818145
83891013;26005896
83891012;26005895
83890216;26005897
83890213;21852959
83890212;21852963
83890211;21852952
83890210;21852950
83890209;21852961
83890208;21852945
83890206;21852965
83890205;21852964
83890204;21852962
83890203;21852960
83890202;21852954
83889826;21849464
83888705;21846867
83888380;26011693
83887800;21839211
83887700;31242799
83884716;21825627
83884312;26009825
83884311;26009826
83884310;26009828
83884309;26009830
83884308;26009831
83884303;26009835
83884302;26009837
83884301;26009838
83884300;26009840
83884298;26009841
83884296;26009833
83883981;21827883
83883381;21835553
83881951;22601582
83881403;26008672
83881175;21817601
83877531;21851609
83877529;21851606
83877528;21851604
83877527;21851600
83877522;21851607
83877521;21851605
83877519;21851608
83877516;21851412
83877515;21851409
83877513;21851406
83877507;21851333
83877504;21851326
83875492;21840167
83875227;21838927
83874925;31241098
83873734;31234203
83873608;21828676
83873523;31233529
83873386;31232944
83873381;31232946
83870876;21837838
83870724;21821816
83870520;26007861
83870519;26007855
83870518;26007854
83870517;26007850
83870516;26007849
83870515;26007848
83870512;26007845
83870511;26007844
83870509;26007851
83870507;26007856
83870506;26007839
83870504;26007837
83870503;26007853
83870502;26007852
83868899;21818458
83868897;21818453
83868894;21818414
83868850;21818156
83868849;21818154
83868848;21818153
83868847;21818147
83868846;21818144
83868844;21818143
83868249;31218984
83868079;21851268
83868078;21851267
83868076;21851253
83868071;21851266
83868070;21851269
83868069;21851260
83868067;21851255
83868061;21851261
83868060;21851254
83867407;26004397
83867405;26004395
83867169;21814744
83864939;21851652
83864935;21851654
83864929;21851655
83864927;21851653
83864926;21851651
83864916;21851625
83864915;21851624
83864859;21851329
83864858;21851328
83864857;21851319
83864852;21851321
83864851;21851307
83864845;21851330
83864844;21851314
83864842;21851300
83864839;21851323
83864662;31251941
83863043;31243373
83862942;31242607
83861370;31243756
83856821;31227364
83856098;21818448
83856096;21818444
83856095;21818408
83856089;21818409
83855429;21851199
83855427;21851196
83855035;31006212
83855018;31005921
83854999;31209111
83853658;26005890
83852313;26005952
83852311;26005951
83852308;26005950
83852281;21851930
83850532;31245477
83849981;31242588
83849957;31242540
83849903;31242248
83849884;31242221
83849201;31240407
83848715;31234202
83847843;31231457
83847639;31248694
83846342;26011553
83846227;21841338
83846101;21831665
83846030;31235695
83845784;21845038
83844985;26007847
83844982;26007846
83844981;26007843
83844979;26007842
83844978;26007840
83844977;26007836
83844976;26007833
83843803;31244540
83843794;21840823
83843162;21818415
83843161;21818413
83842338;21851191
83842334;21851201
83842333;21851193
83842332;21851187
83842331;21851185
83842327;21851200
83842326;21851180
83842325;21851195
83842324;21851198
83842323;21851197
83842321;21851194
83842320;21851189
83842319;21851182
83842318;21851176
83842317;21851167
83842316;21851192
83842315;21851190
83842314;21851188
83842313;21851186
83842312;21851184
83842310;21851169
83842309;21851152
83842308;21851183
83842307;21851181
83842306;21851178
83842304;21851154
83842302;21851145
83842301;21851142
83841905;31005504
83841903;31005496
83841286;21814743
83840557;26005889
83840556;26005888
83840555;26005887
83840554;26005885
83840551;26005884
83840550;26005882
83840353;26004127
83840352;26004125
83840350;26004122
83839628;21851551
83839627;21851548
83839625;21851543
83839429;21850257
83837368;21839318
83837296;16824082
83833520;31245073
83832911;21848689
83832432;26007834
83829527;26004100
83829522;26004098
83829521;26004097
83829519;26004096
83829507;26004094
83829497;26004091
83829489;26004090
83829488;26004089
83829487;26004085
83829377;26004266
83829375;26004264
83829374;26004262
83829370;26004255
83829152;31004920
83829135;31004418
83826827;21851722
83826810;21851544
83826809;21851539
83826805;21851553
83826804;21851555
83826802;21851549
83826801;21851546
83826799;21851538
83826797;21851547
83826795;21851530
83826794;21851552
83826793;21851550
83826792;21851554
83826791;21851545
83826790;21851542
83826789;21851537
83826786;21851536
83826785;21851540
83826784;21851534
83826783;21851533
83826782;21851528
83826781;21851532
83826777;21851541
83826776;21851535
83826775;21851531
83826773;21851527
83826772;21851529
83825250;24609341
83824609;31242226
83824435;31241686
83823183;31232144
83823172;24606490
83823136;31232100
83823133;31232076
83822470;21843597
83821433;21825974
83821176;31245025
83821135;31244888
83821132;31244887
83820358;31238356
83820332;31238379
83820174;21837736
83820164;21837739
83820163;21837731
83820162;21837727
83820146;21837726
83820144;21837714
83820140;21837735
83820136;21837701
83819195;21843036
83818029;21818850
83817056;21851179
83817055;21851177
83817052;21851170
83817051;21851168
83817049;21851166
83817047;21851137
83817046;21851158
83817045;21851149
83817044;21851147
83817043;21851143
83817040;21851131
83817039;21851127
83817037;21851124
83817036;21851157
83817034;21851153
83817033;21851150
83817032;21851146
83817031;21851148
83817030;21851144
83817027;21851118
83817026;21851138
83817025;21851136
83817022;21851130
83817021;21851123
83817020;21851116
83817019;21851129
83817017;21851126
83817016;21851100
83817014;21851105
83817013;21851102
83817012;21851094
83817011;21851077
83816921;26004080
83816920;26004079
83816919;26004078
83816918;26004077
83816916;26004074
83816915;26004071
83816907;26004067
83816906;26004068
83816905;26004065
83816904;26004064
83816231;21210467
83813881;21851727
83813871;21851081
83813870;21851057
83813866;21851091
83813865;21851090
83813864;21851074
83813863;21851068
83813862;21851059
83813859;21851098
83813858;21851096
83813854;21851092
83813853;21851089
83813852;21851085
83813851;21851083
83813849;21851073
83812438;31246241
83812250;21840637
83812236;21840644
83812143;31244299
83812136;31244298
83810118;31244102
83810066;24609011
83809868;21838538
83809316;21832467
83809288;26008787
83809287;26008797
83809286;26008801
83809285;26008812
83809281;26008761
83809280;26008776
83809278;26008791
83809277;26008799
83809276;26008804
83809275;26008809
83809274;26008766
83809273;26008795
83809272;26008770
83809271;26008771
83809269;26008786
83809268;26008802
83809258;21832471
83808543;31227557
83807397;21837738
83807394;21837728
83806160;21822621
83806158;21822626
83806157;21822625
83806156;21822622
83806155;21822617
83806154;21822610
83806152;21822624
83806151;21822623
83806149;21822609
83806146;21822616
83806145;21822612
83806144;21822611
83805062;31224475
83805055;31224482
83804623;21822799
83804576;21822772
83804156;21851088
83804155;21851087
83804154;21851086
83804153;21851079
83804152;21851076
83804150;21851065
83803402;31003345
83803158;21609888
83803136;21609736
83802953;26004186
83802378;21835707
83800757;26005923
83800700;21851488
83800699;21851483
83800698;21851481
83800697;21851480
83800696;21851479
83800695;21851478
83800692;21851473
83800691;21851495
83800688;21851492
83800687;21851490
83800686;21851491
83800685;21851494
83800684;21851489
83800683;21851487
83800682;21851486
83800681;21851485
83800680;21851482
83800679;21851484
83800678;21851477
83800677;21851476
83800672;21851467
83800671;21851464
83800667;21851469
83800666;21851082
83800665;21851084
83800664;21851080
83800663;21851078
83800662;21851075
83800661;21851072
83800660;21851069
83800659;21851064
83800658;21851047
83800657;21851034
83800656;21851067
83800655;21851066
83800654;21851063
83800653;21851061
83800652;21851056
83800648;21851035
83800647;21851027
83800646;21851062
83800645;21851060
83800644;21851058
83800643;21851055
83800642;21851053
83800641;21851051
83800640;21851038
83800639;21851031
83800638;21851024
83800637;21851052
83800635;21851050
83800634;21851048
83800632;21851041
83800631;21851032
83800630;21851040
83800629;21851039
83800628;21851037
83800627;21851036
83800626;21851033
83800625;21851026
83800624;21851030
83800474;21850154
83796816;31232394
83796815;31232393
83796813;31232392
83796108;26010047
83796099;26010040
83796098;26010039
83796026;26010041
83796024;26010025
83796022;26010024
83796021;26010045
83796020;26010044
83796019;26010043
83796018;26010038
83796017;26010021
83796016;26010036
83796015;26010020
83796014;26010018
83796013;26010015
83796012;26010014
83796010;26010012
83796009;26010037
83796008;26010035
83796007;26010034
83796005;26010026
83796004;26010023
83796003;26010005
83796001;26010003
83796000;26010002
83795999;26010001
83795998;26010033
83795997;26010031
83795996;26010030
83795995;26010029
83795994;26010028
83795993;26010022
83795991;26010016
83795990;26009996
83795989;26009990
83793171;21819727
83793135;21822646
83791786;21818876
83791785;21818846
83791784;21818851
83791783;21818845
83791780;21818833
83791778;21818835
83791776;21818830
83791773;21818831
83790243;31002508
83790184;24101681
83790183;24101683
83790182;24101679
83790181;24101672
83790180;24101657
83790179;24101649
83790178;24101636
83790173;24101584
83790169;24101564
83790168;24101551
83790167;24101536
83790166;24101531
83790165;24101525
83790164;24101521
83790163;24101503
83790161;24101493
83790160;24101491
83790159;24101484
83790158;24101481
83790157;24101478
83790156;24101474
83790155;24101472
83790154;24101470
83790153;24101473
83790011;21609377
83789961;21208862
83788034;26004002
83788033;26004001
83788032;26003999
83788031;26003998
83787908;21851725
83787904;21851676
83787903;21851724
83787902;21851723
83787889;21851689
83787887;21851656
83785618;21841303
83784257;21829070
83783700;21837352
83783497;26009047
83783357;21850026
83783338;21824968
83782445;31228279
83781595;21841790
83780667;21837730
83780662;21837710
83780661;21837694
83780660;21837712
83780659;21837708
83780658;21837706
83780657;21837696
83780656;21837690
83780655;21837683
83780654;21837674
83780653;21837669
83780652;21837668
83780651;21837715
83780649;21837711
83780648;21837709
83780646;21837705
83780645;21837704
83780644;21837698
83780642;21837677
83780641;21837662
83780639;21837702
83780638;21837700
83780637;21837699
83780636;21837697
83780635;21837693
83780633;21837687
83780632;21837680
83780630;21837659
83780629;21837650
83780628;21837691
83780627;21837695
83780626;21837689
83780625;21837688
83780624;21837666
83780623;21837652
83780622;21837636
83780621;21837639
83780619;21837684
83780618;21837667
83780617;21837671
83780616;21837663
83780614;21837631
83780386;26007912
83780385;26007907
83780384;26007903
83780383;26007897
83780382;26007934
83780380;26007933
83780379;26007932
83780378;26007930
83780377;26007921
83780376;26007918
83780375;26007916
83780374;26007914
83780373;26007906
83780372;26007929
83780371;26007928
83780370;26007927
83780368;26007926
83780367;26007925
83780366;26007924
83780365;26007923
83780363;26007920
83780362;26007919
83780361;26007911
83780360;26007913
83780359;26007902
83780358;26007888
83780357;26007908
83780356;26007905
83780354;26007904
83780353;26007900
83780352;26007899
83780351;26007898
83780350;26007896
83780348;26007883
83780347;26007882
83778026;31218980
83777112;24101296
83777111;24101294
83776863;26004253
83776859;26004250
83776858;26004248
83776856;26004247
83776855;26004246
83776853;26004244
83776852;26004243
83774940;21851688
83774939;21851687
83774938;21851675
83774915;21851493
83774883;21851029
83774882;21851028
83774881;21851025
83774879;21851021
83774877;21851014
83774765;24611222
83773683;31246384
83773671;21842532
83773508;31244857
83772828;31241631
83772169;21835974
83770971;21837343
83768255;21837665
83768254;21837664
83768252;21837660
83768249;21837642
83768248;21837625
83768247;21837657
83768246;21837658
83768245;21837655
83768244;21837653
83768243;21837638
83768242;21837644
83768241;21837635
83768000;31225039
83766356;26011369
83765548;24604750
83764468;24100429
83764467;24100424
83764466;24100425
83764465;24100391
83764464;24100390
83764463;24100386
83764462;24100381
83764461;24100380
83764460;24100347
83764459;24100343
83764458;24100338
83764457;24100335
83764456;24100342
83764455;24100337
83764454;24100326
83764453;24100316
83764452;24100305
83764451;24100292
83764450;24100291
83764449;24100288
83764448;24100287
83764446;24100281
83764032;31242388
83762782;26005927
83762778;26005926
83762777;26005925
83762774;26005924
83762662;21806256
83762326;21852911
83762325;21852923
83762324;21852907
83762323;21852931
83762322;21852915
83762321;21852913
83762320;21852905
83762319;21852881
83762318;21852901
83762317;21852897
83762311;21852933
83762309;21852929
83762308;21852927
83762306;21852883
83762305;21851020
83762304;21851022
83762303;21851019
83762302;21851016
83762298;21851017
83762297;21851018
83762296;21851015
83762295;21851013
83761291;31248690
83761287;31248664
83761260;31248654
83761258;31248652
83760946;26011575
83760574;31242086
83760557;31242060
83759565;21831163
83758879;31232065
83758167;26010011
83758166;26010010
83758165;26010009
83758164;26010008
83758163;26009989
83758162;26009988
83758160;26009987
83758159;26009986
83758158;26009985
83758157;26009983
83758156;26009969
83758155;26010000
83758154;26009998
83758153;26009997
83758152;26009993
83758151;26009994
83758149;26009992
83758148;26009991
83758147;26009984
83758146;26009974
83758145;26009966
83758144;26009965
83758143;26009964
83758142;26009963
83758141;26009971
83758140;26009960
83758138;26009958
83758134;26009982
83758131;26009981
83758130;26009979
83758129;26009978
83758128;26009977
83758127;26009976
83758125;26009975
83758056;26009972
83758052;26009968
83758049;26009967
83758048;26009962
83758047;26009961
83755749;26007992
83754779;31246553
83753503;31229167
83753491;31229156
83753289;21822802
83753079;21816352
83753078;31220041
83749815;21852925
83749814;21852921
83749813;21852919
83749812;21852917
83749810;21852889
83749807;21852856
83749806;21852852
83749805;21852854
83749400;31251567
83747823;21838112
83746441;24606749
83746437;24606756
83746177;26011340
83743161;21837641
83743159;21837618
83743158;21837634
83743156;21837630
83743155;21837629
83743154;21837627
83743153;21837626
83743150;21837623
83743141;21837624
83743140;21837622
83743138;21837617
83743041;26007935
83743030;26007893
83743029;26007891
83743027;26007889
83743026;26007886
83743025;26007884
83743024;26007885
83743022;26007880
83742145;31224949
83741545;21823050
83741539;21823052
83741538;21823051
83741535;21823048
83741108;24609102
83740957;31224314
83740882;21820951
83740394;21816843
83740388;31220662
83740379;31220663
83740372;31220661
83739413;31014758
83739390;31014657
83739370;31014520
83739366;31014515
83737263;26005947
83737201;21852909
83737200;21852903
83737199;21852899
83737197;21852885
83737196;21852879
83737195;21852840
83737193;21852848
83736322;21847834
83735836;21840521
83735818;21840519
83735211;21835754
83734716;16816900
83734587;31243956
83733052;26009855
83733040;26009852
83731482;21841028
83730502;31014210
83730501;31014206
83730491;31014120
83729234;31218103
83728921;26005945
83728919;26005943
83728918;26005942
83728917;26005941
83728916;26005940
83728915;26005938
83728914;26005937
83728912;26005936
83728870;21852850
83728867;21852846
83728866;21852844
83728865;21852842
83728862;21852838
83728861;21852836
83728812;21849436
83728519;21847835
83728513;21847842
83727585;24606780
83723250;80027493
83722969;80028359
83717394;31253085
83717053;21852717
83717051;21852715
83717049;21852713
83717047;21852711
83717045;21852709
83717042;21852707
83717040;21852705
83717038;21852703
83717036;21852701
83717034;21852699
83716634;21852330
83716633;21852329
83716491;21852207
83716457;21852186
83535765;21852130
83535764;21852129
83535739;21852104
83535738;21852103
83535737;21852102
83491259;21851973
83491258;21851972
83491257;21851971
83491256;21851970
83491255;21851969
83491220;21851935
83491219;21851934
83491218;21851933
83491217;21851932
83491214;21851929
83491213;21851928
83382701;21851674
82909368;21851151
82804467;31252340
82804464;31252339
82679240;31251936
82275380;24611066
