NUMERO_POLICES;NUMERO_QUITTANCE
33417704;85722495
33434544;85760726
33438394;85770037
33418429;85749959
33428323;85783050
33443649;85951808
33455531;85972211
33462868;85842043
33422432;85760826
33430938;85789953
33427938;85782300
33413483;85757439
33415914;85739861
33409661;85811450
33419146;85749814
33451760;85955336
33456380;85900161
33463314;85844443
33460835;85847649
33424006;85750909
33409214;85739032
33427422;85742756
33460645;85818277
33455844;85996084
