NUMERO_ POLICES;NUMERO_ QUITTANCE
73600026;86432589
21814367;86270786
31219046;86372754
31221385;86311881
24604738;86327936
31243605;86501444
73600879;86444795
73600877;86444798
71520652;86363796
16808871;86260244
71517606;86312924
71521463;86472407
71520041;86469356
21814261;86268438
71517552;86290081
71517551;86290088
71520592;86333285
31217319;86268283
21813059;86312159
31233824;86481030
77800965;86260089
21811705;86341241
71520419;86419383
77800888;86287118
71517651;86372766
71517872;86396330
26003460;86322527
80029149;86256590
77800971;86260091
31216137;86316868
71525387;86354796
71525437;86397376
71518509;86286502
73600507;86501383
73600506;86501381
21829029;86321168
77800921;86265885
26004017;86267574
31207172;86322369
71521573;86438404
71521397;86470356
21805784;86269065
71519613;86422640
71521070;86469759
73600777;86511277
71522787;86477359
71522788;86477362
71523121;86501259
21818640;86287627
71522839;86487909
71519746;86353020
71519675;86424130
71520933;86431920
31216763;86336357
24604061;86289903
71524011;86395945
71518640;86290337
71524375;86507967
77800970;86260092
71520599;86362437
26013069;86347418
26006802;86277668
77800636;86276449
71518988;86447826
71523408;86335641
71523405;86335655
73600014;86333292
71520584;86333288
77800167;86276424
77800356;86276448
71520576;86361372
31220683;86286596
21814097;86260319
26004954;86341694
31215156;86275906
71518035;86265133
71518036;86265134
71521552;86438380
71522619;86416727
71518238;86277450
16808670;86334891
26006280;86260307
21811253;86310724
31226475;86409051
21807784;86325983
21811376;86318385
71521120;86441123
21617010;86341153
33325839;86290937
71523824;86420353
71523813;86420366
71523812;86420367
24607572;86367047
31222543;86288849
71518230;86266487
77800317;86276429
31218688;86289970
21815619;86382602
24604100;86290216
77800324;86276432
26006803;86277666
31224783;86301095
71519769;86353333
31029083;86339300
31248985;86369742
31248986;86369743
77800353;86276445
31029421;86339228
31204794;86291401
31218205;86285425
21619687;86268049
21625223;86339346
71518508;86286501
21849105;86492495
31251376;86493414
26002738;86294268
24601059;86294262
77800295;86276427
71517836;86396167
71519440;86318729
71516804;86337131
71519291;86476275
24604751;86327694
71522730;86487876
71520094;86480807
71524575;86514825
77800345;86276442
21814242;86268347
71519877;86405984
71518433;86284974
71520266;86326612
71519319;86444498
31205704;86268866
31205720;86268880
31208168;86279046
21817570;86317229
71525612;86485314
71524028;86395999
71524038;86395988
71524027;86395990
71524036;86395986
71524071;86396025
71524034;86396022
71524025;86395985
71524024;86395998
71524029;86396007
71524040;86395993
71524026;86395997
71524030;86396000
71524035;86396019
71524039;86395989
71524033;86395991
71524032;86396023
71524042;86395995
71524031;86396012
71524037;86395987
71524070;86396021
26006451;86268187
21814538;86279891
71521445;86470616
21827292;86384458
31232808;86353164
21828324;86469405
21840053;86501242
21828325;86469393
24609031;86503489
71517724;86382465
21842691;86482476
21847827;86508001
21829280;86371982
21815489;86382354
31223824;86314071
31223823;86314070
71520757;86410691
71520756;86411016
71518663;86290477
73600011;86320594
71521757;86475983
71522861;86483535
71520905;86371457
73600390;86484207
73600642;86504575
73600383;86445090
73600422;86391127
73600406;86391153
73600610;86499214
73600382;86445040
73600611;86499237
73600454;86387416
24610261;86367928
31249391;86370061
73600294;86387265
71521535;86428769
71521661;86475799
71521649;86475787
71522832;86487937
71521981;86431583
71521628;86475774
71521062;86469755
71521597;86475243
73600270;86357226
73600269;86357212
73600655;86501282
73600275;86357272
73600253;86350201
73600251;86350193
73600257;86350263
71522504;86394687
73600373;86416071
73600255;86350253
73600268;86346100
73600260;86350276
73600277;86357323
73600258;86350217
73600261;86357129
73600205;86496861
73600286;86357424
73600375;86416073
73600267;86346096
73600374;86416072
73600575;86499114
73600580;86499074
73600581;86499071
73600570;86499120
73600588;86499101
73600578;86499094
73600579;86499075
73600569;86499111
73600571;86499116
73600576;86499092
73600574;86499115
73600572;86499093
73600577;86499076
73600583;86499069
73600586;86499103
73600585;86499078
73600584;86499080
73600582;86499072
73600573;86499091
71521500;86472353
71521419;86470635
73600555;86499108
73600556;86499110
73600568;86499119
73600561;86499129
73600557;86499136
73600565;86499107
73600554;86499138
73600562;86499130
73600563;86499123
73600558;86499134
73600564;86499131
73600553;86499127
73600567;86499122
73600560;86499132
73600566;86499106
73600559;86499133
73600552;86499137
71522607;86469935
71522243;86413807
73600509;86501392
71522554;86394793
71522429;86415087
71523891;86420289
71523810;86420369
71523798;86420174
71523802;86420171
71523789;86420379
71523788;86420383
71523800;86420172
71523799;86420173
71523797;86420175
71523801;86420170
71523787;86420384
71523892;86420288
71521063;86469757
71524598;86515723
73600866;86375855
73600865;86375853
31212453;86271872
26004004;86267570
21817383;86317121
