NUMERO_POLICES;NUMERO_QUITTANCE
80028028;85717816
80028592;86256264
80028670;86256409
80028381;86256522
80028028;86256647
80028154;86256658
80028838;86256753
80028172;85717255
80028273;85717304
80028273;86255876
80028858;86256121
80028172;86256228
80028677;86256269
80028102;86256490
80028103;86256628
80028938;86256774
80029285;86256843
80027737;85717376
80027733;85717453
80028962;85717626
80029252;86255942
80029064;86256038
80027956;86256068
80028503;86256247
80028962;86256463
80027711;85717155
80028123;85717197
80028591;85717327
80028871;85717613
80028813;85717773
80028316;86255976
80028591;86255984
80028925;86256131
80028123;86256159
80028002;86256285
80028813;86256613
80029037;86256790
80029219;86256823
80028540;85717085
80028602;85717098
80028177;85717201
80028183;85717202
80028341;85717218
80028668;85717288
80028260;85717311
80028667;85717331
80027720;85717397
80028595;85717595
80028795;85717603
80029123;85717755
80028418;85717846
80028809;85717920
80028260;86255871
80028540;86255889
80028586;86255891
80028602;86255895
80028684;86255909
80028704;86255911
80028326;86255922
80029236;86255934
80028385;86255938
80028305;86255952
80028299;86255954
80028490;86255961
80028514;86255969
80028315;86255975
80028338;86255977
80028476;86255981
80028636;86255987
80028667;86255988
80028764;86255989
80029122;86255998
80027998;86256010
80028213;86256016
80029147;86256027
80029072;86256032
80029071;86256041
80027765;86256044
80027816;86256045
80027762;86256051
80027755;86256080
80028161;86256108
80029235;86256114
80028827;86256116
80028891;86256126
80028904;86256129
80028948;86256132
80029003;86256140
80029020;86256145
80028080;86256158
80028183;86256162
80027948;86256177
80027776;86256182
80028270;86256195
80028341;86256201
80027977;86256215
80028515;86256248
80028558;86256258
80028668;86256268
80028427;86256278
80028824;86256281
80028429;86256293
80029184;86256316
80029206;86256321
80027832;86256336
80028286;86256349
80028088;86256362
80028441;86256383
80028522;86256393
80028559;86256397
80028604;86256402
80028669;86256410
80028795;86256415
80028581;86256428
80028583;86256429
80028905;86256450
80028954;86256460
80028955;86256461
80028981;86256467
80029052;86256477
80029054;86256478
80028008;86256501
80028314;86256513
80028484;86256530
80028544;86256534
80028776;86256549
80028879;86256563
80028921;86256566
80029121;86256582
80029230;86256602
80027901;86256643
80028125;86256654
80028156;86256659
80028374;86256671
80028418;86256677
80028442;86256680
80028468;86256685
80028682;86256717
80028700;86256720
80028713;86256724
80028757;86256739
80028758;86256740
80028906;86256768
80028920;86256770
80028923;86256771
80028945;86256776
80028947;86256777
80028964;86256778
80028990;86256783
80029022;86256786
80029066;86256792
80029169;86256805
80029183;86256808
80029203;86256815
80029211;86256820
80028400;85717844
80028400;86256675
80028360;86256517
80028845;86256754
64201191;11488175
64200211;11487863
64200102;11487878
64200462;11487996
64201135;11488086
