NUMERO_POLICES;NUMERO_QUITTANCE
33328821;80538497
33316819;80895062
33326297;80895078
33460662;81143115
33463017;83504946
33463129;84045572
33463592;84155284
33464011;84845287
33464316;85231015
33464381;85536165
33464440;85536223
33464486;85560817
33464680;85588691
33464728;85588819
33464734;85588825
33464755;85588849
33464760;85588854
33464784;85588879
33464833;85599968
33464995;85637635
33465026;85637696
33465030;85637703
33465118;85637870
33465204;85694741
33465293;85694833
33465308;85694848
33465317;85694858
33465335;85694876
33465360;85694902
33465476;86080273
33465493;86080291
33465570;86080415
33465596;86080474
33465601;86080481
33465609;86080499
33465611;86080507
33465703;86080672
33465734;86080748
33465754;86080778
33465777;86080802
33465780;86080806
33465791;86080817
33465792;86080819
33465793;86080820
33465840;86080870
33465842;86080872
33465844;86080874
33465850;86080880
33465859;86080892
33465861;86080899
33465895;86080979
33465899;86080983
33465905;86080996
33465906;86080999
33465908;86081005
33465909;86081007
33465910;86081010
33465920;86081029
33465924;86081033
33465927;86081036
33465948;86081096
33465950;86081102
33465989;86109325
33466016;86109352
33466017;86109353
33466020;86109356
33466061;86109397
33466063;86109399
33466087;86109424
33466097;86109434
33466133;86109522
33466161;86109586
33466174;86109619
33466191;86119824
33466197;86152618
33466226;86152647
33466236;86152657
33466247;86152668
33466273;86163258
33466276;86163261
33466277;86163262
33466291;86163276
33466319;86163304
33466320;86163305
33466330;86163318
33466331;86163320
33466333;86163322
33466337;86163330
33464252;86572715
33466377;86658456
33466378;86658457
33466412;86658491
33466420;86658499
33466425;86658504
33466432;86658511
33466433;86658512
33466434;86658513
33466451;86658530
33466453;86658532
33466455;86658534
33466457;86658536
77115943;86661758
77115944;86661759
77115945;86661761
77115946;86675529
77115947;86675530
77115948;86675531
77115949;86675532
77115950;86675533
77115951;86675534
77115952;86675535
77115953;86675536
77115954;86675537
77115955;86675538
77115956;86691617
77115957;86691618
77115958;86691619
77115959;86691620
77115960;86691621
77115961;86691622
77115962;86691623
77115963;86691624
77115964;86691625
77115965;86691626
77115966;86691627
77115967;86691638
77115968;86691688
77115969;86691697
77115970;86691698
77115971;86693409
77115972;86693410
33466475;86694277
33466484;86714704
33466496;86714716
33466498;86714718
33466501;86714721
33466502;86714722
33466503;86714723
33466507;86714727
33466508;86714728
33466512;86714732
33466523;86714743
33466525;86714745
33466530;86714750
33466532;86714752
33466533;86714753
33466534;86714754
33466538;86714758
33466543;86714763
33466545;86714765
33466549;86714769
77115973;86720733
77115974;86720734
77115975;86720735
77115976;86720736
77115977;86720737
77115978;86720738
77115979;86720739
77115980;86720740
33466562;86728344
33466563;86728345
33466565;86728351
33466568;86728356
33466571;86728361
33466574;86728366
33466577;86728371
33466580;86728376
33466586;86728388
33466589;86728395
33466596;86728406
33466599;86728411
33466600;86728413
33466601;86728415
33466602;86728416
33466603;86728418
33466605;86728421
33466607;86728424
33466611;86728431
33466613;86728434
33466616;86728439
33466620;86728446
33466622;86728450
33466625;86728456
33466626;86728457
33466627;86728461
33466628;86728466
33466631;86728472
33466634;86728478
33466635;86728480
33466636;86728482
77115981;86731840
77115982;86731841
77115983;86731842
77115984;86731843
77115985;86731844
77115986;86731845
77115987;86731846
77115988;86731847
77115989;86731848
77115990;86731849
77115991;86770278
77115992;86770279
77115993;86770280
77115994;86770281
77115995;86770282
77115996;86770283
77115997;86788356
77115998;86788360
77115999;86788361
77116000;86788368
77116001;86788369
77116002;86788370
77116003;86788374
33466652;86788646
33466653;86788648
33466656;86788652
33466658;86788654
33466659;86788655
33466660;86788656
33466662;86788658
33466666;86788663
33466667;86788664
33466671;86788668
33466673;86788670
33466674;86788672
33466677;86788675
33466680;86790571
33466681;86790572
33466683;86790574
33466684;86790575
33466686;86790577
33466687;86790578
33466689;86790580
33466690;86790581
33466693;86790584
33466694;86790585
33466695;86790586
33466699;86790590
33466700;86790591
33466702;86790593
33466703;86790594
33466705;86790596
33466710;86790601
33466712;86790603
33466713;86790604
33466715;86790606
77116004;86801450
77116005;86801452
77116006;86809129
77116007;86809135
77116008;86809144
77116009;86809150
77116010;86809156
77116011;86809163
77116012;86809169
77116013;86809181
77116014;86809185
77116015;86809247
77116016;86809250
77116017;86828762
77116018;86828763
77116019;86828764
77116020;86828765
77116021;86828766
77116022;86828767
77116023;86828768
77116024;86828769
33466722;86871804
33466724;86871808
33466725;86871810
33466726;86871811
33466730;86871818
33466732;86871822
33466735;86871827
33466736;86871829
33466737;86871830
33466739;86871833
33466740;86871835
33466741;86871837
33466742;86871838
33466743;86871840
33466744;86871842
33466745;86871843
33466747;86871847
33466754;86871859
33466762;86871871
33466764;86871874
33466765;86871876
33466767;86871884
33466772;86871899
33466773;86871901
33466774;86871904
33466775;86871907
33466776;86871910
33466777;86871915
33466779;86871921
33466781;86871925
33466782;86871927
33466783;86871932
33466787;86871945
33466792;86871955
33466794;86871958
33466795;86871960
33466796;86871961
33466797;86871963
33466799;86871969
33466801;86871976
33466802;86871980
33466805;86871989
33466809;86872001
33466811;86872008
33466812;86872012
33466813;86872014
33466814;86872018
33466816;86872025
33466817;86872026
33466819;86872032
33466820;86872034
33466821;86872038
33466824;86872043
33466826;86872046
33466828;86872050
33466829;86872053
33466830;86872056
33466832;86872059
33466835;86872064
33466836;86872066
33466837;86872067
33466840;86872072
33466841;86872074
33466842;86872076
33466843;86872077
77116025;86877207
77116026;86877222
77116027;86877231
77116028;86877235
33466845;86900933
33466847;86900935
33466848;86900936
33466849;86900937
33466850;86900938
33466851;86900939
33466852;86900940
33466853;86900941
33466855;86900943
33466858;86900946
33466859;86900947
33466861;86900949
33466862;86900950
33466868;86900956
33466871;86900959
33466874;86900962
33466878;86900966
33466880;86900968
33466882;86900970
33466883;86900971
33466887;86900975
33466889;86900977
33466891;86900979
33466892;86900980
33466894;86900982
33466899;86900987
33466900;86900988
33466901;86900990
33466902;86900991
33466904;86900993
33466905;86900994
33466907;86900996
33466909;86900998
33466910;86900999
33466911;86901000
33466914;86901003
33466915;86901004
33466916;86901005
33466917;86901006
33466919;86901008
33466920;86901009
33466922;86901011
77116029;86915762
77800964;86924573
33333224;86924753
16600166;86927051
77800976;86927109
77800977;86927111
77300287;86927831
33332806;86928141
33333151;86930840
33333500;86931711
33333509;86931712
33419711;86934073
77008569;86934471
77008570;86934472
77008576;86934473
11601400;86934474
11601403;86934475
11601404;86934476
77800716;86934538
77008617;86934547
77008612;86934548
77008685;86935449
77008691;86935450
77008692;86935451
77008596;86935525
77008597;86935526
77008649;86935528
77008681;86935529
77400025;86935554
77400027;86935561
77400028;86935562
33414043;86935635
77008549;86935740
77008550;86935741
77008551;86935742
77008552;86935743
77008553;86935744
77008554;86935745
77008564;86935746
77008568;86935747
77016326;86935795
77300074;86935860
77300076;86935861
77700044;86935864
77700045;86935865
33316750;86941090
33316773;86941091
33316959;86941092
33316925;86941093
33316894;86941094
33317139;86941095
33317135;86941096
33317160;86941097
33317161;86941098
33317172;86941099
33317165;86941100
33317166;86941101
33317607;86941102
33317618;86941103
33317621;86941104
33317361;86941105
33317620;86941106
33317628;86941107
33317630;86941108
33317638;86941109
33317198;86941110
33318020;86941111
33319002;86941112
33326329;86941113
33326363;86941114
33326364;86941115
33326366;86941116
33326355;86941117
33316752;86941118
33316757;86941119
33316743;86941120
33316744;86941121
33316749;86941122
33316746;86941123
33316760;86941124
33316764;86941125
33316761;86941126
33316768;86941127
33316774;86941128
33316776;86941129
33316779;86941130
33316777;86941131
33316785;86941132
33316793;86941133
33316797;86941134
33316800;86941135
33316801;86941136
33316806;86941137
33316810;86941138
33316818;86941139
33316821;86941140
33316820;86941141
33316817;86941142
33316823;86941143
33316830;86941144
33316835;86941145
33316836;86941146
33316833;86941147
33316840;86941148
33316838;86941149
33316844;86941150
33316847;86941151
33316852;86941152
33316855;86941153
33316849;86941154
33316856;86941155
33316857;86941156
33316860;86941157
33316861;86941158
33316813;86941159
33316872;86941160
33316876;86941161
33316882;86941162
33316878;86941163
33316879;86941164
33316893;86941165
33316899;86941166
33316902;86941167
33316905;86941168
33316906;86941169
33316907;86941170
33316912;86941171
33316916;86941172
33316913;86941173
33316919;86941174
33316918;86941175
33316922;86941176
33316926;86941177
33316923;86941178
33316927;86941179
33316928;86941180
33316936;86941181
33316933;86941182
33316937;86941183
33316938;86941184
33316948;86941185
33316947;86941186
33316949;86941187
33316953;86941188
33316952;86941189
33316950;86941190
33316954;86941191
33316957;86941192
33316964;86941193
33316965;86941194
33316963;86941195
33316968;86941196
33316967;86941197
33316970;86941198
33316977;86941199
33316985;86941200
33316988;86941201
33316989;86941202
33317000;86941203
33316999;86941204
33317018;86941205
33317019;86941206
33317026;86941207
33317037;86941208
33317038;86941209
33317043;86941210
33317045;86941211
33317048;86941212
33317049;86941213
33317050;86941214
33317047;86941215
33317053;86941216
33317054;86941217
33317055;86941218
33317057;86941219
33317061;86941220
33317068;86941221
33317074;86941222
33317072;86941223
33317081;86941224
33317083;86941225
33317085;86941226
33326586;86941227
33326635;86941228
33326810;86941229
33326873;86941230
33326906;86941231
33326703;86941232
33326623;86941233
33326621;86941234
33326899;86941235
33327303;86941236
33327298;86941237
33326629;86941238
33327496;86941239
33327497;86941240
33327504;86941241
33328748;86941242
33326452;86941243
33326453;86941244
33326449;86941245
33326456;86941246
33326464;86941247
33326466;86941249
33326470;86941250
33326475;86941251
33326473;86941252
33326476;86941253
33326469;86941254
33326479;86941255
33326485;86941256
33326488;86941257
33326494;86941258
33326493;86941259
33326501;86941260
33326499;86941261
33326503;86941262
33326507;86941263
33326505;86941264
33326524;86941265
33326532;86941266
33326537;86941267
33326540;86941268
33326541;86941269
33326553;86941270
33326554;86941271
33326454;86941272
33326445;86941273
33326439;86941274
33326420;86941275
33326405;86941276
33326403;86941277
33326362;86941278
33326358;86941279
33326357;86941280
33326356;86941281
33326359;86941282
33326398;86941283
33326388;86941284
33326384;86941285
33326383;86941286
33326369;86941287
33326372;86941288
33326350;86941289
33326345;86941290
33326344;86941291
33326342;86941292
33326337;86941293
33326341;86941294
33326338;86941295
33326336;86941296
33326332;86941297
33326334;86941298
33326331;86941299
33326330;86941300
33326326;86941301
33326322;86941303
33326319;86941304
33326321;86941305
33326320;86941306
33326304;86941307
33326300;86941308
33326293;86941309
33326291;86941310
33326287;86941311
33326288;86941312
33326261;86941313
33326254;86941314
33326249;86941315
33326250;86941316
33326246;86941317
33326244;86941318
33326245;86941319
33326239;86941320
33326231;86941321
33326229;86941322
33326225;86941323
33326226;86941324
33326019;86941325
33326017;86941326
33326011;86941327
33326012;86941328
33326010;86941329
33325805;86941330
33325753;86941331
33325748;86941332
33325672;86941333
33325670;86941334
33325635;86941335
33325624;86941336
33325581;86941337
33325580;86941338
33325376;86941339
33323802;86941340
33319031;86941341
33319009;86941342
33318909;86941343
33318899;86941344
33318897;86941345
33318892;86941346
33318603;86941347
33318604;86941348
33318597;86941349
33318583;86941350
33318587;86941351
33318563;86941352
33318552;86941353
33318483;86941354
33318351;86941355
33318336;86941356
33318330;86941357
33318323;86941358
33318126;86941359
33318046;86941360
33318026;86941361
33318019;86941362
33318018;86941363
33318005;86941364
33318002;86941365
33318003;86941366
33317721;86941367
33317696;86941368
33317695;86941369
33317688;86941370
33317692;86941371
33317685;86941372
33317679;86941373
33317649;86941374
33317625;86941375
33317617;86941376
33317559;86941377
33317523;86941378
33317471;86941379
33317451;86941380
33317447;86941381
33317450;86941382
33317444;86941383
33317446;86941384
33317441;86941385
33317442;86941386
33317427;86941387
33317420;86941388
33317426;86941389
33317421;86941390
33317423;86941391
33317417;86941392
33317413;86941393
33317412;86941394
33317406;86941395
33317399;86941396
33317398;86941397
33317387;86941398
33317386;86941399
33317380;86941400
33317379;86941401
33317372;86941402
33317369;86941403
33317368;86941404
33317365;86941405
33317362;86941406
33317356;86941407
33317359;86941408
33317354;86941409
33317353;86941410
33317352;86941411
33317350;86941412
33317346;86941413
33317345;86941414
33317340;86941415
33317341;86941416
33317206;86941417
33317209;86941418
33317192;86941419
33317193;86941420
33317185;86941421
33317175;86941422
33317179;86941423
33317178;86941424
33317180;86941425
33317173;86941426
33317171;86941427
33317174;86941428
33317169;86941429
33317168;86941430
33317167;86941431
33317199;86941432
33317159;86941433
33317156;86941434
33317154;86941435
33317151;86941436
33317163;86941437
33317084;86941438
33317136;86941439
33317131;86941440
33317126;86941441
33317122;86941442
33317121;86941443
33317117;86941444
33317118;86941445
33317114;86941446
33317116;86941447
33317115;86941448
33317113;86941449
33317112;86941450
33317110;86941451
33317095;86941452
33317099;86941453
33317098;86941454
33317090;86941455
33317089;86941456
33326562;86941458
33326556;86941459
33326564;86941460
33326565;86941461
33326566;86941462
33326567;86941463
33326568;86941464
33326576;86941465
33326569;86941466
33326577;86941467
33326582;86941468
33326581;86941469
33326578;86941470
33326588;86941471
33326590;86941472
33326593;86941473
33326594;86941474
33326596;86941475
33326603;86941476
33326605;86941477
33326561;86941478
33326617;86941479
33326619;86941480
33326614;86941481
33326639;86941482
33326640;86941483
33326641;86941484
33326642;86941485
33326649;86941486
33326654;86941487
33326655;86941488
33326651;86941489
33326668;86941490
33326670;86941491
33326627;86941492
33326630;86941493
33326620;86941494
33326628;86941495
33326706;86941496
33326708;86943667
33326711;86943668
33326709;86943669
33326718;86943670
33326722;86943671
33326719;86943672
33326727;86943673
33326672;86943674
33326671;86943675
33326673;86943676
33326675;86943677
33326678;86943678
33326680;86943679
33326687;86943680
33326689;86943681
33326696;86943682
33326700;86943683
33326701;86943684
33326702;86943685
33326779;86943686
33326781;86943687
33326800;86943688
33326806;86943689
33326807;86943690
33326816;86943691
33326826;86943692
33326827;86943693
33326823;86943694
33326829;86943695
33326831;86943696
33326828;86943697
33326838;86943698
33326840;86943699
33326841;86943700
33326845;86943701
33326843;86943702
33326846;86943703
33326847;86943704
33326851;86943705
33326855;86943706
33326859;86943707
33326862;86943708
33326864;86943709
33326870;86943710
33326874;86943711
33326875;86943712
33326879;86943713
33326878;86943714
33326882;86943715
33326885;86943716
33326883;86943717
33326886;86943718
33326877;86943719
33326889;86943720
33326890;86943721
33326893;86943722
33326892;86943723
33326898;86943724
33326911;86943725
33326914;86943726
33326917;86943727
33326916;86943728
33326923;86943729
33326921;86943730
33326924;86943731
33326925;86943732
33326927;86943733
33326930;86943734
33326931;86943735
33326896;86943736
33326903;86943737
33326904;86943738
33326946;86943739
33326949;86943740
33326957;86943741
33326959;86943742
33326961;86943743
33326964;86943744
33326966;86943745
33326968;86943746
33326980;86943747
33326983;86943748
33326984;86943749
33327108;86943750
33327135;86943751
33327142;86943752
33327187;86943753
33327194;86943754
33327204;86943755
33327211;86943756
33327213;86943757
33327215;86943758
33327218;86943759
33327222;86943760
33327339;86943761
33327492;86943762
33327493;86943763
33327503;86943764
33327505;86943765
33327521;86943766
33327522;86943767
33327519;86943768
33327540;86943769
33327537;86943770
33327543;86943771
33327646;86943772
33327835;86943773
33328432;86943774
33328545;86943775
33328566;86943776
33328573;86943777
33328578;86943778
33328587;86943779
33328596;86943780
33328593;86943781
33328598;86943782
33328608;86943783
33328616;86943784
33328614;86943785
33328627;86943786
33328640;86943787
33328642;86943788
33328645;86943789
33328653;86943790
33328672;86943791
33328675;86943792
33328685;86943793
33328687;86943794
33328699;86943795
33328702;86943796
33328706;86943797
33328747;86943798
33328759;86943799
33328807;86943800
33328842;86943801
33328851;86943802
33328855;86943803
33328870;86943804
33328895;86943805
33329016;86943806
33329075;86943807
33329849;86943808
33329951;86943809
33330737;86943810
33331600;86943811
33331668;86943812
33331966;86943813
33431926;86944145
77002024;86950242
77004674;86950243
77001686;86950368
77001948;86950369
77001952;86950370
77001995;86950371
77002001;86950372
77002034;86950373
77002039;86950374
77002070;86950375
77002069;86950376
77002082;86950377
77002104;86950378
77002110;86950379
77002190;86950380
77002215;86950381
77002269;86950382
77002309;86950383
77002311;86950384
77002314;86950385
77002338;86950386
77002348;86950387
77002368;86950388
77002371;86950389
77002378;86950390
77002384;86950391
77002394;86950392
77002397;86950393
77002451;86950394
77002455;86950395
77002464;86950396
77004072;86950397
77004178;86950398
77004184;86950399
77004205;86950400
77004230;86950401
77004234;86950402
77004237;86950403
77004785;86950404
77004843;86950405
77004844;86950406
77004856;86950407
77004892;86950408
77004899;86950409
77006110;86950410
77006351;86950411
77006359;86950412
77006369;86950413
77006371;86950414
77800005;86950415
77800040;86950416
77800121;86950417
77800250;86950418
77800261;86950419
77800314;86950420
77800358;86950421
77800363;86950422
77800366;86950423
77800364;86950424
77800365;86950425
77800368;86950426
77800374;86950427
77800375;86950428
77800377;86950429
77800371;86950430
77800384;86950431
77800386;86950432
77800385;86950433
77800388;86950434
77800397;86950435
77800403;86950436
77800410;86950437
77800408;86950438
77800414;86950439
77800415;86950440
77800417;86950441
77800422;86950442
77800424;86950443
77800423;86950444
77800638;86950445
77800641;86950446
77800642;86950447
77800643;86950448
77800644;86950449
77800645;86950450
77800639;86950451
11600490;86950654
77800804;86950691
77800806;86950692
77800807;86950693
77016199;86950818
16600215;86952965
33431919;86955590
33431921;86955596
33431669;86955819
33431678;86955822
33431708;86955823
77300322;86960240
33333194;86960296
16600168;86960539
33333141;86960777
77800911;86961075
16600223;86961716
77801116;86963138
33309297;86963594
33309433;86963595
33309469;86963596
33309331;86963597
33309575;86963598
33310155;86963599
33310000;86963600
33309565;86963601
33002563;86963602
33002571;86963603
33002787;86963604
33002955;86963605
33003037;86963606
33003111;86963607
33003028;86963608
33003630;86963609
33003799;86963610
33003389;86963611
33003298;86963612
33003542;86963613
33300152;86963614
33300142;86963615
33300755;86963616
33002620;86963622
33002624;86963623
33002669;86963624
33002674;86963625
33002681;86963626
33002726;86963627
33002961;86963628
33002980;86963629
33002983;86963630
33002988;86963631
33002941;86963632
33002937;86963633
33002942;86963634
33002946;86963635
33003016;86963636
33003041;86963637
33003042;86963638
33003023;86963639
33003055;86963640
33003068;86963641
33003100;86963642
33003106;86963643
33003103;86963644
33003105;86963645
33003114;86963646
33003127;86963647
33003148;86963648
33003156;86963649
33003164;86963650
33003166;86963651
33003174;86963652
33003176;86963653
33003175;86963654
33003183;86963655
33003194;86963656
33003192;86963657
33003196;86963658
33003209;86963659
33003213;86963660
33003221;86963661
33003218;86963662
33003226;86963663
33003262;86963664
33003260;86963665
33003276;86963666
33003283;86963667
33003290;86963668
33003280;86963669
33003294;86963670
33003330;86963671
33003369;86963672
33003388;86963673
33003398;86963674
33003400;86963675
33003413;86963676
33003450;86963677
33003477;86963678
33003512;86963679
33003511;86963680
33003516;86963681
33003526;86963682
33003529;86963683
33003534;86963684
33003538;86963685
33003537;86963686
33003540;86963687
33003543;86963688
33003544;86963689
33003551;86963690
33003555;86963691
33003556;86963692
33003561;86963693
33003566;86963694
33003567;86963695
33003570;86963696
33003571;86963697
33003573;86963698
33003575;86963699
33003614;86963700
33003619;86963701
33003652;86963702
33300004;86963703
33300052;86963704
33300054;86963705
33300145;86963706
33300170;86963707
33300641;86963708
33300750;86963709
33308360;86963710
33308468;86963711
33309298;86963712
33309309;86963713
33309306;86963714
33309315;86963715
33309327;86963716
33309335;86963717
33309354;86963718
33309353;86963719
33309358;86963720
33309361;86963721
33309382;86963722
33309380;86963723
33309390;86963724
33309395;86963725
33309396;86963726
33309410;86963727
33309414;86963728
33309419;86963729
33309424;86963730
33309427;86963731
33309421;86963732
33309440;86963733
33309441;86963734
33309452;86963735
33309449;86963736
33309453;86963737
33309457;86963738
33309494;86963739
33309514;86963740
33309517;86963741
33309521;86963742
33309531;86963743
33309542;86963744
33309555;86963745
33309562;86963746
33309559;86963747
33309561;86963748
33309563;86963749
33309567;86963750
33309571;86963751
33309576;86963752
33309585;86963753
33309610;86963754
33309606;86963755
33309611;86963756
33309616;86963757
33309634;86963758
33309643;86963759
33309648;86963760
33309662;86963761
33309665;86963762
33309667;86963763
33309677;86963764
33309679;86963765
33309690;86963766
33309695;86963767
33309699;86963768
33309705;86963769
33309706;86963770
33309717;86963771
33309718;86963772
33309719;86963773
33309725;86963774
33309739;86963775
33309736;86963776
33309742;86963777
33309741;86963778
33309753;86963779
33309769;86963780
33309768;86963781
33309770;86963782
33309771;86963783
33309776;86963784
33309789;86963785
33309980;86963786
33309999;86963787
33310031;86963788
33310042;86963789
33310065;86963790
33310072;86963791
33310108;86963792
33310154;86963793
33310172;86963794
33310174;86963795
33310190;86963796
33310223;86963797
33310228;86963798
33310422;86963799
33310449;86963800
33310681;86963801
33311028;86963802
33425410;86964851
77024254;86964982
77024252;86964984
77300323;86965059
77300324;86965065
77300326;86965076
33333177;86965229
11601192;86965474
11601187;86965475
11601190;86965476
11601184;86965477
11600538;86965774
77016342;86968594
77016344;86968595
77016349;86968597
33333130;86969242
77008715;86969435
77008725;86969447
77008757;86969479
77008759;86969480
77008769;86969483
77008797;86969493
77008800;86969494
77008798;86969495
77008801;86969496
77008804;86969497
77008802;86969499
77008817;86969501
33333516;86971840
77023545;86973346
77103480;86974198
33333126;86974487
33333128;86974491
33333127;86974492
33333131;86974516
77024249;86976261
77800928;86976327
77300309;86976331
77300310;86976332
77300311;86976334
77300314;86976341
77300315;86976342
77300316;86976343
77300317;86976344
77300319;86976346
77300318;86976347
77300321;86976348
77300320;86976349
33333195;86976426
33425054;86976428
77300328;86976614
77300332;86976615
77300335;86976619
77300334;86976620
77600194;86978180
77600195;86978185
77600219;86978902
77600220;86978906
77700021;86980983
77008718;86981047
77800718;86981048
77800717;86981049
77800719;86981051
77800720;86981052
77801117;86993796
33333253;87000806
33333255;87000807
33333256;87000808
33333258;87000809
33333260;87000810
33333266;87000869
33425596;87001978
11600769;87005340
77106624;87005969
77106459;87005972
77106460;87005974
77106462;87005975
77106482;87005976
77106463;87005977
77106483;87005978
77106484;87005979
77106481;87005980
77106486;87005981
77106487;87005983
77106488;87005987
77106476;87005994
77106485;87005995
77106489;87006007
77106490;87006009
77106491;87006010
77106493;87006011
77106492;87006022
77106494;87006062
77106497;87006120
77106499;87006122
77106496;87006128
77106495;87006132
77106505;87006162
77106512;87006171
77106511;87006172
77106510;87006179
77106514;87006185
77106527;87006260
77106528;87006262
77106529;87006263
77106522;87006264
77106523;87006265
77106524;87006266
77106525;87006267
77106516;87006268
77106532;87006269
77106533;87006270
77106536;87006271
77106541;87006272
77106542;87006273
77106539;87006274
77106544;87006275
77106545;87006276
77106547;87006277
77106537;87006278
77106548;87006279
77106543;87006280
77106530;87006281
77106531;87006282
77106540;87006283
77106535;87006284
77106538;87006285
77106534;87006286
77106550;87006287
77106549;87006288
77106568;87006289
77106569;87006290
77106570;87006291
77106572;87006292
77106571;87006293
77106573;87006294
77106552;87006295
77106553;87006296
77106554;87006297
77106555;87006298
77106556;87006299
77106557;87006300
77106558;87006301
77106580;87006305
77106581;87006306
77106560;87006307
77106561;87006308
77106567;87006309
77106578;87006310
77106562;87006311
77106579;87006312
77106582;87006329
77106583;87006361
77106584;87006401
77106585;87006445
77106586;87006459
77106590;87006571
77106588;87006573
77106587;87006579
77106591;87006589
77106597;87006590
77106589;87006592
77106592;87006608
77106598;87006609
77106602;87006610
77106604;87006611
77106603;87006612
77106595;87006613
77106607;87006614
77106612;87006615
77106596;87006616
77106613;87006617
77106614;87006618
77106594;87006619
77106611;87006620
77106610;87006621
77106605;87006622
77106629;87006623
77106609;87006624
77106606;87006625
77106600;87006626
77106635;87006627
77106608;87006628
77106601;87006629
77106638;87006630
77106625;87006631
77106627;87006632
77106622;87006633
77106623;87006634
77106616;87006635
77106618;87006636
77106617;87006637
77106619;87006638
77106626;87006639
77106633;87006640
77106615;87006641
77106632;87006642
77106634;87006643
77106636;87006644
77106628;87006645
77106631;87006646
77106630;87006647
77106637;87006648
77106621;87006649
77106620;87006650
77106640;87006651
77106641;87006652
77106639;87006653
77106645;87006654
77106642;87006655
77106651;87006661
77106652;87006662
77106653;87006663
77106654;87006664
77106647;87006665
77106646;87006666
77106649;87006667
77106656;87006668
77106657;87006670
77106660;87006671
77106669;87006672
77106670;87006673
77106673;87006674
77106674;87006676
77106684;87006678
77106668;87006679
77106678;87006680
77106661;87006681
77106662;87006682
77106659;87006683
77106655;87006684
77106643;87006685
77106663;87006686
77106680;87006687
77106681;87006688
77106682;87006689
77106665;87006690
77106683;87006691
77106666;87006692
77106693;87006693
77106671;87006694
77106672;87006695
77106658;87006696
77106676;87006697
77106664;87006698
77106679;87006699
77106677;87006700
77106686;87006701
77106687;87006702
77106689;87006703
77106685;87006704
77106690;87006706
77107778;87011065
77107772;87011066
77107775;87011067
77107776;87011069
77107769;87011070
77107770;87011071
77107773;87011072
77107774;87011073
77107777;87011074
77107771;87011075
77107419;87011818
77107414;87011819
77107435;87011823
77107456;87011888
77107428;87011889
77107415;87011890
77107417;87011891
77107462;87011892
77107440;87011893
77107464;87011894
77107503;87011966
77107595;87013832
33333605;87019737
33333608;87019740
33333629;87019741
33333655;87019841
33333212;87021768
33333214;87021932
33333215;87021933
77107247;87022112
77107251;87022113
77107252;87022115
77107243;87022116
77107238;87022117
77107236;87022118
77107232;87022150
77107233;87022151
77107234;87022154
77107226;87022651
77107188;87022732
77107332;87022734
16600203;87026829
77113097;87027770
77113098;87027774
77113099;87027775
77113100;87027776
77113101;87027777
77101199;87028506
77101202;87028507
77101213;87028509
77113145;87028851
77113146;87028853
77113148;87028854
77113147;87028855
77113149;87028856
77113144;87028863
77113151;87028867
77113150;87028880
33459194;87031904
33333759;87034810
77101236;87034832
77101703;87034834
77107186;87035184
77107309;87035185
77107075;87037250
77107077;87037253
77107078;87037254
77107076;87037255
77107079;87037257
77107080;87037263
77107082;87037268
77107081;87037269
77107083;87037270
77107100;87037282
77107099;87037283
77107101;87037288
77107102;87037289
77107087;87037290
77107089;87037291
77107091;87037292
77107090;87037293
77107093;87037294
77107095;87037295
77107103;87037296
77107104;87037297
77107105;87037298
77107184;87037299
77107177;87037300
77107182;87037301
77101325;87038613
77101323;87038614
77101332;87038616
77101342;87038617
77101333;87038618
77101345;87038620
77101365;87038637
77101380;87038638
77101383;87038639
77101392;87038640
77101393;87038641
77101406;87038642
77101490;87038646
77100306;87038712
77100308;87038713
77100310;87038714
77100312;87038715
77100314;87038716
77100315;87038717
77100311;87038718
77100313;87038719
77100454;87038720
77100309;87038721
77100556;87038722
77100577;87038723
77100578;87038724
77100576;87038725
77100685;87038726
77100682;87038727
77100686;87038728
77100684;87038729
77101118;87038749
77101120;87038751
77101121;87038752
77101119;87038753
77101122;87038754
77101125;87038755
77101124;87038756
77101126;87038757
77101128;87038758
77101136;87038759
77101132;87038760
77101170;87038761
77101150;87038762
77101129;87038763
77101131;87038764
77101130;87038765
77101127;87038766
77101152;87038767
77101123;87038768
77101149;87038769
77101183;87038770
77101186;87038771
77101190;87038772
77101191;87038773
77801118;87040670
77801119;87041008
33333734;87045596
77800913;87046184
77800917;87046195
77107156;87049369
77107157;87049375
77107160;87049378
77107159;87049382
77107162;87049388
77107163;87049389
77107126;87049398
77107128;87049400
77107131;87049401
77107132;87049402
77107109;87049407
77107134;87049409
77107135;87049410
77107136;87049411
77107138;87049416
77107139;87049419
77107108;87049420
77107140;87049422
77107125;87049423
77107127;87049425
77107142;87049427
77107144;87049428
77107137;87049434
77107149;87049435
77107129;87049441
77107133;87049448
77107130;87049450
77107145;87049454
77107153;87049455
77107141;87049456
77107107;87049457
77107117;87049458
77107150;87049461
77107148;87049462
77107185;87049465
77107253;87049466
77107265;87049468
77107276;87049502
77107267;87049503
77107279;87049541
77107281;87049543
77107300;87049573
77107303;87049592
77112335;87066541
77112336;87066542
77112337;87066543
77112338;87066544
77112339;87066546
77112340;87066547
77112341;87066548
77112342;87066549
77112343;87066550
77112344;87066551
77112347;87066552
77112348;87066553
77112346;87066554
77112349;87066555
77112350;87066556
77112351;87066557
77112352;87066559
77112353;87066640
16600218;87067404
77112102;87080750
77112108;87080752
77112111;87080753
77112107;87080754
77112105;87080755
77112104;87080756
77112106;87080757
77112110;87080758
77112109;87080759
77112112;87080760
77112113;87080761
77112115;87080762
77112114;87080763
77112116;87080764
77112117;87080765
77112118;87080766
77112121;87080767
77112120;87080768
77112119;87080770
77112122;87081058
77112130;87081059
77112138;87081061
77112152;87081062
77112161;87081063
77112163;87081064
77112165;87081065
77112169;87081066
77112166;87081067
77112171;87081068
77112167;87081069
77112164;87081070
77112168;87081071
77112170;87081088
77112173;87081089
77112176;87081091
77112175;87081092
77112174;87081093
77112172;87081094
77112178;87081095
77112179;87081096
77112177;87081097
77112180;87081098
77112181;87081099
77102101;87082348
77102288;87082984
77102459;87083034
77801162;87084355
33333774;87088300
33333755;87095849
77113324;87099791
77113327;87099797
77113326;87099798
77113328;87099802
77113321;87099811
77113322;87099812
77113323;87099813
77113325;87099814
77113330;87099834
77113331;87099835
77113332;87099836
77103146;87101202
33333716;87104221
33333372;87104438
77110896;87113601
77110894;87113602
77110895;87113603
77110897;87113604
77110898;87113605
77110899;87113606
77110902;87113650
77110901;87113651
77110885;87117267
77110882;87117268
77110884;87117271
77110881;87117275
77110890;87117282
77110891;87117283
77110887;87117284
77110888;87117285
77110889;87117287
77110886;87117289
77110893;87117295
77110929;87119208
77110932;87119209
77110928;87119215
77110930;87119219
77110925;87119228
77110931;87119234
77110934;87119246
77110935;87119265
77110903;87119509
77110905;87119510
77110908;87119511
77110909;87119512
77110910;87119513
77110913;87119514
77110914;87119515
77110915;87119516
77110918;87119517
77110919;87119518
77110921;87119519
77110922;87119520
77110924;87119521
77110920;87119522
33333369;87122977
33333442;87127118
33333438;87127122
77700297;87127461
77700298;87127465
77700299;87127468
77600235;87127469
77112468;87137134
77112470;87137136
77112471;87137137
77112467;87137138
77112473;87137139
77112474;87137140
77112475;87137141
77112472;87137143
77700309;87137144
77700310;87137164
77112527;87137287
77112529;87137288
77112528;87137289
77112546;87137291
77112535;87137292
77112549;87137293
77112547;87137294
77112540;87137295
77112543;87137296
77112536;87137297
77112552;87137298
77112553;87137299
77112554;87137300
77112555;87137301
77112556;87137307
77112550;87137308
77112551;87137309
77112548;87137310
77112562;87137317
77112561;87137322
77112563;87137342
77112564;87137343
77112565;87137344
77112566;87137345
77112567;87137369
77112568;87137370
77112569;87137390
77112574;87137402
77112570;87137404
77112571;87137409
77112572;87137410
77112573;87137424
77112575;87137439
77112576;87137448
77112577;87137538
77112579;87137561
77112578;87137572
77112582;87137629
77112583;87137634
77112586;87137683
77112587;87137684
77112584;87137699
77112588;87137703
77112589;87137740
77112590;87137767
77112591;87137806
77112594;87137809
77112595;87137811
77112592;87137816
77112593;87137839
77112597;87137846
77112598;87137858
77112599;87137863
77112600;87137880
77112601;87137882
77113027;87162371
77113028;87162373
77113052;87162374
77113050;87162375
77113053;87162376
77113056;87162377
77113054;87162378
77113055;87162381
77110972;87168445
77110973;87168446
77110974;87168447
77110975;87168448
77110976;87168449
77111035;87168453
77111054;87168456
77111064;87168461
77111127;87168530
77111133;87168533
77111131;87168534
77111129;87168535
77111132;87168536
77111128;87168538
77111004;87168819
77111005;87168820
77111006;87168821
77111008;87168822
77111032;87168823
77111022;87168824
77111020;87168825
77111037;87168826
77111024;87168827
77111011;87168828
77111007;87168829
77111041;87168830
77111044;87168831
77111018;87168832
77111019;87168833
77111023;87168834
77111025;87168835
77111028;87168836
77111021;87168837
77111030;87168838
77111031;87168839
77111058;87168840
77111055;87168841
77111053;87168842
77111038;87168843
77111033;87168844
77111029;87168845
77111034;87168846
77111045;87168847
77111042;87168848
77111265;87168876
77111262;87168878
77111271;87168879
77111268;87168883
77111270;87168884
77111266;87168896
33458254;87169237
77110940;87169270
77110943;87169271
77110949;87169274
77110950;87169275
77110952;87169276
77110957;87169277
77110954;87169278
77110958;87169279
77110945;87169283
77110956;87169285
77110944;87169289
77110938;87169293
77110937;87169304
77110946;87169305
77110947;87169306
77110961;87169476
77110991;87169477
77110992;87169478
77110993;87169479
77110997;87169480
77110998;87169482
77111000;87169483
77110999;87169484
77110994;87169485
77110996;87169486
77111002;87169521
16600225;87170686
77110980;87174849
77110981;87174851
77110982;87174852
77110984;87174853
77110986;87174855
77110987;87174856
77110989;87174858
77110990;87174862
77110985;87174864
77110964;87174930
77110965;87174931
77110969;87174932
77110970;87174933
77110966;87174934
77110971;87174935
77110967;87174936
77111413;87174953
77111414;87174954
77111415;87174955
77111416;87174956
77111417;87174957
77111418;87174958
77111422;87174983
77111424;87174984
77111427;87174985
77111426;87174986
77111423;87174987
77111431;87175110
77111432;87175111
77111430;87175115
77111437;87176215
77111442;87176217
77111441;87176218
77111434;87176219
77111435;87176220
77111439;87176221
77111444;87176222
77111446;87176248
77111447;87176249
77111449;87176250
77111452;87176251
77111454;87176252
77111451;87176253
77111450;87176254
77801178;87176255
77111464;87176704
77111467;87176706
77111470;87176707
77111477;87176720
77111456;87176732
77111457;87176734
77111459;87176744
77111474;87176746
77111461;87176747
77111476;87176748
77111469;87176749
77111466;87176750
77111472;87176759
77111473;87176762
77111479;87176810
77111480;87176811
77111483;87176812
77111485;87176813
77111484;87176814
77111488;87176818
77111489;87176819
77111490;87176821
77111491;87176822
77111492;87176824
77111494;87176834
77111493;87176835
77111664;87181158
