NUMERO_POLICES;NUMERO_QUITTANCE
76147444;86427492
72420977;86276272
21846011;85889380
76176894;86496882
76115107;85725616
76192119;85886937
76192119;86487093
76128783;86314499
76128783;82099765
76128783;81296541
21824685;86473809
72021396;86943319
76117512;71020573
76117512;71504657
76117512;71752587
76117512;72038703
76117512;72307704
76118407;71020800
76118407;71497464
76118407;71747757
76118407;72118626
76118407;72364858
76118407;87126637
33402111;75465128
71703686;81296084
71703686;82099307
73208724;73043567
