NUMERO_POLICES;NUMERO_QUITTANCE
31203980;87627788
21203849;87623861
22601662;87721954
21212511;80903145
31004734;87756791
24200093;87812900
79300036;87632105
79300051;87632258
79300069;87632264
31236240;87669805
31236239;87669806
79400002;87697158
79400001;87697159
79400003;87697161
21818098;87620383
21602772;87645518
22601316;87757342
64200005;11497981
11601245;87621415
64201153;11498287
21811381;87660427
21605105;87658195
22602328;87843508
21605756;87628045
31205908;87619050
80029246;87610915
21606688;87648269
31220628;87635009
31216361;87723299
31216360;87723300
31216362;87723301
22601980;87852255
22600621;87756759
79300046;87632256
79300041;87632257
21814066;87612292
64200014;11497982
31010534;87732455
64200019;11497983
33300640;87642724
33300652;87642723
64200033;11497985
64200036;11497984
64200041;11497986
64200045;11497987
33301430;87642738
64200053;11498026
64200083;11498031
64200097;11498032
64200102;11498033
64200107;11498034
64200109;11498035
64201205;11498235
64200141;11498036
64200143;11498037
64200146;11498038
64200154;11498039
64200160;11498040
64200162;11498041
64200167;11498043
64200171;11498042
64200172;11498044
64200176;11498045
64200184;11498046
64200185;11498047
64200187;11498048
64200190;11498049
64200192;11498050
64200198;11498051
64200201;11498052
64200207;11498053
64200209;11498055
64200211;11498015
64200216;11498016
64200224;11498018
64200226;11498019
64200231;11498020
64200233;11498021
64200243;11498054
31011690;87704272
64200252;11498057
64200253;11498056
64200255;11498058
64200262;11498060
64200263;11498059
64200272;11498062
64200283;11498061
64200284;11498063
64200287;11498064
64200290;11498065
64200293;11498066
64200294;11498067
64200301;11498068
64200305;11498069
64200307;11498070
22601601;87717172
64200316;11498023
64200319;11498022
64200323;11498071
64200325;11498072
64200338;11498073
64200340;11498074
64200347;11498075
64200362;11498076
64200371;11497882
64200374;11497883
64200378;11497884
21610667;87674242
33310548;87642751
64200398;11497885
24602804;87628717
64200401;11497886
64200402;11497887
21611921;87622756
21856231;87856090
21856230;87856119
21856087;87851891
21856446;87856284
21856085;87851890
21856084;87851914
21856118;87851974
21856083;87851893
21856117;87851944
21856082;87851915
21856310;87856161
21856311;87856198
21856313;87856180
21856444;87856305
21856077;87851906
21856445;87856276
21856399;87856281
21856397;87856240
21856316;87856181
21856317;87856182
21856398;87856261
21856318;87856217
21856315;87856160
21856119;87851928
21856120;87851942
21856091;87851913
21856090;87851895
21856089;87851917
21856088;87851892
21856081;87851889
21856074;87851916
21856076;87851887
31014918;87840436
64200059;11498027
33318043;87639742
21819581;87652101
33318532;87639799
21612918;87642352
31015663;87735866
31200417;87627690
31016130;87735944
31016312;87735978
33323170;87639842
31017460;87681719
22601475;87768279
21800021;87632067
31215599;87697081
51009916;11498362
21811722;87660593
64200061;11498029
31018344;87820052
31018343;87820053
64200418;11497888
64200425;11497889
64200427;11497890
33333594;87755596
21807153;87617328
71525814;87825722
31019237;87697604
21623085;87699869
31028046;87746568
33329844;87641033
33329846;87641034
64200433;11497891
64200435;11497892
31215597;87631713
64200440;11497893
24200703;87680409
64200062;11498028
64200445;11497894
64200447;11497896
64200449;11497895
64200452;11497897
64200454;11497900
21619215;87723496
21806043;87668454
64200457;11497899
64200458;11497898
64200459;11497901
26007740;87874775
64200462;11497902
21620063;87644780
31202710;87658228
31202759;87697494
21802034;87645398
76214795;87825711
21621695;87618318
76214800;87825726
64200473;11497903
64200475;11497904
21808336;87640190
26003934;81872275
24601118;87686051
31201486;87645483
31218074;87628223
21624018;87863455
64200064;11498030
31029000;87701155
31028998;87701157
31029001;87701158
21625817;87683440
76214804;87825725
64201038;11498653
31206308;87668455
21808652;87640144
31202756;87697493
21810418;87617272
76214793;87825715
21810557;87628713
16807388;87660595
76214802;87825721
76214801;87825720
21803818;87624211
24604175;87653093
21804203;87628140
76214794;87825716
76214796;87825713
21806111;87632498
64201107;11497874
76214792;87825714
76214797;87825717
31207784;87636290
21807656;87638782
21807666;87674150
76214798;87825724
22601374;87844832
76214803;87825719
76214799;87825723
31209109;87642367
21811896;87613922
24602179;87691508
31226665;87806770
31211273;87634957
16806178;87635408
31211456;87634793
31211464;87636752
80028520;87611346
80028521;87611347
21815290;87649042
31212177;87670692
51009915;11498361
21810565;87629796
21810955;87660521
31215132;87630052
31214990;87697157
31230685;87839933
31230686;87839935
31214076;87660591
21811727;87660596
21812071;87614653
31216720;87699910
31215260;87630129
24603704;87723375
21813664;87710136
31216721;87710260
31219777;87613138
24700527;87646875
31218066;87626681
21815321;87648877
31219230;87676344
21816094;87613034
31220025;87618388
31220079;87619956
31220338;87634180
21816882;87636155
21817903;87708797
31228112;87677623
31228113;87677624
31228114;87677628
31224160;87875240
31224330;87874577
21819686;87652656
21820377;87810144
31225855;87705676
64201201;11498230
21821216;87806767
64201203;11498236
21822153;87648470
22600089;87852063
31229312;87659927
79600004;87690146
16816038;87758377
24606416;87758378
22601954;87776297
31238026;87799746
31236244;87699115
31236243;87699116
21834164;87768868
21834369;87706107
71602873;87836125
31239710;87781556
21835342;87738007
71608188;87704633
31246758;87826385
64201211;11497916
31244542;87851201
71607568;87694453
71606910;87851126
26011428;87722156
51009913;11498359
51009914;11498360
51009918;11498363
51009921;11498364
21847891;87869920
21849422;87838166
21849501;87843578
31251648;87843820
31251684;87843809
21851449;87776902
21851450;87776903
21856517;87856343
33466669;86788666
24612870;87501614
31258093;87501706
