NUMERO_POLICES;NUMERO_QUITTANCE
33459747;80463756
33459883;80842749
33460347;80885952
33460369;80885973
33462840;83490578
33319563;85665547
33465186;85694722
33465558;86080386
33465588;86080447
33465640;86080584
33465705;86080678
33465718;86080703
33465852;86080882
33465901;86080985
33465995;86109331
33466028;86109364
33466040;86109376
33466058;86109394
33466086;86109423
33466281;86163266
33466294;86163279
33466299;86163284
33466398;86658477
33466566;86728353
33466604;86728419
33466610;86728429
33466675;86788673
33466679;86788677
33466682;86790573
33466707;86790598
33466711;86790602
33466769;86871890
33466804;86871986
33466857;86900945
33466865;86900953
33466885;86900973
33466893;86900981
33466903;86900992
33466906;86900995
33466982;87310378
33466991;87310395
33467015;87395156
33467033;87395187
33467038;87395196
33467044;87395207
33467049;87395216
33467067;87395245
33467081;87395270
33467083;87395273
33467089;87395284
33467101;87395304
33467109;87395318
33467129;87457528
33467134;87457537
33467135;87457538
33467138;87457543
33467145;87457555
33467153;87457569
33467164;87457588
33467167;87457594
33467169;87457597
33467170;87457599
33467179;87457614
33467183;87457621
33467185;87458241
33467193;87490540
33467198;87490550
33467204;87490562
33467207;87490567
33467212;87490577
33467214;87490580
33467216;87490584
33467217;87490586
33467226;87490604
33467227;87490606
33467231;87490614
33467236;87490623
33467237;87490625
33467241;87490632
33467245;87490640
33467253;87490654
33467258;87578882
33467262;87578899
33467271;87578939
33467273;87578945
33467275;87578951
33467282;87578976
33467283;87578979
33467285;87578984
33467290;87579000
33467325;87955349
33467335;87955358
33467336;87955359
33467344;87955367
33467346;87955369
33467347;87955370
33467349;87955372
33467352;87955375
33467377;87955400
33467378;87955401
33467397;87955420
33467399;87955422
33467404;87955427
33467411;87955434
33467413;87955436
33467427;87955449
33467428;87955450
33467445;87955467
33467446;87955468
33467449;87955471
33467452;87955474
33467453;87955475
33467459;87955481
33467465;87955487
33467467;87955489
33467468;87955490
33467471;87955493
33467472;87955494
33467474;87955496
33467478;87955501
33467485;87955508
33467493;87955516
33467494;87955517
33467496;87955519
33467497;87955520
33467498;87955521
33467501;87955524
33467504;87955528
33467506;87955530
33467510;87955534
33467515;87955539
33467516;87955541
33467521;87955547
33467523;87955549
33467525;87955551
33467526;87955552
33467527;87955553
33467529;87955555
33467533;87955560
33467540;87955567
33467544;87955571
33467545;87955582
33467548;87955585
33467558;87955595
33467563;87955600
33467565;87955602
33467568;87955605
33467584;87955621
33467587;87955624
33467599;87955635
33467611;87955647
33467615;87955651
33467629;87955665
33467639;87955675
33467643;87955679
33467648;87955684
33467654;87955690
33467655;87955691
33467658;87955694
33467660;87955696
33467661;87955697
33467664;87955700
33467665;87955701
33467672;87955708
33467678;87955714
33467679;87955715
33467682;87955718
33467697;87955733
33467699;87955735
33467709;87955744
33467713;87955748
33467721;87955756
33467723;87955758
33467743;87955823
33467744;87955824
33467753;87955833
33467755;87955835
33467763;87955843
33467766;87955846
33467770;87955850
33467797;87955877
33467802;87955882
33467804;87955884
33467817;87955897
33467819;87955899
33467820;87955900
33467823;87955903
33467828;87955908
33467829;87955909
33467834;87985158
33467835;87985161
33467839;87985171
33467840;87985172
33467852;87985198
33467857;87985211
33467860;87985231
33467862;87985250
33467865;87985272
33467866;87985277
33467868;87985281
33467870;87985285
33467873;87985292
33467875;87985326
33467877;87985334
33467879;87985364
33467880;87985367
33467884;87985375
33467885;87985378
33467890;87985419
33467891;87985420
33467899;87993247
33467900;87995167
33467901;87995168
33467903;87995170
33467905;87995172
33467908;87995174
33467912;87995180
33467913;87995181
33467924;87995195
33467925;87995196
33467928;87995199
33467929;87995200
33467931;87995202
33467932;87995203
33467936;87995208
33467939;87995211
33467947;87995220
33467952;88045388
33467953;88045389
33467954;88045391
33467955;88045392
33467956;88045394
33467960;88045400
33467961;88045402
33467962;88045403
33467963;88045405
33467965;88045408
33467967;88045411
33467968;88045413
33467970;88045416
33467971;88045417
33467972;88045419
33467973;88045420
33467974;88045422
33467976;88045425
33467977;88045427
33467978;88045428
33467987;88045442
33467988;88045444
33467990;88045447
33467994;88045453
33467995;88045455
33467997;88045458
33467999;88045461
33468001;88045464
33468006;88045472
33468007;88045473
33468016;88045487
33468018;88046808
33468020;88046811
33468022;88064347
33468024;88064364
33468033;88064379
33468034;88064382
33468036;88064386
33468037;88064394
33468038;88064396
33468039;88064398
33468040;88064400
33468041;88064409
33468043;88064417
33468046;88064426
33468050;88064443
33468051;88064445
33468052;88064447
33468055;88064453
33468058;88064466
33468061;88064478
33468063;88064482
33468065;88064486
33468066;88064488
33468067;88064490
33468068;88064492
33468069;88064494
33468070;88064496
33468073;88064503
33468074;88064504
33468075;88064506
33468076;88064514
33468078;88064518
33468080;88064521
33468081;88064529
33468083;88064533
33468085;88064544
33468086;88064546
33468087;88064548
33468089;88064552
33468090;88064559
33468092;88064563
33468093;88064565
33468094;88064573
33468098;88064588
33468099;88064590
33468102;88064602
33468104;88064606
33468107;88064618
33468111;88064632
33468113;88064636
33468114;88064637
33468115;88064643
33468116;88064646
33468117;88064648
33468119;88064652
33468120;88064654
33468121;88064656
33468125;88064663
33468126;88064666
33468131;88064674
33468132;88064677
33468134;88064680
33468136;88064698
33468137;88064700
33468138;88064702
33468143;88064721
33468145;88064725
33468146;88064730
33468147;88064733
33468148;88064735
33468149;88064739
33468150;88064743
33468154;88064759
33468157;88064771
33468159;88064775
33468162;88064782
33468168;88064807
33468170;88064829
33468175;88064840
33468176;88064841
33468177;88064844
33468190;88064869
33468198;88064887
33468199;88064889
33468200;88064891
33468203;88064897
33468205;88105811
33468211;88105823
33468212;88105828
33468214;88105836
33468224;88105866
33468228;88105871
33468236;88126308
33468238;88126310
33468243;88126315
33468244;88126316
33468245;88126317
33468247;88126319
33468248;88126320
33468251;88126323
33468252;88126324
33468253;88126325
33468255;88126327
33468256;88126328
33468259;88126331
33468260;88126332
33468261;88126333
33468262;88126334
33468264;88126336
33468265;88126337
33468267;88126339
33468269;88126341
33468271;88126343
33468272;88126344
33468273;88126345
33468275;88126347
33468276;88126348
33468277;88126349
33468279;88126351
33468283;88126355
33468287;88126359
33468288;88126360
33468289;88126361
33468292;88126364
33468293;88126365
33468296;88126368
33468297;88126369
33468300;88126372
33468302;88126374
33468304;88126376
33468308;88126380
33468309;88126381
33468310;88126382
33468312;88126384
33468313;88126385
33468314;88126386
33468315;88126387
33468318;88126390
33468321;88132351
33468322;88132352
33468323;88132353
33468326;88132356
33468327;88132357
33468328;88132358
33468329;88132359
33468330;88132360
33468331;88132361
33468333;88132363
33468334;88132364
33468335;88132365
33468336;88132366
33468337;88132367
33468341;88132371
33468342;88132372
33468344;88132374
33468348;88132378
33468349;88132380
33468350;88132381
33468351;88132382
33468356;88132388
33468365;88132400
33468367;88132402
33468368;88132403
33468369;88132404
33468370;88132405
33468371;88132406
33468372;88132407
33468374;88132409
33468375;88132410
33468377;88132412
33468380;88132415
33468381;88132416
33468385;88132420
33468386;88132421
33468387;88132422
33468388;88132423
33468389;88132424
33468390;88132425
33468391;88132426
33468392;88132427
33468393;88132428
33468394;88132429
33468395;88132430
33468400;88132435
33468404;88148653
33468406;88148656
33468410;88148660
33468411;88148662
33468413;88148664
33468414;88148665
33468415;88148666
33468416;88148667
33468417;88148669
33468421;88148673
33468422;88148675
33468423;88148676
33468424;88148677
33468425;88148678
33468426;88148679
33468427;88148680
33468428;88148682
33468430;88148684
33468434;88148688
33468438;88148691
33468439;88148692
33468441;88148694
33468442;88148695
33468447;88148700
33468448;88148701
33468449;88148702
33468450;88148703
33468451;88148704
33468452;88148705
33468454;88148707
33468455;88148708
33468456;88148709
33468458;88176607
33468460;88176609
33468463;88176612
33468465;88176614
33468483;88176770
33468484;88182383
33468487;88182405
33468489;88182410
33468490;88182411
33468491;88182419
33468492;88182431
33468494;88182437
33468495;88182438
33468496;88182443
33468497;88182450
33468503;88182483
33468505;88182497
33468509;88182515
33468510;88182516
33468512;88182518
33468513;88182519
33468517;88182523
33468522;88182535
33468524;88182549
33468525;88182552
33468526;88182558
33468528;88182577
33468530;88182596
33468531;88182607
33468532;88182623
33468533;88182636
33468534;88182637
33468535;88182643
33468536;88182656
33468541;88182717
33468543;88182742
33468544;88182749
33468546;88182764
33468549;88182766
33468550;88182767
33468551;88182768
33468553;88182770
33468554;88182771
33468555;88182772
33468557;88182774
33468558;88182775
33468563;88182802
33468565;88182815
33468567;88182831
33468568;88182833
33468569;88182834
33468570;88182841
33468572;88182853
33468573;88182854
33468574;88182857
33468575;88182864
33468577;88182878
33468579;88182892
33468581;88182894
33468582;88182895
33468587;88182901
33468591;88182905
33468593;88182911
33468595;88182914
33468597;88182917
33468598;88182919
33468605;88182927
33468606;88182928
33468611;88182942
33468613;88182953
33468616;88182969
33468617;88182973
33468618;88182979
33468621;88182994
33468624;88183011
33468625;88183014
33468626;88183022
33468628;88183036
33468634;88183053
33468637;88183056
33468639;88183058
33468645;88183064
33468650;88183102
33468652;88183118
33468653;88183123
33468662;88183152
33468663;88183154
33468664;88183162
33468665;88183169
33468667;88183180
33468669;88183193
33468670;88183201
33468674;88183215
33468676;88183217
33468677;88183218
33468679;88183220
33468681;88183222
33468683;88183224
33468684;88183225
33468685;88183226
33468686;88183227
33468689;88183230
33468691;88183232
33468696;88183238
33468697;88183239
33468699;88183241
33468700;88183242
33468705;88183518
33468707;88183520
33468708;88183521
33468709;88183522
33468710;88183523
33468713;88183526
33468714;88183527
33468717;88183530
33468720;88183533
33468722;88183535
33468730;88183543
33468733;88183546
33468736;88183549
33468737;88183550
33468738;88183551
33468739;88183552
33468741;88183554
33468742;88183555
77017871;88186553
77017873;88186562
77017872;88186563
77017874;88186579
77017875;88186580
77017877;88186583
77017878;88186613
77017879;88186614
33420725;88187276
33420729;88187277
33333207;88187473
77024309;88192084
77024304;88192263
33432828;88192369
33432825;88192381
33432913;88192402
77024306;88192536
77009134;88192888
77009720;88192954
77009721;88192955
77009723;88192958
77009768;88192968
77009773;88192972
77009508;88193020
77009510;88193021
77009525;88193022
77009777;88193036
77009822;88193039
77009821;88193040
33414738;88193042
77009839;88193043
77009846;88193044
77009189;88193046
77009913;88193068
77009927;88193070
77009921;88193071
77009945;88193074
77009946;88193076
77009948;88193077
77009964;88193080
77009973;88193082
77009596;88193084
77009600;88193088
77009598;88193089
77009605;88193094
77009620;88193097
77009623;88193098
77009635;88193099
77009496;88193155
77009501;88193156
77009500;88193160
77009574;88193196
77009576;88193197
77009586;88193199
77009662;88193202
77009666;88193210
77009674;88193211
77009675;88193213
77009676;88193214
77009677;88193215
77009678;88193216
77009687;88193221
77009188;88193293
77009198;88193309
77009199;88193310
77009208;88193377
77009236;88193406
77009222;88193407
77009248;88193423
77009255;88193438
77009269;88193445
77009297;88193446
77009298;88193447
77009287;88193449
77009289;88193450
77009291;88193451
77009301;88193452
77009302;88193453
77009303;88193454
33333213;88199194
33333447;88204635
77016770;88209429
33300342;88213280
33300836;88213281
33300752;88213282
33300874;88213283
33301024;88213284
33301053;88213285
33301115;88213286
33301211;88213287
33301187;88213288
33301233;88213289
33300964;88213290
33301252;88213291
33301429;88213292
33301919;88213294
33003487;88213317
33003588;88213318
33003593;88213319
33300333;88213320
33300329;88213321
33300337;88213322
33300359;88213323
33300485;88213324
33300773;88213325
33300780;88213326
33300789;88213327
33300800;88213328
33300803;88213329
33300838;88213330
33300833;88213331
33300845;88213332
33300847;88213333
33300860;88213334
33300865;88213335
33300862;88213336
33300866;88213337
33300864;88213338
33300889;88213339
33300890;88213340
33300897;88213341
33300911;88213342
33300917;88213343
33300952;88213344
33300961;88213345
33300963;88213346
33300967;88213347
33300975;88213348
33300979;88213349
33300994;88213350
33300993;88213351
33300996;88213352
33300998;88213353
33301007;88213354
33301025;88213355
33301027;88213356
33301033;88213357
33301036;88213358
33301042;88213359
33301045;88213360
33301054;88213361
33301068;88213362
33301090;88213363
33301098;88213364
33301100;88213365
33301120;88213366
33301122;88213367
33301145;88213368
33301132;88213369
33301163;88213370
33301166;88213371
33301189;88213372
33301190;88213373
33301200;88213374
33301204;88213375
33301237;88213376
33301238;88213377
33301240;88213378
33301242;88213379
33301246;88213380
33301212;88213381
33301250;88213382
33301220;88213383
33301216;88213384
33301224;88213385
33301222;88213386
33301227;88213387
33301228;88213388
33301251;88213389
33301262;88213390
33301255;88213391
33301263;88213392
33301277;88213393
33301283;88213394
33301286;88213395
33301353;88213396
33301367;88213397
33301366;88213398
33301382;88213399
33301439;88213400
33301464;88213401
33301908;88213402
33301914;88213403
33301951;88213404
33301969;88213405
33301972;88213406
33301980;88213407
33301998;88213408
33301999;88213409
33302003;88213410
77009304;88215266
77009306;88215267
77009321;88215268
77009340;88215269
77009339;88215270
77009338;88215271
77009329;88215272
77009358;88215273
77009352;88215274
77009343;88215275
77009369;88215276
77009367;88215277
77009365;88215278
77009363;88215279
77009360;88215280
77009374;88215283
77009382;88215284
77009378;88215285
77009389;88215286
77009383;88215287
77009413;88215291
77009415;88215292
77009431;88215308
77009435;88215309
77009436;88215310
77009437;88215311
77009455;88215316
77009466;88215319
77009469;88215326
77009477;88215330
77009478;88215333
77009486;88215337
77009530;88215338
77009692;88215367
77009701;88215395
77010092;88215506
77010109;88215512
77010112;88215514
77010053;88215518
77010050;88215519
77010060;88215520
77010063;88215522
77010070;88215523
77010090;88215526
77009983;88215962
77009993;88215973
77009995;88215975
77009996;88215976
77009998;88215977
77009989;88215978
33332973;88216813
77002702;88217429
77005070;88217467
77002616;88217561
77002637;88217562
77002642;88217563
77002646;88217564
77002665;88217565
77002687;88217566
77002693;88217567
77002726;88217568
77002747;88217569
77002791;88217570
77002853;88217571
77002867;88217572
77002868;88217573
77004348;88217574
77004327;88217575
77004354;88217576
77004359;88217577
77004363;88217578
77004368;88217579
77004369;88217580
77004374;88217581
77004900;88217582
77004991;88217583
77004994;88217584
77005044;88217585
77005012;88217586
77006393;88217587
77006415;88217588
77006429;88217589
77006430;88217590
77006443;88217591
77006446;88217592
77006458;88217593
77006460;88217594
77006506;88217595
77006500;88217596
77006512;88217597
77006537;88217598
77006538;88217599
77006546;88217600
77006576;88217601
77010003;88219422
77010025;88219426
77010130;88219487
77010134;88219489
77010131;88219490
77010146;88219491
77010135;88219492
77010154;88219493
77010151;88219494
77010156;88219495
77010157;88219496
77010167;88219498
77010170;88219499
77010172;88219508
77010186;88219515
77010180;88219519
77010195;88219524
77010198;88219525
77010201;88219526
77010205;88219527
77010203;88219529
33333239;88220312
33426474;88224443
77024274;88225003
33329112;88226210
33329157;88226211
33329194;88226213
33329197;88226214
33329341;88226215
33329438;88226216
33329335;88226217
33329639;88226218
33329641;88226219
33329604;88226220
33329681;88226221
33329694;88226222
33329484;88226223
33329696;88226224
33327738;88226226
33327735;88226227
33327785;88226228
33327784;88226229
33327779;88226230
33327824;88226231
33327909;88226232
33327906;88226233
33327893;88226234
33327891;88226235
33327888;88226236
33327878;88226237
33327943;88226238
33327940;88226239
33327935;88226240
33327918;88226241
33327917;88226242
33328030;88226243
33328257;88226244
33328590;88226245
33328655;88226246
33328688;88226247
33328765;88226248
33329031;88226249
33329033;88226250
33329028;88226251
33329036;88226252
33329037;88226253
33329038;88226254
33329039;88226255
33329043;88226256
33329051;88226257
33329054;88226258
33329061;88226259
33329063;88226260
33329074;88226261
33329069;88226262
33329076;88226263
33329077;88226264
33329080;88226265
33329079;88226266
33329078;88226267
33329082;88226268
33329083;88226269
33329088;88226270
33329092;88226271
33329093;88226272
33329096;88226273
33329095;88226274
33329100;88226275
33329099;88226276
33329097;88226277
33329101;88226278
33329109;88226279
33329111;88226280
33329108;88226281
33329113;88226282
33329116;88226283
33329119;88226284
33329118;88226285
33329122;88226286
33329123;88226287
33329126;88226288
33329125;88226289
33329130;88226290
33329132;88226291
33329135;88226292
33329140;88226293
33329139;88226294
33329142;88226295
33329136;88226296
33329141;88226297
33329144;88226298
33329143;88226299
33329148;88226300
33329150;88226301
33329149;88226302
33329154;88226303
33329158;88226304
33329155;88226305
33329166;88226306
33329164;88226307
33329167;88226308
33329168;88226309
33329174;88226310
33329179;88226311
33329183;88226312
33329184;88226313
33329188;88226314
33329189;88226315
33329190;88226316
33329193;88226317
33329196;88226318
33329199;88226319
33329198;88226320
33329202;88226321
33329201;88226322
33329200;88226323
33329203;88226324
33329205;88226325
33329207;88226326
33329213;88226327
33329209;88226328
33329212;88226329
33329216;88226330
33329219;88226331
33329220;88226332
33329222;88226333
33329217;88226334
33329223;88226335
33329226;88226336
33329227;88226337
33329225;88226338
33329231;88226339
33329228;88226340
33329232;88226341
33329229;88226342
33329234;88226343
33329236;88226344
33329240;88226345
33329235;88226346
33329244;88226347
33329239;88226348
33329245;88226349
33329241;88226350
33329291;88226351
33329306;88226352
33329307;88226353
33329313;88226354
33329315;88226355
33329324;88226356
33329314;88226357
33329320;88226358
33329334;88226359
33329344;88226360
33329347;88226361
33329351;88226362
33329359;88226363
33329366;88226364
33329340;88226365
33329343;88226366
33329367;88226367
33329368;88226368
33329369;88226369
33329371;88226370
33329377;88226371
33329378;88226372
33329383;88226373
33329384;88226374
33329388;88226375
33329393;88226376
33329406;88226377
33329408;88226378
33329407;88226379
33329410;88226380
33329415;88226381
33329414;88226382
33329422;88226383
33329448;88226384
33329450;88226385
33329458;88226386
33329457;88226387
33329467;88226388
33329470;88226389
33329472;88226390
33329489;88226391
33329496;88226392
33329502;88226393
33329509;88226394
33329515;88226395
33329520;88226396
33329519;88226397
33329528;88226398
33329526;88226399
33329532;88226400
33329537;88226401
33329535;88226402
33329539;88226403
33329540;88226404
33329543;88226405
33329544;88226406
33329545;88226407
33329551;88226408
33329559;88226409
33329552;88226410
33329561;88226411
33329560;88226412
33329564;88226413
33329573;88226414
33329578;88226415
33329586;88226416
33329587;88226417
33329591;88226418
33329593;88226419
33329598;88226420
33329596;88226421
33329601;88226422
33329599;88226423
33329603;88226424
33329607;88226425
33329610;88226426
33329615;88226427
33329618;88226428
33329621;88226429
33329622;88226430
33329623;88226431
33329619;88226432
33329627;88226433
33329629;88226434
33329631;88226435
33329637;88226436
33329632;88226437
33329638;88226438
33329667;88226439
33329645;88226440
33329680;88226441
33329683;88226442
33329685;88226443
33329684;88226444
33329679;88226445
33329687;88226446
33329686;88226447
33329697;88226448
33329699;88226449
33329698;88226450
33329700;88226451
33329702;88226452
33329713;88226453
33329712;88226454
33329716;88226455
33329718;88226456
33329721;88226457
33329725;88226458
33329731;88226459
33329734;88226460
33329733;88226461
33329737;88226462
33329740;88226463
33329741;88226464
33329744;88226465
33329743;88226466
33329747;88226467
33329751;88226468
33329749;88226469
33329754;88226470
33329755;88226471
33329756;88226472
33329748;88226473
33329757;88226474
33329773;88226475
33329774;88226476
33329845;88226477
33330038;88226478
33330037;88226479
33330090;88226480
33330092;88226481
33330411;88226482
33330240;88226483
33330744;88226484
33330740;88226485
33330754;88226486
33330762;88226487
33310373;88227841
33310513;88227842
33318206;88227843
33318191;88227844
33318859;88227845
33318867;88227846
33318918;88227847
33318941;88227848
33319152;88227849
33318739;88227850
33319177;88227851
33318933;88227852
33319591;88227853
33319566;88227854
33319807;88227855
33319970;88227856
33319555;88227857
33319520;88227858
33319349;88227859
33310353;88227865
33310360;88227866
33310367;88227867
33310376;88227868
33310371;88227869
33310463;88227870
33310490;88227871
33310475;88227872
33310503;88227873
33310509;88227874
33310511;88227875
33310514;88227876
33310543;88227877
33310546;88227878
33310551;88227879
33317978;88227880
33317984;88227881
33317986;88227882
33317989;88227883
33317988;88227884
33317990;88227885
33317992;88227886
33317998;88227887
33317999;88227888
33318147;88227889
33318150;88227890
33318153;88227891
33318152;88227892
33318155;88227893
33318158;88227894
33318165;88227895
33318169;88227896
33318172;88227897
33318170;88227898
33318174;88227899
33318180;88227900
33318178;88227901
33318182;88227902
33318192;88227903
33318195;88227904
33318196;88227905
33318194;88227906
33318200;88227907
33318712;88227908
33318716;88227909
33318719;88227910
33318720;88227911
33318721;88227912
33318730;88227913
33318738;88227914
33318737;88227915
33318742;88227916
33318753;88227917
33318759;88227918
33318762;88227919
33318767;88227920
33318763;88227921
33318770;88227922
33318773;88227923
33318783;88227924
33318786;88227925
33318796;88227926
33318785;88227927
33318789;88227928
33318798;88227929
33318799;88227930
33318809;88227931
33318811;88227932
33318815;88227933
33318819;88227934
33318818;88227935
33318826;88227936
33318827;88227937
33318832;88227938
33318828;88227939
33318837;88227940
33318838;88227941
33318840;88227942
33318842;88227943
33318844;88227944
33318846;88227945
33318848;88227946
33318849;88227947
33318836;88227948
33318860;88227949
33318856;88227950
33318866;88227951
33318868;88227952
33318880;88227953
33318913;88227954
33318915;88227955
33318924;88227956
33318926;88227957
33318929;88227958
33318935;88227959
33318934;88227960
33318952;88227961
33318957;88227962
33318955;88227963
33318962;88227964
33318969;88227965
33318971;88227966
33318967;88227967
33318965;88227968
33318942;88227969
33319180;88227970
33319185;88227971
33319149;88227972
33319147;88227973
33319151;88227974
33319148;88227975
33319155;88227976
33319158;88227977
33319159;88227978
33319161;88227979
33319163;88227980
33319170;88227981
33319166;88227982
33319233;88227983
33319235;88227984
33319258;88227985
33319259;88227986
33319264;88227987
33319265;88227988
33319257;88227989
33319268;88227990
33319269;88227991
33319270;88227992
33319271;88227993
33319274;88227994
33319278;88227995
33319280;88227996
33319279;88227997
33319285;88227998
33319291;88227999
33319297;88228000
33319298;88228001
33319300;88228002
33319304;88228003
33319317;88228004
33319319;88228005
33319324;88228006
33319322;88228007
33319341;88228008
33319348;88228009
33319355;88228010
33319360;88228011
33319367;88228012
33319368;88228013
33319371;88228014
33319375;88228015
33319379;88228016
33319381;88228017
33319377;88228018
33319385;88228019
33319396;88228020
33319398;88228021
33319397;88228022
33319399;88228023
33319404;88228024
33319401;88228025
33319402;88228026
33319406;88228027
33319403;88228028
33319405;88228029
33319412;88228030
33319416;88228031
33319413;88228032
33319420;88228033
33319419;88228034
33319418;88228035
33319422;88228036
33319431;88228037
33319432;88228038
33319430;88228039
33319435;88228040
33319433;88228041
33319441;88228042
33319440;88228043
33319557;88228044
33319558;88228045
33319522;88228046
33319530;88228047
33319529;88228048
33319537;88228049
33319548;88228050
33319550;88228051
33319584;88228052
33319586;88228053
33319630;88228054
33319773;88228055
33319811;88228056
33319815;88228057
33319875;88228058
33319962;88228059
33319972;88228060
33319971;88228061
33319973;88228062
33319980;88228063
33319981;88228064
33319987;88228065
33319991;88228066
33319993;88228067
33319992;88228068
33320009;88228069
33320021;88228070
33320368;88228071
33320421;88228072
33320422;88228073
33320443;88228074
33320463;88228075
33320476;88228076
33320468;88228077
33320508;88228078
33321242;88228079
33327725;88228080
33321586;88228082
77016340;88247539
77017724;88247548
77017727;88247550
77017728;88247551
77017730;88247552
77017736;88247566
77017739;88247569
77017742;88247594
77017744;88247595
77017746;88247596
77017760;88247599
77017767;88247601
77017776;88247608
77017782;88247612
77017785;88247614
77017794;88247615
77017788;88247616
77017800;88247624
77017830;88247626
77017808;88247627
77017835;88247628
77017843;88247629
77017844;88247630
77017846;88247631
77017847;88247632
77017854;88247633
77017856;88247634
77017857;88247635
77017858;88247636
77017860;88247637
77017862;88247638
77017863;88247639
77016858;88247989
77016861;88247990
77016862;88247991
77016931;88247999
77016934;88248000
77016956;88248001
77016958;88248002
77016995;88248003
77016996;88248004
33333671;88251144
33333761;88251797
33333489;88262975
33333603;88285066
33333654;88285169
33333704;88291344
33333700;88291346
33333702;88291347
33333701;88291348
33333699;88291349
33440195;88291366
33459578;88327204
33333566;88429500
33333811;88436991
