NUMERO_POLICES;NUMERO_QUITTANCE
31256657;88344921
31256659;86033455
31254379;88323788
31256660;88344927
31256661;88344930
31256662;88344929
31256663;88344931
31256664;88344953
31256665;88344979
31256668;88344922
31256671;88344923
31256672;88344924
31256673;88344940
31256676;88344925
31256699;86033608
76905725;88218505
31256700;88344971
31256701;88344945
31256702;88345010
31256715;88344969
31256716;88345028
31256756;88345044
31256760;88345008
31256763;88345043
31256771;88345073
31256772;88345000
31256773;88345056
31256774;88345001
31256777;88345003
31256778;88345004
31256779;88345072
31256784;88345015
31256786;88345016
31256787;88345054
31256788;88345017
31256789;88345039
31256792;88345018
31256793;88345081
31256795;88345055
31256796;88345041
31256798;88345023
31256801;88345025
31256802;88345036
31256804;88345026
31256816;88345085
31256818;88345034
31256819;88345086
31256830;88345099
31256835;88345047
31256836;88345066
31256838;88345053
31256839;88345101
31256842;88345057
31256844;88345060
31256845;88345062
31256851;88345061
31256872;88345078
31256876;88345089
31256877;88345090
31256878;88345091
31256879;88345106
31256885;88345135
31256887;88345093
31256893;88345133
31256896;86034068
21858204;88345954
31256916;88345112
31256932;88345127
31256946;88345130
31256947;88345131
31256951;88345161
31256952;88345164
31256956;88345138
31256958;88345139
31256959;88345159
31256967;88345163
31256976;88345145
31256980;88345149
31256985;88345181
31256986;88345150
31256990;88345195
31256994;88345172
31256995;88345155
31257009;88345387
31257010;88345385
31257021;88345406
31257024;88345407
31257025;88345392
31257037;88345412
31257044;88345400
31257045;88345413
26013153;88345401
26013154;88345402
21857496;88345434
21857497;88345417
21857498;88345418
21857499;88345433
21857512;88345446
21857519;88345439
21857528;88345426
21857530;88345440
21857536;88345441
21857554;88345465
21857574;88345460
21857596;88345484
21857597;88345490
21857599;88345493
21857601;88345494
21857604;88345503
21857614;88345507
21857632;88345520
21857641;88345523
21857642;88345524
21857651;88345529
21857653;88345525
21857660;88345573
21857671;88345548
21857686;88345568
21857690;88345567
21857692;88345589
21857693;88345574
21857694;88345554
21857700;88345575
21857701;88345558
21857702;88345570
21857703;88345604
21857704;88345559
21857712;88345562
21857713;88345569
21857715;88345576
21857716;88345606
21857717;88345581
21857718;88345612
21857719;88345582
21857720;88345608
21857722;88345609
21857729;88345614
21857730;88345588
21857732;88345605
21857733;88345583
21857735;88345584
21857736;88345585
21857737;88345596
21857738;88345598
21857739;88345597
21857740;88345599
21857742;88345613
21857746;88345615
21857747;88345593
21857753;88345600
21857754;88345617
21857766;88345629
21857772;88345625
21857776;88345626
21857780;88345649
21857781;88345637
21857782;88345646
21857783;88345659
21857784;88345635
21857785;88345636
21857786;88345647
21857787;88345648
21857788;88345658
21857789;88345638
21857790;88345645
21857795;88345642
21857811;88345657
21857813;88345682
21857814;88345656
21857815;88345663
21857817;88345654
21857818;88345655
21857819;88345664
21857823;88345670
21857825;88345673
21857826;88345691
21857827;88345674
21857829;88345678
21857831;88345676
21857832;88345694
21857835;88345693
21857836;88345680
21857837;88345671
21857838;88345672
21857839;86065107
21858205;88345955
21857840;88345679
21857842;88345687
21857843;88345681
21857844;88345690
21857845;88345683
21857849;88345686
21857850;88345695
21857853;88345696
21857854;88345714
21857862;88345711
21857868;88345709
21857906;88345736
21857912;88345754
21857913;88345739
21857914;88345763
21857926;88345748
21857927;88345775
21857928;88345745
21857934;88345776
21857938;88345751
21857946;88345758
21857960;88345767
21857963;88345768
21857965;88345770
21857969;88345773
21857971;88345803
21857975;88345783
21857976;88345779
21857978;88345780
21857981;88345804
21857987;88345805
21857988;88345782
21857989;88345819
21858004;88345811
21858005;88345795
21858006;88345808
21858008;88345822
21858012;88345799
21858013;88345831
21858024;88345807
21858029;88345812
21858030;88345813
21858040;88345825
21858050;88345849
21858051;88345835
21858059;88345839
21858064;88345852
21858065;88345874
21858068;88345864
21858069;88345853
21858077;88345856
21858078;88345869
21858087;88345861
21858090;88345859
21858102;88345879
21858104;88345889
21858105;88345891
21858106;88345880
21858108;88345885
21858109;88345892
21858111;88345881
21858115;88345882
21858116;88345884
21858121;88345913
21858123;88345911
21858124;88345906
21858125;88345887
21858136;88345900
21858146;88345908
21858147;88345907
21858149;88345909
21858151;88345910
21858164;88345917
21858178;88345960
21858184;88345932
21858187;86065576
76905733;88218506
21858188;88345934
21858189;88345947
21858201;88345972
21858206;88345956
21858208;88345943
21858218;88345965
21858225;88345985
21858227;88345983
21858230;88345987
21858231;88345968
21858233;88345986
21858234;88345969
21858237;88345989
21858241;88345992
21858244;88345973
21858245;88346011
21858246;88345974
21858247;88345988
21858248;88346006
21858249;88345990
21858250;88345991
21858251;88346025
21858252;88346005
21858257;88345981
21858258;88345995
21858259;88345976
21858260;88345975
21858261;88345977
21858267;88346026
21858268;88345998
21858276;88346002
21858281;88346013
21858282;88346014
21858286;88346035
21858287;88346016
21858288;88346017
21858298;88346024
21858302;88346029
21858306;88346040
21858314;88346052
21858315;88346054
21858316;88346033
21858319;88346053
21858320;88346066
21858342;88346063
21858344;88346055
21858346;88346060
21858349;88346077
21858350;88346059
21858354;86065754
76905734;88218507
21858355;88346074
21858356;88346057
21858358;88346058
21858364;88346073
21858368;88346105
21858370;88346103
21858374;88346083
21858377;88346104
21858378;88346087
21858381;88346088
21858382;88346090
21858386;88346097
21858396;86065796
21858397;88346091
76905765;88218508
21858408;88346122
21858410;88346130
21858418;88346109
21858419;88346155
21858420;88346131
21858430;88346137
21858431;88346114
21858434;88346153
21858437;88346116
21858439;88346117
21858443;88346118
21858454;88346119
21858463;88346156
21858465;86070977
76905767;88218509
21858466;88346140
21858469;88346141
21858471;88346144
21858472;88346145
21858475;88346146
21858477;88346147
21858479;88346149
21858482;88346150
21858485;88346163
21858491;86071073
31235628;88294013
24612449;88346189
24612454;88346180
24612455;88346181
24612475;88346214
24612476;86071524
76905778;88218510
24612477;88346193
24612478;88346213
24612487;88346216
24612488;88346212
24612500;88346224
24612501;88346245
24612502;88346230
24701755;88346244
24612503;88346220
24612506;88346218
24612546;88346246
24612560;88346263
24612571;88346257
24612581;88346258
24612600;88346282
24612623;88346292
24612624;86072116
76905781;88218511
24612625;88346302
24612626;88346293
24612628;86072129
16837344;86025075
24612629;88346319
24612630;88346312
24612633;88346300
24612635;86072151
21858399;86065799
24612644;88346325
24612648;88346307
33465558;86080386
33465852;86080882
21858496;88440859
16837580;86083421
16837667;86083508
76905789;88218512
16837672;86083513
76905798;88218513
16837695;86083536
76905883;88218519
16837699;86083540
76905813;88218514
16837702;86083543
76905888;88218517
16837731;86083572
76905816;88218515
21858498;88440873
21858502;88440878
21858510;88440881
21858515;88440886
21858516;88440895
21858538;88440906
21858542;88440901
21858543;88440916
21858544;88440909
21858545;88440902
21858546;88440914
21858547;88440911
21858548;88440903
21858551;86099828
76905891;88218518
21858552;88440908
21858554;88440912
21858558;88440918
21858579;88440933
21858580;88440931
21858585;88440932
21858590;88440940
21858595;88446173
21858597;88446174
21858599;88446175
21858607;88446185
21858608;88446178
21858609;88446179
21858616;88446186
21858618;88446187
21858619;88446195
21858621;88446191
21858623;88446189
21858627;88446192
21858631;88446211
21858638;88446201
21858641;88446203
21858645;88446204
21858647;88446215
21858653;88446216
21858656;88446209
21858657;88446217
21858658;88446208
21858660;88446212
21858661;88446221
21858665;88446219
21858668;88446213
21858671;88446232
21858672;88446223
21858675;88446231
21858677;88446225
21858684;88446235
21858685;88446228
21858686;88446234
21858688;88446245
21858697;88446240
21858701;88446243
21858702;88446244
21858707;88446266
21858708;88446249
21858709;88446267
21858710;88446250
21858723;88446263
21858727;88446269
21858759;88446305
21858760;88446292
21858770;88446299
21858771;88446304
21858783;88446321
21858804;88446325
21858805;88446338
21858814;88446330
21858823;88446346
21858824;88446347
21858827;88446334
21858828;88446353
21858829;88446336
21858830;88446352
21858833;88446355
21858837;88446359
21858847;88446363
21858849;88446364
21858857;88446381
21858864;88446377
21858865;88446386
21858866;88446379
21858868;88446397
21858875;88446392
21858881;88446391
21858887;88446400
26013162;88446419
26013163;86104814
76905894;88218520
26013164;88446418
26013174;88446448
31257056;88446410
31257063;88446413
31257064;88446450
31257065;88446414
31257071;88446447
31257072;88446432
31257073;88446451
31257074;88446433
31257075;88446438
31257084;88446471
31257086;88446474
31257101;88446463
31257107;88446489
31257122;88446507
31257123;88446485
31257124;88446506
31257135;88446498
31257172;88446522
31257182;88446529
31257183;88446530
31257184;88446531
31257185;88446557
21858888;86105526
21832919;88239898
24612667;88446652
24612669;88446670
24612670;88446607
33465995;86109331
21858207;88345941
33466040;86109376
21856784;88340680
33466086;86109423
76905929;88218522
21858891;88446823
21858904;88446887
21858912;88446908
21858913;88446910
21858916;88446912
21858918;88446911
21858923;88446890
21858925;88446891
21858927;88446892
21858929;88446944
21858942;88446914
21858943;88446916
21858949;88446968
21858951;88446969
21858955;88446933
21858958;88446967
21858962;88446946
21858969;88446935
21858973;88446970
21858974;88446937
21858977;88446939
21858979;88446941
21858984;88446955
21858985;88446947
21858997;88446952
21859000;88446953
21859002;88446960
26013204;88446978
26013208;88447004
31257226;88447005
31257242;88447011
31257243;88446989
31257250;88446994
31257252;88447023
31257260;88447028
31257263;88447024
31257278;88447016
31257291;88447031
31257309;88447039
31257311;88447037
21859017;88447245
21859036;88447276
21859043;88447292
21859050;88447271
21859051;88447289
21859053;88447293
21859060;88447287
21859061;88447280
21859063;88447282
21859066;88447285
21859072;88447314
21859074;88447326
21859094;88447332
21859096;88447308
21859097;88447331
21859108;88447315
21859112;88447320
21859131;88447348
21859134;88447350
26013216;88447377
26013230;88447373
31257338;88447397
31257345;88447423
31257347;88447408
31257350;88447430
31257368;88447424
31257376;88447417
31257377;88447440
33466294;86163279
33466299;86163284
16838290;88445083
21859176;88445635
21859178;88445637
21859188;88444591
21859208;88444603
21859218;88444610
21859221;88444613
21859234;88444632
21859235;88444622
21859242;88444618
21859243;88444634
21859246;88446022
21859247;88445990
21859253;88446018
21859257;88445994
21859274;88446036
21859279;88446044
24612727;88446039
24612728;88446038
24612732;88446053
24701789;88446050
24701790;88443499
31257422;88443502
31257423;88443503
31257424;88443504
31257425;88443505
31257426;88443516
31257427;88443506
31257433;88443533
31257440;88443517
31257441;88443518
31257442;88443519
31257443;88443534
31257446;88443553
31257463;88443530
31257476;88443539
31257477;88445232
31257479;88443549
31257484;88443543
31257485;88445225
31257504;88445221
31257505;88445239
31257506;88445222
31257513;88445220
31257514;88445235
31257522;88445250
31257542;88444403
31257555;88444408
31257556;88444421
31257557;88444413
31257584;88445754
31257601;88445762
26013252;88266191
26013268;88270952
21859315;88270965
21859351;88266887
21859358;88266889
21859370;88266878
21859376;88266879
21859392;88266912
21859393;88266901
21859398;88266905
21859403;88267418
21859416;88266909
21859426;88267425
21859428;88267433
31257613;88267436
31257614;88267435
21859431;88267437
31257619;88265223
31257638;88270234
31257640;88270235
31257642;88270237
31257653;88270673
31257657;88270245
31257658;88270681
31257659;88270244
31257675;88270680
31257676;88270247
21859455;88270683
21859465;88268336
21859476;88268356
21859477;88268357
21859483;88270687
21859487;88270712
21859562;88266005
21859592;88270002
21859593;88270003
21859594;88270006
21859595;88270026
33466679;86788677
31257699;88268228
31257709;88268231
31257728;88268223
31257729;88268225
31257735;88268221
31257736;88268224
31257739;88268243
31257752;88268248
31257753;88268252
31257754;88268249
31257763;86789364
31256629;88344900
24612784;88267464
24612787;86789648
16838563;86790446
21859609;88266306
21859610;88266295
21859613;88266297
21859616;88266301
21859617;88265348
21859621;88265339
21859624;88266302
21859625;88265342
21859628;88266309
21859640;88265331
21859641;88265333
21859643;88265334
21859644;88265354
21859647;88265330
21859658;88265360
21859661;88265368
21859662;88265345
21859665;88265346
21859672;88265369
21859694;88266810
21859702;88270169
21859704;88270167
21859705;88270186
21859707;88270180
21859710;88270184
21859717;88270178
21859718;88270179
21859719;88270205
21859720;88270188
21859723;88270192
21859725;88270193
21859732;88270207
21859734;88270195
21859735;88270219
21859757;88270225
21859758;88270209
21859760;88270223
21859770;88270208
21859773;88270227
21859776;88270985
21859781;88266317
21859786;88266326
21859810;88266348
21859814;88266331
21859815;88266364
21859817;88266363
21859820;88266334
21859821;88266336
21859824;88266365
21859826;88266362
21859827;88266345
21859828;88271017
21859833;88160139
21859834;88266361
21859837;88271020
21859838;88266349
21859840;88266350
21859844;88266360
21859845;88266352
21859847;88271018
21859851;88266359
21859852;88271019
21859853;88266355
21859857;88271031
21859858;88266356
21859859;88271012
21859861;88270991
21859872;88271014
21859875;88271027
21859885;88271064
21859897;88271035
21859899;88271037
21859908;88271049
21859910;88271052
21859911;88271051
21859912;88271053
21859916;88271058
21859926;88271062
21859927;88271074
21859929;88266482
21859931;88271068
21859945;88266485
21859947;88266486
21859950;88266496
21859956;88266498
21859957;88266487
21859958;88266488
21859976;88266503
21859979;88266522
21859981;88266516
21859986;88266518
21859988;88266508
21859989;88266523
21859992;88266511
21860005;88375624
21860012;88375633
31257774;88375630
31257777;88271010
31257789;88375649
31257797;88375644
31257799;88375637
31257800;88375671
31257801;88375638
31257809;88375674
31257813;88375643
31257825;88375668
31257826;88375677
31257846;88375662
31257847;88375690
31257853;88266562
31257858;88375682
31257862;88266564
31257863;86879246
31257864;88266548
31257867;88266563
31257872;88375688
31257876;88375689
31257877;88266576
31257881;88266556
31257952;88269215
31257986;88269201
31257988;88269213
26013301;88381002
26013303;88381001
26013318;88377903
26013335;88377908
24612817;88381047
24612832;88381033
24612833;88381053
24612841;88381054
26013337;88385947
26013344;88383575
31258001;88385944
31258002;88383569
31258004;88385941
31258005;88383571
31258009;88383577
21860023;88385956
21860026;88385954
21860027;88385967
21860028;88385959
21860029;88385969
21860034;88385968
21860036;88385962
21860053;88378886
21860054;88378879
16838722;86901216
16838783;86901301
24612856;88378091
24701816;88378089
16838865;87240638
21860062;88384395
21860064;88377045
21860076;88384400
21860096;88377032
21860099;88377043
21860110;88377053
21860112;88377039
21860114;88377052
21860120;88377038
21860161;88376800
21860166;88376808
21860176;88376793
21860177;88376794
21860180;88376795
21860182;88376796
24612862;88382035
24612868;88382038
24612870;88382018
24701820;88382022
31258041;88381193
31258047;88382021
31258063;88382027
31258089;88382060
31258093;88382062
31258094;88382067
31258099;88382083
31258100;88382063
26013359;88382079
26013360;88386534
26013364;88386541
21860202;88377778
21860206;88377781
21860212;88380810
21860232;88380817
21860233;88380818
21860240;88380840
26013371;88379082
26013372;88379098
31258120;88379103
31258147;88379095
31258154;87310593
31258162;88379104
31258163;87310610
16838957;87383599
16838975;87383625
16839050;87383721
31242271;88249521
21860264;88387374
21860266;88387372
21860270;88379133
21860272;88379121
21860276;88379148
21860277;88379131
21860280;88379144
21860281;88379127
21860285;88379143
21860287;88379142
21860289;88379136
21860291;88379135
21860300;88379140
21860305;88384867
21860307;87557946
21860310;88384873
21860314;88384862
21860328;88384870
21860329;87383923
31246779;88333537
21860331;88384877
21860333;88377842
21860335;88377836
21860365;88377845
21860368;88377848
21860370;88380846
21860399;88380863
21860405;88380864
21860407;88380861
26013382;88377675
26013383;88377667
26013385;88377669
26013386;88377668
31258168;88377856
31258178;88384889
31258179;88384891
31258190;88384888
31258199;88377870
31258208;88377872
31258212;87384622
31246780;88333539
31258213;88384907
31258217;88384893
31258234;88384902
31258238;88384913
31258242;88384932
31258255;88384916
31258256;88384917
31258260;88384921
31258282;88377884
33467044;87395207
21860431;88378245
21860439;88378246
21860440;88378234
21860446;88378243
21860447;88378244
16839123;87454510
21860450;88382134
21860454;88382170
21860466;88382117
21860467;88382143
21860472;88382169
21860483;88382163
21860495;88382150
21860497;88382164
21860508;87456770
21860521;88387263
21860532;88382156
21860535;87482658
21860538;88387273
21860556;88387283
21860573;88384502
21860581;87457007
21860596;88384509
31258310;88384543
31258316;88384563
31258320;88384575
31258321;88384541
31258331;88384551
31258337;88384578
31258355;88384505
31258362;88384559
31258374;88384511
31258395;88384583
31258406;88384520
31258427;88384521
33467134;87457537
26013410;88384495
21860615;88387460
21860626;88387466
21860631;88387231
21860632;88387463
21860636;88382131
21860647;88382130
21860648;88384598
21860650;88382127
21860655;88384597
21860656;88387238
21860657;88387241
21860664;88387233
21860668;88387254
21860669;88387257
21860681;88387464
21860688;88384497
21860690;88384498
21860699;88382185
21860719;88382174
21860724;88382182
21860730;88382201
21860732;88384527
21860737;88384556
21860741;88384555
31258447;88384997
31258449;87506326
31243980;88409537
31258455;88378284
31258470;88378285
31258471;88378307
31258472;88385011
31258473;88378297
31258479;88385010
31258495;88378311
31258498;87506611
31258509;88378305
31258510;88378318
31258511;88378306
16839371;87560947
21851747;88395803
16839417;87561003
21853504;88312104
16839453;87561049
16839461;87561065
16839462;87561067
31256067;88444212
16839530;87561136
16839548;87561154
16839641;87561276
16839681;87561317
16839706;87561342
21860746;88378791
21860750;88378793
21860759;88378796
21860763;88378797
21860767;88378800
21860768;88385167
21860770;88385166
21860773;88385177
21860782;88385162
21860784;88385169
21860797;88385593
21860800;88385176
21860807;88385175
21860809;88385602
21860812;88385179
21860815;88385182
21860816;88385590
21860817;88385609
21860818;88385592
21860823;88385596
21860826;88385600
21860827;88385601
21860830;88385613
21860832;88385628
21860836;88385617
21860839;88385614
21860843;88385633
21860845;88385634
21860847;88385625
21860852;88385632
21860862;88385629
21860865;88385640
21860867;88385637
21860881;88385630
21860885;88385631
21860914;87562177
21860918;87895622
21860922;87562195
21860925;88385661
21860951;88385673
21860952;88385675
21860959;87562247
21860962;87562250
21860972;88382299
21860973;88385685
21860976;87562264
21860978;88385686
21860986;88382303
21860993;88385693
21860994;88382302
21860995;88385695
21860997;88385696
21860998;88385697
21861000;88385698
21861003;88382323
21861006;88382308
21861029;88382330
21861031;88382328
21861032;87562341
21861036;88382320
21861060;88382339
21861075;88385704
21861085;88385706
21861092;88385722
21861094;88385708
21861100;88385710
21861101;88385713
21861114;88385714
21861136;88387545
21861147;88387531
21861150;87562462
21861178;88387544
21861180;87562493
21861202;87562515
31259106;88383411
21861222;88385735
21861225;88385737
21861244;88385766
21861245;88385748
21861246;88385749
21861247;88385755
21861253;87562566
31247021;88336304
31258539;88376952
31258550;88432429
31258553;88432424
31258554;88432436
31258555;88432448
31258556;88432428
31258557;88432435
31258576;88432452
31258596;88380128
31258602;88380141
31258609;88383480
31258625;88383491
31258667;88383485
31258676;88383487
31258677;88383517
31258694;88383494
31258705;88383508
31258710;88383500
31258719;88383512
31258720;88383503
31258746;88377973
31258747;88377989
31258754;88377997
31258763;88377980
31258810;87577427
21848291;88350256
31258815;87577448
26011845;88326309
31258820;88378000
31258821;88378001
31258835;87577529
31258850;87577587
31258858;88378833
31258861;88432457
31258869;88378835
31258873;88432455
31258875;88378843
31258876;88378836
31258882;88378844
31258884;88432458
31258895;88378850
26013416;88432477
33467282;87578976
21845853;88326415
33467285;87578984
26007481;88265927
33467290;87579000
21848974;88426880
24612958;87580944
33468452;88148705
24612977;88375815
24612986;88432508
24613012;88432491
24613043;88384654
31258943;88383335
31258944;88383339
31258945;87938501
21855458;88444030
31258951;88383341
31258955;87938539
31248314;88258652
31258987;88383350
31258996;88383349
31259011;88383377
31259047;88383381
31259054;88383394
31259056;88383388
31259064;88383391
31259072;88383393
31259073;88383395
31259075;87939233
24603996;88212090
31259079;87939261
31259080;87939266
31259083;88383399
31259084;88383415
31259088;88383403
31259105;88383423
31259115;87939398
21856909;88340736
31259116;88383424
31259127;88383420
31259128;88383449
31259129;88383441
16839771;87941630
16839817;87941677
16821334;88412689
16839861;87941721
21858264;88345994
16839864;87941724
21860330;88384884
16839882;87941742
16839889;87941750
16839890;87941751
16839891;87941752
16839897;87941760
16839920;87941789
16839921;87941791
16839929;87941799
16839966;87941836
16839967;87941837
16839968;87941838
16839970;87941840
16839984;87941854
16839988;87941859
16839994;87941865
16840015;87941886
16840026;87941897
26013465;87948669
26013475;88433339
21861317;88433591
21861321;88434178
21861324;88433579
21861325;87948986
21861329;88434177
21861332;88434173
21861336;88433584
21861344;88433601
21861351;88433595
21861353;87949023
21861354;88160110
21861360;88433590
21861374;88433594
21861385;88433613
21861386;88433624
21861403;88433623
21861412;88433639
21861417;88433629
21861418;88433641
21861420;87949111
21861421;88433632
21861426;88433645
21861428;88433643
21861444;87949140
21861446;88434071
21861450;88434057
21861452;88434059
21861453;88434070
21861462;88434062
21861464;88434077
21861465;88434066
21861466;87949166
21861467;87949167
21861470;88434081
21861472;87949172
21861479;88434067
21861489;88434093
21861490;87949190
21861491;88434092
21861496;88434076
21861499;88434109
21861504;88434088
21861505;88434180
21861507;88434085
21861520;88434108
21861524;88434097
21861532;88434102
21861533;87949260
21861534;87949261
21861537;87949265
21861538;88434103
21861539;88434182
21861549;88183724
21861550;88434183
21861554;88434193
21861555;88160180
21861559;88434205
21861562;87949292
21861564;88434215
21861568;87949298
21861570;88434188
21861583;87949316
21861584;87949318
21861585;87949319
21861586;88434199
21861589;88434926
21861592;87949328
21861594;88434204
21861597;87949334
21861599;87949337
21861600;88434933
21861601;87949339
21861602;87949340
21861605;87949344
21861614;87949354
21861618;88434925
21861622;87949362
21861623;87949363
21861626;88434929
21861628;87949368
21861629;88434939
21861635;87949375
21861638;88434938
21861640;87949380
21861641;88434950
21861642;87949382
21861643;87949383
21861645;88434931
21861648;88434947
21861649;88434936
21861650;88434945
21861665;88434940
21861666;88434953
21861673;88434232
21861674;87949420
21861685;88434219
21861688;88434221
21861690;87949438
21861692;87949440
21861693;88434239
21861700;87949448
21861709;87949458
21861718;88434265
21861720;87949521
16840085;87949611
16840137;87949739
16840196;87949884
21861725;88434322
21861731;87950604
21861734;88434325
21861753;88434125
21861773;88434336
21861778;87950781
21861787;87950818
21861789;88434112
21861792;88434128
21861803;88434114
21861810;88434122
21861812;87950902
21861819;88434117
21861832;87950972
21861833;88434340
21861844;87951015
21861845;87951018
21861846;87951021
21861849;87951032
21861850;88434136
21861852;88434337
21861854;88434354
21861857;88434339
21861858;88434346
21861859;87951371
21861860;87951514
21861861;88434347
21861862;88434348
21861863;88434343
21861864;87952641
21861866;87952660
21861868;88434362
21861871;88434357
21861873;87952678
21861877;88434364
21861882;87952697
21861889;88434365
21861891;88434361
26013503;87955069
26013504;88433371
26013508;87955075
31259143;88434968
31259153;88434978
31259183;87955158
31259191;88434993
31259212;88434997
31259218;87955193
31259224;87955199
31259237;88435000
31259242;87955217
31259243;87955218
31259244;87955219
31259263;88435003
24613059;88435014
24613063;88435029
24613065;88435016
24701857;88435034
24613088;88433377
24613089;87955319
33467346;87955369
33467347;87955370
33467352;87955375
33467459;87955481
33467525;87955551
33467568;87955605
33467599;87955635
33467654;87955690
33467658;87955694
33467661;87955697
33467665;87955701
33467697;87955733
33467709;87955744
33467713;87955748
33467743;87955823
33467744;87955824
33467766;87955846
33467829;87955909
21861938;88435074
21861939;87981762
21861949;88435083
21861953;87981808
21861957;88435079
21861975;88435089
21861977;87981886
21861990;87981931
21862007;87981987
21862009;88435098
21862010;87982001
21862013;88435099
21862014;87982015
21862030;88435102
21862052;87982156
21862064;87982196
21862065;88435109
16840239;87982365
16840249;87982383
16840289;87982459
16840295;87982469
16840296;87982472
16840309;87982497
16840310;87982500
16840322;87982540
16840323;87982541
16840326;87982566
16840334;87982580
16840346;87982620
31259307;87982795
31259346;88435125
31259354;87982913
31259355;87982916
31259396;87983013
26013518;88435132
26013520;88435133
26013521;87984231
33467835;87985161
33467839;87985171
33467852;87985198
33467860;87985231
33467865;87985272
33467866;87985277
33467868;87985281
33467879;87985364
33467884;87985375
24613120;88435148
24613122;88435147
24613123;88435141
33467899;87993247
24613137;88433420
24613138;88433418
24701868;87995064
24701870;88066514
31259418;88435730
31259456;88433425
31259461;88433430
33467908;87995174
33467913;87995181
33467924;87995195
33467931;87995202
33467936;87995208
26013526;87995229
26013527;87995230
26013528;88433440
21862083;87995234
21862116;87995279
21862134;88002498
21862136;88433459
21862137;88433452
21862140;87995321
16840375;87995357
16840400;87995390
16840420;88044052
16840468;88044104
16840469;88044105
21862154;88434887
21862173;88434885
21862174;88432632
21862180;88044167
21862183;88434886
21862205;88434888
21862206;88434889
21862207;88434890
21862223;88044228
21862228;88044234
21862240;88434891
21862244;88044252
21862245;88044254
21862246;88433333
21862251;88044263
21862260;88433331
21862261;88433329
21862262;88044278
21862263;88433334
21862264;88433330
26013530;88433335
26013535;88044297
31259485;88044360
31259486;88044361
31259505;88432741
31259508;88044386
31259529;88044407
24613149;88433337
24613152;88433336
24701873;88044497
33467952;88045388
33467953;88045389
33467954;88045391
33467956;88045394
33467970;88045416
33467995;88045455
26013548;88062170
26013553;88062179
26013555;88062183
26013559;88062190
26013562;88432666
26013564;88062200
26013565;88062202
26013588;88062246
26013590;88062250
26013591;88062252
33468033;88064379
33468068;88064492
33468089;88064552
33468113;88064636
33468114;88064637
33468120;88064654
33468121;88064656
33468134;88064680
33468145;88064725
33468150;88064743
33468175;88064840
33468198;88064887
16840495;88085690
16840501;88085700
16840519;88085727
16840522;88085731
16840535;88085747
16840541;88085755
16840564;88085788
16840566;88085791
16840567;88085792
16840580;88085810
16840581;88085811
16840582;88085812
16840583;88085813
16840584;88085815
16840592;88085825
16840597;88085832
16840617;88085860
16840634;88085883
16840635;88085884
16840636;88085885
16840655;88085913
16840656;88085914
16840657;88085916
16840683;88085961
16840708;88085999
31259589;88213274
31259590;88087820
31259607;88213277
31259609;88213275
31259610;88087855
31259611;88213278
31259616;88213276
31259620;88087872
31259621;88087874
31259635;88087899
31259643;88213279
31259678;88213243
31259711;88213244
31259719;88088028
31259742;88088063
31259745;88088068
24613155;88088633
21862271;88089864
21862281;88089884
21862289;88089903
21862304;88089931
21862306;88213245
21862307;88089937
21862310;88213251
21862326;88213252
21862327;88089979
21862328;88213248
21862330;88213246
21862331;88213219
21862332;88089989
21862333;88089990
21862336;88089996
21862342;88090007
21862344;88090011
21862345;88213247
21862352;88090026
21862355;88213249
21862357;88213250
21862360;88213218
21862362;88090046
21862375;88090074
21862377;88213221
21862383;88090090
21862385;88090094
21862386;88090096
21862387;88090098
21862396;88213220
21862403;88213222
21862404;88090130
21862405;88090132
21862407;88090136
21862409;88090140
21862418;88213223
21862426;88090171
21862430;88090179
21862433;88090185
21862434;88213224
21862442;88213225
21862447;88090216
21862457;88090241
21862459;88090244
21862460;88090247
21862489;88090301
21862490;88090303
21862491;88090305
21862492;88090306
21862493;88090308
21862494;88090310
21862495;88090312
21862496;88090314
21862497;88090316
21862498;88090318
21862499;88213242
21862514;88090354
16840775;88105346
16840778;88105349
16840780;88105351
16840783;88105354
16840784;88105355
16840791;88105362
16840796;88105367
16840809;88105392
21862531;88213235
21862532;88213226
21862534;88105491
21862535;88213236
21862536;88105494
21862537;88213227
21862538;88213234
21862539;88105497
21862541;88213228
21862542;88213237
21862543;88105501
21862544;88213231
21862545;88213232
21862546;88213229
21862547;88105507
21862548;88105508
21862549;88105509
21862550;88105510
21862551;88105511
21862552;88213230
21862553;88213233
21862556;88105517
21862557;88105518
21862559;88105522
21862560;88105523
21862561;88105525
21862565;88213238
21862567;88213253
21862568;88105536
21862569;88105540
21862570;88105545
21862575;88213258
21862577;88105595
21862579;88105611
21862580;88213239
21862581;88105618
21862582;88213256
21862584;88213254
21862585;88105623
21862586;88105629
21862587;88105636
21862588;88105643
21862589;88105652
21862590;88213255
21862591;88105666
33468205;88105811
33468211;88105823
33468212;88105828
33468214;88105836
33468224;88105866
33468228;88105871
31259766;88105918
31259767;88105921
31259768;88213257
31259770;88213267
31259771;88105937
31259772;88213265
31259773;88105940
31259775;88213261
31259776;88213259
31259777;88213264
31259778;88213260
31259779;88213262
31259781;88213263
31259782;88105966
26013610;88213266
26013611;88213273
26013618;88106035
26013619;88213268
16840984;88131952
16840985;88131953
16841006;88131996
16841029;88132042
16841060;88132098
16841063;88132104
16841073;88132125
16841090;88132162
21862836;88132263
21862837;88132264
21862840;88213240
21862865;88132319
21862874;88213241
21862876;88213216
21862879;88132333
21862887;88132341
21862890;88132344
33468321;88132351
33468323;88132353
33468326;88132356
33468328;88132358
33468329;88132359
33468335;88132365
33468341;88132371
33468350;88132381
33468367;88132402
33468374;88132409
33468375;88132410
33468385;88132420
33468386;88132421
33468387;88132422
33468388;88132423
33468389;88132424
33468390;88132425
33468391;88132426
33468392;88132427
33468393;88132428
33468395;88132430
33468400;88132435
26013639;88132454
26013641;88132460
26013642;88132462
26013643;88132469
26013644;88132473
26013645;88132474
26013646;88132475
31259948;88132479
31259953;88132484
31259964;88213270
31259973;88132504
31259992;88213269
31259993;88213271
31260046;88132607
31260049;88132610
31260050;88132611
31260051;88132612
31260056;88132617
31260058;88213217
31260059;88213272
24613258;88132664
24613274;88132680
16841150;88147613
16841153;88147616
16841201;88147664
21862897;88147725
21862902;88221713
21862937;88147769
21862940;88221714
21862946;88221715
21862954;88221716
21863007;88148015
21863021;88148029
21863024;88148032
21863029;88148037
21863033;88148041
21863034;88148042
21863035;88148043
21863040;88148048
21863068;88148076
21863076;88148084
21863077;88221718
21863080;88148088
21863114;88148128
21863117;88148131
21863118;88221720
21863135;88221719
21863143;88148159
21863147;88148163
33468413;88148664
33468414;88148665
33468427;88148680
33468428;88148682
33468451;88148704
26013665;88148842
21863157;88221726
21863159;88221724
21863160;88173611
21863163;88173626
21863166;88221727
21863167;88221725
21863168;88173654
21863169;88173660
21863170;88173666
21863171;88173672
21863173;88173683
21863176;88173701
21863185;88173751
21863186;88173757
21863190;88221734
21863192;88173792
21863194;88221735
21863199;88173833
21863213;88173914
21863215;88173926
21863216;88173932
21863217;88173938
21863219;88173949
21863254;88221736
21863255;88221738
21863262;88174213
21863270;88174236
21863271;88174237
21863276;88174286
21863297;88174400
21863303;88174413
21863304;88174415
21863309;88174466
21863311;88221721
21863312;88174496
21863319;88174558
21863323;88174606
21863327;88174612
21863329;88174614
21863330;88174616
21863342;88174693
21863345;88221739
21863347;88174718
21863351;88174787
21863357;88174830
21863369;88221742
21863371;88221740
21863372;88221741
21863374;88221732
21863376;88174909
21863381;88174958
21863382;88221730
21863395;88221731
21863398;88174985
21863409;88221733
21863411;88175068
21863413;88175070
21863422;88175101
21863425;88175120
21863433;88175137
21863463;88221722
21863464;88175272
21863465;88175273
21863470;88221723
21863472;88175280
21863479;88221717
21863484;88175298
24613303;88177317
24613304;88177319
24613313;88177330
24613325;88221737
24613332;88177354
24613337;88177360
24613346;88177382
24701891;88177390
26013673;88177625
26013676;88177633
26013677;88177634
26013679;88177646
26013683;88177680
26013688;88177701
26013689;88177704
26013691;88177708
26013705;88177729
26013706;88221748
31260114;88179085
31260117;88179088
31260118;88221743
31260119;88179090
31260120;88221744
31260122;88179093
31260123;88179094
31260124;88221745
31260125;88221746
31260130;88179103
31260145;88179124
31260146;88179125
31260147;88179126
31260148;88179127
31260149;88179128
31260164;88221747
31260170;88179154
31260171;88179155
31260174;88179159
31260212;88179197
31260222;88179207
31260223;88221749
31260245;88179235
31260252;88221750
31260253;88179243
31260256;88179246
31260268;88179258
31260280;88221751
31260286;88179283
31260325;88179359
31260327;88179377
31260333;88179406
31260336;88179430
31260337;88179439
31260339;88179459
31260342;88179467
31260343;88179472
31260344;88221754
31260348;88179495
31260361;88179544
31260362;88179547
31260369;88179574
31260371;88179587
31260373;88221753
31260401;88179695
31260402;88221755
31260404;88179709
31260407;88179721
31260408;88179724
31260409;88179727
31260410;88179731
31260411;88179734
31260413;88221756
31260421;88179774
31260423;88179786
31260424;88179790
16841254;88180195
16841265;88180206
16841269;88180210
16841271;88180212
16841280;88180221
16841281;88180222
16841328;88180270
16841348;88180290
16841406;88180348
16841410;88180352
16841437;88180379
16841450;88180392
16841477;88180419
16841484;88180426
16841543;88180485
16841570;88180512
16841571;88180513
16841580;88180522
16841581;88180523
16841582;88180524
16841584;88180526
16841585;88180527
16841589;88180531
16841592;88180534
16841596;88180538
16841597;88180539
16841608;88180550
16841609;88180551
16841611;88180553
16841616;88180558
33468490;88182411
33468495;88182438
33468503;88182483
33468505;88182497
33468524;88182549
33468525;88182552
33468541;88182717
33468544;88182749
33468553;88182770
33468554;88182771
33468573;88182854
33468591;88182905
33468593;88182911
33468595;88182914
33468597;88182917
33468605;88182927
33468616;88182969
33468617;88182973
33468626;88183022
33468650;88183102
33468652;88183118
33468669;88183193
33468670;88183201
33468684;88183225
33468685;88183226
33468686;88183227
33468689;88183230
33468700;88183242
33468705;88183518
33468707;88183520
33468708;88183521
33468709;88183522
33468710;88183523
33468713;88183526
33468714;88183527
33468720;88183533
33468737;88183550
33468739;88183552
33468741;88183554
33468742;88183555
21856518;88340525
21856519;88340525
21856520;88340525
21856521;88340525
21856522;88340525
16808297;85237706
31235587;87102086
33411563;85811340
21803680;86845642
22600475;87078443
33416914;85772442
21804805;86955268
33418786;85752855
21208336;86952749
33415583;85766582
31031692;70976958
21823707;87057550
33441956;85890070
33435934;85777409
33436028;85856771
31004723;87081458
33436614;85904805
31200772;86934499
33415458;85765775
26004050;72218802
31028464;87166280
72402383;87007542
31214251;86926537
33434795;79057256
33437970;85938034
22601880;86406484
21618876;87147841
31225284;85937715
24605779;77241271
31225285;85937716
33427852;85782940
31001757;86969855
31211043;86965221
33430477;85785520
24700608;85776266
72404637;75958695
31002743;86458279
33420043;85721381
31013385;87014505
33420388;85728680
33328645;86943789
31016018;87054398
21623147;87064412
77008211;85759188
21802571;86928324
22600964;85940098
31204837;85752288
24100606;87003469
21603624;86951090
24700631;75827158
31013291;87014494
31004816;87081462
33433543;85724579
31029533;87055426
31005826;86996486
24100863;77439707
31222915;86284047
21604962;72319322
21605183;86983254
21605182;86983198
31017304;85893312
33418150;85731921
21805859;86936002
33434033;85737472
16806566;87021554
33424320;85749592
31007704;86979524
31212454;74303565
31014143;85389362
31204445;85732050
21830287;85936889
72601377;85282630
24200535;86993139
72602125;86988276
72602158;85282646
78619916;86389726
72411225;86927387
33436038;85856793
31009142;87076433
72603107;86988308
33413727;85759451
26002655;86953657
33400702;85751109
33420966;85741989
72413278;75920512
33421553;79011950
31210496;74303599
33000338;83803729
31010007;87022023
31010094;87022025
72013571;81179450
21808551;87046090
33419826;85802787
31032072;86459089
31205698;86934125
33001569;85764517
33422506;85761842
33448200;85791143
33417174;85772911
33427755;85782146
31032019;86264164
31208235;86941600
33422531;85761865
33002787;86963604
33003016;86963636
33003294;86963670
33416509;85740084
33003413;86963676
33409737;85811261
33427783;85782521
26004890;85746667
26004893;85746673
33420965;85741988
16801328;85757127
31010858;87022114
31010883;87050555
21823548;87038187
21608637;86978714
31027138;87104966
33300410;80002736
33408903;85738910
33409701;85811263
33415974;85739916
31011526;85913863
33428501;85783527
21624952;86970986
33302566;81367384
31011652;87009877
21809528;85239066
33424715;85820424
31011960;87010020
33303487;82188020
33423652;85749641
33431779;85725493
33422913;85760217
24700921;86843943
31012109;87010000
33304558;83193977
21609703;86937519
33411463;85811334
33417712;85722498
31020546;72729292
31202245;85766233
33306448;84823469
33307413;85254520
33412721;85756492
33410393;85812100
33424967;85723541
33308296;85764453
31209045;86960814
33407846;85738504
33432240;85753821
33308769;86292195
33308787;86292197
33308790;86292198
33308819;86292207
33308892;86292222
33426114;85796374
33309043;86292254
33309068;86292262
33309092;86292268
72018043;86925559
33430482;85785531
31013208;86428884
33309258;85764665
33419757;85802877
31012930;85316973
33309382;86963722
31029139;87055351
33408107;79001422
33309453;86963737
72608054;85263990
33309559;86963747
33415589;85766584
33309742;86963777
33432433;85756172
33421585;85789330
33310476;80002842
33408192;85738638
21610759;85246510
33410050;85811582
31208208;85731672
31013244;87126282
33429369;85745667
31207159;75650902
33311516;77827759
33311797;83194019
24601661;87023505
21805125;86268532
31201903;77220784
31013715;81177902
31013736;87014549
33442049;85890975
33432471;85754020
33312427;83803806
33416893;85772421
21830640;87099101
33426660;85719561
16805380;86266163
73102622;86933256
31020984;85879346
21617404;86926651
21616056;85742443
33428065;85782474
31014289;87110703
33314077;85254460
33314203;87454543
26000761;85766701
33314755;85764679
26007954;86410344
33316209;86292296
76090250;80826188
33314936;85764725
33315097;85254383
31209436;74300700
33315265;85764768
31203700;86929965
33315345;85764788
77000484;85767161
76122754;87074626
33427230;85744267
33317340;86941415
31014743;74302403
31014770;87110758
24104657;87000613
33316298;86292316
31014840;87110767
31202169;86928623
72019290;86937130
33415252;85765978
33316387;86292345
33316451;86292358
33316463;86292361
77002024;86950242
33316806;86941137
33316821;86941140
33416839;85773409
33423100;85829383
33317038;86941209
33317098;86941454
33317122;86941442
33317165;86941100
33317167;86941431
33317206;86941417
33419058;85749868
33317427;86941387
31015099;86474564
16806781;85744013
31214870;86926701
33426722;85727471
33407791;85738488
21815625;87129176
31015297;85341462
31016901;87120056
31015364;77090935
31201624;87014310
33318552;86941353
33421976;85788212
33326781;86943687
33318597;86941349
24300027;86993212
72614704;86942013
33412343;85727156
33413286;85757356
33447846;85932464
33415771;85819986
33428497;85783531
21613043;75920752
31015768;79479189
33416912;85772439
33424700;85820403
31015911;78381525
33416790;85772949
33424996;85729693
33407364;85737912
16800676;85727125
33426739;85727495
31016231;85422367
72021159;85770828
77003025;80932633
21625917;86946912
31029945;85342105
33320688;81415061
24103639;85922561
33447978;85791459
33409335;85739090
31027347;87152568
31202942;86953125
26005548;78549280
33433801;85735488
77019374;83193495
33438860;85866697
21613889;86960033
73104581;86933508
33426957;85743812
33436919;85908101
33435654;85775604
33429473;85745845
33437692;85935327
33432914;85840047
33322278;83725718
33438552;85812583
33438318;85944883
33445628;85954365
33442300;80256419
31200030;86934256
31202231;78683255
33323111;83739678
31017187;87046339
31204794;85242411
33426636;85719545
31220858;86985987
31031623;81178645
31027509;85454522
31201064;86977909
33410802;85812265
31017482;87046376
33324400;85257610
33431210;85785873
21809539;86964892
31211361;86976535
33325034;86290777
31203628;77836312
33325116;85751173
33325117;85751174
33325119;85751175
33325122;85751177
33325144;85751183
77003971;86276392
33325302;85751229
33325331;85751247
33325338;85751249
33325362;85751005
33325387;85751264
33426126;85797233
33433907;85734563
33325556;86290866
33325584;86290873
33442471;85884888
33325658;86290890
33325687;79657297
33325690;86290894
31211801;87021953
31018134;87113042
33427696;85742560
33422711;85763050
33325847;86290941
33325859;86290949
33325901;80895065
31018277;87113069
33325912;86290972
33326917;86943727
33326260;86291021
33426218;85794855
33326019;86941325
73107317;86167150
33326128;86291007
33435573;85764933
33326319;86941304
33326329;86941113
33326384;86941285
33326405;86941276
31213516;87000794
31018445;87113101
31018577;87113123
24104383;72690148
33326524;86941265
31018906;86505142
33326639;86941482
33326700;86943683
33411799;85811361
33326708;86943667
33430805;85788506
31018662;87113141
16808579;86336195
33326823;86943694
33326840;86943699
33326845;86943701
33326859;86943707
21615891;86992624
33326904;86943738
76034102;74306795
24104432;87000578
31018795;87113178
21615945;86992633
77004237;86950403
33327269;86291072
16802618;85739617
33333266;87000869
33438480;85812522
33327628;79975214
72620492;85269452
33403178;85718363
31019040;87165000
31225080;87019078
33418835;85752891
33437253;85769425
72620555;85269333
33448024;85791500
72620607;86941934
31019085;87165009
33328002;79975309
33430749;85788058
31019145;87165024
33447436;85928246
33328578;86943778
33430279;85787041
33429185;85728282
33432400;85755945
33329135;80623939
31019336;87165057
31019430;87168336
33428102;85781976
26001892;86951249
33416836;85772998
31019536;74303178
33415927;85739869
33329508;81319849
33450798;85825049
21807518;86977200
33330104;80959744
31026290;85338050
33330366;80959773
33430579;85785627
31027540;87152620
31026783;85988699
21623116;85868031
33424006;85750909
31019763;87168405
33419727;85801200
33419745;85802863
33408520;85738755
26008816;87064984
33438590;85864312
33428825;85783512
73107583;86933726
33445075;85854069
21827270;79798484
33400154;85751037
31020104;87180142
31020239;85485357
31020289;85485366
21617353;87021069
31208898;86932365
31020775;87065717
31028786;87171641
31215946;79127061
26006034;85746029
72023650;85771682
31204646;86955103
33427922;85782267
26004702;86976411
33433524;85724566
21815325;87063803
33446016;85955982
33400385;85751075
31020736;87065701
31020762;77888115
33422510;85761848
31224665;85349886
31202840;86953068
31020801;87065712
31020840;73004924
21617837;70482449
33400605;85751330
31020969;86465725
72622431;86942411
33421818;85790355
33428960;85719982
33400725;85751117
33411495;85813365
33400784;85751368
31021181;87065789
31230934;86303761
33424484;85749613
33431021;85787453
31021242;86362047
33432841;85840112
21832936;87070891
33400865;85751114
26003782;86939701
31216688;87104653
33415291;85765604
72623129;86942433
33407291;85737872
31024572;87142662
33401029;85758013
33412109;85725857
31021494;87135063
31029408;87055404
33401278;85757935
31027093;85456538
33401348;85758088
33401353;85758090
33401360;79040162
31021630;87135084
31021680;87135092
33401392;85758083
33426029;85794803
31210377;86927830
21813619;70373236
31021821;87135123
31021845;87135128
33401427;85758097
33401429;85758096
21618841;87147836
33414852;85765561
33401583;85758136
33401599;85758138
33401649;85758149
33401756;85758188
33423540;85731390
16800492;85726225
24105300;87000696
21816442;86929433
31212790;75951302
72417171;86938434
72417198;86938424
33424270;85748903
33422300;85742992
33401930;85757969
33402030;85758252
33402099;85758257
33413703;85759429
33402240;85718059
33402252;85718073
21816926;86287785
31220728;86287967
33402266;85718061
33402269;85718067
21619223;87147889
33408174;85738647
33402319;85717995
33402325;85718081
33411133;85812389
33420057;85721396
33402355;85718103
21619399;87147904
31022531;87158224
33447700;85929112
31217651;72407234
33402567;85718166
21800428;72282653
31022979;86505417
31022995;87158314
33402654;85717999
33402674;85718193
21619703;86280045
31023038;87158328
24700953;85791640
72417763;86938392
33402714;85718214
77004892;86950408
33402741;85215478
33431859;85736941
33443927;85954095
77006226;86276409
21619960;87018411
31209983;85747900
77800429;80594359
21620139;72483477
31023504;87090792
31023593;87090827
33429595;85744684
33403173;85718371
33403217;85718373
31218851;87127174
24602502;87037362
31204756;86950827
33430913;85789921
72624684;85252216
33430563;85785596
33414199;85807754
33439923;85822460
33428224;85782889
33403334;85723007
33403344;85723009
21620686;87049948
26000353;86981012
21620687;87049947
77023582;85750831
21620720;87049943
31214172;87020932
33403670;85723097
33420563;85741636
33416723;85771965
33408247;85738659
33424235;85748877
33403789;85723131
31024226;87142580
31024259;87142587
31024262;74305365
31225079;87019077
33437357;85769713
26004510;86935086
31027965;87152710
21620962;87126845
33416640;78990276
33403952;85723182
33404027;85723212
33404041;80895098
33404066;85723244
33404083;85723226
33404105;85723234
31201871;86928093
73201912;86930160
33404130;85723257
33404133;85723254
16800831;85727241
33404164;85723247
33404166;85723248
31025943;87165261
33439718;85924168
21800399;86277157
31024571;87142661
21822644;87008762
33442793;85897463
33424340;85749540
33404272;85722927
33404281;85723737
33429170;85728256
31024720;87142710
31206342;86968638
77800932;80719591
31024858;87142739
33404674;85723841
31024997;87165080
33444409;85986001
33404689;85723853
16803547;85742363
31025072;87165098
33404774;85723875
33404782;85723884
72418272;72245835
33404803;85723877
33404897;85723919
33439997;85822565
33405360;85724068
21621756;86265010
31025157;87165115
21806035;87005341
33424730;85820437
77017398;79983722
33429793;85745217
33405139;85722960
33405152;85723996
31025322;87165151
31025364;87165160
33428732;85782317
33405234;85724037
33414770;85765514
33445868;85955845
33430119;85787375
33411607;85811346
33405326;85724059
31025385;87165166
31025403;87165173
21801479;86935773
33408393;85738712
16812379;86410611
31025452;74303451
31025509;86009626
31211559;85746704
21801619;86935577
31026426;87104802
31212593;86945248
31025562;87165202
31203322;86951269
31200733;86935703
72625670;86942588
33405493;85735520
33424232;85748872
31025813;87165239
31025918;81176414
31213420;85742696
33405717;85735766
33406688;85737666
33405723;85735537
33405735;85735774
31025980;72217626
33405786;85735543
31026788;87104875
33419277;86269250
31026062;87042004
33405862;85735810
31214492;86934758
31026261;87038099
33406249;85737547
16800511;85726228
31027680;87152651
72626244;85252534
72626264;86942619
77006209;85261605
72626308;86942625
33417918;85722849
21623099;87064399
31026771;87104871
31026757;87104864
31026760;87104865
31027070;75873403
73109793;86973477
33406912;85737763
33407033;85735590
31027102;87104958
33407060;85737810
33407065;85737802
33407075;85737806
21623225;77839733
33407140;85737837
31026855;74559999
33407184;85737846
33407234;85735599
21623394;86922677
31027549;86351377
33407301;85737874
77008617;86934547
33407443;85737933
31027090;86328848
33407514;85738372
33407537;85738382
33407611;85738405
33423566;85747928
24106626;87053438
33407685;85738435
31027421;87152588
33407753;85738470
31027431;73282491
31027432;86346039
31225918;85301306
21624056;86966701
33407921;85738529
24106765;87055864
26001285;86928475
33414481;85733042
33408034;85738564
33407979;85738554
33408009;85738557
21624101;86966708
31027973;87152713
31028017;72456224
33437770;85935345
33408123;85738611
33408193;85738631
16801792;85756385
21818540;86966530
24106878;70934747
31212179;87037398
31028271;87171628
33408487;85738742
31224697;86995973
33445445;85954230
33408404;85735656
21624546;86966804
33408528;85738761
31028637;87166201
21624642;86283982
31028600;87166235
21624585;74309150
31224403;87055656
33319009;86941342
33430635;85785673
21624891;86119457
33408739;85738830
33418366;85732535
33416365;85771212
21624782;70993484
31028813;87171647
33428872;85719665
31229260;86984814
33408900;85738907
33408927;85738919
31031042;87146770
31229503;87053232
31229511;87053230
31229535;87053255
31028874;76758528
16803742;85789053
33409074;85738974
33437205;85769375
33413017;85759158
31028937;85869175
21802207;86978082
33409173;85739009
33409188;85735691
33409210;85739031
33409248;85739048
16800306;85726267
31029040;87055326
31029750;86383701
33422591;85760199
31029083;85341904
33413170;85759252
33409419;85739117
31029207;86339277
33419751;85802874
33409517;85739152
33409549;85811223
31202224;86928367
21625846;86946899
33440842;85716657
31208969;86932471
33447381;85928205
31029387;85588732
33443119;85946698
21821532;87070057
33409710;85811461
33409725;85811467
33409738;85811471
33409771;85811480
33410658;85812191
33409901;85811519
33409910;85811527
33427471;85743899
31228421;85313916
31228388;87003104
33449010;79929924
31030848;78028748
33410095;85811596
31225652;87024839
73110937;86951872
33429607;85744713
31223197;87055056
31216711;85785029
33422030;85788234
33410508;85812144
33410620;85812186
33410642;85812210
33410680;85812203
33410683;85812213
21626886;86979345
31030515;74295369
21626183;86979188
72419452;86987702
33422683;85763016
33410864;85812297
33422884;85760344
33410897;85812312
33410937;85812309
31031790;86986284
31030343;87146613
21626377;86979226
33416292;85771075
73201841;86929694
73201843;86929693
33411131;85812391
33411193;85812359
33429353;85727854
33426960;85743906
16801738;85757794
21626924;85868488
33411512;85813370
33411757;85813465
73110375;86963422
73110374;86963423
33411456;85813348
21805967;87005242
33411704;85813449
33411491;85813360
33411510;85813371
31202233;86928370
33432651;85754838
33411579;85813396
33420234;85729293
33411665;85813430
31031427;74239765
33411778;85811359
33411796;85813484
31205161;86933861
33418494;85750114
24700072;74300568
31225433;87003636
33429583;85744670
33412969;85757914
31031606;86950517
33415842;85739805
33440600;85929735
33427024;85743983
33412518;85727005
31031639;86951845
21800603;86951784
33435228;85870095
21803063;86951225
33450858;85825068
73202685;86953484
33419468;85804302
21800684;86986240
33435803;85775723
33412582;85727034
33421102;85742853
33430298;85787841
33412670;85756360
72027368;86307801
33412813;85757149
31031855;86986422
33413072;85757585
31221019;86989425
77008224;85759206
77008234;85759262
33413364;85757782
33413308;85757374
21831862;86997571
16819749;80894961
33413385;85757227
31201598;87014299
31201437;86980916
31201794;84973986
77008499;86270264
33441071;85937533
33413539;85757501
33425918;85746944
21801307;86698829
33434765;85762576
33413635;85757206
21808528;85316833
24600297;72267263
33413674;85756582
21809326;86960286
31200709;86935695
33415747;85766681
77008552;86935743
26001652;75997830
33413912;85806451
33413904;85806454
33413944;85806467
33413954;85806475
33414545;85733141
72421691;72567369
33428539;85783608
21801612;86935568
24700046;86978031
21802347;86980756
33429888;85744598
21801866;85720957
31201226;86295365
33427105;85744129
31201206;85721027
31204950;85094570
21809318;86960280
33430422;85787618
21811103;76534521
33414347;85721125
33426163;85797277
33440249;85823257
33435354;85870199
21801968;86978160
33414537;85733137
33414560;85733164
33423512;85731089
33414559;85733161
31201371;87277490
33443161;85804676
33414508;85733058
33428531;85783607
33440023;85822615
21802108;86981103
31201511;87014214
31201548;87014247
31201642;75647602
33447098;85863521
33414677;85765330
26000562;86330028
16802722;79005771
33420820;85742075
33414917;85765991
76113413;87134040
31201952;86928061
21802335;86977931
21802330;86977926
31201804;86969554
78628335;87116610
31229679;87064980
31201951;86928060
31234215;87075875
33415632;85766621
26007825;72663255
22602292;87145342
31203493;86929927
33435950;85777411
26001005;86928285
31202149;86951103
31202150;86951105
31202148;86951102
33427434;85744349
33432855;85840134
33415327;85766287
33415297;85765828
33430389;85785428
21802825;85286899
33419962;85721291
33415610;85766593
33415595;85766587
33415536;85766553
33415531;85766552
33415672;85766646
33415674;85766648
31216590;72370168
33415840;85739802
33439375;85864673
33416117;85770965
26001347;86083933
33415878;85739838
31205829;78415130
31202743;86983210
31202696;86951033
33415911;85739864
21832012;79209935
33422596;85760206
31202847;86953078
31202936;86953121
21808064;86269352
33424628;85821461
33416182;85771044
33416287;85771071
33424990;85729661
33416389;85771252
31210965;86965071
31204499;86950908
33433327;85839145
33416477;85771263
21803383;86192886
31203123;86953281
31203150;86951285
31203160;86951292
31203153;85540252
21829573;87082939
33416505;85740078
33416695;85740204
31235260;87095249
21803437;86952436
33416792;85772955
33435894;85776853
33416780;85772941
33416906;85772433
21803582;85772380
33441883;85890026
33417002;85773744
33423116;85829642
33417232;85771890
33417210;85772564
21803917;74300875
33417405;85773719
78401752;73101208
31216152;74520293
33440840;85925503
31232701;85853148
33417494;85772410
33417535;85772061
26002429;87451638
33417926;85722856
33417844;85722610
31204221;86930313
31204269;70392077
16803293;85801238
21804404;86965646
33417920;85722851
33417917;85722848
33419857;85804495
33418190;85732096
31206957;86977370
21804580;86950923
33418292;85732234
33444504;85986092
31204580;86953789
31214669;85719840
24601471;86977132
33418282;85732216
33418294;85732235
21804674;85124609
33418339;85732385
31217480;86927071
33429986;85785997
33419759;85802897
31204765;86950831
33426067;85796316
33430347;85785398
78402540;77401879
73202529;86953429
33418434;85752628
33441733;85798847
33444539;85983683
33418570;78984687
33418624;85749927
33418636;85749936
33418642;85749940
33418718;85751610
33418683;85750139
31204967;87411352
24601517;86977288
31205360;86933968
31205332;86933759
21805011;85750157
77016261;85749849
33418914;85752382
33418848;85752915
33418966;85751527
33418971;85751531
33430168;85785307
33419024;85750085
33419051;85749860
33421936;85789620
31214139;87004033
33432605;85755609
31205494;86936175
33421047;85741787
21805336;75665008
24601197;86268645
31205298;86933929
31205271;86933921
31205381;86934007
31205328;86933757
33419402;86279317
26003119;75692084
33419491;85804314
33423921;85748624
33419248;85801033
33419463;80895118
33419678;85801166
31205695;86934128
33430050;85787255
31211609;73140552
33419732;85801204
33420431;85728931
31205786;86934099
21805630;86934096
33445282;85852063
33419853;85804486
26003208;77874953
33419861;85804499
33429828;85744807
33420361;85728650
33420066;85721407
21805846;86935983
33420085;85728997
31227618;87103936
31227616;87103933
31227617;87103934
33420169;85729246
21805978;74303167
33428180;85782181
33420878;85742134
31206232;87005281
33420190;85729258
33428314;85783032
33420204;85729268
33420252;85729309
33436353;85855526
31206309;85729328
33420337;85741220
21830691;78013858
33420379;85728672
24601449;85283582
33420375;85728668
33426741;85727490
33420478;85728863
33427039;85743984
33428666;85781997
21806326;86283287
26003750;86937767
31206688;86978844
33420574;85741643
33420605;85741671
21806266;86977145
24700168;86978758
33420624;85741714
33436995;85908268
33420630;85741717
33428420;85782394
21806408;86978813
33426581;85719221
33420669;85743076
21806426;86978820
33420734;85743187
33420891;85742166
33421089;85742844
26003460;85238491
31206843;75902876
33420981;85741997
26003512;87023463
31207232;87005597
31207239;87005603
24700862;87097414
21826604;87094923
78601658;87005560
78601653;87005413
33421374;85741822
78601666;87023486
33421462;85741933
33421499;85790552
33422479;85761815
33421493;85790542
21807169;86924002
77019627;83193367
31207454;85254610
31207403;87005506
33431605;85718626
31207681;86923550
33421776;85789092
21827452;86970861
33436142;85854687
31207567;87023191
33434616;85762767
33421978;85788214
33422007;85790253
33427072;85743532
33422017;85790260
78404283;86924155
33442196;85882315
73204432;86939515
33423085;85829373
21807338;71782421
33422901;85829197
26003778;70873349
33431738;85725387
33422112;85731662
33422140;85731435
33422158;85730779
78405026;86939596
31217044;86924669
21813634;87122937
33422127;85731017
21807414;70979352
21807468;87450847
33422203;85761149
33422902;85829202
33422659;85762997
33424227;85748873
33422921;86152404
21807555;86939641
33422455;85761811
24601871;86325702
33432653;85755170
21807610;78573975
33423344;85731238
21807647;86968930
33422749;85763092
33422851;85763169
33422768;85763107
33422769;85763108
33422757;85760274
33443566;85950376
31208295;72564988
21807692;86325669
31208747;87273659
26003836;86969251
33422864;85763193
31208440;86974465
33422865;85763198
21807842;86974428
21812618;87001795
78602707;85265525
33423793;85750733
33422632;85762976
33422718;85763066
33436501;85859651
33423211;85720200
21807866;86969260
16804975;78984310
16804474;84785674
33422961;85761123
21813467;85788003
33423105;85829386
76089495;86930748
76089507;86930760
76089496;86930749
76089493;86930746
76089492;86930745
76089488;86930741
76089498;86930751
76089487;86930740
76089490;86930743
76089505;86930758
24700361;86309703
16805462;86935015
31208765;77909791
21811131;74300631
33424872;85723600
31208840;86932243
33423267;85720338
31211137;86976394
31211138;86976395
21808231;74301489
31208854;86932271
33423529;85731354
31209921;85274349
33423189;85720084
16805066;85748869
33423933;85750823
21808262;76620769
26004217;86269608
31209891;86965244
33423259;85720333
21808916;86932227
78603069;86932336
31209115;74301530
31209127;86932489
33423943;85750839
31210484;86267184
33427052;85743995
16804885;85285642
21808467;78405968
33448178;85791159
33423523;85731203
31209393;86961080
31209371;86287093
31209462;86961119
33430986;85787410
73208296;72676891
31209606;86960886
21808634;87046230
31209635;86960910
31216304;87147732
31213985;86992782
31213936;87000751
24700822;86963106
26006245;86924458
21808742;86965312
31231216;86374512
26008358;85923612
33440189;85820624
77023225;85247199
33424361;85749400
21808692;86973200
33424529;85820560
33424363;85749406
33423862;85748135
33423669;85748955
33423665;85748953
24602723;86925253
33423834;85750771
33428069;85782483
33424625;85821458
33424162;85749475
33424505;85820488
31210019;86325410
31213974;86992769
26005349;87000766
21820788;87032932
31210008;86965424
33424371;85820351
33424358;85749395
33424475;85820461
33424474;85820459
31215783;85745144
33424557;85821417
33424434;85820394
33434280;85761417
33436805;85905132
31220358;86972675
21809629;86976587
31219413;87133432
16806161;86976570
33432637;85754769
33431141;85785140
33424871;85723599
31210774;86927964
31210690;86934977
33439221;85865118
26004855;86172755
21809127;86172732
16805748;86960203
21809133;74300548
31211757;87021947
33426384;85798039
31223326;87055119
26004708;70801708
33425463;85746568
21809503;72427789
31210999;86281154
31211225;86964916
33425557;84521677
26004965;74499253
33440409;85825113
33425534;85746862
33432772;85755710
26004831;86976491
78612054;86961248
21812460;87001750
24700684;74288365
33425787;85746666
33429076;85728505
31211721;87002364
33427759;85782149
31211701;86337223
31211704;86337224
31211705;86337225
33426425;85798182
76101855;87002321
33427527;85743699
21809968;72350338
31227875;86954776
33426096;85796356
33426175;85794949
31216417;86323209
33426161;85797273
78604443;87002201
33431309;85785966
33429861;85745561
21814146;85787486
33445718;85954463
33426390;85798045
21810275;86925250
33429347;85727817
31212382;86925487
33426546;85719215
21810383;86271839
33427020;85743980
33426616;85719520
33426752;85727512
33428754;85781820
33426761;85726617
33426798;85726666
33427772;85782512
31212757;86944984
21830971;87081736
21811126;86318625
33426925;85726682
21810752;72399923
73208560;86923285
33427019;85743817
33427223;85744257
31214043;86942873
33428111;85781665
33428853;85783796
21810894;86945187
31213070;74302816
21811208;87004111
33427321;85743284
33427136;85743451
31227788;86954134
31227771;86953903
33427189;85744206
33433433;85724100
21810937;85744319
33427459;85744363
31213285;85744388
33433850;85737312
21811033;74426368
21833837;86962149
21811073;87001059
21811093;72322975
21811111;87004044
33430752;85787661
33427749;85782139
33427912;85781927
21811252;87000835
33427734;85782231
33427964;85783271
31213663;86992759
33427865;85782947
24603059;75659570
73206438;87004113
31214549;87020974
31214548;87020973
33429998;85787987
31225323;87019265
31213965;87004151
33428215;85782879
21811670;74300794
33428149;85781765
33432259;85755082
33428142;85781756
33436155;85854693
33428198;85782861
33428279;85783006
21830205;87095598
33428288;85783014
33447030;85863469
33428410;85782760
31216664;78130903
33428428;85783358
21811867;73260417
31214255;79993165
33428547;85783612
31215041;80848774
33428571;85782371
33428573;85782373
33429083;85728515
21811928;86926572
33428578;85782376
33428591;85782387
21811976;86926420
33428737;85783731
33428742;85782319
33428767;85782249
26007227;87074879
31214596;86934835
33429833;85744880
21812238;73000207
33430106;85787373
21812220;86934880
16808625;86334696
33428999;85728477
21812296;86934951
33428964;85719990
33428967;85719996
33429030;85727900
33429060;85727914
33430040;85787249
31214961;76898419
33429231;85728321
33429233;85728323
33429221;85728314
33429150;85728138
33429156;85728202
31222941;86971020
33429430;85745745
33429362;85727830
31218200;85736798
33442406;85884834
31215271;86275998
21812604;87001866
33429370;85745669
21812624;72340267
33435617;85775577
31227234;87090009
21812655;87039607
21828784;86488767
33429615;85744889
31216896;86924481
33429441;85745773
21812696;87039659
31215327;87039634
31215324;87039633
31215330;87039636
31215329;87039637
31215827;87001882
33430614;85785647
21812751;79132522
21812753;87001905
33430938;85789953
24603540;86275931
31215525;87001632
33430061;85787264
31215564;86978567
33429721;85745624
22600997;87004773
78409551;72475897
16808310;85237718
21812917;74082713
16808278;85237685
26006017;87039854
21813121;70943675
33430677;85785830
33449243;85903004
33430387;78998462
21813271;86193588
33429880;85745608
21813302;87104546
31216193;87104605
33429899;85744622
33429996;85787985
21813613;78463506
33430084;85787352
33430118;85785258
33430233;85786987
21813563;87122758
21813646;78998405
31216676;87104646
33430784;78999007
33431075;85785090
31217188;73007670
33431214;85785875
21813842;86924446
21813706;87122832
21813839;86924442
33431919;86955590
31219083;74011650
33431386;85785448
31237709;86410809
31217810;74307755
33431346;85785209
21813891;86924362
26006283;86924547
33431450;85784962
33431458;85784972
24604425;86922626
21814125;86926825
33431952;85735040
26007943;87018946
33431622;85718660
78615486;86368594
21814215;74302515
31217174;86926893
31227402;86412914
76123301;86327985
33431677;85725275
33431690;85725283
21814392;77174993
31217694;86955835
33431782;85725540
33431769;85725426
33431771;85725454
33431773;85725455
31217812;74450729
33438479;85812521
33431815;85724985
76115257;86279860
76118184;85753890
33431840;85736874
33447446;85928250
33431873;85736965
33431879;85736978
33434500;85762442
26006477;86944464
33432266;85755084
33432192;85753381
71703546;87050119
33432315;85754350
33432304;85754344
31218498;85242864
76117386;87073406
33434076;85737512
76117400;87073486
33432386;85754924
33432380;85754886
24604199;85284597
33432430;85755959
33432397;85755925
33436370;85855555
31218598;87090423
33432440;85756169
33432478;85754035
33443569;85950391
33432757;85755690
31218674;74440335
76117861;86312677
33432518;85754098
76118109;87090313
76118508;87126717
33432615;85839080
31224571;87060736
21815980;86921871
31226367;86999667
21815358;78110709
33447702;85929114
31218967;87127404
33432769;85755701
33432802;85755777
33432811;85755836
33432844;85840126
33432851;85840123
33432852;85840128
31219198;87133371
24604203;87129321
24604229;72411184
76119767;87133283
21815812;86382563
21815730;87133489
33432900;85839934
21815786;87127759
33432943;85840278
21816077;75686986
33433043;86019144
21815860;87126971
31228897;87045508
33433974;85735241
21816010;71636898
21816025;86922023
33433248;85841258
33433310;85841414
33433361;85718955
31219799;86259719
33433369;85718965
33433404;85719078
33433387;85719051
31221149;87002772
31221150;87002771
31219976;86929152
21816207;86922634
78607919;86922370
21816243;86922597
26006837;86972649
76120550;77512364
76120585;86929510
33433789;85735444
21819772;86418911
33433667;85733496
21817095;86989383
33433741;85733720
26006846;85344599
21816461;86929450
33433832;85737145
21816562;86972588
31220352;86972671
31220432;86932875
33433925;85734658
33433918;85734644
31220389;86284910
33434012;85737240
33434094;85759626
71703938;85735277
33441439;85800983
33434285;85761394
33434629;85762807
33434677;85763244
33434474;85762450
31221365;86989542
31221122;87002471
31221142;86311382
31221161;86311408
24604664;87002718
33434690;85762480
33434699;85762487
33434703;85762491
33434708;85762496
33434727;85762511
24800027;87002437
31221529;85763356
31221530;85763357
31233108;87038745
31228327;86332026
21832523;86404324
78608906;87074279
76122523;76695906
21817613;87075011
21817657;87075031
31226057;87033069
21817910;87075140
33436002;85856751
33435004;85872235
21824256;87129831
33435113;81193987
33435147;85872348
33435194;85872385
21818422;86931449
31223888;78772388
31223914;73010022
33435221;85870081
33435239;85870101
31224001;87060363
33435277;85870128
33435321;85870157
33435356;85870191
33435545;85764914
78609613;87074916
78610092;86966502
33435938;85777427
26007301;85871309
26007305;78503293
33436067;85856804
21818034;75740096
33436079;85856807
21830378;87101947
31235518;86428338
21818128;86922797
33435463;85871527
33435537;85764887
33435605;85775551
33435612;85775588
33435660;85775634
33435668;85775632
21820575;87000093
33435717;85775669
33435730;85775672
26007339;86923333
76124157;78634161
76124603;86262889
33435898;85776860
33435900;85776855
76124875;86931905
33435931;85777424
33435957;85777429
26007435;70949686
33436039;85856779
33436058;85856806
21818613;86966603
21818619;86966613
21818622;72375550
21825907;85948494
31222475;86972486
31222518;78504210
31222754;86288979
31222830;74124325
31222878;86976764
21824437;85348534
31230207;87134461
33436116;85854645
33436121;85854651
33436163;85854702
31232793;86970510
21819323;78371542
21818799;86971251
33436608;85859740
21819059;85296756
33436741;85907526
21819186;86976889
33436483;85859662
33436558;85859707
21826071;87040916
31235420;87095701
31223692;87060155
33436676;85905919
33436763;85907549
33439092;85865029
33436812;85905133
33436816;85907592
33436875;85907644
33436885;85908064
33436903;85908079
31224509;85908438
16812229;85908154
33436957;85908247
33436983;85908278
21819463;87060653
31224521;86340198
31224540;87060713
21819580;86940283
33437104;85768751
33437146;85768818
33437312;85769566
31224934;86948558
33437381;85803327
24605073;85272418
33444261;85985893
26007980;87018967
33437512;85933601
33437666;85935320
33437916;85935415
33442090;85891013
16812372;87018990
31225788;78790900
31225326;86418870
21820191;87003894
78611184;87434608
21820122;87003575
21820130;76412457
76127358;87003720
33438007;85926035
33438032;85926104
76127441;87003796
76127819;87003358
76127824;87003357
76127942;87024448
76127969;71838826
33438243;85944814
33438295;85944861
78611990;86961237
31225661;87024871
33438373;85770028
33442705;85897356
33438381;85769999
21820472;72409128
31226153;87033126
76128507;86962708
76128902;86961524
76128904;86961526
21820506;85636408
31227021;72159004
76131072;78482264
33438657;85866535
33438680;85866547
33438736;85866609
33438747;85866597
26008139;86360006
31225949;87024376
31225950;87024360
21820725;86359931
21820751;87024410
21820874;85339734
24605286;87033019
76131157;87033179
76132573;72675475
31226383;72182424
33438968;85864932
33438987;85864928
33439021;85864980
33439101;85865035
33439126;85865045
21821718;86412877
31227276;87102911
21821113;87089379
33439298;85922349
33439328;85922418
33439392;85922571
33439402;85922591
33441600;85802207
31228191;72445318
31227476;85924637
33439489;85922825
33443465;85806935
21821421;87069988
21821423;87069990
31227175;86405488
31229584;87057487
31229583;87053274
33439777;85923483
21821764;86412917
76134003;87103335
76134005;87103334
76134788;86425516
31231611;87041727
31227583;87103911
31229118;86964310
21823462;87038156
31227715;85821145
76135319;86953809
33452909;85919926
33439994;85822573
33440121;85823083
33440150;85823098
33440182;85820616
76135710;86954289
33440233;85823231
76136116;71082969
26008447;86307318
26008448;85824387
33440401;85825108
78413505;78579564
76136945;77404588
76137167;87009068
76137168;87009070
33440465;85825859
21822537;87009260
24606514;86956223
33444135;85957500
33440730;85932262
33440764;85934205
31228386;87003094
76138134;87001316
76138313;76075451
33442832;85941186
33441021;85937487
33441027;85937490
33441035;85937495
33441104;85937558
31228648;87049222
31228662;85937606
31228768;87045155
31228769;85799401
33441277;85800706
33441279;85800695
33441364;85800817
33441403;85800897
33441419;85800915
31228945;86963828
76139386;78387454
33441429;85800973
24605926;86964023
16814562;85801881
21823393;86964091
78614599;85273299
33441575;85802201
21823458;87038145
21823459;86330905
21823483;86567800
33441689;85798813
33441714;85798832
33441721;85798845
21823625;85891202
16814708;84621050
31229158;72702244
31229186;79062007
33444946;85795488
21823581;85882680
33441843;85883202
33443766;85951905
76140077;86360364
33441885;85890028
33441932;85890041
33441939;85890084
33442001;85890965
33442036;85890988
33442037;85890950
33442060;85891000
31229363;87053147
31229585;86360652
26008727;87057649
31232401;78735994
76140508;87061222
33442128;85892905
33442263;85894303
33442279;85894312
31229788;87065151
31229834;72946344
31229906;87056173
31229907;87056182
26008866;85884149
76141310;87129722
76141368;87129767
33442474;85884892
33442569;85884978
33442622;85885027
31230241;85896210
33442694;85897109
21824416;85897133
33442706;85897355
33442779;85940968
21826936;86296828
21824553;87244546
78414343;76428854
76142356;87130838
76142426;87130869
33442868;85944067
21825492;75850698
33442920;85944109
33442994;85944169
33443063;85944217
21824689;76438151
26008936;87143150
33443071;85945968
24606191;87143184
24606193;87143185
31230634;87143314
31230637;87143316
21824779;87143417
33443149;85804692
21829459;87101327
31230776;87146005
33443291;85808237
33443214;85807977
33443242;85808225
21829556;78395584
33447333;85928139
21824910;87146326
31230849;86952848
21826784;87098041
31230860;86952859
31231034;86963077
33450622;85822201
33443522;85941850
26009011;86994014
21826323;87097458
31231410;85407994
31231409;87040365
21827326;86970791
33443675;85951847
33443751;85951883
31231315;86994110
31231326;74258828
31231449;87041815
31231499;86380798
26009055;85953987
24606398;86380308
33443881;85954078
33443923;85954119
31232142;87097698
31232143;87097693
21825506;87040660
21825630;87040703
21825728;79166944
21825778;85947176
21825978;75850993
21826008;87040875
21826075;86727488
21826152;85394947
21826177;85407155
31231620;85950247
31231647;78744364
33443974;85950273
33443986;85950290
33444035;85950328
33444046;85950326
16818608;85934638
33447863;85932447
21826274;87040463
21826645;87097958
33444103;85957481
76147824;87096563
76148090;87096753
76148038;87096722
76148079;87096768
76148092;87096733
76148085;87096762
76147980;87096690
78617874;87323820
78618102;87323627
24606435;87097382
21826426;87097504
78618320;85436991
33444270;85985894
33444320;85985930
33444479;85986072
33444560;85775271
33444570;85775267
33444594;85775280
33444619;85775310
21827017;86956138
21827111;86956195
33444787;85795183
33444697;85794704
21826902;86955873
21826914;85796507
21826994;85289967
24606534;86956237
78619076;86970282
26009264;86970362
31232618;86970402
31232633;86970430
31232634;86970409
24700881;86970638
21827156;86970697
21827449;86970866
21827460;76119464
33445042;85854043
33445157;85854147
33445170;85854149
78619144;86970879
33445210;85852006
33445285;85852067
78619371;85311348
76150819;76138125
73212908;86970150
33445305;85852406
33445383;85954210
78619584;87038854
78619616;87038860
31233176;87039171
31233177;87039156
31233441;87039305
24606775;87040157
33446200;85781356
21827643;87034457
21827782;86393591
21827975;87034617
21828006;85953635
21828109;85953676
21828194;85361823
33446576;85814180
33445514;85954321
33445616;85954351
21833258;87072682
31238089;86411877
33445764;85954494
31233746;87038623
33446461;85814088
33446245;85781407
78619954;87040338
33446186;85781390
33446288;85781468
31233905;87078275
21828387;87077929
31233790;85400751
31233789;87078029
31233791;87078031
21828527;87078082
31236145;86315277
31235323;85932631
31233946;86481108
21829625;87082970
31234113;87078509
33446204;85781402
33446294;85711791
33446468;85814098
33446498;85814125
33446504;85814158
33446526;85814137
33446546;85814151
78620086;87078536
78620088;87078527
78620089;87078533
78620090;87078535
33446659;85814427
78620315;85402993
76155232;85815279
21828994;86994498
21829061;86994540
31234529;86984299
26009515;85861260
33446916;85861798
76611805;86326540
21829144;86995281
21829244;86995345
26009527;85336451
33447055;85863466
33447121;85863508
76160352;87087614
33447261;85928096
33447391;85928224
33447400;85928216
33447466;85928269
31236711;86997635
31236712;86997637
33447510;85928297
21829973;75152319
21829763;86415945
21829767;87101437
21829791;87101474
26009608;77786969
33447557;85936495
31234936;86415703
31234937;87101654
31235001;87101699
33447567;85936667
33447568;85936668
33447570;85936688
33447639;85936744
33447661;85936765
24700935;86417652
21829965;86385691
33447675;85929098
33447745;85930787
76160610;87101175
76160865;87095363
21830218;85932615
31235429;87095705
33447993;85791463
24607385;86320558
31235577;85791608
21830479;85791733
21830503;87102209
31235613;87102238
24607254;87102253
78621564;87102454
21830578;79387299
78621800;87102659
21830666;87099116
31235726;87099155
33448237;85791411
33448382;85891585
33448440;85891610
78622300;87081755
16819338;87082274
33448539;85889275
31236071;80895768
31236074;86315120
21831096;86996262
21831165;86996401
31236295;86997132
31236297;86997134
16819685;85895272
21831645;86997014
31236342;86997158
31236422;86333596
21831762;86997488
21831818;86361523
21831924;85897702
21832018;86997651
26009842;85897763
31236912;86997825
24607526;86997830
33449048;85902846
33449160;85902940
33449497;85980293
31236977;86996698
78415998;78530533
16820247;86404374
16819898;85893737
24607595;87086126
21832457;79130171
24607659;86362571
33449864;85982350
33450187;85987108
78416141;80884596
78623819;87088873
33450365;85824111
33450419;85824130
21833077;85824694
21833304;87072739
21833339;87072751
33450547;85822141
33450591;85822195
21833623;87093294
21833674;77447552
33450813;85825030
33450877;85938515
33450927;85938551
31238249;87084541
21833877;86962168
33451076;85945740
73214332;86961913
73214334;86961923
31238835;86371379
33451397;85949977
33451433;85949993
31238954;87004551
21833963;85951351
73214706;86432114
73214708;86432055
33451564;85961928
33451625;85961967
21834149;87076174
31239029;86437899
24607990;86437959
24607991;86437961
21834200;86379653
21834258;85413604
21834357;85951513
21834363;87005687
33451691;85951628
33451708;85951633
24608018;86382788
21834594;87006360
21834687;87006417
21834694;79217821
31239282;87006540
33451781;85956988
33451860;85968983
33451876;85968926
33451878;85968947
21834878;87086312
16821460;85969121
22601056;86975005
33451961;85969150
78625631;87083765
21835201;87083897
33451997;85861669
33452029;85861697
33452035;85861677
33452067;85861735
33452141;85861781
33452163;85862194
26010300;79227661
78625883;87077576
78625886;87077561
78625887;87077570
78625888;87077560
78625889;87077568
78625890;87077562
78625891;87077564
78625892;87077567
78625893;87077563
78625895;87077565
33452241;85863083
21835293;86975891
33452315;85974135
22601266;86475988
21835484;87025500
31239949;87022362
31239985;87022414
21835643;87022625
21835762;86434065
21835832;87036867
21835870;87036881
21835955;86469505
21835961;86469503
21836012;87036967
33452921;85921223
31240460;87020426
21836274;87020457
78626739;87010376
33452999;85914975
33453023;85914968
33453050;85915010
33453084;85915017
76174199;86443021
76174227;86443071
21836330;87020728
24608330;86442005
24608331;87044575
24608336;85922078
21836518;87045845
33453264;85966207
31241088;87045915
31241105;86458736
31241107;87045908
33453350;85829968
33453420;85830418
33453470;85930415
33453481;85930420
21836802;86383477
21836847;87015791
21836870;78897478
21836888;86383503
21836907;87015831
31241314;85942330
31241392;87021509
24608420;87021518
21837023;87106408
33453611;85942475
33453654;85942530
24701116;85944518
33453763;85946335
31241508;85946410
31241568;87114759
33454037;85948372
33454151;85980685
26010817;87114864
24608469;87114884
33454237;85931521
33454314;85981885
33454362;85981909
33454412;85981943
33454463;85981982
24701136;85436709
21837947;87115495
21838204;85984605
21838206;87115652
21838302;87115699
21838303;87115716
21838416;86483605
24608694;86472098
33454647;85837188
33454666;85837179
21838617;85321292
21838767;87127825
33454714;85837746
21838849;86492924
33454806;85838056
21838951;87128311
21838988;86988430
21839030;85967629
21839161;86623519
26011103;86988638
33454964;85967926
33455010;85967959
33455013;85967954
33455105;85968066
31243089;86327600
31243234;85968277
31243259;85968314
21839310;85969261
33455153;85969367
31243394;85969711
21839410;87059346
21839426;79228037
33455303;85971577
33455320;85971591
33455358;85972085
33455382;85971644
22601499;85972195
21839523;87062732
21839653;87062808
31243955;85995550
33455832;85996051
33455997;85997034
33456006;85997037
21840264;87063474
21840461;87119883
33456050;85893068
33456072;85893120
21840777;81946412
33456165;85896974
21840887;87120854
21841289;87048855
31244870;87048869
33456574;86000859
33456642;86000899
33456702;86000948
33456744;86000992
33456767;86001015
33456818;86001120
31244942;87047141
31245082;87047271
24609172;87047263
31245119;87047336
76183690;87110434
31246853;85974717
31246852;85974715
31246854;85974718
21841728;87117586
33456939;86002001
33457106;86002191
33457256;86002299
21841851;87117680
31246007;87120610
31246051;85467329
33457484;86004333
21842371;86495926
33457542;85816432
24701265;87122481
21842563;87117839
21842654;86464306
21842952;87118758
31246493;87164668
33457823;85972679
33457833;85972690
33457861;85972704
31246843;87117078
16826796;86453086
16826797;86453087
21843331;87117153
21843421;87117229
21843428;87117222
26011634;86486132
31246986;87169099
24609614;87169220
33458057;85976264
33458227;85976427
21843719;87169392
21843838;87168623
31247144;87168742
21844083;87175759
21844120;87175755
21844172;85979700
21844201;85979718
33458362;85981386
31247560;87176594
31247582;85984786
26011732;87180263
24609808;86007689
33459003;83245403
31247871;86009411
31247988;86424810
21845035;87031485
21845106;87031555
21845168;87031582
33459353;85809908
31248330;86479912
24701379;87034410
24701382;87034414
31248471;87078993
22602037;87080748
73215800;87134960
21846159;87071906
31248853;87072977
21846390;85879858
24701406;87066803
31248988;85880562
31249180;85880727
33459815;85994756
33459836;85994775
33459898;85994828
33460030;85996264
21846908;86451445
33460226;85997645
33460295;85997674
21847105;87138495
24701432;87139246
76195651;86460222
31249894;87139541
21847284;87140212
21847285;87140217
24800069;87155867
21847861;87160346
21847913;85700722
31250378;87160655
31250383;85850845
31250444;87160692
33460835;85847649
33460982;85851386
33461024;85851439
33461059;85851474
26012172;86509051
76200070;86510546
33461296;86005010
31251176;87142398
26012327;87148260
21849604;87149373
31251920;87167902
31251921;87167880
31251957;86344245
31251958;86344246
33462029;85918325
21850751;87171118
33462487;86011498
21851759;87178081
31253620;85841757
21853634;86497816
24701645;87105829
76211724;87107845
33463825;84522218
31254458;87112737
21854467;85534193
31255304;87157447
21855476;87163709
33464888;85876618
21855895;87174178
21859255;87151785
21856518;88340525
21856519;88340525
21856520;88340525
21856521;88340525
21856522;88340525
