NVLE POLICE SAMEDI 2;payeurs samedi;Date effet payeur;N° Encais/Affectat.;Payeur;Nom Payeur;Mnt Encais..;Mode;Date Valeur;Rest.à Affecter;Schéma;Date Créat.;Type Enc.;N° Chèque;;
76225072;1403086;01/06/2024;49740195;851978;M. DIOMANDE  BEN MOUSSA;215857;R;11/04/2024;215857;BIA01;11/04/2024;E;;;
76224995;1402484;01/06/2024;49740258;851277;M. KIENDREBEOGO TINKOULIGA DIT RASMANE;286547;R;11/04/2024;286547;BIA01;11/04/2024;E;;;
76224985;1402475;01/06/2024;49790481;852518;M. YOBOUE KOUASSI FERDINAND;295733;R;15/04/2024;295733;BIA01;15/04/2024;E;;;
76225041;1402517;01/06/2024;49806487;647538;M. COULIBALY ISSOUF;1750000;R;17/04/2024;1750000;BIA01;17/04/2024;E;;;
76225463;1404141;01/06/2024;49806493;842092;MME KANDIA NEE KAILOU ABIBATA;301042;R;17/04/2024;301042;BIA01;17/04/2024;E;;;
76225462;1404140;01/06/2024;49806499;848863;M. BAMBA INZA;321763;R;17/04/2024;321763;BIA01;17/04/2024;E;;;
76224973;540430;01/06/2024;49806502;540430;M. AKPELE ALLATIN VICTOR;145840;R;17/04/2024;145840;BIA01;17/04/2024;E;;;
76225461;1404139;01/06/2024;49806504;851797;M. DIAGONE BI SIABASILE;221879;R;17/04/2024;221879;BIA01;17/04/2024;E;;;
76225504;1404176;01/06/2024;49806505;789480;M. LATH ESSO BERNABE;224538;R;17/04/2024;224538;BIA01;17/04/2024;E;;;
76225847;1405439;01/06/2024;49806536;841698;M. AKANI MOUHIDINI;315182;R;17/04/2024;315182;BIA01;17/04/2024;E;;;
76225850;1405441;01/06/2024;49806539;846396;M. KABORE ADAMA;299390;R;17/04/2024;299390;BIA01;17/04/2024;E;;;
76225219;1403500;01/06/2024;50016056;791858;M. BRAHIMA CISSE;186521;R;22/04/2024;186521;BIA01;22/04/2024;E;;;
76225295;1403724;01/06/2024;50016057;675729;M. NOGBABE IGBA ELOI;309074;R;22/04/2024;309074;BIA01;22/04/2024;E;;;
76225217;1403498;01/06/2024;50016059;817320;M. SOHOU GOULIA VICTOR;184771;R;22/04/2024;184771;BIA01;22/04/2024;E;;;
76225240;1403528;01/06/2024;50016061;825520;MLE BAMBA MADOUSSOU;205695;R;22/04/2024;205695;BIA01;22/04/2024;E;;;
76225348;1404062;01/06/2024;50016062;849925;MLE KANGA TEHOUA YVETTE;75733;R;22/04/2024;75733;BIA01;22/04/2024;E;;;
76225688;1393239;01/06/2024;50016063;849160;M. DIENG MALICK;285257;R;22/04/2024;285257;BIA01;22/04/2024;E;;;DAVID
76225224;1403507;01/06/2024;50016065;718098;M. SAMA ISSOUF;189920;R;22/04/2024;189920;BIA01;22/04/2024;E;;;AUGUSTE
76225746;1404530;01/06/2024;50016068;848296;MME KAHIBA ELISA YAYOUA;155484;R;22/04/2024;155484;BIA01;22/04/2024;E;;;
76225226;1403510;01/06/2024;50016069;611145;M. CISSE BAZOUMANA;191571;R;22/04/2024;191571;BIA01;22/04/2024;E;;;
76225298;1403737;01/06/2024;50016072;684555;Mle TOURE MARIAM GNOUMAFI;460871;R;22/04/2024;460871;BIA01;22/04/2024;E;;;
76225229;1403518;01/06/2024;50016074;741535;M. KOUAKOU N'GUESSAN BERTIN;187911;R;22/04/2024;187911;BIA01;22/04/2024;E;;;
76225213;1403491;01/06/2024;50016076;122726;M. BRAHIMA KONET;184360;R;22/04/2024;184360;BIA01;22/04/2024;E;;;
76225222;1403503;01/06/2024;50016077;825214;M. TUO NANGALOUROU;189412;R;22/04/2024;189412;BIA01;22/04/2024;E;;;
76225081;1403098;01/09/2024;50016079;637655;M. GUEI GUY MARCELIN;370332;R;22/04/2024;370332;BIA01;22/04/2024;E;;;
76225238;1403526;01/06/2024;50016084;821198;M. COMPAORE HUBERT;204221;R;22/04/2024;204221;BIA01;22/04/2024;E;;;
76225232;1403522;01/06/2024;50016085;728547;M. SOUMAHORO BEN IBRAHIMA;198903;R;22/04/2024;198903;BIA01;22/04/2024;E;;;
76225249;1403536;01/06/2024;50016088;791735;M. KOUETON SERGE;188726;R;22/04/2024;188726;BIA01;22/04/2024;E;;;
76225221;1403502;01/06/2024;50016093;615499;M. SORO NAMAN;186741;R;22/04/2024;186741;BIA01;22/04/2024;E;;;
76225216;1403497;01/06/2024;50016094;828794;MLE SOMA AHOU EUGENIE;184719;R;22/04/2024;184719;BIA01;22/04/2024;E;;;
76225236;1403524;01/06/2024;50016095;811640;M. KOUAKOU  KOUAME;199784;R;22/04/2024;199784;BIA01;22/04/2024;E;;;
76225319;1395307;01/06/2024;50044201;644482;M. KOFFI ROBERT;239898;R;23/04/2024;239898;BIA01;23/04/2024;E;;;
76225303;1403762;01/06/2024;50044202;783774;M. ILBOUDO CHRISTOPHE;97101;R;23/04/2024;97101;BIA01;23/04/2024;E;;;
76225115;1403123;01/08/2024;50044203;664485;M. AKPA JEAN;192303;R;23/04/2024;192303;BIA01;23/04/2024;E;;;
76225465;1404143;01/06/2024;50044204;643552;Mme GUILAVOGUI EPSE TOKPA VERONIQUE;820548;R;23/04/2024;820548;BIA01;23/04/2024;E;;;
76225117;1403124;01/07/2024;50044205;778918;M. ARON-BRUNETIERE CAMILLE;215024;R;23/04/2024;215024;BIA01;23/04/2024;E;;;
76225025;1402505;01/06/2024;50044207;769749;MLE KONE NABOUNDOU;220845;R;23/04/2024;220845;BIA01;23/04/2024;E;;;
76225318;1249184;01/06/2024;50044208;807260;M. MELEDJE DJEDJEMEL JEAN RENE;370465;R;23/04/2024;370465;BIA01;23/04/2024;E;;;
76225960;1405530;01/07/2024;50044209;809848;M. YAO KOFFI VALENTIN;298586;R;23/04/2024;298586;BIA01;23/04/2024;E;;;
76225958;1405528;01/06/2024;50044210;820162;M. KOUTIONA YEO;297221;R;23/04/2024;297221;BIA01;23/04/2024;E;;;
76225262;1147792;01/09/2024;50044212;319134;Mle OUATTARA YENE YOLANDE;2650763;R;23/04/2024;2650763;BIA01;23/04/2024;E;;;
76225686;1404484;01/06/2024;50044214;851371;MLE KABLAN  ANNICK ANDREA;611316;R;23/04/2024;611316;BIA01;23/04/2024;E;;;
76225557;1404373;01/06/2024;50044215;833493;MME AGNINIME HORTENSE;457879;R;23/04/2024;457879;BIA01;23/04/2024;E;;;
76225429;1404115;01/06/2024;50044217;789472;M. N'GORAN  N'GUESSAN LAURENT;81123;R;23/04/2024;81123;BIA01;23/04/2024;E;;;
76225991;1405549;01/07/2024;50044218;846863;MLE N'GUESSAN TECLE NADEGE;321748;R;23/04/2024;321748;BIA01;23/04/2024;E;;;
76225365;1404067;01/06/2024;50044220;679413;M. IRIE BI IRIE MATHURIN;95063;R;23/04/2024;95063;BIA01;23/04/2024;E;;;
76225118;1403126;01/08/2024;50044221;777586;M.  OBITE DAKOURI FRANCK AUBIN;204490;R;23/04/2024;204490;BIA01;23/04/2024;E;;;
76225497;1404170;01/06/2024;50044223;345012;Mle KOUAME AFFOUE FLORANCE;1922867;R;23/04/2024;1922867;BIA01;23/04/2024;E;;;
76225419;1404106;01/06/2024;50044224;855480;M. KONE SEYDOU;300388;R;23/04/2024;300388;BIA01;23/04/2024;E;;;
76225436;1404120;01/08/2024;50044227;848315;MLE SANGARE KADY;313012;R;23/04/2024;313012;BIA01;23/04/2024;E;;;
76225716;1404506;01/06/2024;50044228;519658;M. CISSE FOUSSENI;256409;R;23/04/2024;256409;BIA01;23/04/2024;E;;;
76225308;1403789;01/06/2024;50044229;760550;M. KONAN  N'GUESSAN;118495;R;23/04/2024;118495;BIA01;23/04/2024;E;;;
76225691;1404487;01/06/2024;50044230;853693;MLE GISELE GNANGORAN;65440;R;23/04/2024;65440;BIA01;23/04/2024;E;;;
76225302;1403746;01/06/2024;50044232;773027;M. KOFFI BOUELI GERVAIS;98192;R;23/04/2024;98192;BIA01;23/04/2024;E;;;
76225277;1403619;01/06/2024;50044233;852800;M. TEHUA ATTA YAO MAXIMIN;295840;R;23/04/2024;295840;BIA01;23/04/2024;E;;;
76225305;1403774;01/06/2024;50044234;783218;M. ANOKA YEBI LEONCE JOEL;99157;R;23/04/2024;99157;BIA01;23/04/2024;E;;;
76225024;1402504;01/06/2024;50044236;706477;M. FTOUNI ALI;220324;R;23/04/2024;220324;BIA01;23/04/2024;E;;;
76225419;1404106;01/06/2024;50044239;855480;M. KONE SEYDOU;300388;R;23/04/2024;300388;BIA01;23/04/2024;E;;;
76225306;1403778;01/06/2024;50044240;785399;M. AMANI JEAN;108004;R;23/04/2024;108004;BIA01;23/04/2024;E;;;
76225301;1403743;01/06/2024;50044244;757335;MLE KAKOU ASSOH ODETTE;86191;R;23/04/2024;86191;BIA01;23/04/2024;E;;;
76225414;1404102;01/06/2024;50044246;749623;M. OUATTARA ABDOULAYE DESIRE;59002;R;23/04/2024;59002;BIA01;23/04/2024;E;;;
76225310;1403812;01/06/2024;50044247;792704;MLE TRO ZRANKEWON MARINA;119421;R;23/04/2024;119421;BIA01;23/04/2024;E;;;
76225117;1403124;01/07/2024;50044249;778918;M. ARON-BRUNETIERE CAMILLE;193581;R;23/04/2024;193581;BIA01;23/04/2024;E;;;
76225309;1403803;01/06/2024;50044250;790398;M. PEKOU KOFFI RAYMOND;118253;R;23/04/2024;118253;BIA01;23/04/2024;E;;;
76225993;1405551;01/07/2024;50044251;846847;MLE ASSIE TANAH AGATHE;321687;R;23/04/2024;321687;BIA01;23/04/2024;E;;;
76225450;1404130;01/06/2024;50044254;335331;Mle N'DAH EBEHE CLEMENTINE;1380000;R;23/04/2024;1380000;BIA01;23/04/2024;E;;;
76225123;1403130;01/08/2024;50044256;485443;M. SORO GNINACAN JEAN PAUL;220778;R;23/04/2024;220778;BIA01;23/04/2024;E;;;
76225367;1404068;01/06/2024;50044260;369913;M. SANOGO FOUNGO;298231;R;23/04/2024;298231;BIA01;23/04/2024;E;;;
76225989;1405547;01/06/2024;50044261;815020;M. COWPPLI-BONY YAO -BAH GAEL-XAVER;300891;R;23/04/2024;300891;BIA01;23/04/2024;E;;;
76225691;1404487;01/06/2024;50044262;853711;GISELE GNANGORAN;65225;R;23/04/2024;65225;BIA01;23/04/2024;E;;;
76225303;1403762;01/06/2024;50044263;783774;M. ILBOUDO CHRISTOPHE;97330;R;23/04/2024;97330;BIA01;23/04/2024;E;;;
76225635;1404441;01/06/2024;50044265;592364;Mle KIPRE SAHOUA FRANCINE;431575;R;23/04/2024;431575;BIA01;23/04/2024;E;;;
76225352;1238194;01/06/2024;50044266;792231;MLE AMOUSSOU YVETTE;112923;R;23/04/2024;112923;BIA01;23/04/2024;E;;;
76225657;1404455;01/12/2024;50044267;841676;M. KARABOUE  ABDOULAYE;266581;R;23/04/2024;266581;BIA01;23/04/2024;E;;;
76225427;1103816;01/06/2024;50044268;643080;M. ATSE N'TAMON INNOCENT;2550000;R;23/04/2024;2550000;BIA01;23/04/2024;E;;;
76225119;1403127;01/06/2024;50044269;653233;M. NIAMKEY KOFFI JEAN MARIE;220814;R;23/04/2024;220814;BIA01;23/04/2024;E;;;
76225672;1404466;01/12/2024;50044271;817517;M. AHOURE GNONDJUI PIERRE ROMARIC;202485;R;23/04/2024;202485;BIA01;23/04/2024;E;;;
76225990;1405548;01/07/2024;50044273;849571;M. KONATE SEYDOU;157236;R;23/04/2024;157236;BIA01;23/04/2024;E;;;
76225962;1405532;01/12/2024;50044274;715910;M. BOUKARY OUEDRAOGO;174635;R;23/04/2024;174635;BIA01;23/04/2024;E;;;
76225350;1404063;01/06/2024;50044276;738400;M. YAPO EBAKA ANGE BARTHELEMY;107155;R;23/04/2024;107155;BIA01;23/04/2024;E;;;
76226017;1405857;01/06/2024;50098665;735919;M. GAOUSSOU SAGUIDI FOFANA;70629;R;25/04/2024;70629;BIA01;25/04/2024;E;;;
76225404;1404096;01/06/2024;50098666;850635;M. kY ALPHA ABDOUL KARIM;153844;R;25/04/2024;153844;BIA01;25/04/2024;E;;;
76225420;1404107;01/06/2024;50098667;778810;M. GNEPA GNAOUE PASCAL;73808;R;25/04/2024;73808;BIA01;25/04/2024;E;;;
76225861;1405450;01/08/2024;50098670;490330;M. SERI BAHI ALFRED;382188;R;25/04/2024;382188;BIA01;25/04/2024;E;;;
76225270;1403592;01/07/2024;50098672;850381;MLE BOHUI  ZEHIA MARIE MARCELLE;292983;R;25/04/2024;292983;BIA01;25/04/2024;E;;;
76226023;1405862;01/06/2024;50098673;729498;M. DIABY VASSIAKA;81316;R;25/04/2024;81316;BIA01;25/04/2024;E;;;
76225078;1403094;01/09/2024;50098674;793274;M. N'GORAN KOFFI ARMEL LANDRY;389595;R;25/04/2024;389595;BIA01;25/04/2024;E;;;
76225481;1404155;01/06/2024;50098675;827729;MME N'DEPO MANOU ADELE;305598;R;25/04/2024;305598;BIA01;25/04/2024;E;;;
76225425;1404113;01/06/2024;50098676;786487;M. DIABATE SOULEYMANE;59660;R;25/04/2024;59660;BIA01;25/04/2024;E;;;
76225407;1404097;01/06/2024;50098679;638987;M. KONE SAMOUKA;372232;R;25/04/2024;372232;BIA01;25/04/2024;E;;;
76225860;1405449;01/09/2024;50098680;795845;M. AGBASSI FERNAND;309616;R;25/04/2024;309616;BIA01;25/04/2024;E;;;
76225091;1403104;01/08/2024;50098684;791634;M. COULIBALY MASSIRIMAN;310470;R;25/04/2024;310470;BIA01;25/04/2024;E;;;
76225234;464442;01/09/2024;50098685;464442;Mle ADJAPO CHARLES DANIELLE HERVEE;633236;R;25/04/2024;633236;BIA01;25/04/2024;E;;;
76226226;1406555;01/06/2024;50098688;852197;M. TRAORE AHMED ADAMAN;191373;R;25/04/2024;191373;BIA01;25/04/2024;E;;;
76226022;1405861;01/06/2024;50098691;730950;M. TRAYE BI KOHOU DANIEL;91819;R;25/04/2024;91819;BIA01;25/04/2024;E;;;
76226014;1405854;01/06/2024;50098695;748951;M. DIARRASSOUBA IBRAHIM;91333;R;25/04/2024;91333;BIA01;25/04/2024;E;;;
76225122;1403129;01/06/2024;50098696;852423;MLE KOUAME MONCHIBO CHRISTELLE;167322;R;25/04/2024;167322;BIA01;25/04/2024;E;;;
76225124;1403131;01/06/2024;50098697;784714;MLE AWA DOUKOURE;320882;R;25/04/2024;320882;BIA01;25/04/2024;E;;;
76225103;1403112;01/06/2024;50098698;852034;M. KOUAME  ATTOUNGRE ALPHONSE;225211;R;25/04/2024;225211;BIA01;25/04/2024;E;;;
76225744;1404529;01/06/2024;50098699;852587;M. BLYO DJAGOURI ARMEL;100306;R;25/04/2024;100306;BIA01;25/04/2024;E;;;
76225260;1403553;01/08/2024;50098701;806240;M. OUATTARA LADJI;204782;R;25/04/2024;204782;BIA01;25/04/2024;E;;;
76226015;1405855;01/06/2024;50098702;456027;M. SILUE AMADOU FALLA;66825;R;25/04/2024;66825;BIA01;25/04/2024;E;;;
76225569;1404379;01/06/2024;50098704;661047;M. MAMBO HENRI MARCEL;117514;R;25/04/2024;117514;BIA01;25/04/2024;E;;;
76226017;1405857;01/06/2024;50098706;735919;M. GAOUSSOU SAGUIDI FOFANA;70629;R;25/04/2024;70629;BIA01;25/04/2024;E;;;
76225569;1404379;01/06/2024;50098708;661047;M. MAMBO HENRI MARCEL;117966;R;25/04/2024;117966;BIA01;25/04/2024;E;;;
76225402;1121920;01/06/2024;50098711;852770;M. ANAMELO KOUSSIRA GILBERT;305235;R;25/04/2024;305235;BIA01;25/04/2024;E;;;
76225108;1403116;01/06/2024;50098712;610550;M. OUATTARA SOULEYMANE;281148;R;25/04/2024;281148;BIA01;25/04/2024;E;;;
76225085;1403102;01/08/2024;50098713;776564;MME SIBLI NEE KOFFI AKISSI JOELLE;746613;R;25/04/2024;746613;BIA01;25/04/2024;E;;;
76226005;1405843;01/06/2024;50098714;772819;M. SIDIBE ROKYA;95135;R;25/04/2024;95135;BIA01;25/04/2024;E;;;
76225568;1404378;01/06/2024;50098715;392806;M. ALAWODE SIKIRU ADEWALE;521764;R;25/04/2024;521764;BIA01;25/04/2024;E;;;
76225251;1403539;01/08/2024;50098716;849822;MLE YAPO ODETTE;620267;R;25/04/2024;620267;BIA01;25/04/2024;E;;;
76225247;1403534;01/08/2024;50098717;846965;MLE MONDE CHIAYE ARLETTE;326330;R;25/04/2024;326330;BIA01;25/04/2024;E;;;
76226012;1405853;01/06/2024;50098720;757295;M. KOUYATE FODE;92023;R;25/04/2024;92023;BIA01;25/04/2024;E;;;
76226030;1405872;01/06/2024;50098722;848189;M. GOHOU BI  TIZIE WILFRIED;106410;R;25/04/2024;106410;BIA01;25/04/2024;E;;;
76225086;1403103;01/09/2024;50098724;630007;M. AHISSI KOUASSI JEAN-FRANCOIS;311056;R;25/04/2024;311056;BIA01;25/04/2024;E;;;
76225417;1404104;01/06/2024;50098726;747205;M. BAH BOUBACAR;117834;R;25/04/2024;117834;BIA01;25/04/2024;E;;;
76226024;1405863;01/06/2024;50098728;726326;M. BAKAYOKO DAO;80910;R;25/04/2024;80910;BIA01;25/04/2024;E;;;
76226027;1405868;01/06/2024;50098729;707755;M. KARAMOKO FADIKA;82160;R;25/04/2024;82160;BIA01;25/04/2024;E;;;
76225076;1403089;01/06/2024;50098730;825814;M. OUEDRAOGO IBRAHIM;210821;R;25/04/2024;210821;BIA01;25/04/2024;E;;;
76225569;1404379;01/06/2024;50098732;661047;M. MAMBO HENRI MARCEL;73071;R;25/04/2024;73071;BIA01;25/04/2024;E;;;
76225272;1403596;01/08/2024;50098734;832563;MLE DABRE ZEINAB;189731;R;25/04/2024;189731;BIA01;25/04/2024;E;;;
76225407;1404097;01/06/2024;50098739;638987;M. KONE SAMOUKA;209294;R;25/04/2024;209294;BIA01;25/04/2024;E;;;
76224924;1401994;01/06/2024;50098740;816201;MLE KONAN AKISSI EDITH;237424;R;25/04/2024;237424;BIA01;25/04/2024;E;;;
76225083;1403100;01/08/2024;50098741;802068;M. ADJIMANI OUATTARA ERIC;375318;R;25/04/2024;375318;BIA01;25/04/2024;E;;;
76225569;1404379;01/06/2024;50098742;661047;M. MAMBO HENRI MARCEL;117846;R;25/04/2024;117846;BIA01;25/04/2024;E;;;
76226028;1405870;01/06/2024;50098744;698651;M. OUATTARA MAMADOU;89394;R;25/04/2024;89394;BIA01;25/04/2024;E;;;
76224915;1401981;01/06/2024;50098745;743444;M. KINDO NOUFOU;234512;R;25/04/2024;234512;BIA01;25/04/2024;E;;;
76226006;1405844;01/06/2024;50098746;769705;M. N'DRI KOFFI VENANCE;95795;R;25/04/2024;95795;BIA01;25/04/2024;E;;;
76226219;795945;01/06/2024;50098761;795945;M. LOGOZENI TRAORE;507171;R;25/04/2024;507171;BIA01;25/04/2024;E;;;
76226187;1138034;01/06/2024;50098763;828366;MLE KOBENAN ADJOUA FLORENTINE;85574;R;25/04/2024;85574;BIA01;25/04/2024;E;;;
76226187;1138034;01/06/2024;50098764;828366;MLE KOBENAN ADJOUA FLORENTINE;100769;R;25/04/2024;100769;BIA01;25/04/2024;E;;;
76226279;1406599;01/08/2024;50098765;661865;M. OLAOYE RASAK;131109;R;25/04/2024;131109;BIA01;25/04/2024;E;;;
76226280;1406604;01/08/2024;50098769;666615;M. KOUDOUGNON GBALLOU CHRISTIAN;170930;R;25/04/2024;170930;BIA01;25/04/2024;E;;;
76226281;1406609;01/07/2024;50098770;838202;M. DEA LASSINA;146023;R;25/04/2024;146023;BIA01;25/04/2024;E;;;
76226284;1406617;01/09/2024;50098771;685590;Mle AKA AYA ELIANE;150184;R;25/04/2024;150184;BIA01;25/04/2024;E;;;
76226256;1406577;01/06/2024;50098775;848169;M. ATTA  AMON MICHEL;55619;R;25/04/2024;55619;BIA01;25/04/2024;E;;;
76226221;1406552;01/06/2024;50098776;842949;M. TOKRO GNAGBE ARMAND;179112;R;25/04/2024;179112;BIA01;25/04/2024;E;;;
76226239;1406561;01/06/2024;50098777;852052;M. DJIGUEMDE AMADOU;305511;R;25/04/2024;305511;BIA01;25/04/2024;E;;;
76226002;1405559;01/06/2024;50099424;767890;MLE DEPEHI SAHI ANNICK TATIANA;69095;R;26/04/2024;69095;BIA01;26/04/2024;E;;;
76226008;1405846;01/09/2024;50099425;854363;M. AKELLY KODJO;1122418;R;26/04/2024;1122418;BIA01;26/04/2024;E;;;
76225963;1405533;01/07/2024;50099427;853731;M. KONAN   KOUADIO PAULIN;957463;R;26/04/2024;957463;BIA01;26/04/2024;E;;;
76225996;1405553;01/06/2024;50099429;769201;M. AMED DIOMANDE;91576;R;26/04/2024;91576;BIA01;26/04/2024;E;;;
76225997;1405554;01/06/2024;50099431;786077;M. NAHOUNOU BOUAZO ERIC;96497;R;26/04/2024;96497;BIA01;26/04/2024;E;;;
76226001;1405558;01/06/2024;50099432;770514;M. OUEDRAOGO HAMADE;91574;R;26/04/2024;91574;BIA01;26/04/2024;E;;;
76225995;1405552;01/06/2024;50099433;775207;M. KABRE ALI;86228;R;26/04/2024;86228;BIA01;26/04/2024;E;;;
76225906;1405490;01/06/2024;50099434;853589;MLE KONGO SITA;295840;R;26/04/2024;295840;BIA01;26/04/2024;E;;;
76226000;1405557;01/06/2024;50099435;782557;M. DIOMANDE N'GODIO;77071;R;26/04/2024;77071;BIA01;26/04/2024;E;;;
