NUMERO_POLICES;NUMERO_QUITTANCE
33433478;66894150
33333361;65154296
33454947;78315315
33453031;77294829
33327504;55823884
33402387;57014863
33409725;58907604
33426229;63600335
33434132;67097089
77200409;59190673
33445732;73796187
33405837;57903922
33451969;76515558
33315056;54264019
33449109;75329324
33409335;58798141
33444028;73057952
77017473;61642816
33448413;74837951
77006054;57974724
33427186;63888113
33444474;73300889
33450786;75898709
33406345;58157938
33450801;75898733
33454088;77760662
77800779;60907747
33439748;70322230
33432476;66453053
33426163;63599602
33403416;57332164
33435698;67857272
33431099;65811318
33446326;73822199
33455978;78613437
33432348;66451384
77016682;61638557
33442622;71977760
33454622;78029648
33451964;76515553
33427646;64028445
33437714;69281125
33429333;64711878
33453716;77714187
33417626;60904219
33456123;78637873
33401845;56862833
33443108;72487559
33456138;78637888
33456080;78623842
33000715;52322925
33002398;52492349
33446191;73822063
33437183;68531897
33450489;75643102
33315276;54264075
33422971;62633289
33452905;77040848
33407585;58363540
33439545;70317120
33308611;53348713
33427912;64168111
33323897;55205229
33450621;75895711
77022594;62729463
33442234;71969958
33429091;64553749
33432877;66671553
33434761;67561264
33442039;71740031
77800859;62214778
77017398;61642624
33435656;67857220
33302756;52900117
33300951;52770986
33453344;77362530
33440360;70740433
33442935;72244549
77023537;63042843
33319794;54717906
33438212;69551913
33446819;74066523
33451385;76494645
33432400;66452557
33448163;74825279
33453727;77714198
33455653;78605323
33416275;60418533
33333764;73810602
33455174;78319666
33446130;73806419
33435955;68105185
33449520;75332480
33404296;57544584
33316575;54425638
33436526;68298067
33441229;71242378
33429032;64553476
33440187;70729986
33411781;59238828
33312911;60774966
33445083;73334460
33423744;63040558
77006847;59088853
33429747;65151865
33446969;74066672
33328218;55849026
33447406;74339202
33321558;54927558
33309265;53400949
33451199;76257652
33453992;77754693
33445847;73798521
33408148;58466005
33417137;60734563
33442177;71969880
33442706;72224785
33419885;61632277
33456429;78947651
33434819;67592403
33326168;55632004
33442422;71977292
33442315;71971052
77024066;63245306
33457154;79284308
33425651;63460235
33419921;61632667
33413550;59702663
33428616;64388346
33444007;73057540
33315499;54325899
33450705;75895832
77200101;56715891
33446526;73822401
77300268;63186706
33325397;55514548
33416293;60418656
33444065;73076149
33440790;70987117
33324467;55373483
33304837;53043731
33446538;73822413
33429996;65370088
33444513;73300928
33448086;74593897
33444446;73300861
33421585;62082007
33452242;76761032
77020685;62498878
77012916;60544424
33416298;60418716
33430651;65617425
33444194;73300602
33451357;76494617
33427686;64028752
33451453;76494719
77023681;63043604
33454880;78307757
33449075;75329270
33409070;58698320
33450880;75898820
33453115;77299502
33426276;63601168
33411166;59122226
77014149;60613736
33455082;78315449
33450681;75895795
33436735;68497972
33421598;62082133
33452620;76784765
33450021;75357523
77021824;62635823
33430184;65612460
33302944;52931787
33425999;63594134
33444434;73300849
33450380;75642992
33442293;71970071
77800790;60908612
33301645;52771131
33431037;65808360
33411116;59090596
33442984;72244601
33435069;67680459
33441013;70999723
33438126;69535545
77800820;61772242
33433578;67077443
33437238;68532022
33454121;77760696
33433918;67093342
33455871;78613328
33333772;74594706
33327492;55823869
33420611;61770498
33443465;72740788
33436185;68271328
33438657;70105915
33452685;77032011
33312582;53991760
33418705;61201550
33446838;74066541
33446922;74066625
33438267;69608514
33451700;76504393
33416771;60611321
33419583;61509890
33325057;55514314
77020563;62497835
33406290;58040457
33451186;76257639
33415832;60297174
33448906;75324474
33404105;57544407
77022489;62728412
33314077;54159427
33402030;56894708
33432985;66673803
33430658;65617435
33424543;63186804
33454684;78041087
33453845;77739494
77022163;62719935
33455709;78605379
33448011;74589767
33400934;56600022
11601011;57647649
33440302;70737622
33438556;69892089
33433613;67077663
33421793;62180704
77800297;56973428
33435249;67815608
33422769;62500341
33443274;72519799
77008945;59929529
33454055;77760629
33304396;52996687
33327182;55823177
33325052;55514309
33448539;74840509
77010492;60169221
33426430;63738236
33448196;74825325
33302205;52846298
33410851;59021222
33435637;67857196
33312037;53914942
33451381;76494641
33315736;54328235
33325989;55631650
33333489;67851136
33435587;67857133
33323914;55205246
33312822;53992600
33455995;78613454
33415463;60288299
33447874;74583342
33322265;55017576
33446279;73822151
33438412;69610736
33441176;71215441
33404770;57674918
33001638;52429029
33311052;53783921
33435396;67855416
33415208;60172670
77010870;60291819
33408698;58665071
33431930;66274485
33438013;69463088
33405989;57974929
33305023;53062538
33436313;68289995
33424070;63045400
33333789;76166987
33452319;76777271
33451343;76494603
33440291;70737611
33435911;68097657
33433638;67078046
33452731;77032064
33435039;67679234
77017518;61642945
33421089;61952048
33426948;63884221
33421959;62221105
33436801;68502247
33427316;63888724
33433746;67085638
33444173;73300581
33455120;78319571
33409207;58798020
33420892;61897254
33447763;74572726
33455131;78319590
33448085;74593896
33317903;54539780
33451620;76501675
33449595;75338516
33443781;72760214
33402525;57085308
33442175;71969878
33445238;73435862
33453729;77714200
33326312;55726491
33303774;52978151
33321670;54905602
33448397;74837934
33400159;56420820
33450682;75895799
33321044;54927441
33410301;59564681
33408141;58496737
33449289;75329510
33453492;77661445
77801061;67080224
33454133;77760706
33433096;66879289
33445888;73798571
33453327;77341435
33307445;53210221
33330356;56169117
33455579;78605243
33436781;68498017
33418573;61195506
33446921;74066624
33325144;55514348
33438905;70106210
33430298;65616200
33443685;72760109
33421136;61952418
33447239;74339034
33442254;71970010
77016069;61179148
33451231;76257685
33410537;58989909
33455048;78315416
33454111;77760686
33450485;75643098
33449448;75329668
33437380;68555685
33405754;57903889
33421397;61954478
77007901;59307551
33432879;66671556
77800921;63279380
33454677;78041080
33441467;71694332
33440685;70959003
33432559;66660430
33425140;63456418
33451311;76494572
33404201;57544492
33450466;75643078
33456057;78623819
33433457;66894029
33314851;54263834
77018930;62352177
33445010;73334380
33451229;76257683
33426421;63738144
33429255;64568243
77800295;57084871
33436783;68498019
33443380;72519904
33319772;54739538
33429073;64553639
33425832;63590200
33405716;57873056
33422414;62489768
77800934;63885379
33453544;77661539
33431626;66263156
33303396;52932193
33456177;78658791
33426470;63738670
33446872;74066575
33445303;73562929
33454572;78021954
33445719;73796174
33452813;77036832
33456257;78938078
33453223;77304829
33447528;74339339
33407322;58287473
33421654;62082381
33453723;77714194
77020957;62500102
33450629;75895731
33451265;76257721
33308892;53348878
33438642;69912357
33442711;72224793
33412565;59536686
33309222;53400886
33306151;53125689
33449607;75340111
33413260;59549469
33451540;76501595
77800663;59190719
33436679;68463883
33433757;67085901
33322399;54995071
33312564;53935792
33441292;71250058
33451192;76257645
33453094;77294896
33455007;78315375
77801165;77032539
33457779;79323393
77300213;63046709
33416997;60613921
33443540;72744479
33454561;78021943
33415982;60414453
33430912;65807513
33455183;78321005
33450879;75898818
33418150;61031195
33421693;62082915
33436407;68290089
33444948;73325447
33447426;74339222
33445855;73798529
33452615;76784760
33453719;77714190
77005703;57746850
33453266;77304872
33450584;75895651
33452299;76777250
33455086;78315453
33331938;58111609
33441658;71697053
77020927;62499900
33447243;74339038
33327985;55848806
33450375;75642987
33311125;53783994
33001409;52387305
33408623;58664652
33320379;54808464
33319980;54716214
77020243;62491801
33312481;53991709
33433373;66891389
33444241;73300650
33430463;65616962
77800063;56817042
33445057;73334434
33450871;75898810
77001839;54425081
33450805;75898737
33455188;78321010
33301240;52705243
33436035;68106725
33414655;60046900
33449169;75329392
33415973;60413540
33445068;73334445
33454110;77760685
77014506;60736304
33433016;66674025
33316927;54447714
33315863;54328270
33446492;73822367
33312697;53992308
33448442;74840412
33329233;55961220
33451839;76509442
33449706;75348300
33447146;74070623
33419053;61224995
33403365;57332116
33445642;73795467
77300140;62728534
33453793;77739428
77022292;62722382
77800739;60415468
33440288;70737608
33319298;54645544
77800878;62730923
33433916;67093323
33330496;56169159
33446802;74066506
33456358;78947578
33440497;70757504
33439447;70315442
33300046;52622574
33434283;67376268
77001280;54327373
33423774;63040617
33455878;78613335
33433236;66888048
33440848;70999546
33444234;73300643
33449174;75329397
33325223;55514423
33446775;74066479
33420777;61893398
33428472;64384273
33444420;73300835
33436995;68510079
33406713;58286897
33444198;73300606
77800260;56823017
33446718;74051591
33330495;56169158
77019862;62357689
77801034;66837360
33330316;56071392
33439742;70321511
33438813;70106082
33449786;75357140
33309040;53349002
77006380;58664114
33429414;64724309
33444635;73316956
33439827;70521785
33449244;75329466
33330489;56169155
77006206;58226865
33437231;68532009
33417621;60904164
33410040;58907901
33300890;52704978
33454099;77760674
33449087;75329302
33455708;78605378
33401756;56894479
33429253;64568229
33309742;53420741
33453261;77304867
33449063;75329250
33423548;62894421
33455716;78605386
33428633;64388416
33451726;76504419
33446157;73822029
77800202;56822972
33415410;60173771
33430401;65616753
33307572;53192310
33319166;54645468
33434740;67561234
33442318;71971055
33436039;68106729
33431293;66094435
33439240;70312082
33406169;58286385
33303133;52931959
33455919;78613377
77021022;62500521
33434946;67675904
33421355;61953986
33429964;65363961
33448219;74825361
33424395;63137540
33442792;72228113
33405629;57903810
77010955;60292508
77001348;54327432
33422666;62499498
33418171;61031591
77007111;59089078
33452115;76524010
33420132;61641508
33448513;74840483
33448985;75324561
11600149;51094463
77300177;63046102
33452626;77026121
33454683;78041086
33444019;73057940
33429985;65369355
33300903;52686877
33444402;73300816
33401392;56743293
33436949;68510025
33441416;71254380
33409572;58798327
33425616;63459968
33440602;70954757
33400893;56497983
77018259;62346058
33312364;53935659
33432531;66660274
33436879;68502325
77800773;60907710
33419060;61225121
33457282;79289232
77002775;54808166
33454872;78307749
33304941;53044122
77019118;62353709
33433149;66882051
33452974;77294763
33447348;74339145
33450908;75898852
33434910;67653712
33452424;76777384
77300282;63186796
33447212;74325499
33305131;53062639
33419566;61506936
33436812;68502258
33434863;67593388
33419715;61511523
33442352;71971090
33442596;71977464
33408487;58697999
33449313;75329533
33410791;59021166
33450804;75898736
33455576;78605240
33328256;55849058
33421563;62081942
33311793;53859542
33450900;75898844
33300170;52622780
33449848;75357202
33452486;76784604
33454581;78021963
33448260;74833734
33422070;62344929
33419054;61225068
33439900;70526807
33445947;73798637
33456117;78637867
33426218;63600125
33315034;54263997
77006458;58765189
33453590;77703449
33455867;78613324
33450637;75895741
77800569;57746941
33437451;68570087
33448417;74837955
33439216;70312058
33432694;66665483
77800124;56966441
77019974;62358282
33443048;72244665
33441584;71694453
33325134;55514339
33442203;71969921
77008478;59704668
33434220;67303688
33446282;73822154
33437939;69281360
33433575;67077413
33447495;74339306
33421359;61954016
33447246;74339041
77016043;61061277
33313602;54083159
33450602;75895670
33435710;67857287
33314159;54159475
33438692;70105951
77800126;56822911
77800720;59818474
33445035;73334408
77011060;60293432
33408050;58496682
33449508;75329728
33451058;76136318
33300329;52704869
33451689;76504382
77014696;60738680
33440476;70757469
33420919;61897535
77014529;60736363
33443606;72760032
33433698;67085178
33443985;73057508
33434876;67594296
33428752;64389371
77800792;60908618
33450151;75357653
33440365;70740439
33333193;63451932
33422554;62492114
33422882;62501311
77010768;60173795
33454192;77760767
33430416;65616777
33440641;70955292
33432987;66673806
33450387;75642999
33456121;78637871
33442581;71977449
33401985;56894667
77009008;59930449
33439962;70531869
33311546;53859323
33433281;66888465
33433571;67077345
33429680;65126024
33411479;59238535
33454558;78021940
33302230;52846318
77021731;62635633
33003127;52577618
33431212;66094306
33452550;76784672
33430260;65615439
33413796;59810099
33446847;74066550
33407528;58496564
33416397;60420888
33401256;56715451
33412688;59540360
33407820;58463451
33431921;66274341
33417932;60911673
33318412;54539959
33451718;76504411
33441983;71739973
33333190;63440040
33446164;73822036
33452106;76524001
33326245;55751289
33426582;63739548
33421228;61953262
77801071;67305041
77022161;62719434
33436960;68510036
33451855;76509578
33455150;78319622
77012270;60420654
33320573;55017369
33449388;75329608
33435986;68106676
33428854;64549445
33444881;73325290
33443630;72760056
33306448;53143440
33453339;77341448
33448345;74833819
77017619;61643381
33453030;77294828
33434559;67380609
33453073;77294874
33443745;72760178
33333428;66453016
33301660;52771146
33425301;63456895
33301430;52751607
33412436;59533681
33414701;60049827
33430349;65616691
77800217;56966453
33446865;74066568
33456367;78947587
33450633;75895736
33453065;77294866
33330790;56169230
33440091;70531998
33450975;76134405
33408777;58666791
77000945;54325713
33001180;52387143
77800843;62073645
33328925;55921335
33438965;70311807
33324238;55373306
33445931;73798620
33447697;74572618
33448461;74840431
33402268;57014794
33451687;76504380
33308790;53348796
33434199;67302890
33418881;61215619
33453279;77304885
33431535;66258036
77800177;56822953
33456090;78623852
33307368;53210148
33431782;66267141
33455686;78605356
33304844;53043743
33327298;55823492
77021580;62634644
33456240;78938059
33439956;70531863
33419402;61389343
77800636;58463057
33302311;52846378
33427495;64026793
77017536;61642978
33453242;77304848
33436312;68274903
77020561;62497813
33446914;74066617
33322584;55017738
33330181;56301684
33448947;75324515
33445510;73795332
33437287;68532187
33444588;73306560
33442341;71971079
33446579;73822452
33419200;61381941
33443131;72490163
33431547;66260914
33430150;65611928
33423164;62721662
33432749;66666041
33313999;54159354
33432603;66661593
33438797;70106065
33440780;70985276
33302308;52846376
33328363;55919954
33453026;77294823
77300216;63046731
33454756;78052062
33427749;64030620
33450737;75896319
33455842;78613299
33309741;53420740
33442097;71740089
33409984;58907850
77016269;61212313
77300119;62728295
77800627;58226974
33327247;55823423
33437277;68532171
33444862;73323182
33415747;60295037
33320863;54833581
33437344;68532436
33448174;74825290
33452960;77294749
33416331;60418892
33440721;70982142
33436652;68298195
33425927;63592657
33452440;76784558
33430805;65793876
33439193;70312035
77800208;56822977
33438215;69557122
33445339;73562965
33434994;67677606
33001545;52387435
33456368;78947588
33447033;74070510
33432021;66443572
33453580;77703439
33431610;66263069
33444526;73300941
77023305;63019030
33441295;71250061
33313230;54023646
33453844;77739493
33437041;68510145
77010956;60292509
33317834;54539711
77022819;62882613
33453413;77395231
33456071;78623833
33445205;73334586
33441661;71697177
33453671;77703532
33431173;66094045
33431013;65808234
77801136;74039878
33441762;71732106
33305255;53062751
33407339;58246171
33432409;66452588
33453036;77294834
33447253;75560084
33314864;54263847
33421589;62082035
33303487;52932281
77010657;60172374
77800190;56822962
33452495;76784613
33454899;78315157
33425913;63592442
77017537;61642979
33424864;63326903
33443976;73057496
33440622;70954777
33422053;62221796
33426917;63881980
33446498;73822373
33455768;78613224
33452447;76784565
33450691;75895808
33446081;73798790
33439042;70311884
33436064;68106754
33317018;54447801
33427351;64021984
33447741;74572704
33328918;55921327
77300027;60292400
33428865;64550118
33441975;71739965
77018200;62345369
33452407;76777364
33413469;59665427
33457734;79316812
33443156;72493495
33324047;55276688
33435206;67815561
33310199;53634685
77018412;62348885
33431487;66095674
33322588;55017742
33311717;53859470
33440569;70954719
33450656;75895766
33453072;77294873
33323491;55180215
77800789;60907873
33445757;73796210
33407631;58395813
33314879;54263862
77021016;62500501
33455379;78604404
33438864;70106148
33452672;77031998
33432499;66453164
33440560;70954708
33444102;73076186
33433825;67090135
33405159;57675181
33447568;74343858
33453285;77315225
33428491;64384604
33401871;56894587
33320673;54927371
33428224;64233398
33442166;71969869
33422954;62632534
77018472;62349254
33311628;53859387
33447944;74589700
33441527;71694395
33442187;71969890
33444445;73300860
33450186;75621563
33433919;67093346
33317865;54539742
33422632;62499364
33451370;76494630
33434792;67563367
33328002;55848822
33442400;71977270
33411193;59122253
33452362;76777315
33455026;78315394
33436997;68510082
33449176;75329399
33452904;77040847
33440996;70999706
33447626;74343917
33321877;54927715
33452525;76784646
33305002;53062519
33326048;55654733
33418012;60912146
33446184;73822056
33422407;62488233
77003855;55276586
33430546;65617185
33412509;59535216
33434785;67563286
33440441;70747290
33450957;76134153
33447985;74589741
33455466;78604493
33445134;73334514
33455111;78317554
33311885;53859616
33452272;76777223
33416188;60418043
33409450;58798208
33448228;74825915
77800821;61772243
33427726;64030441
33455454;78604481
33411008;59565245
33000137;52251090
33456385;78947605
77019278;62354337
33438171;69541741
33426562;63739325
33401329;58040294
33429308;64702755
33403884;57513464
33404580;57903749
33307542;53210312
77800158;56822937
77800439;57401570
33457753;79316855
33451492;76497959
77011419;60296311
33436738;68497975
33437864;69281284
33446765;74066469
33441296;71250062
33453326;77341434
33429119;64553917
33453298;77341389
33456015;78613474
33432327;66450910
33453088;77294889
33442361;71972331
33425309;63456909
33432412;66452592
33451032;76136291
33429044;64553497
33454320;78019974
33405132;57675157
33411314;59190789
33444891;73325300
33431060;65808575
33444654;73322862
33428354;64375095
33446950;74066653
33453023;77294820
33324316;55373346
33408581;59020777
33300224;52640263
33457264;79285568
33323080;55110396
33447715;74572678
33414812;60050263
33453208;77304809
33449414;75329634
33333169;63015502
33411766;59238813
33311822;53859561
33452864;77040807
33424200;63047007
33452963;77294752
33408528;58598165
33445242;73435931
77017711;61643632
33452349;76777302
77801007;66666632
33448596;74843518
77300145;62728839
33310901;53763305
33405338;57797759
33452866;77040809
33420806;61893837
33447966;74589722
33433122;66879466
33453494;77661448
33439115;70311957
33412006;59417551
33439730;70321499
33445237;73435854
33450843;75898780
33449010;75329162
33438680;70105938
33445243;73435957
33435605;67857157
33401984;56894666
33450214;75631039
77800356;57084911
33401346;56894138
33447753;74572716
33407670;58395838
77015278;60908088
33413371;59549620
33437077;68510183
33425646;63460222
77022710;62874131
33410050;58907911
33319795;54717877
33428898;64551077
33444393;73300807
33316793;54447591
33313134;54023567
33455582;78605246
33407956;58496624
33449609;75340113
33447034;74070511
33454910;78315168
33422572;62492317
77005241;57505952
33411801;59238847
33444944;73325443
33434916;67654145
33450397;75643009
33452742;77032077
33440647;70955898
33403749;57436781
33325066;55514322
33323573;55180408
33405998;57974959
33452535;76784656
33454149;77760723
33430073;65609464
33408839;58698118
33320136;54739683
33441236;71242385
33456339;78947555
33436136;68271190
33452346;76777299
33425790;63589604
77019834;62357557
33454988;78315356
77016961;61641164
33434702;67561194
33433132;66879518
33448930;75324498
33413017;59547063
33452988;77294779
33446108;73806372
33422670;62499514
77001276;54327370
33434181;67262642
33328142;55848951
33320695;54927376
33440357;70740429
33430552;65617197
33407786;58395943
33433042;66674317
33442745;72224827
33417558;60903223
77023600;63043078
33451433;76494697
33451377;76494637
33320916;54833632
77006393;58765130
33439021;70311863
33439442;70315437
33445411;73795233
77020089;62486759
33451953;76515542
33445560;73795382
33452213;76761003
33455711;78605381
33302424;52846477
33404418;57614734
33416230;60418104
33454635;78037305
33407288;58287441
33452384;76777338
77012853;60543942
77010900;60291849
33439522;70316193
33320262;55017360
33436751;68497987
77800771;60907644
33306800;53143781
33436938;68502384
33435753;67857342
33446652;74042894
33441775;71732119
33446445;73822319
33307093;53191368
33326984;55751797
33442512;71977381
33428600;64385245
33435672;67857240
33001569;52449691
33423391;62730819
77019960;62358252
33430490;65617069
33453565;77661573
33456828;78965869
33454870;78307747
33452991;77294782
77013594;60604570
33325132;55514337
33423308;62729849
33417689;60907240
33442879;72244493
77000051;53992910
33432662;66665084
33423894;63042055
33428588;64385227
33440547;70954692
33322573;55017727
33439283;70313406
33448017;74589773
33454924;78315292
33455959;78613417
33422761;62500285
33453997;77754698
33439718;70321487
33424320;63047629
33315097;54234939
33451088;76136348
33455194;78321016
33411380;59238459
77006429;58765162
33437756;69281170
33321444;54927513
33409587;58798342
33436957;68510033
33446696;74051551
33423132;62656195
33416555;60544428
33453511;77661475
33310963;53783860
33436816;68502262
33453922;77754620
77019497;62355467
77800946;65154836
77003593;55085802
77005177;58110068
33432605;66662227
77300252;63186106
33443316;72519840
33450802;75898734
77006200;58226860
33445918;73798607
33453621;77703481
33455108;78317551
33453515;77661482
33421671;62082555
33443932;72771515
33447245;74339040
33442337;71971075
33453510;77661473
33435528;67855637
33413599;59703175
33440778;70985274
77800746;60415551
33452780;77032119
33421074;61951975
77019167;62353794
33443315;72519839
33310375;53614031
33404818;57674952
33451454;76494720
33456163;78658756
33454674;78041078
33455938;78613396
33408105;58496714
33436116;68271165
33447457;74339253
33404063;57544365
33437471;69280868
33447030;74070507
33453337;77341446
33445496;73795318
33402110;56894787
33451673;76504366
33319630;54714582
33446486;73822361
77006022;57974698
33449454;75329674
33451234;76257689
33448210;74825352
77800358;57193863
33419895;61632311
77800774;60907718
33432013;66443455
33326369;55751362
33450360;75642973
33323059;55110378
33424628;63187366
33403697;57436747
33310925;53763506
33327537;55823966
33429686;65127996
33425220;63456700
33417693;60907244
33452717;77032048
77022687;62730323
33330641;56169197
33430323;65616262
33448580;74840550
33448451;74840421
33446095;73806343
77801104;70314936
33415877;60297505
33312710;53992392
33401053;56639782
33422751;62500166
33430457;65616956
33432268;66449714
33446941;74066644
33449127;75329344
33435776;67857373
33455195;78321017
33422722;62499843
33451104;76141486
33422121;62355113
33419466;61389465
33446403;73822277
33415040;60164714
33453564;77661572
33452309;76777260
33444972;73334342
33453833;77739480
33437227;68532000
33411937;59308056
33453702;77714173
33449124;75329341
33443453;72678305
33417611;60903946
33453662;77703522
33428464;64384253
33310155;53473847
33449433;75329653
33445677;73795502
33433505;66894334
33453325;77341433
33437184;68531900
33437507;69280911
33441243;71250008
33441587;71694456
33432428;66452638
33432700;66665785
33420767;61774486
33450936;75898886
33434805;67592389
33441802;71733940
33433784;67086077
33452506;76784626
33442519;71977388
33311390;53859230
33433776;67086065
77010172;60052425
33450578;75895645
33434795;67592143
77006030;57974704
33443446;72677671
33441470;71694335
33453436;77395285
33400525;56525281
33447730;74572693
33401789;56894510
33442708;72224788
33410874;59021244
33447128;74070605
33435957;68105187
33422986;62633366
33319866;54833294
33431632;66263196
33422109;62353849
33448183;74825299
33444364;73300777
33435580;67857124
77004736;57084802
77003347;55180028
33322025;54970173
33316208;54361872
33423060;62636093
33450026;75357528
77012593;60424400
33446007;73798716
33326132;55654814
33422699;62499670
33454726;78052030
77800220;56966454
77800777;60907727
33451151;76257604
33321232;54904066
77800906;62875541
33426496;63738734
33408831;58698111
33406443;58286645
33432615;66662769
33456100;78623862
33452356;76777309
33319100;55017349
33416893;60612003
33421686;62082766
33322679;55017790
33451806;76509384
33452574;76784700
33419202;61382511
33452099;76523994
33450171;75357672
33453078;77294879
33329484;55961356
33422706;62499743
77014940;60748184
33445938;73798628
33416805;60611804
33447210;74325497
33450462;75643074
33451455;76494721
33330200;56301687
33424677;63244346
33449160;75329381
33427950;64172394
77800932;63740973
77020077;62358542
33453467;77395335
33433265;66888358
33440894;70999604
33452884;77040827
33307511;53210286
33416107;60417227
33451238;76257693
33329028;55961033
33301090;52705115
33456258;78938079
33434495;67378998
33416795;60611508
33452127;76524022
33308378;53327772
33435228;67815584
33443766;72760199
33451791;76509352
33401500;56818290
33440333;70740393
77015108;60767828
33435678;67857247
33438455;69891973
33444252;73300661
77800414;57193888
33444949;73325448
33314513;54225779
33447548;74343459
77006968;59088948
77004762;57084826
33455688;78605358
33417647;60904488
33443149;72493488
33451900;76514970
33443299;72519823
33419478;61389487
33444668;73322881
77013100;60566703
33442093;71740085
33447065;74070542
33442994;72244611
33451368;76494628
33431573;66261669
33435757;67857348
33456822;78965863
77023097;62898441
33444916;73325415
33439662;70320244
33456510;78952897
77017879;61768533
33445932;73798621
33402196;57122275
33446313;73822185
33333177;63041932
33446528;73822403
33427020;63886159
33454122;77760697
33445934;73798624
77015433;60910456
33326414;55727031
33451046;76136305
33431695;66266194
33432817;66666753
33428384;64375184
33448003;74589759
33456050;78623811
33417650;60904770
33452415;76777375
33457539;79289487
33449909;75357263
33438319;69608570
33325387;55514539
33449581;75338502
33441358;71250124
33446750;74052015
33432652;66664419
33450218;75631044
33423619;63015194
33433167;66885151
33432598;66661587
33315057;54264020
33452708;77032037
33443737;72760170
33442827;72232433
33000675;52322906
33447560;74343472
33434621;67380700
33455450;78604477
33432707;66665796
33319009;54622485
33431971;66435792
33450523;75875562
33424709;63277979
33449870;75357224
33312618;53992147
33327835;55825374
33451823;76509424
33453672;77703533
33422180;62358027
33440680;70956344
33446971;74066674
33437897;69281317
33437738;69281151
33434450;67377371
77800039;56966433
33428037;64173788
33428900;64551079
33412406;59522163
33450238;75631064
33307592;53210335
33322162;55017506
33411983;68581615
33444694;73322948
33454439;78020093
33408638;58664670
33304314;52996612
33436371;68290053
33410597;58990124
33318586;54610659
33450510;75643447
33451049;76136308
33455883;78613340
33435197;67685422
33403219;57303320
33448986;75324562
33436687;68496339
77008960;59929562
33452807;77036825
33455480;78604507
33443011;72244628
33440563;70954712
33444642;73322845
33452204;76760994
77007611;59190545
33420080;61639189
33403443;57332189
33326668;55751575
33311884;53859615
33329184;55961173
77012577;60424278
33431123;65811503
33441730;71732074
33329712;55961530
33453646;77703506
33446705;74051564
77012280;60420724
33452585;76784730
33430385;65616729
33333490;67851705
33429146;64566896
33427908;64168107
33433720;67085595
33438213;69551916
33404499;57674699
33438528;69892056
33451450;76494716
33429109;64553823
33451297;76494557
77800983;66451460
33328663;55920423
33001878;52515063
33410095;58907954
33448504;74840474
33451373;76494633
33444774;73323043
33326524;55751458
33451502;76497969
33425859;63590911
33453741;77735757
33452369;76777322
33453082;77294883
33454593;78021975
33449643;75348237
33453256;77304862
33406052;58496556
33447433;74339229
33450443;75643055
33439445;70315440
77801059;67080178
33445953;73798644
33312868;53992771
33303562;52932353
33409127;58765477
33452526;76784647
33450625;75895727
33450674;75895788
77019572;62355626
33451618;76501673
33432554;66660354
33452611;76784756
33443586;72760012
33400704;56893581
33450334;75634721
33433964;67093878
33319170;54645472
33434211;67302980
33432488;66453145
33445215;73435600
33439195;70312037
77016960;61641162
33451386;76494646
33418957;61219095
33440548;70954693
33447550;74343461
33400011;55961592
33430913;65807517
33429102;64553815
33451426;76494688
77800890;62874618
33430276;65615456
33430589;65617292
33419272;61388887
33453503;77661461
33333582;68859030
33451101;76137678
33452487;76784605
77013851;60611107
77020731;62499076
33443623;72760049
77002726;54713558
33410724;59021126
33440380;70740472
33453083;77294884
33325244;55448255
33312709;53992526
33432862;66671120
33446154;73822026
33410158;58978184
33333302;64716493
33303636;52977894
33436125;68271177
33317847;54539724
33451983;76515572
33451270;76257726
33323936;55205267
33435050;67679572
33454772;78052079
33452483;76784601
77300198;63046569
77007117;59089084
33434720;67561213
33452509;76784629
77022394;62727783
33409701;58907583
33418833;61209995
33453329;77341438
33447531;74343442
33000800;52322984
33450970;76134400
77004704;57193626
33435203;70958999
33431507;66257652
33408498;58698004
77008962;59929564
33420190;61642837
77007058;59089030
33431885;66273351
33433261;66888349
77300263;63186658
77004741;57084806
33445747;73796202
77002960;54808238
33320554;54809088
33456174;78658774
33428369;64375150
33439081;70311923
33430204;65613912
33422259;62359078
33438683;70105941
33451948;76515537
33408393;58598100
33452751;77032087
33452831;77040774
33434380;67376583
33452197;76760505
33446905;74066608
33451388;76494648
33329951;56035016
33414600;60043512
33426698;63741653
33439950;70531857
33431268;66094397
33444371;73300785
33405244;57797711
33407021;58287193
33426241;63600400
33330606;56071491
33441885;71739830
33423281;62729271
33418525;61194714
33430100;65609746
33327189;55823190
33311516;53859296
33411143;59122206
33438327;69608580
33457565;79292364
77007020;59088994
33314646;54229724
33317685;54513017
33450803;75898735
33444395;73300809
33445579;73795401
33403528;57402216
33317827;54539704
33449797;75357151
33319522;54713972
33445398;73795221
33449739;75349003
33316948;54447735
33330136;56071357
33423126;62656172
33453251;77304857
77011196;60295159
33446974;74066677
33451410;76494671
33429463;64727436
33445609;73795434
33429648;64979486
77006446;58765179
33452237;76761027
33306640;53143625
33436183;68271326
33411790;59238836
33441813;71733951
33435353;67815839
33455707;78605377
33448351;74835716
77014042;60612710
33436877;68502323
33414483;59932250
33308819;53348822
33407833;58463545
33313176;54003333
33455434;78604461
33309223;53400887
33454181;77760755
33450668;75895782
33440634;70954799
33448622;74843550
77800089;56966438
33456348;78947567
33312392;53935682
77015677;61032814
33426829;63875784
33325658;55654479
33304282;52996581
33320508;54808959
33438028;69463103
33454956;78315324
33426840;63876678
33434452;67377374
33452271;76777222
33306626;53143611
33438708;70105967
33452372;76777325
33430266;65615446
33000890;52359803
33410421;58986888
33454061;77760635
77022270;62722156
33454168;77760742
33326128;55654810
33451762;76509283
33457291;79289241
33422076;62344980
33445234;73435835
33411393;59192090
33439895;70526802
33321603;54905236
33455774;78613230
33447191;74317397
33418007;60912136
77019598;62355716
33417106;60734519
33329330;56071284
33454556;78021938
33450601;75895668
33435159;67683696
33419931;61632680
33436389;68290071
33450687;75895804
33452995;77294787
33405980;57904025
33420286;61744330
33421144;61952498
33453735;77714206
33455845;78613302
77011227;60295208
33442932;72244546
33453305;77341407
33311573;53859343
77010589;60171957
33307904;53259079
77004750;57084815
33433458;66894030
33429457;64724677
77019543;62355593
33325945;55631441
33415500;60288966
33438044;69463119
33439427;70315422
33428177;64232556
33445728;73796183
33438384;69610680
33452314;76777265
77019593;62355685
33326913;55751729
33404689;57674859
33442831;72232437
33423193;62721886
33328912;55921314
33436575;68298116
33401980;56894662
77021160;62501510
33446026;73798735
33437353;68532448
33446836;74066539
33442237;71969961
77023679;63043600
33322689;55017800
33433523;66894441
33414174;59927631
33319790;54739555
33441906;71739858
33448704;74846918
33446223;73822095
33413750;59809892
33456320;78947533
33330255;56301693
33451589;76501644
33449074;75329269
33305001;53062518
33313507;54081895
33416371;60420015
77300068;60781756
77012138;60419711
33427244;63888513
33000989;52360048
33425225;63456714
77300144;62728834
33454525;78021907
33456430;78947652
33441949;71739939
33444569;73306501
77016236;61211333
33444515;73300930
33431484;66095644
33419037;61224823
33314143;54159459
33316032;54328485
77020369;62492512
33328645;55920406
33446370;73822244
33450877;75898816
33441610;71694479
77012053;60418050
33416781;60611424
33445030;73334402
77021970;62719087
33412730;59540453
33433155;66882101
33407875;58463819
33454117;77760692
33442418;71977288
33426297;63729721
33440824;70989944
33446658;74042900
33407985;58598009
77024195;63278392
33453722;77714193
33420995;61898989
77023479;63042569
33450450;75643062
33440004;70531911
33441546;71694415
33317413;54448058
77022454;62728262
77023958;63047328
33443497;72744430
33425439;63457449
33442265;71970022
33440937;70999647
33444808;73323077
77800591;57868729
33434246;67375726
33446185;73822057
33425051;63455153
33428077;64230771
33333437;66663962
33321779;77632006
33439599;70320181
33418170;61031587
33309180;53400761
33003652;52622380
33452760;77032098
77019534;62355579
33454629;78029656
33433253;66888318
33426586;63740836
33453717;77714188
33441110;71006950
33443949;72771543
33452517;76784637
33422902;62503031
33411437;59238498
77018432;62349104
33429535;64873872
77800443;57401573
77016239;61211417
33453736;77714207
33442536;71977404
77007057;59089029
33453701;77714172
33444932;73325431
33425279;63456855
33312018;53935435
33453778;77739409
33436928;68502374
33453802;77739440
33422968;62633286
33427690;64028777
33433851;67091088
33333281;64550883
33451458;76494724
33415507;60289051
33313848;54084680
33450590;75895657
33330323;56071397
33451218;76257671
33407917;58496594
33432657;66664974
33451299;76494559
33445534;73795356
33443311;72519835
33000338;52267787
33330299;56420791
33454201;77760777
33438752;70106017
33445965;73798656
77800429;57401565
33447588;74343879
33326902;55751719
33432680;66665344
33420298;61744443
33424354;63047914
33445552;73795374
33451754;76504449
33454142;77760715
33442167;71969870
33450458;75643070
33403751;57797639
77800526;57746929
33453730;77714201
33433595;67077548
33456421;78947643
33444049;73057980
33428793;64528706
33305301;53062794
33440242;70737562
77013087;60556522
33309440;53420556
33454926;78315294
33453837;77739484
33325358;55514511
33439695;70320277
33438355;69610633
33404139;57544441
33455782;78613239
33449678;75348272
33307761;53258385
33452283;76777234
33446641;74042883
33318407;54539954
33430688;65617577
33000661;52322892
33452128;76524023
33447052;74070529
33432278;66449954
33327721;56301652
33445214;73435584
33438634;69908637
33313852;54084707
33432342;66451349
33305446;53110056
33322569;55017723
33448350;74835715
33451130;76257582
33419175;61364200
33440325;70738432
33318583;54610656
33418683;61200816
33456292;78943784
33445095;73334472
33003725;52770956
33450640;75895744
33301382;52751323
33452421;76777381
33449247;75329469
33445546;73795368
77022788;62880893
33410623;59021047
33443325;72519849
33442659;72189189
33437976;69463042
33309718;53420717
77800167;57084866
33449956;75357309
33435377;67855398
33433103;66879314
77800881;62730964
33426761;63843731
33428347;64375064
33454212;77760867
33429449;64724564
33328208;55849016
33436282;68271432
77017073;61641597
33329955;56035046
33438174;69541910
33300145;52622749
33423745;63040559
77002285;54512273
77012810;60426075
33439009;70311851
33423118;62656148
77007233;59089333
33453288;77315227
33427832;64031369
77800066;56822877
77007256;59190242
33443192;72519716
33441779;71732123
77200113;56866880
33447202;74325489
33446869;74066572
33333795;77024867
33449654;75348248
33456004;78613463
33447314;74339110
33314821;54263807
33303559;52932351
33456898;79281538
33429935;65362666
33401413;56894198
33323204;55086907
33443349;72519873
33455989;78613448
77800645;58563382
33419290;61388959
33401849;56894566
33451774;76509309
77015125;60768491
33446707;74051567
33454591;78021973
33454278;78019932
77011694;60296855
33303158;52931984
33421235;61953278
33407480;58358938
33431533;66258033
33454526;78021908
33411688;59238738
33417119;60734545
77011436;60296389
77006779;59088822
33436955;68510031
77800077;56817045
33444719;73322973
33457566;79292368
33317098;54447876
33421313;61953675
33438979;70311821
33440351;70740421
33314935;54263909
33451090;76136350
33455385;78604410
33314992;54263961
33421667;62082462
33449634;75340137
33451954;76515543
33330380;56169125
33430577;65617275
33427348;64021981
33324861;55445389
33401444;56743321
33452232;76761022
77800947;65755138
33449804;75357158
33447941;74589697
33440709;70982129
33457713;79316789
33325133;55514338
33451106;76252385
77016959;61641163
33430813;65796073
33413784;59810072
33452011;76523896
33432430;66452640
33447658;75897879
33450727;75895861
33410762;58990627
33424514;63186553
33422909;62503215
33450771;75898691
33438101;69465277
33453491;77661443
33446309;73822181
33454932;78315300
77023029;62898170
33428351;64375091
33410210;58978445
33435508;67855613
33448965;75324533
33442392;71977262
33428182;64233138
33414609;60043862
33455905;78613363
33411511;59238566
33454453;78020107
77010662;60172385
33433354;66891312
33452227;76761017
33452107;76524002
33445305;73562931
33443444;72677502
33311886;53859617
33414238;59928776
33407075;58287243
33449294;75329515
33451310;76494571
33453299;77341390
33452409;76777368
33448604;74843526
33446875;74066578
33447967;74589723
33446703;74051562
33450446;75643058
33325050;55514307
33432041;66445383
33454761;78052068
33446521;73822396
33436290;68271441
33435697;67857271
77019038;62353031
33455324;78604346
33449827;75357181
33444214;73300622
33326671;55751578
33319132;54739387
33303784;52978160
33313285;54023684
77005915;57868620
33441706;71732050
33444819;73323088
33441413;71254377
33436028;68106718
33427668;64028671
33453714;77714185
33329297;55961240
33451093;76136353
33450973;76134403
33401670;56894420
33443238;72519763
33428482;64384292
33450115;75357617
33333774;74835986
33451483;76497950
33426831;63875786
33425900;63592407
33434635;67380714
33429571;64910295
33451002;76134432
33454853;78307730
33449578;75338499
33455406;78604432
33429749;65151890
33329016;55921625
33447124;74070601
33455694;78605364
33455422;78604449
33423231;62729041
33323069;55110387
33454319;78019973
33404166;57544465
33454754;78052060
33420049;61638381
33451651;76504344
33448258;74833732
33437264;68532132
33432116;66446394
33455963;78613422
33446135;73822007
33434566;67380627
33432846;66667951
33419246;61388746
33453650;77703510
33444664;73322877
33451848;76509456
33448546;74840516
33451383;76494643
33451369;76494629
33322492;55017669
33424272;63047444
33439120;70311962
33451599;76501654
33454118;77760693
33435420;67855442
33422859;62501103
33432836;66667690
33430230;65614066
33438702;70105961
33455104;78315471
33453191;77300202
33455301;78604321
33435627;67857183
33444812;73323081
33446080;73798789
33414543;59932967
33401660;56894410
33452240;76761030
33329393;55961322
33455589;78605253
33454545;78021927
33444243;73300652
33448903;75324471
33444696;73322950
33453724;77714195
33408276;58466505
77019531;62355569
77011717;60296922
33440286;70737606
33428825;64547657
33411687;59238737
33439567;70317141
33440002;70531909
33446621;74042863
33435211;67815567
33452393;76777347
33436690;68496342
33450017;75357519
33427903;64168089
33446061;73798770
33439570;70317144
33438026;69463101
33445289;73549202
33330481;56071450
33444811;73323080
33435832;67857565
33447645;74343936
33421609;62082179
33455825;78613282
33430639;65617407
77010766;60173793
33324360;55373383
33438241;69608488
77800884;62874449
77020075;62358540
33318376;54539924
33427606;64028229
33413033;59547079
33454106;77760681
33411154;59122214
33441850;71733988
77006090;58110091
33419248;61388758
33437953;69281379
33445302;73562928
33328108;55848918
77300026;60292396
33447398;74339194
33450272;75631099
33436149;68271204
77004426;56242787
33439557;70317131
33451016;76134446
33440928;70999638
77010497;60171496
33424984;63454020
33448942;75324510
77800775;60907719
33401245;56715389
33454551;78021933
33445029;73334401
33448713;74849096
33425549;63458263
33414494;59932280
33420819;61893891
33404217;57544507
33455968;78613427
33449058;75329243
33439496;70316167
33436381;68290063
77800722;59928387
33439720;70321489
33454509;78021891
33443173;72506553
33449943;75357297
33446028;73798737
77005208;57505922
33303175;52931998
33433240;66888231
33317810;54539688
33316387;54425158
33454215;78015807
33319973;54716195
33452823;77040766
33401178;56715224
33409185;58798001
33435006;67677989
33456335;78947549
33441047;71006855
33321013;54927426
33450893;75898837
33333788;76137933
33455335;78604360
33326084;55654768
77019550;62355600
77006279;58356101
33410519;65685144
33421374;61954264
77013802;60611012
77800324;57084882
33430147;65611897
33426360;63734583
33434599;67380672
33333250;64025562
33433108;66879320
33450848;75898785
33419144;61226803
77300229;63148794
33439491;70316162
33314089;54159439
33303558;52932350
33454569;78021951
33307953;53259208
33428480;64384288
33452967;77294756
33436986;68510070
33407706;58395870
33423404;62730860
33417712;60907284
33434166;67262081
33455964;78613423
33448959;75324527
33428180;64232560
33314033;54159385
33453614;77703473
33452281;76777232
33449792;75357146
33445199;73334581
33429791;65153153
33445956;73798647
33454059;77760633
33445707;73796162
33407350;58250327
33438433;69852714
33455962;78613421
33003882;65609001
33433871;67092295
33455101;78315468
33403830;57436843
33443899;72771471
33440257;70737577
33322360;55110274
77005207;57505921
77300110;62728031
33452494;76784612
33456132;78637882
33428646;64388472
33412170;59419244
33453640;77703500
33452010;76523895
33447222;74325656
33432743;66665955
33407111;58287274
33451989;76523871
33454609;78022398
33447572;74343862
77015169;60774618
33428636;64388424
33424089;63045489
33440493;70757496
77014682;60738658
33441968;71739958
33303744;52978120
33455755;78605424
33438225;69576564
33455528;78605192
33319777;54739542
33437012;68510107
33449720;75348314
33000020;52250850
33444570;73306504
33423151;62719865
33449641;75348235
33445148;73334528
33440676;70956340
33430061;65609375
33450892;75898836
33441419;71254383
33329149;55961141
33419108;61225869
33452978;77294767
33317266;54427040
33450469;75643082
33423465;62874293
77019056;62353122
33426423;63738177
33415878;60297507
33431687;66266186
33320000;54927273
77017854;61747454
33436561;68298102
33443865;72771431
33438203;69551894
33453673;77703534
33420772;61893386
33441541;71694409
33426132;63599488
33415620;60294694
33445902;73798591
33433293;66888487
33419008;61224186
33427265;63888596
33441564;71694433
33431948;66433032
33454187;77760761
33323622;55205032
33457747;79316844
33319903;54833320
33447864;74583327
33404121;57544423
33442920;72244534
33446952;74066655
33449551;75338472
33425156;63456482
33454797;78052105
33416020;60414662
33314058;54159409
77005763;57868489
33452612;76784757
33449229;75329451
33321012;54927425
33411597;59238650
33437730;69281142
33434541;67379931
33411438;59238499
33437399;68556277
33417174;60737423
33444015;73057935
33405717;57903854
33447765;74572728
33429917;65193274
33416632;60545650
33452674;77032000
33443375;72519899
33327494;55823871
33454535;78021917
33454199;77760774
33403703;57436753
33317688;54513018
33318155;54645210
33405585;57869375
33434108;67096983
33453656;77703516
33444851;73323124
33440698;70982117
33445109;73334489
33451975;76515564
33440932;70999642
33435800;67857399
77023672;63043556
33453010;77294805
33422873;62501193
33403987;57544294
77004354;56034032
33447860;74583323
33003294;52577691
33413501;59697141
33454627;78029654
77800908;62875568
33450039;75357541
33439150;70311992
33438092;69465268
33301842;52771319
33455790;78613247
33416200;60418059
33443521;72744460
33456336;78947550
33422826;62500488
77800182;56822957
33443767;72760200
33457657;79316724
33439600;70320182
33403547;57402235
77800903;62875499
33455681;78605351
33448291;74833765
33437250;68532075
33444324;73300735
33454000;77754701
33435352;67815838
33435807;67857407
33434324;67376327
33426336;63733076
33418531;61194803
33412266;59420796
33449024;75329192
33454057;77760631
33445433;73795255
33444725;73322979
33303143;52931969
33440952;70999662
33449135;75329354
33451649;76504342
33444501;73300916
77800106;56822895
33448375;74835740
33452795;77032134
33424417;63146853
33408115;58496723
33417970;60911898
33450725;75895859
33408189;58496756
33453262;77304868
33446085;73798795
33445102;73334480
33447890;74583357
33457554;79292335
33426739;63742300
77300122;62728342
33448609;74843531
33446074;73798783
33416790;60611449
33415517;60289076
33418027;60912192
33434310;67376313
33453333;77341442
33424406;63140748
77800111;56822899
33451286;76494545
33453317;77341425
33414150;59818312
77022526;62728840
33432380;66451887
33442403;71977273
33439152;70311994
77022789;62880894
33431211;66094305
33432594;66661562
33439997;70531904
33435534;67855667
33446817;74066521
33439994;70531901
33454779;78052087
77200484;60173799
33413186;59548777
77007524;59190465
33430671;65617485
33431663;66264127
77007076;59089048
77800933;63740980
33448283;74833757
33403540;57402228
33429851;65154692
33440973;70999683
33447621;74343912
33452677;77032003
33432109;66446328
33441032;71006840
33433433;66892546
33450561;75895629
33320266;54927295
77021843;62636009
33455900;78613358
33326311;55726490
33447996;74589752
33415724;60295006
33436717;68497954
33442251;71969993
77016879;61640855
33428704;64388970
33443244;72519769
33309215;53400881
33452989;77294780
33420630;61771075
33326725;55727818
33453117;77299504
33455209;78321031
33447625;74343916
33431466;66095578
33448591;74843513
33435038;67679210
33444756;73323024
77021211;62501648
33409203;58798016
33445627;73795452
33416376;60420123
33300923;52704995
33431987;66436136
33305269;53062765
77006590;58865128
33330478;56071448
33454913;78315171
33431053;65808537
33449241;75329463
33433925;67093414
33419607;61511124
33444195;73300603
33451025;76134456
33413849;59812492
33330544;56525264
77800380;57614298
33309231;53400895
33441084;71006908
33002873;52560258
33441557;71694426
33448998;75329130
77003470;55085706
33429219;64568081
33425314;63456923
33002510;52515108
33455070;78315437
33446961;74066664
33442242;71969966
33445721;73796176
33433079;66879155
33438250;69608497
33403941;57544248
33451195;76257648
33456122;78637872
33429668;65120537
33327169;55823096
33455015;78315383
33452491;76784609
33305368;53109910
33433264;66888354
33450948;75898905
33435368;67855389
33452461;76784579
33316523;54425404
33438927;70107544
33443413;72519937
33438140;69535564
33318126;54513812
33421178;61952614
77005278;57614122
33456149;78637899
33425715;63585448
77023104;62898461
33451079;76136339
33418241;61032178
33304323;52996621
33435414;67855436
33314223;54159535
33406109;58286333
33443086;72487535
33440514;70757527
33323467;55110567
33437602;69281007
33322883;55086167
33430106;65609859
33438769;70106033
33421427;62073049
33322357;55204864
33441279;71250045
33446618;74042860
33453678;77703539
33428958;64552651
33441883;71739828
33446261;73822133
33432302;66450477
77019722;62357116
77800791;60908617
33436562;68298103
33312257;53935557
33311535;53859314
33418615;61197591
77015054;60763133
33435095;67681387
77007645;59190578
33453103;77294907
77020412;62492765
33418370;61052844
77023442;63042210
33433425;66892096
33452790;77032129
33416085;60414893
33456748;78965791
33451279;76494538
33455999;78613458
33444915;73325414
33453836;77739483
33325302;55514457
33436855;68502301
33444947;73325446
33429434;64724414
33451797;76509358
33405335;57797756
33406275;58012008
33415863;60297447
77800776;60907726
33306789;53143771
33422655;62499471
33449291;75329512
33443847;72771412
33449579;75338500
33435084;67680988
33417423;60769491
33325885;55654665
33400701;56494306
33413399;59549876
33422774;62500346
33454232;78015826
33408444;58797995
33325443;55514587
33444369;73300783
33405772;57873681
33448573;74840543
33316928;54447715
33453626;77703486
33310249;53496478
33405008;61230609
33426747;63742347
33418817;61209168
33451115;76252394
77016714;61638663
33408746;58666580
33413814;59810178
33443512;72744451
33409034;58698288
33411878;59307902
33445554;73795376
33432585;66660556
33411488;59238543
33442239;71969963
33441690;71732029
77300129;62728437
33453280;77308373
33424494;63185681
33450240;75631066
33450593;75895660
33450514;75874360
33438945;70110632
77003779;55276524
33455182;78321004
33453105;77294909
33438438;69852719
33456188;78659839
33437578;69280982
33450441;75643053
33449771;75357125
33420965;61898863
33420272;61744263
33442693;72189223
33441090;71006915
33449296;75329517
33431351;66094647
33450250;75631077
33407830;58463508
33448187;74825314
33403302;57332057
33400702;56494308
33308398;53278094
33323602;55180446
33441759;71732103
33447219;74325510
33453705;77714176
33440391;70740503
77012703;60425115
77300143;62728831
33404133;57544435
33317365;54448011
77800745;60415544
33423251;62729153
33421680;62082637
33451489;76497956
33429863;65154731
33307258;53191692
33455176;78319669
33333173;63022569
33436311;68274899
33412466;59534865
33455943;78613401
33322181;55017520
33408080;58496696
33445151;73334531
33409180;58766808
33328596;55920357
33445922;73798611
33421058;61951779
33427399;64022166
33453283;77315223
33405361;58395652
33446093;73806333
33428416;64377416
33447738;74572701
33422133;62355140
77021889;62636340
33428218;64233376
33436018;68106708
33324044;55276683
33428720;64389043
33446716;74051585
33416713;60580639
33451719;76504412
33450194;75621581
33438131;69535552
33449606;75340110
33448679;74846887
33440916;70999626
33326966;55751779
33436788;68498024
33422928;62632452
33465012;85637668
33440103;70532010
33424968;63439073
33465110;85637855
33431428;66095408
77019853;62357606
33308038;53277905
33429945;65363374
33333545;68845568
33432455;66452999
77022990;62897886
33463673;84225901
77023913;63046377
33440941;70999651
33439321;70314348
33432610;66662726
33461327;81541133
33456297;78947506
33418797;61206367
33439350;70315345
33436037;68106727
33417343;60758635
77012183;60420164
33463117;83543557
33437108;68531687
33465721;86080712
33463234;84045764
33422994;62633406
33443287;72519812
33445026;73334398
33419950;61632885
77001410;54327489
33400817;56525359
33463507;84154751
33438586;69908586
33333791;76712387
77001380;54327461
33460674;81143127
77007358;59190336
33458513;79916069
33464299;85124752
33438419;69610746
33435354;67815840
33445567;73795389
33448829;75079496
33431519;66257916
33460905;81171555
33419168;61363642
33420311;61744502
77600233;64371603
33429940;65363131
33461255;81541064
33463841;84522234
33325759;55592473
77015178;60774953
77021034;62500545
33443895;72771466
33327776;55848700
33320738;54833510
33436032;68106722
33317800;54539678
77022677;62730242
33426827;63875780
33303110;52931936
33443750;72760183
77010223;60165592
33317794;54539672
33312309;53935607
33001196;52362010
33429952;65363737
77300080;61637206
33408520;58598158
33443601;72760027
33437391;68556098
77018458;62349224
33304912;53043949
33447686;74572607
33422081;62345024
77010300;60166891
33321620;55110224
77019386;62355039
33459164;79944436
33465078;85637795
77300154;62728897
33440592;70954747
33461187;81194856
33438221;69557333
77009009;59930450
33412623;59537271
33451842;76509446
33466169;86109609
33445328;73562954
33409231;58798042
33423265;62729233
77017847;61747447
33461133;81171823
33333104;62203409
33435186;67685014
77018389;62348821
33423714;63040300
33438367;69610651
33437525;69280929
77019540;62355590
77300103;62727785
33464936;85637508
33411136;59122199
33412282;59420843
33413121;59548614
33417094;60734485
33441268;71250033
33447385;74339181
33461431;81541329
33411637;59238688
33429265;64701299
77019714;62357066
77021195;62501591
33464967;85637576
33448790;75079295
33464682;85588696
33325686;55654505
33459996;80842861
33317830;54539707
33431698;66266202
33417925;60911621
33458822;79926730
33462130;82719753
33436023;68106713
33464133;84988938
33441839;71733977
77015202;60903542
33434955;67676109
33416687;60546169
33305135;53062643
33458566;79926448
33414703;60049848
33448511;74840481
33401619;56894378
33433268;66888373
33311029;53783900
33438840;70106110
33427395;64022121
33402567;85718166
33429943;65363270
33428832;64547781
33461297;81541106
77800854;62214765
33432655;66664429
33465237;85694776
33426291;63729686
33427839;64031591
33431368;66094690
33462988;83493620
33438284;69608532
33438780;70106045
33400767;56525314
33430411;65616768
33460298;80847603
33466171;86109615
33413261;59549471
33463739;84328778
33463041;83505049
33433247;66888243
33433885;67092348
33409104;58698353
33430152;65612048
33436029;68106719
33464531;85588471
33404706;57674875
33462795;83490533
33457910;79333121
33465796;86080823
33420569;61770134
33429088;64553721
33428719;64389042
33333615;69541266
33446284;73822156
77008004;59418136
33324473;55445628
33429552;64910163
33465337;85694878
33419724;61511666
77023692;63043688
33431785;66267149
33434157;67261948
33417454;60776433
33432217;66449084
33428569;64385208
33460267;80847573
33452846;77040789
33429553;64910164
33446133;73822005
33310182;53496451
33444117;73076201
33460469;80886072
77800104;56817052
33463760;84522154
33459504;80235140
33457730;79316806
33417058;60733924
33416273;60418526
33422191;62358094
33417731;60907446
33414236;59928772
33406514;58286714
33419942;61632759
77024105;63277996
33421647;62082350
33427401;64022176
33331931;58111513
77023822;63045038
33433121;66879456
77023428;63042064
33437098;68531668
33303305;52932106
33455332;78604354
33457770;79316927
33305179;53062685
77005727;57746874
33431182;66094156
33465056;85637753
77800364;57193866
33415850;60297394
77024327;67080651
33461935;82277651
77017723;61746512
33324385;55373405
33423055;62636075
33460053;80842918
33406832;58287013
33465312;85694853
33443647;72760073
33431412;66094893
33427644;64028289
33438955;70311797
33460932;81171582
33459645;80268842
33459616;80256285
33434764;67561267
33435564;67855752
33463856;84522249
33435146;67683056
33460861;81171511
33460723;81143184
33428550;64385141
77800093;56817049
33438688;70105947
33459039;#N/A
33465096;85637830
33461163;81194831
33450333;75634720
33405242;57797710
33459841;80842708
33464322;85536106
33410802;59021175
33435256;67815621
33429645;64979414
33419329;61389113
33448055;74593380
77801047;66880626
77800557;57746933
33405897;57876024
33333813;80908989
33323273;55087313
77010025;60051693
33422817;62500476
33445412;73795234
77300044;60292644
33429730;65142389
33317254;54427027
33418871;61215434
33464362;85536146
33440646;70955767
33465031;85637705
33418378;61053971
33436795;68502241
33456135;78637885
33460034;80842899
33456602;78965544
33458454;79916006
77020586;62498049
33412945;59546627
77800794;60908631
33424602;63187240
33442301;71970088
33432301;66450437
33440064;70531971
33463113;83543538
33461849;81863216
33423533;62894383
33456315;78947527
77019063;62353172
77018846;62351742
33448270;74833744
33463074;83543405
33439079;70311921
77024191;63278376
77019749;62357236
33465990;86109326
33404291;57544579
33404382;57614582
33465647;86080592
33404185;57674688
33463190;84045704
33458452;79916004
77010237;60165666
33423325;62730132
77010957;60292510
33458888;79926796
33457444;79289392
77022612;62729508
33437376;68555677
77019776;62357275
33459219;80214668
33454253;78019907
33311606;53859370
33464118;84988894
33435170;67684161
33425705;63585368
33324186;55278303
33404480;57614964
33410181;58978418
33460075;80842940
77020747;62499192
33419195;61381620
33456932;79284070
77007710;59307389
33454429;78020083
33424807;63325568
77600211;60781560
33313406;54023781
33003348;52640142
33458416;79915968
33419207;61385751
33326979;55751792
33461152;81171842
77800052;56822871
33431909;66274223
33413801;59810106
33326204;55632181
77009338;60046829
33466006;86109342
33430102;65609804
33456466;78952854
33462867;83490605
33432859;66670351
33459713;80268910
77014050;60612749
77005396;57614224
33312993;54023466
33427405;64022199
33459724;80268921
33319214;54623735
33453815;77739457
33424668;63235128
77800888;62874571
33429335;64712010
33438031;69463106
33434415;67377274
33455750;78605419
33464083;84845443
77800971;66093931
33424359;63047945
33003906;68841123
33426323;63730669
33437832;69281250
33436281;68271431
33322015;54970158
33432095;66446232
77800336;57084892
33327303;55823498
33422084;62345090
33462587;82920844
33428363;64375139
33463687;84328719
33443343;72519867
77010528;60171610
33435219;67815575
33003016;52577569
33458122;79613875
33417819;60908114
33455743;78605412
33326293;55751306
33447868;74583331
33456353;78947572
33432535;66660293
33439830;70521788
33308236;53278024
33429310;64702765
77011803;60413966
33424920;63438826
33462728;83490336
33440494;70757498
33407825;58463482
33465074;85637787
77600195;59930038
77800747;60415559
33420871;61896810
33464108;84988864
33410778;58990653
33002979;52577554
33462315;82720529
77015934;61054633
33402770;57094129
33457541;79292322
33457709;79316784
77007013;59088988
33465650;86080595
33456109;78637859
77006829;59088836
77801080;67548406
33404929;57675046
33320732;54833504
33461307;81541116
33437834;69281252
77019636;62355901
33430456;65616955
77011465;60296497
33459397;80215012
33314161;54159477
33445951;73798641
33319379;54645604
33426932;63883416
77018104;67495860
33313187;54023608
33434789;67563348
33424565;63186851
33462360;82720673
33407797;58395953
33439886;70526793
77014752;60739514
33415001;60052535
33459207;80214654
33333432;66660583
33466214;86152635
33461946;82277668
33448619;74843544
77021039;62500553
33418551;61194902
33434615;67380693
33318909;54619852
77024042;63244958
33317319;54427101
33462688;83313917
33312206;53935522
77009189;60045277
33435834;67858208
33322344;55017620
33456305;78947513
33465423;85716655
33460927;81171577
33439689;70320271
33424655;63228968
33423010;62633675
33417816;60908105
33463116;83543555
33002541;52515134
33431880;66272965
33465667;86080612
33461444;81541342
33429496;64843503
33324586;55310669
33428814;64528879
33328682;55920472
33437863;69281282
77020332;62492266
33458901;79926809
77020009;62358328
33422493;62491809
77003946;55588013
33457408;79289357
33420929;61897750
33464867;85614179
33448909;75324477
33458198;79613951
33449405;75329625
33465621;86080536
33461817;81863150
33424796;63325509
77015203;60903556
77021598;62634764
33322086;54970390
33417302;60739491
33434212;67302986
33440859;70999569
33422719;62499816
33458517;79916073
77023441;63042208
33464521;85588458
77600228;63455528
33466262;86163244
33465684;86080631
33464536;85588476
33322215;55017548
33465041;85637725
33441128;71212053
33410772;59021149
33453286;#N/A
33465421;85716653
33457695;79316770
77014698;60738684
33462685;83313907
33463579;84155191
33427632;64028261
33410289;59020806
33428945;64552241
77021417;62502238
33457394;79289343
77011358;60296142
77300076;61514536
33454948;78315316
33319962;54716184
33456365;78947585
33423083;62636256
33464324;85536108
33458503;79916058
33448869;75079623
33431995;66437903
33408543;58598178
77019720;62357099
33422085;62345092
77013511;60587937
33333228;63734590
33455744;78605413
33418403;61054779
33456397;78947618
33400517;56420849
33439858;70523038
33329166;55961158
33443942;72771530
77015423;60910405
33422506;62491863
33417098;60734491
33448508;74840478
33321340;54904302
33432725;66665886
33422460;62490672
33423285;62729275
33438856;70106136
33460312;80847617
33463670;84225893
33421837;62218087
33425696;63585247
33462396;82806549
33405123;57646958
33461909;81863344
77300215;63046725
33323129;55110418
33433251;66888249
33440879;70999590
77006867;59088867
33423472;62874303
33462489;82920600
33407685;58395849
33454852;78307729
33422480;62491706
33423773;63040615
33456140;78637890
33305597;53110779
33464572;85588511
33439615;70320197
33426489;63738702
77008101;59524117
33442644;72187382
33419556;61506741
77018016;62339699
33435624;67857178
33312487;53935735
33410338;59238416
33465671;86080616
33427877;64031980
33455318;78604339
33447313;74339109
33319693;54714642
33417918;60911585
33437431;68558182
33465488;86080286
33436719;68497956
33413217;59549260
33443229;72519754
33465549;86080367
33436636;68298178
33410649;59021066
33454428;78020082
33460958;81171608
33329817;56034329
33306205;53125664
33464293;85119600
33403363;57305716
33456919;#N/A
33333679;70519473
33425593;63459632
33457765;79316914
33461382;81541188
33438782;70106047
33319685;54714626
33428253;64371194
33431745;66266732
33420159;61642511
33464211;84989199
33318089;54539888
77016449;61635832
33325952;55631468
77009576;60048943
33421453;62073169
77017658;61643449
33318369;54539918
33420872;61896813
33465776;86080801
33465265;85694805
33459212;80214660
33402529;57085392
33465107;85637850
33435714;67857292
33443098;72487547
33458262;79615673
33448813;75079433
33438464;69891983
33332757;59316349
33436797;68502243
33464396;85536180
33434242;67375685
33424177;63046953
33464739;85588833
33328258;55849059
33432040;66445382
33430731;65755418
33416791;60611453
33436235;68271379
33465966;86109264
33465508;86080306
33323644;55205052
33333669;70317354
33461321;81541127
77019601;62355722
33409723;58907602
33462262;82719903
33441282;71250048
33466154;86109572
33407370;58287507
33461786;81863078
33419554;61506709
33459688;80268885
33435880;68097626
33421106;61952105
33436110;68106857
33438664;70105922
33438127;69535546
77004810;57193668
77021643;62635205
33427685;64028751
33410133;58977941
77012579;60424291
33461424;81541322
33300052;52622511
33465131;85694665
33461464;81541362
33331940;58111618
33442611;71977749
33461596;81566664
33328805;55920785
33435383;67855403
33429230;64568099
33432490;66453149
33410182;58978422
33430522;65617157
33456070;78623832
33437159;68531775
33462853;83490591
77014630;60738267
33411411;59238475
33456008;78613467
33309111;53349062
33459944;80842809
33408366;58598081
33462534;82920715
33435863;68097609
33457866;79333077
33424938;63438878
33402545;57085948
77006741;59190206
33418836;61210095
33448464;74840434
33326356;55751350
33424931;63438863
33440586;70954740
33442614;71977752
77023856;63045885
33429579;64910324
33445654;73795479
33309976;53473468
33456375;78947595
33455350;78604375
33435202;67685630
33429735;65142919
33446662;74044759
33432255;66449696
33457311;79289261
33450195;75621582
33462348;82720651
33428964;64552735
33465985;86109320
33416703;60567525
33421928;62220225
11600774;52624255
33303135;52931961
33433913;67093259
33464695;85588756
33422984;62633357
33435597;67857144
33460708;81143166
77019553;62355603
33458260;79615671
33315909;54328298
33417009;60614055
33431514;66257713
33445155;73334535
33430504;65617104
33318638;54611414
77023901;63046234
33463340;84153688
33431753;66266764
33416152;60417922
33458175;79613928
33465022;85637688
33431252;66094375
33421405;62072947
33426129;63599481
33448794;75079396
33409670;58865940
33435487;67855585
77014943;60748416
33464278;85119585
33418347;61046581
33424676;63243240
33433393;66892021
33436578;68298119
33434182;67264654
33433695;67085171
33432638;66663688
77801072;67306253
33324900;55445441
33440530;70954673
77300159;62875123
33458922;79928515
11601190;58467307
33458451;79916003
33439744;70321513
33440178;70700286
33446466;73822341
77801055;66894145
33461319;#N/A
33405735;57903871
33303378;52932175
33421306;61953610
77800340;57084896
33324955;55445617
33444196;73300604
33463891;84522288
33333754;73303443
33427900;64168056
33423456;62874274
33461181;81194850
33331831;57767622
33427463;64025025
33463299;84045832
33311363;53838473
33460093;80842958
33456841;78965882
33441633;71696843
33462549;82920754
33457760;79316881
33456422;78947644
33461342;81541148
33438154;69539028
33333693;70519650
33415155;60171966
33402334;56986756
77018603;62349742
33433249;66888245
33408723;58698023
77018285;#N/A
33411041;59238437
33419161;61228121
33441200;71240792
33445002;73334372
33444962;73333632
33418146;61031166
33464436;85536219
33321946;54906152
33304558;52996827
33426898;63880861
33322356;55017627
33323658;55205066
33439550;70317125
33464096;84988828
33447879;74583347
77011422;60296327
77024186;63278369
33438485;69892007
77019817;62357530
33430252;65614463
33440917;70999627
33432698;66665782
33431324;66094494
33458388;79915940
33428321;64371409
33463220;84045753
33324630;55329848
33451143;76257596
33407033;58287205
77017220;61641959
33463900;84522299
33324862;55445390
33438512;69892038
77005615;57746764
33449382;75329602
33439103;70311945
33433130;66879508
77012083;60418168
33455446;78604473
77024267;63588128
33418091;61029932
77023837;63045786
33462425;82806626
33449009;75329158
33455516;78605039
33434029;67094936
33333701;70519950
33423655;63017842
33460467;80886070
33430548;65617190
33324832;55373705
33424275;63047484
33440227;70737547
33321926;54970150
33312517;53935746
33465916;86081025
33418110;61029988
33446608;73822481
77014508;60736309
33457891;79333102
33435828;67857553
33429117;64553914
33417930;60911655
33459425;80215044
33300410;52640408
33461437;81541335
33431544;66258057
77019507;62355516
33456299;78947508
33419491;61389520
33465710;86080684
77020616;62498517
77021706;62635593
33421799;62180711
33323964;55205294
33316847;54447645
77003254;54994156
33437051;68510155
77800160;56822939
33412014;59418470
33430527;65617162
33333626;69541514
77012111;60418770
33310190;53473903
33465591;86080456
33427935;64168736
33422210;62358115
33441037;71006845
33455552;78605216
33423461;62874283
33429550;64910160
33449603;75338652
33438487;69892009
33461890;#N/A
33415510;60289061
33461344;81541150
33410817;59021190
33406478;58286679
33462153;82719775
33463716;84328755
33455914;78613372
33332755;59316347
33331785;57622042
33405071;57643618
33315087;54264046
33417238;60738132
33309993;53473572
77011781;60413904
33465164;85694699
33448188;74825317
33426384;63736464
33422634;62499369
33464710;85588799
33443717;72760150
33446256;73822128
33434370;67376515
33459173;79944445
33426457;63738335
33435214;67815570
33423610;63014983
33424426;63149398
77001122;54327710
33421592;62082045
33458779;79926687
33447862;74583325
33454547;78021929
77015882;61052882
33464687;85588706
33457252;79284406
33455952;78613410
77300036;60292560
33435165;67683921
33322486;54995275
77005217;57505930
33449995;75357348
33439330;70314357
33455571;78605235
33326501;55751444
33419529;61506617
33463436;84154329
33466029;86109365
77015612;61032576
33457904;79333115
33464874;85614186
33432842;66667926
33435670;67857237
33458120;79613873
33450369;#N/A
33433953;67093864
33465756;86080780
77019300;62354438
33333646;69556838
33439099;70311941
33424966;63439040
33435561;67855738
77020069;62358533
33460734;81143196
33458606;79926488
33464574;85588513
33429160;64567289
77012471;60422307
33452054;76523946
33456568;78965505
33461955;82277680
33438323;69608576
33431222;66094319
33314260;54159568
77018123;62344938
33428786;64528625
33416040;60414691
33425730;63585508
33461166;81194834
33426869;63879632
33421927;62220220
33463199;84045732
33443331;72519855
33333566;68846460
33431951;66433075
33432576;66660530
33461766;81860548
33465957;86081121
33430921;65807571
33454721;78052025
33330037;56035506
77008386;59703047
33455770;78613226
77007723;59307396
33455765;78613221
33418888;61215877
77021837;62635943
33333608;69540991
33429692;79129913
33438256;69608503
33431094;65809699
33434978;67677090
33423978;63043226
33435052;67679664
77009029;59930599
33412410;59522172
33433101;66879294
33408808;58698089
33411178;59122238
33452703;77032032
33323137;55205011
33417686;60906826
33427721;64029886
33455177;78320999
33448222;74825364
33454413;78020068
33440168;#N/A
77009382;60047027
33427902;64168088
33456342;78947558
77017274;61642117
33312097;53935444
33426818;63875497
33431352;66094648
33435280;67815660
33448558;74840528
33465124;85637881
33429963;65363960
33464170;84989046
33434687;67561175
33429707;65140243
33430566;65617231
77016585;61638350
33448392;74837929
77013016;60546039
33405139;57675164
33463215;84045748
77200394;59190659
33455469;78604496
33432687;66665361
33333546;68845929
33459849;80842715
33319945;54739584
33414043;59816813
33426897;63880470
77009069;59931361
33461484;81541382
33458265;79615676
33457564;79292358
33431088;65809448
33432740;66665952
33422577;62492332
33421409;62072959
33426286;63729556
33464109;84988867
33434322;67376325
33464408;85536192
33458983;79939497
77021398;62502214
33457504;79289452
33426239;63600391
33428360;64375135
33434378;67376528
33310915;53763370
77800401;57302849
33462165;82719786
33458463;79916015
33431854;66272599
33439601;70320183
77400027;59816078
33322691;55017801
33444032;73057958
33436118;68271167
77017591;61643301
77023678;63043592
33333157;62897741
33448910;75324478
33459209;80214656
33458858;79926766
33328870;55921248
33458531;79916087
33457706;79316781
33458693;79926601
33001820;52449726
33464363;85536147
33432544;66660321
33437609;69281014
33414495;59932284
77018769;62351377
77800525;57614312
77008135;59531441
77023444;63042224
33466363;86165962
77009635;60049112
77014484;60735644
33416087;60414899
33402497;57086019
33415817;60296847
33461567;81566595
33416803;60611802
33427031;63886176
33464375;85536159
33434265;67375792
77024062;63245250
33454128;#N/A
33436073;68106763
33455690;78605360
33444453;73300868
33426681;63741578
33405760;57903892
33463108;83543518
33303052;52931880
33431389;66094810
33465452;86080247
33317661;54512928
33434406;67377260
33404898;57675018
33437462;68860332
33445024;73334396
33455325;78604347
33465051;#N/A
33411645;59238696
33426656;63741517
33453751;77739375
33421195;61952662
33436936;68502382
33431810;66271328
33463966;84831363
33420908;61897335
33432556;66660415
33454505;78021887
33465580;86080434
33465126;85638179
77003942;55726125
77014920;60745060
33307929;53259100
33461966;82277695
77004230;55822892
33436556;68298098
33453894;77754592
33431469;66095587
33456383;78947603
77008393;59703105
33406447;58286649
33430524;65617159
33454689;78041093
33442329;71971067
33436016;68106706
33405575;57869358
33423002;62633491
33461605;81708673
33415082;60165353
33435066;67680328
33408765;58666719
33456750;78965793
33313628;54083336
33432965;66673778
77023404;63041825
33406537;58395656
33463096;83543479
33457776;79316936
33463817;84522210
77801089;67591601
33448825;75079465
33424573;63186874
33400504;56257772
33463200;84045733
77012731;60425164
33457020;79284158
33324584;55306574
33437414;68556300
33426843;63876681
33321061;55017418
33459172;79944444
33437001;68510092
33461587;81566644
33465540;86080341
33463295;84045824
33403525;57402062
33453808;77739448
33410720;58990578
33315599;54327885
33427417;64022250
33429725;65142379
77014320;60614540
33463533;84154907
33417263;60739311
33464040;84845363
33417069;60734408
77010898;60291847
33303274;52932083
33439379;70315374
33319787;54739552
33461604;81708672
33426114;63599059
33419732;61511674
33424656;63229567
33304410;52996692
33406475;58286676
33459860;80842726
33303914;52996407
33464457;85536240
33436240;68271384
33463407;84154168
33459360;80214957
77200474;59931099
33410654;59021070
33426844;63876682
33435748;67857334
33434726;67561220
33455667;78605337
33333691;70519648
33462049;82719677
33420831;61893913
33434158;67261955
33463422;84154260
33311934;53859658
33448674;74846880
77020564;62497844
33457668;79316741
33303654;52977942
33425068;63455210
33003107;52560461
33465910;86081010
33424749;63324652
33419167;61363609
33455710;78605380
33451326;#N/A
33464940;85637515
33434253;67375764
33431651;66263479
33456548;78952935
33436296;68271449
33418704;61201536
33460575;81143010
33408295;58697960
33459611;80256272
33429983;65369352
33434313;67376316
33414875;60050327
33403149;57231238
33421416;62073018
33455016;78315384
33313240;54003356
33327275;55823452
33406379;58286582
33420903;61897323
33445537;73795359
33432223;66449095
33424351;63047883
33455430;78604457
33410745;59021143
33003426;52561096
33422303;62359776
77013966;60612199
33317686;54512943
33421188;61952641
33436988;68510072
33460706;81143164
33455011;78315379
33463403;84154144
33465771;86080796
33333702;70519951
33430487;65617064
33437591;69280996
33435684;67857254
33408603;58598224
33456178;78658796
33459242;80214698
33416560;85740373
77022367;62727481
77004292;55919738
33458397;79915949
33326040;55654726
33461450;81541348
33449320;75329540
33432171;66447275
33435775;67857372
33463315;84045875
33432507;66453235
33456161;78658754
33443616;72760042
33400473;56301879
33333812;80908947
33420183;61642826
33438942;70110629
33312422;53935703
33435977;68106667
33428054;64229065
33463844;84522237
33458823;79926732
33433338;66888944
33405055;57643105
33401473;56817342
77006165;58226839
33325314;55514469
77015715;61033160
33462810;83490548
77003087;54903880
33464301;85124754
33461830;81863176
33405596;57869390
77019916;62357817
33461960;82277689
33462476;82920572
33457549;79292330
33461791;81863090
33323189;55205027
33437521;69280925
33434782;67563266
33463143;84045586
33455416;78604443
33463956;84831353
33436618;68298160
33323338;55110520
33460669;81143122
77012337;60421074
33463369;84153931
33437705;69281116
33320550;54809081
33456403;78947624
33427913;64168360
77022968;62897817
33442570;71977438
33422969;62633287
33456152;78658738
33413792;59810094
33456181;78658812
33424464;63165077
33448802;75079408
33429318;64702784
33000263;52267732
33441686;71732023
33424163;63046523
77800655;58765413
33404267;57544555
33439190;70312032
33421454;62073170
33461593;81566658
77023912;63046358
33319651;54714593
77019545;62355595
33301887;52846206
33405326;57797747
33464570;85588509
33429503;64843516
33443648;72760074
77021878;62636304
33403905;57513576
33463904;84522303
33465762;86080787
77011573;60296678
33410329;59020833
33433110;66879339
33434937;67654376
33423494;62875051
33417608;60903886
33429270;64701378
33429281;64701623
33459367;80214976
33415038;60164672
33465858;86080889
33419539;61506650
33437942;69281363
33428857;64549918
77011401;60296256
33436336;68290018
33428477;64384284
33421444;62073077
33444225;73300633
33445141;73334521
33433147;66881993
33462102;#N/A
33459317;#N/A
77014172;60613806
33435404;67855424
33458164;79613917
33319259;54645510
33442206;71969930
33464076;84845436
77022709;62874115
33333329;64718468
33461182;81194852
77008973;59930268
77022289;62722355
33436760;68497996
77018084;62340801
33434826;67592925
33431457;66095546
33456542;78952929
33333389;65360741
33317603;54512960
33458297;79643351
33443224;72519748
33455147;78319615
33422585;62497596
33427355;64022013
33428662;64388552
33333644;69541932
33455639;78605309
33455311;78604332
33461092;81171752
33458475;79916029
33465496;86080294
33421099;61952073
33422663;62499489
33466170;86109612
33417567;60903382
33446789;74066493
33423344;62730324
33333576;68858769
33421646;62082349
33417275;60739364
33442326;71971064
33463390;84154056
33325363;55514516
33430110;65610557
33463580;84155197
77010154;60052394
33434215;67303155
33317177;54447951
33448832;75079502
77018788;62351424
77023847;63045856
33412169;59419240
33427366;64022062
33456169;78658764
33303150;52931976
33465539;86080340
33428845;64549053
33464356;85536140
33441742;71732086
33439098;70311940
33326320;55751317
33431777;66266942
33429274;64701574
77700306;75636439
33435270;67815635
33461404;81541210
33408044;58598023
77019617;62355759
33319662;54714609
33454292;78019946
77023955;63047312
33401186;56715252
33466033;86109369
33435855;68097601
33464212;84989203
33429882;65155470
33432577;66660541
33465123;85637879
33450087;75357589
33422472;62491272
33462973;83493575
33461284;81541093
33464973;85637592
33401505;56894272
33428503;64384618
33433670;67085127
33465890;86080973
33438921;70106900
33455654;78605324
33459633;80268830
33400990;56639728
33461649;81820281
33416567;60544770
77019872;62357700
33333444;66664009
33460651;81143103
33415496;60288959
33333625;69541503
33465024;85637692
33429653;64979514
77021865;62636201
77800178;56822954
33445468;73795290
33428062;64229169
33456311;78947523
33438075;69463150
33419889;61632297
33416978;60613838
33436937;68502383
33424940;63438880
33454015;77754716
33309298;53420458
33459905;80842771
33459718;80268915
33333449;67077832
33464045;84845374
77011441;60296399
33433567;67056819
33406393;58286596
33439751;70322233
33464712;85588801
33423439;62874141
33408682;58664958
33412598;59537183
77022315;62723463
33403334;57332088
33311722;53859475
33406663;58286850
33321587;54905179
33431092;65809504
33444890;73325299
77013039;60546080
33436756;68497992
33435068;67680414
33417502;60781976
33415819;60296853
33435371;67855392
33446758;74052152
33427940;64168748
33452771;77032109
33434829;67592928
33333685;70519523
33408351;58598070
33425710;63585394
33419671;61511367
33430243;65614359
33464937;85637510
33333211;63595129
33444148;73083793
33440127;70532034
33444682;73322915
33433586;67077493
33437000;68510090
33460318;80847623
33465077;85637793
77023149;62899091
33458179;79613932
33333607;69540983
33463500;84154707
33333651;69557191
33427792;64031097
33455671;78605341
33464169;84989043
33419940;61632689
77800575;57746946
33462302;82720516
33427896;64168052
77010913;60292249
33435558;67855724
33464998;85637641
33436154;68271209
77016842;61640779
33462429;82806636
33404281;57544569
33318339;54539896
77023348;63040644
33429980;65364185
33331786;57622044
33434921;67654159
33416099;60416715
33305761;54225768
33313050;54023518
77300173;63046073
33438892;70106197
33456836;78965877
33435443;67855500
77200439;59549240
33435196;67685384
33455719;78605389
33434193;67302881
33465262;85694801
33002619;52515198
33446283;73822155
33440788;70985284
33420307;61744494
33429166;64567631
33461037;81171687
33462292;82720506
33462956;83493523
33429813;65153734
33407265;58287418
33400738;56494833
33459229;80214678
33438575;69892151
33444679;73322902
33463921;84522322
33453996;#N/A
33437608;69281013
33459677;80268874
33461716;81820348
33412213;59419333
77015372;60910165
33402366;57014860
33429894;65191151
33442027;71740019
33316636;54425695
33420018;61638184
33301845;52771322
33320798;54833524
33424212;63047127
33455669;78605339
33415485;60288936
33429262;64701276
33435854;68097600
33400455;56301862
77016527;61636791
33435191;67685214
33465675;86080621
33463504;84154732
77008362;59702954
77007049;59089021
33458354;79915906
33436512;68298053
33456378;78947598
33417951;60911792
33466216;86152637
33465240;85694779
33461054;81171704
33432245;66449119
33438500;69892022
33435566;67855773
77021859;62636097
33318178;54645223
33455791;78613248
33466132;86109519
33417054;60733859
33411755;59238802
33411205;59122265
33456754;78965797
33003864;63734577
33304188;52996523
77024192;63278378
33421853;62218837
33457807;79333018
33333709;70521308
77014825;60740013
33432804;66666646
33456393;78947614
33461633;81708701
33464703;85588792
33424554;63186832
33465730;86080736
33464701;85588789
33311012;53763849
33000703;52304079
33431508;66257663
33327748;55848687
33438397;69610711
33415773;60296371
33466209;86152630
33000944;52359892
33462950;83493499
33430342;65616684
33423983;63043239
33417067;60734392
33466332;86163321
33422936;62632462
33437243;68532040
33419524;61506598
33333548;68846022
33322715;55373286
33464136;84988946
33403258;57332024
33464956;85637551
33433170;66885164
77023362;63040799
33455518;78605182
33466310;86163295
33435711;67857288
33458106;79613859
33464723;85588812
33426879;63879652
33463628;84225772
33464308;85124761
77013084;60556516
77023915;63046441
33426446;63738299
33435016;67678515
33458867;79926775
33459241;80214695
33321518;55017447
33465287;85694827
33458320;79643373
33422195;62358098
33462989;83493623
33424711;63278020
77010590;60171958
77024229;63418585
33464784;85588879
33448450;74840420
33463303;84045842
33463590;84155271
33436978;68510057
33431656;66263841
33333500;68100951
33302378;52846436
33433047;66674385
33427114;63887194
33318330;54513953
33302283;52846363
33433275;66888390
33310072;53473597
77300123;62728349
33436434;68296102
77015428;60910435
33319653;54714594
33449071;75329266
33458321;79643374
33464562;85588501
33329314;55961256
33309361;53420508
77003317;54994216
33462423;82806620
77300225;63046852
33433069;66837652
77800835;61928581
77015001;60755262
77014541;60736388
33429287;64702062
33419122;61225978
33453814;77739455
33425446;63457465
77300028;60292404
33456343;#N/A
33427933;64168704
33442249;71969985
33459236;80214686
33423507;62882879
33427001;63886000
33423053;62636070
33436904;68502350
33333459;67303269
33428068;64229264
33313195;54023616
33406217;58040404
77022595;62729466
33446211;73822083
33423746;63040562
33316626;54425685
33308548;53329009
33320736;54833508
33461785;81863076
33321950;54906156
33402309;57014824
77020340;62492322
33439014;70311856
77800719;59818473
77024182;63278360
33326276;55726400
33431386;66094795
33411460;59238520
33437538;69280942
33412739;59542340
33466240;86152661
33405453;57797814
33408757;58666587
33432872;66671547
33429261;64701270
77021023;62500523
33419565;61506927
33408353;58697970
33315283;54264082
33308821;53348824
33411370;59190987
33421798;62180710
33465945;86081088
33433178;66885174
33423630;63015208
33461000;81171650
33321713;55017473
33413457;59665374
33421802;62180714
33433818;67090103
33427906;64168096
33433480;66894152
33465752;86080776
33440719;70982140
33460653;81143106
33406842;58287023
33438406;69610726
77019123;62353717
33441791;71732135
33333519;68294796
33435799;67857398
33327310;55823517
33440891;70999601
33435686;67857257
33422725;62499864
33422813;62500467
33430263;65615443
33460049;80842914
33461332;81541138
33420485;61767413
77801069;67302951
33462639;83313734
33464398;85536182
77300237;63181856
33325367;55514520
33438952;70311236
33310353;53561605
33462327;82720541
33458113;79613866
33323322;55110505
33449132;75329351
33408324;58564228
33456418;78947640
33317696;54513026
33405379;57767845
33426343;63733549
33447118;74070595
33429276;64701582
33465963;86081476
33455429;78604456
33441812;71733950
77011302;60295964
33313784;62219269
33455027;78315395
33426798;63872707
33446099;73806354
33327464;55823813
33436302;68273409
33458137;79613890
77011479;60296538
33313984;54159339
77800936;63888749
77013181;60570738
33436476;68298015
33428849;64549257
33440561;70954709
33423466;62874295
77300043;60292641
33407623;58395808
33407443;58395673
33435928;68105144
33428783;64528615
33463941;84831339
33320683;54833471
33441628;71696836
77018238;62345965
33415849;60297390
33417979;60911989
33461835;81863186
33464977;85637600
33459329;80214913
33416674;60546137
33419550;61506696
33432592;66661246
77012419;60422043
33333689;70519646
33442917;72244531
33435275;67815655
33407995;58496647
77800783;60907787
33455169;78319661
33443855;72771420
33425692;63585236
33434533;67379729
33437086;68510192
33426188;63599899
33429646;64979419
33423006;62633580
33465079;85637797
33459251;80214735
33405711;57870801
33318915;54645395
33403260;57674677
33423438;62874041
33461001;81171651
33439018;70311860
33443628;72760054
33443637;72760063
33462514;82920662
33463564;84155094
33317163;54447938
33442140;71949749
33433118;66879434
33464316;85231015
33463086;83543436
77021076;62501032
33435988;68106678
33314788;54263775
33435577;67857121
33431113;65811372
33326244;55751288
33460545;81142975
33455664;78605334
33426636;63741436
33462239;82719879
33418265;61032470
33434186;67277381
33415577;60294587
33412943;59546625
33448256;74833730
77007668;59190600
33322875;55086158
33420854;61895075
33430427;65616798
33438632;69908635
33455607;78605271
77010688;60172815
33423973;63043213
33322458;54995238
33417123;60734549
33465333;85694874
33429320;64702798
33425926;63592648
33463667;84225882
33324167;55278142
33421414;62073014
33424022;63043436
33465030;85637703
33437448;68570083
33418767;61204967
77010402;60167574
33310378;53614030
33464104;84988852
33464800;85588896
77022616;62729528
77021687;62635522
33400507;56259026
33416917;60612074
33454658;78038658
33451482;76497949
33302089;52818184
33423079;62636238
77011807;60413972
33003007;52560489
33438931;70110618
33432415;66452596
33434991;67677505
33333635;69541800
33440469;70757461
33455482;78604509
33457898;79333109
33464441;85536224
33461336;81541142
33415673;60294799
33436996;68510081
33412004;59417518
33425834;63590209
33457934;79333145
33457211;79284365
77800601;57974877
33457642;79316705
33462953;83493510
33441964;71739954
33435521;67855627
33459176;79944448
33464081;84845441
77016094;61180122
33434371;67376516
33435483;67855580
33319253;54645505
33442556;71977424
33430303;65616205
33428508;64384623
33458308;79643361
33445617;73795442
33425752;63585681
33462450;82806695
33447638;74343929
77801087;67591596
33433582;67077484
33434478;67378974
33420748;61774340
33463280;84045810
33465046;85637735
77017316;61642476
33438291;69608539
33002349;52491735
33422527;62491926
33426779;63853496
77007569;59190507
33437607;69281012
77019801;62357425
33319368;54645593
33457438;#N/A
33413586;59703161
33435680;67857249
33425745;63585639
33422438;62490254
33423667;63040068
33421039;61951384
33465992;86109328
33411333;59190954
33465706;86080679
33461085;81171742
77008397;59703117
77300049;60292665
33433588;67077506
33429537;64873971
77004973;57302791
33466014;86109350
33432566;66660456
33425298;63456890
33453809;77739449
33458932;#N/A
77008471;59704633
77012522;60423261
33412144;59419017
33458100;79613853
33455559;78605223
33417588;60903701
33438910;70106215
77006369;58563238
33465629;86080554
33333253;64029885
33312662;53992270
33417781;60907978
33432448;66452982
33442531;71977400
77020906;62499805
33456834;78965875
33465988;86109324
33436563;68298104
33423245;62729106
33426505;63738764
33455831;78613288
33321769;54927633
33434658;67380738
33456332;78947546
33464665;85588644
33435507;67855612
33446082;73798791
33465132;85694666
33333822;84442334
33455521;78605185
33458866;79926774
33437983;69463055
77006121;58110103
33442018;71740010
33464715;85588804
33424524;63186647
33465737;86080757
33328907;55921305
33447166;74290850
33463049;83543344
33411617;59238670
33465327;85694868
33437508;69280912
77016521;61636782
33432731;66665911
33415216;60172950
33401912;57014728
77004627;56966361
77300257;63186567
33465631;86080561
33306455;53143446
33465763;86080788
33408242;58466421
33456391;78947611
33438883;70106185
33433591;67077539
33408677;58664942
33435467;67855529
33461173;81194842
77020937;62499949
33433607;67077642
33319875;54715985
33458081;79613834
33427388;64022088
33465933;86081055
33434462;67378692
77011237;60295235
33442157;71969861
33401328;56894121
33309711;53420710
33431668;66265536
77021681;62635500
33439656;70320238
33462079;82719707
33422431;62490171
77020081;62358548
33317271;54427047
33440481;70757476
33463838;84522231
77017023;61641357
33457858;79333069
33412993;59547039
77006415;58765149
33321761;54927626
33465239;85694778
33431826;66271516
33463804;84522197
77017742;61747124
33429719;65142342
77018499;62349290
33465815;86080842
33422069;62344922
33436083;68106773
77022613;62729520
33414677;60049735
33318336;54513959
33411614;59238667
33417062;60733965
33431462;66095562
33412786;61267755
33461289;81541098
33417938;60911744
33444816;73323085
33408193;58496760
33464812;85588908
33466284;86163269
33406959;58287135
33437695;69281106
33333639;69541831
33406614;58286805
33415035;60164612
33418306;61033290
33464116;84988888
33447671;74572592
33402516;57085293
33411932;59308050
33406980;58287154
33465544;86080352
33418536;61194836
33413904;59813927
33466101;86109438
33421920;62220198
33462478;82920576
33433011;66674009
33431737;66266661
33401825;56894543
33464440;85536223
33456268;78938089
33410957;59089796
33415695;60294902
33431109;65811365
77009435;60047370
33427667;64028644
33332737;59316322
33301428;52751605
33323470;55110570
33453985;77754686
33457778;79323392
33424754;63324673
33000886;52359799
33435026;67678833
33333755;73315401
33443159;72493498
33458252;79614037
33462418;82806607
33446417;73822291
33465308;85694848
33464754;85588848
77018210;62345594
77023655;63043501
33424665;63234606
33429716;65142335
33417338;60757959
33465777;86080802
33317217;54427010
33428069;64229274
33449303;#N/A
77017116;61641700
33432209;66448994
33324846;55445373
33455922;78613380
33321947;54906153
33462276;82720490
77001104;54327214
77008391;59703104
33448857;75079583
77800304;56973433
33422687;62499654
33461951;82277673
33463960;84831357
33464254;85119561
33455509;78605032
33426476;63738686
33459228;80214677
33456273;78938094
33423786;63040656
33461260;81541069
33405671;58285937
33463567;84155111
33439189;70312031
33443803;72760236
33465326;85694867
33435767;67857362
33458387;79915939
33457808;79333019
33464623;85588563
33308382;53327777
77000857;54325630
33301320;52751118
33420430;61766401
33456316;78947529
33416477;60425237
33403262;57303789
77016326;61516073
33435630;67857187
33425975;63594045
77009255;60046386
77019561;62355612
77006663;58974929
33461101;81171773
33308180;53277984
33433154;66882069
33432823;66667657
33463983;84831379
33331843;57769628
33456219;78934702
33440195;70735442
33463601;84155347
33300739;52685972
33461165;81194833
33442464;71977334
33423627;63015202
33458231;79613983
33315708;54328167
33461108;81171784
33429793;65153155
33425770;63589452
33429505;64843534
33465587;86080445
33314210;54159523
33449617;75340121
33461243;81541053
33455543;78605207
33458572;79926454
33313104;54003504
33441342;71250108
77024033;63240801
33459885;80842751
33444971;73334341
33457464;79289412
33463877;84522272
33419344;61389158
77011592;60296699
33432082;66446190
33419883;61632274
77300328;63460812
33460642;81143093
77015708;61033073
33423562;62897766
33466335;86163327
33441302;71250068
33466289;86163274
33415731;60295018
33406869;58287050
77021857;62636086
33434346;67376364
33424694;63268022
33417754;60907785
33437698;69281109
33456337;78947552
33427110;63887183
33459160;79944432
33426176;63599652
33437394;68556273
33465134;85694668
33447709;74572631
33441611;71694480
33434354;67376372
33443911;72771488
33464172;84989052
33425760;63586051
33460853;81171503
33442479;71977349
77006914;59088898
33462464;82806732
33457531;79289479
33433113;66879363
33333627;69541577
77800926;63327950
77016241;61211485
77016516;61636773
33424219;63047299
33456035;78623796
33439834;70521792
33421451;62073161
33464984;85637613
33434815;67592399
33465182;85694718
33461965;82277694
77022761;62875755
33427942;64169165
33307546;53210316
33438833;70106103
33465914;86081022
33326116;55654798
33465028;85637699
33464064;84845423
33422733;62499961
77021544;62633853
33301969;52817667
33461883;81863291
77800382;57506009
33438863;70106147
33431588;66261716
33302782;52900392
33313835;54084592
33419576;61507012
33431305;66094459
33462387;82806526
33458885;79926793
77300294;63277598
33464266;85119573
33465094;85637826
33466264;86163246
33464692;85588753
33466077;86109414
33414107;59817446
33323061;55110380
33439161;70312003
33442787;72228108
33461948;82277670
77003356;55085624
33464015;84845293
33423015;62634091
33458283;79643337
33412039;59418511
33435745;67857330
33317880;54539757
77023656;63043502
33465436;86080230
33329877;56034580
33463305;84045849
33455408;78604435
33416014;60414652
33438488;69892010
33448783;75079227
