NUMERO_POLICES;NUMERO_QUITTANCE
24701575;88843691
21858468;88984224
31253039;88878677
21851425;88844667
21863225;88173984
21860550;88998275
31258456;88997366
21842352;88939575
31253934;88905144
24608485;88854399
31252359;88843554
31241159;88822205
21847259;88774943
22602100;88756596
21857278;88979522
31243532;88885448
31256940;88983240
21836997;88826721
31251218;88817683
24612829;86882541
21842697;88936084
33468976;88628758
16829588;88774341
21835063;88944763
24613282;88730364
24613224;88728180
24613438;88666066
16842136;88664923
24609646;88935031
24609531;88940272
26013117;88980496
21848477;88801858
31250802;88801773
31244488;88915107
21845700;88733571
21851816;88878135
31246058;88939185
21842123;88933625
21837070;88827110
31241005;88805981
24610504;88778792
21848476;88801827
31247422;88960935
21852764;88879664
21852765;88879631
31253314;88881884
31250619;88778723
21841456;88916336
31249407;88753022
21858329;88984096
31253319;88881855
31253644;88877092
31247879;88963302
21827454;88847965
26013123;88980511
21843915;88934926
24609595;88937086
31246348;88935280
26013325;88989470
24609206;88916681
31245400;88938669
24609555;88934259
21837485;88854362
21848827;88816463
21842745;88936138
31245047;88916612
24612572;88984327
31256703;88980829
21847342;88775012
31251421;88819334
21841661;88916955
21843235;88934070
24612957;88993615
31258903;87877117
31258795;87577366
21861122;87562434
24612356;88979648
21857167;88974293
31254820;88941689
24609406;88939940
21844519;88961843
31247680;88961583
21841492;88916347
24613116;88998044
31246377;88935334
16839323;87489119
31245951;88939106
21841923;88917210
31248165;88959277
21844955;88959144
26012768;88956019
24613079;88995798
21841427;88916320
31258366;88996885
31258367;88996871
31258368;88996814
24612917;88993833
21842825;88936159
21848142;88798914
31248708;88753623
16828117;88725276
21845430;88725351
26013115;88980495
21847215;88756301
31247746;88962029
31245972;88939148
21842081;88913262
31245944;88939127
21842736;88936130
31252789;88877935
24612952;88993613
26013757;88665594
21859153;88986686
31257393;88982115
21859168;88986682
24612540;88984292
31256604;88980758
31253368;88881875
21852861;88879683
22603176;88744129
21858893;88985554
31013543;88821860
21843305;88934569
31245954;88939131
21842618;88935180
21839819;88886808
21858530;88984803
31256758;88983138
24609231;88916714
31245088;88916610
31245993;88939139
24609445;88938292
21841812;88917058
31242746;88861579
24612673;88985291
31239521;88946345
31239734;88723488
21835276;88723815
21843275;88934547
21841035;88913952
21839813;88886788
21839805;88886782
31247786;88962071
21844551;88961902
24612559;88984304
24701521;88819641
21849415;88819159
31251575;88819451
24612591;88984345
31256846;88983218
21861018;88996279
24609713;88961041
21838894;88861765
24613266;88730365
31245141;88938503
21840018;88886924
24608154;88724020
24611218;88842507
24608866;88883680
24608775;88861981
21849975;88816200
31254467;88941409
21848517;88801849
24611600;88877306
21850665;88842954
31252204;88842275
21835759;88746913
