NUMERO_POLICES;NUMERO_QUITTANCE
31260675;89776851
31260636;89776860
21864001;89777124
21864006;89777134
31261037;89777210
21864189;89789748
21865039;89790681
22603311;89790847
21865404;89790880
21865834;89791555
21865842;89791577
21865887;89791594
31261937;89791870
21865100;89795251
31261385;89796696
21864906;89804828
21864934;89804840
21865195;89809585
21848833;89834781
21851948;89916185
21853749;89921284
21861747;90011464
21861741;90011731
21861875;90011785
31259289;90012504
31258670;90013267
31259350;90014327
24702038;90038980
31258952;87938528
31258953;87938532
21861769;87950746
26013662;88148839
21863461;88175269
16841493;88180435
16841827;88528834
16841957;88625141
21864074;88665332
21864077;88665337
16842244;88683368
33469394;89040151
16842779;89103049
16842849;89103121
31261812;89106826
31261832;89118853
31262290;89504813
33470396;89606664
21866584;89607070
24613844;89633692
33470531;89688508
31262920;89728250
31259853;89738221
31259950;89744054
21863059;89747359
21863545;89759751
21863755;89772596
21863753;89772600
31260812;89773489
31260646;89776857
31260731;89776908
21864193;89789751
21864200;89789758
21864201;89789769
21865393;89790723
31261887;89790858
31261382;89796677
21864605;89802570
24613576;89805013
31261575;89809764
24613781;89866013
31253941;89922119
24611908;89941561
21857600;89967885
21860640;90010468
26013474;90011062
21861110;90014046
26013513;90014358
33471047;90046850
31263273;90046859
16838418;86722868
24611036;82268494
16831999;83352006
16837726;86083567
31259752;88088078
33468324;88132354
21863016;88148024
33468564;88182810
26013721;88489523
16841790;88528797
16841858;88528865
21864298;88687362
16842366;88718103
21865257;89104357
31261745;89106208
31261755;89106224
33469755;89107133
16843063;89107575
21865479;89120249
21865619;89174989
21865876;89482293
21866005;89482432
31261962;89484189
33470008;89484933
24613744;89504858
16843595;89582573
16843646;89582624
33470349;89595982
21866458;89596403
21866497;89596555
24701995;89599537
33470387;89606647
31262603;89633221
31262604;89633225
16843857;89669806
31262675;89688323
33470548;89688525
33470549;89688526
16844168;89720955
21867217;89722286
21867284;89722468
24613906;89724297
24613919;89724311
33470677;89724512
16844373;89727999
16844378;89728004
16844398;89728024
21867378;89728107
21867386;89728115
21867387;89728116
24613924;89728183
33470794;89728340
31259597;89732776
21863619;89758525
21863589;89758964
31260355;89760034
31260356;89760035
31260883;89771500
21864080;89772196
31261001;89772286
31260693;89772525
31260695;89772555
24613447;89772991
21864335;89773064
21864342;89773080
31260840;89773498
21864066;89774182
24701898;89774266
21864220;89774291
21864376;89774487
21864018;89775110
31260658;89776840
31260665;89776847
21864127;89789737
21864180;89789746
21864199;89789767
21864205;89789768
21864203;89789770
31260936;89789808
31260955;89789819
21865044;89790686
21865411;89790740
21865410;89790752
21865409;89790758
31261934;89791865
21865114;89795243
21865150;89795261
21865159;89795264
21865130;89795278
21864853;89796559
21864845;89796620
26013839;89797373
21865306;89797500
21865367;89797534
24613545;89802397
26013792;89802452
21864487;89802482
21864588;89803003
21864746;89803062
21864779;89803072
21864713;89803113
21864723;89803118
21864750;89803124
21864718;89803133
21864781;89803149
31261791;89809823
24613721;89861831
21866390;89865080
21866282;89865914
21866336;89865966
31254207;89923218
31257099;89986631
21859952;90002554
26013414;90008314
21861933;90011100
21861484;90011373
21861072;90014022
21861124;90014074
21867596;90019600
24613986;90037094
24613991;90037974
24613994;90037977
24613996;90037980
24613997;90037982
26014335;90037997
16844600;90038383
21867691;90038664
21867699;90038692
21867702;90038695
21867706;90038716
16844611;90038793
16844619;90038849
16844624;90038869
16844625;90038872
16844626;90038874
16844627;90038875
16844628;90038876
21867715;90038897
21867716;90038917
16844694;90043094
31263196;90046487
31263257;90046675
31263258;90046704
31263261;90046762
31263262;90046763
31263263;90046834
24614030;90046960
16844617;90050957
80029881;89732135
80029940;89732156
80029769;89732167
